%!PS-Adobe-2.0 EPSF-1.2
%%Creator: MATLAB, The MathWorks, Inc. Version 8.3.0.532 (R2014a). Operating System: Linux 2.6.32-431.20.3.el6.x86_64 #1 SMP Thu Jun 19 14:01:59 CDT 2014 x86_64.
%%Title: ./DCCA.eps
%%CreationDate: 05/29/2015  16:34:59
%%DocumentNeededFonts: Helvetica
%%DocumentProcessColors: Cyan Magenta Yellow Black
%%Extensions: CMYK
%%Pages: 1
%%BoundingBox:    99   199   503   589
%%EndComments

%%BeginProlog
% MathWorks dictionary
/MathWorks 160 dict begin
% definition operators
/bdef {bind def} bind def
/ldef {load def} bind def
/xdef {exch def} bdef
/xstore {exch store} bdef
% operator abbreviations
/c  /clip ldef
/cc /concat ldef
/cp /closepath ldef
/gr /grestore ldef
/gs /gsave ldef
/mt /moveto ldef
/np /newpath ldef
/cm /currentmatrix ldef
/sm /setmatrix ldef
/rm /rmoveto ldef
/rl /rlineto ldef
/s {show newpath} bdef
/sc {setcmykcolor} bdef
/sr /setrgbcolor ldef
/sg /setgray ldef
/w /setlinewidth ldef
/j /setlinejoin ldef
/cap /setlinecap ldef
/rc {rectclip} bdef
/rf {rectfill} bdef
% page state control
/pgsv () def
/bpage {/pgsv save def} bdef
/epage {pgsv restore} bdef
/bplot /gsave ldef
/eplot {stroke grestore} bdef
% orientation switch
/portraitMode 0 def /landscapeMode 1 def /rotateMode 2 def
% coordinate system mappings
/dpi2point 0 def
% font control
/FontSize 0 def
/FMS {/FontSize xstore findfont [FontSize 0 0 FontSize neg 0 0]
  makefont setfont} bdef
/reencode {exch dup where {pop load} {pop StandardEncoding} ifelse
  exch dup 3 1 roll findfont dup length dict begin
  { 1 index /FID ne {def}{pop pop} ifelse } forall
  /Encoding exch def currentdict end definefont pop} bdef
/isroman {findfont /CharStrings get /Agrave known} bdef
/FMSR {3 1 roll 1 index dup isroman {reencode} {pop pop} ifelse
  exch FMS} bdef
/csm {1 dpi2point div -1 dpi2point div scale neg translate
 dup landscapeMode eq {pop -90 rotate}
  {rotateMode eq {90 rotate} if} ifelse} bdef
% line types: solid, dotted, dashed, dotdash
/SO { [] 0 setdash } bdef
/DO { [.5 dpi2point mul 4 dpi2point mul] 0 setdash } bdef
/DA { [6 dpi2point mul] 0 setdash } bdef
/DD { [.5 dpi2point mul 4 dpi2point mul 6 dpi2point mul 4
  dpi2point mul] 0 setdash } bdef
% macros for lines and objects
/L {lineto stroke} bdef
/MP {3 1 roll moveto 1 sub {rlineto} repeat} bdef
/AP {{rlineto} repeat} bdef
/PDlw -1 def
/W {/PDlw currentlinewidth def setlinewidth} def
/PP {closepath eofill} bdef
/DP {closepath stroke} bdef
/MR {4 -2 roll moveto dup  0 exch rlineto exch 0 rlineto
  neg 0 exch rlineto closepath} bdef
/FR {MR stroke} bdef
/PR {MR fill} bdef
/L1i {{currentfile picstr readhexstring pop} image} bdef
/tMatrix matrix def
/MakeOval {newpath tMatrix currentmatrix pop translate scale
0 0 1 0 360 arc tMatrix setmatrix} bdef
/FO {MakeOval stroke} bdef
/PO {MakeOval fill} bdef
/PD {currentlinewidth 2 div 0 360 arc fill
   PDlw -1 eq not {PDlw w /PDlw -1 def} if} def
/FA {newpath tMatrix currentmatrix pop translate scale
  0 0 1 5 -2 roll arc tMatrix setmatrix stroke} bdef
/PA {newpath tMatrix currentmatrix pop	translate 0 0 moveto scale
  0 0 1 5 -2 roll arc closepath tMatrix setmatrix fill} bdef
/FAn {newpath tMatrix currentmatrix pop translate scale
  0 0 1 5 -2 roll arcn tMatrix setmatrix stroke} bdef
/PAn {newpath tMatrix currentmatrix pop translate 0 0 moveto scale
  0 0 1 5 -2 roll arcn closepath tMatrix setmatrix fill} bdef
/vradius 0 def /hradius 0 def /lry 0 def
/lrx 0 def /uly 0 def /ulx 0 def /rad 0 def
/MRR {/vradius xdef /hradius xdef /lry xdef /lrx xdef /uly xdef
  /ulx xdef newpath tMatrix currentmatrix pop ulx hradius add uly
  vradius add translate hradius vradius scale 0 0 1 180 270 arc 
  tMatrix setmatrix lrx hradius sub uly vradius add translate
  hradius vradius scale 0 0 1 270 360 arc tMatrix setmatrix
  lrx hradius sub lry vradius sub translate hradius vradius scale
  0 0 1 0 90 arc tMatrix setmatrix ulx hradius add lry vradius sub
  translate hradius vradius scale 0 0 1 90 180 arc tMatrix setmatrix
  closepath} bdef
/FRR {MRR stroke } bdef
/PRR {MRR fill } bdef
/MlrRR {/lry xdef /lrx xdef /uly xdef /ulx xdef /rad lry uly sub 2 div def
  newpath tMatrix currentmatrix pop ulx rad add uly rad add translate
  rad rad scale 0 0 1 90 270 arc tMatrix setmatrix lrx rad sub lry rad
  sub translate rad rad scale 0 0 1 270 90 arc tMatrix setmatrix
  closepath} bdef
/FlrRR {MlrRR stroke } bdef
/PlrRR {MlrRR fill } bdef
/MtbRR {/lry xdef /lrx xdef /uly xdef /ulx xdef /rad lrx ulx sub 2 div def
  newpath tMatrix currentmatrix pop ulx rad add uly rad add translate
  rad rad scale 0 0 1 180 360 arc tMatrix setmatrix lrx rad sub lry rad
  sub translate rad rad scale 0 0 1 0 180 arc tMatrix setmatrix
  closepath} bdef
/FtbRR {MtbRR stroke } bdef
/PtbRR {MtbRR fill } bdef
/stri 6 array def /dtri 6 array def
/smat 6 array def /dmat 6 array def
/tmat1 6 array def /tmat2 6 array def /dif 3 array def
/asub {/ind2 exch def /ind1 exch def dup dup
  ind1 get exch ind2 get sub exch } bdef
/tri_to_matrix {
  2 0 asub 3 1 asub 4 0 asub 5 1 asub
  dup 0 get exch 1 get 7 -1 roll astore } bdef
/compute_transform {
  dmat dtri tri_to_matrix tmat1 invertmatrix 
  smat stri tri_to_matrix tmat2 concatmatrix } bdef
/ds {stri astore pop} bdef
/dt {dtri astore pop} bdef
/db {2 copy /cols xdef /rows xdef mul dup 3 mul string
  currentfile exch readhexstring pop
  dup 0 3 index getinterval /rbmap xdef
  dup 2 index dup getinterval /gbmap xdef
  1 index dup 2 mul exch getinterval /bbmap xdef pop pop}bdef
/it {gs np dtri aload pop moveto lineto lineto cp c
  cols rows 8 compute_transform 
  rbmap gbmap bbmap true 3 colorimage gr}bdef
/il {newpath moveto lineto stroke}bdef
currentdict end def
%%EndProlog

%%BeginSetup
MathWorks begin

0 cap

end
%%EndSetup

%%Page: 1 1
%%BeginPageSetup
%%PageBoundingBox:    99   199   503   589
MathWorks begin
bpage
%%EndPageSetup

%%BeginObject: obj1
bplot

/dpi2point 12 def
portraitMode 0216 7344 csm

  975   274  4847  4681 MR c np
85 dict begin %Colortable dictionary
/c0 { 0.000000 0.000000 0.000000 sr} bdef
/c1 { 1.000000 1.000000 1.000000 sr} bdef
/c2 { 0.900000 0.000000 0.000000 sr} bdef
/c3 { 0.000000 0.820000 0.000000 sr} bdef
/c4 { 0.000000 0.000000 0.800000 sr} bdef
/c5 { 0.910000 0.820000 0.320000 sr} bdef
/c6 { 1.000000 0.260000 0.820000 sr} bdef
/c7 { 0.000000 0.820000 0.820000 sr} bdef
c0
1 j
1 sg
   0    0 6913 5186 PR
6 w
0 4226 4226 0 0 -4226 1464 4615 4 MP
PP
-4226 0 0 4226 4226 0 0 -4226 1464 4615 5 MP stroke
4 w
DO
SO
6 w
0 sg
1464 4615 mt 5690 4615 L
1464  389 mt 5690  389 L
1464 4615 mt 1464  389 L
5690 4615 mt 5690  389 L
1464 4615 mt 5690 4615 L
1464 4615 mt 1464  389 L
1464 4615 mt 1464 4572 L
1464  389 mt 1464  431 L
%%IncludeResource: font Helvetica
/Helvetica /ISOLatin1Encoding 120 FMSR

1311 4760 mt 
(-2.5) s
1886 4615 mt 1886 4572 L
1886  389 mt 1886  431 L
1783 4760 mt 
(-2) s
2309 4615 mt 2309 4572 L
2309  389 mt 2309  431 L
2156 4760 mt 
(-1.5) s
2731 4615 mt 2731 4572 L
2731  389 mt 2731  431 L
2628 4760 mt 
(-1) s
3154 4615 mt 3154 4572 L
3154  389 mt 3154  431 L
3001 4760 mt 
(-0.5) s
3577 4615 mt 3577 4572 L
3577  389 mt 3577  431 L
3544 4760 mt 
(0) s
3999 4615 mt 3999 4572 L
3999  389 mt 3999  431 L
3916 4760 mt 
(0.5) s
4422 4615 mt 4422 4572 L
4422  389 mt 4422  431 L
4389 4760 mt 
(1) s
4844 4615 mt 4844 4572 L
4844  389 mt 4844  431 L
4761 4760 mt 
(1.5) s
5267 4615 mt 5267 4572 L
5267  389 mt 5267  431 L
5234 4760 mt 
(2) s
5690 4615 mt 5690 4572 L
5690  389 mt 5690  431 L
5607 4760 mt 
(2.5) s
1464 4615 mt 1506 4615 L
5690 4615 mt 5647 4615 L
1193 4659 mt 
(-2.5) s
1464 4192 mt 1506 4192 L
5690 4192 mt 5647 4192 L
1293 4236 mt 
(-2) s
1464 3769 mt 1506 3769 L
5690 3769 mt 5647 3769 L
1193 3813 mt 
(-1.5) s
1464 3347 mt 1506 3347 L
5690 3347 mt 5647 3347 L
1293 3391 mt 
(-1) s
1464 2924 mt 1506 2924 L
5690 2924 mt 5647 2924 L
1193 2968 mt 
(-0.5) s
1464 2502 mt 1506 2502 L
5690 2502 mt 5647 2502 L
1363 2546 mt 
(0) s
1464 2079 mt 1506 2079 L
5690 2079 mt 5647 2079 L
1263 2123 mt 
(0.5) s
1464 1656 mt 1506 1656 L
5690 1656 mt 5647 1656 L
1363 1700 mt 
(1) s
1464 1234 mt 1506 1234 L
5690 1234 mt 5647 1234 L
1263 1278 mt 
(1.5) s
1464  811 mt 1506  811 L
5690  811 mt 5647  811 L
1363  855 mt 
(2) s
1464  389 mt 1506  389 L
5690  389 mt 5647  389 L
1263  433 mt 
(2.5) s
1464 4615 mt 5690 4615 L
1464  389 mt 5690  389 L
1464 4615 mt 1464  389 L
5690 4615 mt 5690  389 L
gs 1464 389 4227 4227 MR c np
0 j
gr

/c8 { 0.500000 0.000000 0.000000 sr} bdef
c8
  18   18 5117 1046 PO
gs 1464 389 4227 4227 MR c np
gr

  18   18 4518  987 PO
gs 1464 389 4227 4227 MR c np
gr

  18   18 4986 1076 PO
gs 1464 389 4227 4227 MR c np
gr

  18   18 5039 1059 PO
gs 1464 389 4227 4227 MR c np
gr

  18   18 5288 1102 PO
gs 1464 389 4227 4227 MR c np
gr

  18   18 5132 1062 PO
gs 1464 389 4227 4227 MR c np
gr

  18   18 4111 1069 PO
gs 1464 389 4227 4227 MR c np
gr

  18   18 4440 1065 PO
gs 1464 389 4227 4227 MR c np
gr

  18   18 5245 1039 PO
gs 1464 389 4227 4227 MR c np
gr

  18   18 4484 1069 PO
gs 1464 389 4227 4227 MR c np
gr

  18   18 4737 1089 PO
gs 1464 389 4227 4227 MR c np
gr

  18   18 4914 1079 PO
gs 1464 389 4227 4227 MR c np
gr

  18   18 4589 1058 PO
gs 1464 389 4227 4227 MR c np
gr

  18   18 4170 1079 PO
gs 1464 389 4227 4227 MR c np
gr

  18   18 4532 1008 PO
gs 1464 389 4227 4227 MR c np
gr

  18   18 4254 1071 PO
gs 1464 389 4227 4227 MR c np
gr

/c9 { 0.562500 0.000000 0.000000 sr} bdef
c9
  18   18 4208 1085 PO
gs 1464 389 4227 4227 MR c np
gr

  18   18 4996 1084 PO
gs 1464 389 4227 4227 MR c np
gr

  18   18 5083 1076 PO
gs 1464 389 4227 4227 MR c np
gr

  18   18 4191 1085 PO
gs 1464 389 4227 4227 MR c np
gr

  18   18 4373 1096 PO
gs 1464 389 4227 4227 MR c np
gr

  18   18 4807 1085 PO
gs 1464 389 4227 4227 MR c np
gr

  18   18 4566 1078 PO
gs 1464 389 4227 4227 MR c np
gr

  18   18 4664 1122 PO
gs 1464 389 4227 4227 MR c np
gr

  18   18 4342 1132 PO
gs 1464 389 4227 4227 MR c np
gr

  18   18 4529 1087 PO
gs 1464 389 4227 4227 MR c np
gr

  18   18 4581 1145 PO
gs 1464 389 4227 4227 MR c np
gr

  18   18 5281 1153 PO
gs 1464 389 4227 4227 MR c np
gr

  18   18 5251 1094 PO
gs 1464 389 4227 4227 MR c np
gr

  18   18 4457 1118 PO
gs 1464 389 4227 4227 MR c np
gr

  18   18 4742 1111 PO
gs 1464 389 4227 4227 MR c np
gr

  18   18 4359 1140 PO
gs 1464 389 4227 4227 MR c np
gr

/c10 { 0.625000 0.000000 0.000000 sr} bdef
c10
  18   18 4688 1132 PO
gs 1464 389 4227 4227 MR c np
gr

  18   18 5445 1124 PO
gs 1464 389 4227 4227 MR c np
gr

  18   18 5015 1141 PO
gs 1464 389 4227 4227 MR c np
gr

  18   18 5048 1136 PO
gs 1464 389 4227 4227 MR c np
gr

  18   18 4871 1108 PO
gs 1464 389 4227 4227 MR c np
gr

  18   18 4978 1174 PO
gs 1464 389 4227 4227 MR c np
gr

  18   18 5409 1107 PO
gs 1464 389 4227 4227 MR c np
gr

  18   18 5267 1117 PO
gs 1464 389 4227 4227 MR c np
gr

  18   18 5316 1134 PO
gs 1464 389 4227 4227 MR c np
gr

  18   18 4770 1172 PO
gs 1464 389 4227 4227 MR c np
gr

  18   18 5166 1164 PO
gs 1464 389 4227 4227 MR c np
gr

  18   18 5391 1157 PO
gs 1464 389 4227 4227 MR c np
gr

  18   18 5197 1184 PO
gs 1464 389 4227 4227 MR c np
gr

  18   18 5086 1150 PO
gs 1464 389 4227 4227 MR c np
gr

  18   18 4674 1172 PO
gs 1464 389 4227 4227 MR c np
gr

/c11 { 0.687500 0.000000 0.000000 sr} bdef
c11
  18   18 4809 1180 PO
gs 1464 389 4227 4227 MR c np
gr

  18   18 4219 1216 PO
gs 1464 389 4227 4227 MR c np
gr

  18   18 5296 1228 PO
gs 1464 389 4227 4227 MR c np
gr

  18   18 4423 1157 PO
gs 1464 389 4227 4227 MR c np
gr

  18   18 4506 1180 PO
gs 1464 389 4227 4227 MR c np
gr

  18   18 4550 1205 PO
gs 1464 389 4227 4227 MR c np
gr

  18   18 4967 1161 PO
gs 1464 389 4227 4227 MR c np
gr

  18   18 5324 1202 PO
gs 1464 389 4227 4227 MR c np
gr

  18   18 4580 1205 PO
gs 1464 389 4227 4227 MR c np
gr

  18   18 4930 1195 PO
gs 1464 389 4227 4227 MR c np
gr

  18   18 4444 1196 PO
gs 1464 389 4227 4227 MR c np
gr

  18   18 5480 1252 PO
gs 1464 389 4227 4227 MR c np
gr

  18   18 4524 1225 PO
gs 1464 389 4227 4227 MR c np
gr

  18   18 4587 1270 PO
gs 1464 389 4227 4227 MR c np
gr

  18   18 4987 1234 PO
gs 1464 389 4227 4227 MR c np
gr

  18   18 4159 1222 PO
gs 1464 389 4227 4227 MR c np
gr

/c12 { 0.750000 0.000000 0.000000 sr} bdef
c12
  18   18 4387 1254 PO
gs 1464 389 4227 4227 MR c np
gr

  18   18 4652 1230 PO
gs 1464 389 4227 4227 MR c np
gr

  18   18 4641 1214 PO
gs 1464 389 4227 4227 MR c np
gr

  18   18 4939 1241 PO
gs 1464 389 4227 4227 MR c np
gr

  18   18 4436 1207 PO
gs 1464 389 4227 4227 MR c np
gr

  18   18 4716 1218 PO
gs 1464 389 4227 4227 MR c np
gr

  18   18 4587 1241 PO
gs 1464 389 4227 4227 MR c np
gr

  18   18 4421 1270 PO
gs 1464 389 4227 4227 MR c np
gr

  18   18 4745 1249 PO
gs 1464 389 4227 4227 MR c np
gr

  18   18 4861 1265 PO
gs 1464 389 4227 4227 MR c np
gr

  18   18 5403 1289 PO
gs 1464 389 4227 4227 MR c np
gr

  18   18 5350 1253 PO
gs 1464 389 4227 4227 MR c np
gr

  18   18 4389 1230 PO
gs 1464 389 4227 4227 MR c np
gr

  18   18 4783 1259 PO
gs 1464 389 4227 4227 MR c np
gr

  18   18 5190 1306 PO
gs 1464 389 4227 4227 MR c np
gr

  18   18 4462 1245 PO
gs 1464 389 4227 4227 MR c np
gr

/c13 { 0.812500 0.000000 0.000000 sr} bdef
c13
  18   18 4712 1283 PO
gs 1464 389 4227 4227 MR c np
gr

  18   18 4397 1269 PO
gs 1464 389 4227 4227 MR c np
gr

  18   18 4094 1291 PO
gs 1464 389 4227 4227 MR c np
gr

  18   18 4792 1300 PO
gs 1464 389 4227 4227 MR c np
gr

  18   18 4570 1349 PO
gs 1464 389 4227 4227 MR c np
gr

  18   18 4616 1291 PO
gs 1464 389 4227 4227 MR c np
gr

  18   18 4524 1243 PO
gs 1464 389 4227 4227 MR c np
gr

  18   18 4635 1251 PO
gs 1464 389 4227 4227 MR c np
gr

  18   18 4816 1318 PO
gs 1464 389 4227 4227 MR c np
gr

  18   18 5217 1314 PO
gs 1464 389 4227 4227 MR c np
gr

  18   18 4059 1256 PO
gs 1464 389 4227 4227 MR c np
gr

  18   18 4232 1302 PO
gs 1464 389 4227 4227 MR c np
gr

  18   18 4802 1303 PO
gs 1464 389 4227 4227 MR c np
gr

  18   18 4663 1349 PO
gs 1464 389 4227 4227 MR c np
gr

  18   18 4867 1297 PO
gs 1464 389 4227 4227 MR c np
gr

/c14 { 0.875000 0.000000 0.000000 sr} bdef
c14
  18   18 5146 1318 PO
gs 1464 389 4227 4227 MR c np
gr

  18   18 4687 1332 PO
gs 1464 389 4227 4227 MR c np
gr

  18   18 4815 1281 PO
gs 1464 389 4227 4227 MR c np
gr

  18   18 4946 1355 PO
gs 1464 389 4227 4227 MR c np
gr

  18   18 4822 1308 PO
gs 1464 389 4227 4227 MR c np
gr

  18   18 4744 1290 PO
gs 1464 389 4227 4227 MR c np
gr

  18   18 4814 1333 PO
gs 1464 389 4227 4227 MR c np
gr

  18   18 4390 1374 PO
gs 1464 389 4227 4227 MR c np
gr

  18   18 4772 1341 PO
gs 1464 389 4227 4227 MR c np
gr

  18   18 4890 1371 PO
gs 1464 389 4227 4227 MR c np
gr

  18   18 5036 1380 PO
gs 1464 389 4227 4227 MR c np
gr

  18   18 4350 1348 PO
gs 1464 389 4227 4227 MR c np
gr

  18   18 4374 1343 PO
gs 1464 389 4227 4227 MR c np
gr

  18   18 4205 1316 PO
gs 1464 389 4227 4227 MR c np
gr

  18   18 4629 1305 PO
gs 1464 389 4227 4227 MR c np
gr

  18   18 4708 1370 PO
gs 1464 389 4227 4227 MR c np
gr

/c15 { 0.937500 0.000000 0.000000 sr} bdef
c15
  18   18 4386 1385 PO
gs 1464 389 4227 4227 MR c np
gr

  18   18 4291 1340 PO
gs 1464 389 4227 4227 MR c np
gr

  18   18 4316 1346 PO
gs 1464 389 4227 4227 MR c np
gr

  18   18 4680 1407 PO
gs 1464 389 4227 4227 MR c np
gr

  18   18 4711 1395 PO
gs 1464 389 4227 4227 MR c np
gr

  18   18 4343 1360 PO
gs 1464 389 4227 4227 MR c np
gr

  18   18 5357 1362 PO
gs 1464 389 4227 4227 MR c np
gr

  18   18 5172 1370 PO
gs 1464 389 4227 4227 MR c np
gr

  18   18 4133 1408 PO
gs 1464 389 4227 4227 MR c np
gr

  18   18 4640 1394 PO
gs 1464 389 4227 4227 MR c np
gr

  18   18 5026 1427 PO
gs 1464 389 4227 4227 MR c np
gr

  18   18 4437 1330 PO
gs 1464 389 4227 4227 MR c np
gr

  18   18 4258 1400 PO
gs 1464 389 4227 4227 MR c np
gr

  18   18 5166 1420 PO
gs 1464 389 4227 4227 MR c np
gr

  18   18 4425 1430 PO
gs 1464 389 4227 4227 MR c np
gr

/c16 { 1.000000 0.000000 0.000000 sr} bdef
c16
  18   18 4071 1450 PO
gs 1464 389 4227 4227 MR c np
gr

  18   18 5306 1419 PO
gs 1464 389 4227 4227 MR c np
gr

  18   18 5165 1390 PO
gs 1464 389 4227 4227 MR c np
gr

  18   18 4548 1436 PO
gs 1464 389 4227 4227 MR c np
gr

  18   18 4661 1462 PO
gs 1464 389 4227 4227 MR c np
gr

  18   18 4709 1351 PO
gs 1464 389 4227 4227 MR c np
gr

  18   18 4092 1434 PO
gs 1464 389 4227 4227 MR c np
gr

  18   18 4900 1410 PO
gs 1464 389 4227 4227 MR c np
gr

  18   18 4809 1395 PO
gs 1464 389 4227 4227 MR c np
gr

  18   18 5106 1387 PO
gs 1464 389 4227 4227 MR c np
gr

  18   18 4769 1382 PO
gs 1464 389 4227 4227 MR c np
gr

  18   18 5167 1425 PO
gs 1464 389 4227 4227 MR c np
gr

  18   18 4548 1418 PO
gs 1464 389 4227 4227 MR c np
gr

  18   18 3993 1438 PO
gs 1464 389 4227 4227 MR c np
gr

  18   18 4837 1469 PO
gs 1464 389 4227 4227 MR c np
gr

  18   18 4909 1421 PO
gs 1464 389 4227 4227 MR c np
gr

/c17 { 1.000000 0.062500 0.000000 sr} bdef
c17
  18   18 4898 1463 PO
gs 1464 389 4227 4227 MR c np
gr

  18   18 5012 1455 PO
gs 1464 389 4227 4227 MR c np
gr

  18   18 5280 1467 PO
gs 1464 389 4227 4227 MR c np
gr

  18   18 5020 1419 PO
gs 1464 389 4227 4227 MR c np
gr

  18   18 4412 1456 PO
gs 1464 389 4227 4227 MR c np
gr

  18   18 4722 1439 PO
gs 1464 389 4227 4227 MR c np
gr

  18   18 4207 1453 PO
gs 1464 389 4227 4227 MR c np
gr

  18   18 5349 1535 PO
gs 1464 389 4227 4227 MR c np
gr

  18   18 4513 1497 PO
gs 1464 389 4227 4227 MR c np
gr

  18   18 4740 1473 PO
gs 1464 389 4227 4227 MR c np
gr

  18   18 4721 1485 PO
gs 1464 389 4227 4227 MR c np
gr

  18   18 4260 1460 PO
gs 1464 389 4227 4227 MR c np
gr

  18   18 4745 1446 PO
gs 1464 389 4227 4227 MR c np
gr

  18   18 4252 1497 PO
gs 1464 389 4227 4227 MR c np
gr

  18   18 4853 1519 PO
gs 1464 389 4227 4227 MR c np
gr

  18   18 4288 1503 PO
gs 1464 389 4227 4227 MR c np
gr

/c18 { 1.000000 0.125000 0.000000 sr} bdef
c18
  18   18 4355 1481 PO
gs 1464 389 4227 4227 MR c np
gr

  18   18 4100 1543 PO
gs 1464 389 4227 4227 MR c np
gr

  18   18 3911 1491 PO
gs 1464 389 4227 4227 MR c np
gr

  18   18 4138 1539 PO
gs 1464 389 4227 4227 MR c np
gr

  18   18 5098 1535 PO
gs 1464 389 4227 4227 MR c np
gr

  18   18 4400 1499 PO
gs 1464 389 4227 4227 MR c np
gr

  18   18 4524 1538 PO
gs 1464 389 4227 4227 MR c np
gr

  18   18 5101 1481 PO
gs 1464 389 4227 4227 MR c np
gr

  18   18 4588 1530 PO
gs 1464 389 4227 4227 MR c np
gr

  18   18 4636 1561 PO
gs 1464 389 4227 4227 MR c np
gr

  18   18 4164 1534 PO
gs 1464 389 4227 4227 MR c np
gr

  18   18 4490 1537 PO
gs 1464 389 4227 4227 MR c np
gr

  18   18 5123 1539 PO
gs 1464 389 4227 4227 MR c np
gr

  18   18 5008 1526 PO
gs 1464 389 4227 4227 MR c np
gr

  18   18 4872 1519 PO
gs 1464 389 4227 4227 MR c np
gr

/c19 { 1.000000 0.187500 0.000000 sr} bdef
c19
  18   18 5167 1552 PO
gs 1464 389 4227 4227 MR c np
gr

  18   18 3853 1549 PO
gs 1464 389 4227 4227 MR c np
gr

  18   18 4518 1560 PO
gs 1464 389 4227 4227 MR c np
gr

  18   18 4446 1578 PO
gs 1464 389 4227 4227 MR c np
gr

  18   18 4366 1559 PO
gs 1464 389 4227 4227 MR c np
gr

  18   18 4394 1569 PO
gs 1464 389 4227 4227 MR c np
gr

  18   18 4591 1585 PO
gs 1464 389 4227 4227 MR c np
gr

  18   18 4998 1555 PO
gs 1464 389 4227 4227 MR c np
gr

  18   18 4112 1564 PO
gs 1464 389 4227 4227 MR c np
gr

  18   18 4713 1581 PO
gs 1464 389 4227 4227 MR c np
gr

  18   18 5071 1545 PO
gs 1464 389 4227 4227 MR c np
gr

  18   18 3797 1601 PO
gs 1464 389 4227 4227 MR c np
gr

  18   18 4607 1576 PO
gs 1464 389 4227 4227 MR c np
gr

  18   18 4353 1535 PO
gs 1464 389 4227 4227 MR c np
gr

  18   18 4980 1602 PO
gs 1464 389 4227 4227 MR c np
gr

  18   18 4715 1592 PO
gs 1464 389 4227 4227 MR c np
gr

/c20 { 1.000000 0.250000 0.000000 sr} bdef
c20
  18   18 4966 1562 PO
gs 1464 389 4227 4227 MR c np
gr

  18   18 3903 1618 PO
gs 1464 389 4227 4227 MR c np
gr

  18   18 5021 1590 PO
gs 1464 389 4227 4227 MR c np
gr

  18   18 4670 1572 PO
gs 1464 389 4227 4227 MR c np
gr

  18   18 4174 1604 PO
gs 1464 389 4227 4227 MR c np
gr

  18   18 4456 1609 PO
gs 1464 389 4227 4227 MR c np
gr

  18   18 4552 1582 PO
gs 1464 389 4227 4227 MR c np
gr

  18   18 4969 1641 PO
gs 1464 389 4227 4227 MR c np
gr

  18   18 4979 1585 PO
gs 1464 389 4227 4227 MR c np
gr

  18   18 3835 1615 PO
gs 1464 389 4227 4227 MR c np
gr

  18   18 4838 1592 PO
gs 1464 389 4227 4227 MR c np
gr

  18   18 4371 1614 PO
gs 1464 389 4227 4227 MR c np
gr

  18   18 4435 1639 PO
gs 1464 389 4227 4227 MR c np
gr

  18   18 4658 1632 PO
gs 1464 389 4227 4227 MR c np
gr

  18   18 3733 1630 PO
gs 1464 389 4227 4227 MR c np
gr

/c21 { 1.000000 0.312500 0.000000 sr} bdef
c21
  18   18 4888 1668 PO
gs 1464 389 4227 4227 MR c np
gr

  18   18 5007 1581 PO
gs 1464 389 4227 4227 MR c np
gr

  18   18 4723 1640 PO
gs 1464 389 4227 4227 MR c np
gr

  18   18 4470 1677 PO
gs 1464 389 4227 4227 MR c np
gr

  18   18 3920 1656 PO
gs 1464 389 4227 4227 MR c np
gr

  18   18 4480 1645 PO
gs 1464 389 4227 4227 MR c np
gr

  18   18 3713 1662 PO
gs 1464 389 4227 4227 MR c np
gr

  18   18 4520 1673 PO
gs 1464 389 4227 4227 MR c np
gr

  18   18 4154 1675 PO
gs 1464 389 4227 4227 MR c np
gr

  18   18 4418 1644 PO
gs 1464 389 4227 4227 MR c np
gr

  18   18 4240 1695 PO
gs 1464 389 4227 4227 MR c np
gr

  18   18 3758 1667 PO
gs 1464 389 4227 4227 MR c np
gr

  18   18 4573 1682 PO
gs 1464 389 4227 4227 MR c np
gr

  18   18 4264 1658 PO
gs 1464 389 4227 4227 MR c np
gr

  18   18 4531 1750 PO
gs 1464 389 4227 4227 MR c np
gr

  18   18 3776 1589 PO
gs 1464 389 4227 4227 MR c np
gr

/c22 { 1.000000 0.375000 0.000000 sr} bdef
c22
  18   18 4744 1645 PO
gs 1464 389 4227 4227 MR c np
gr

  18   18 3670 1732 PO
gs 1464 389 4227 4227 MR c np
gr

  18   18 4723 1716 PO
gs 1464 389 4227 4227 MR c np
gr

  18   18 4856 1732 PO
gs 1464 389 4227 4227 MR c np
gr

  18   18 4327 1645 PO
gs 1464 389 4227 4227 MR c np
gr

  18   18 4571 1686 PO
gs 1464 389 4227 4227 MR c np
gr

  18   18 3870 1713 PO
gs 1464 389 4227 4227 MR c np
gr

  18   18 4837 1694 PO
gs 1464 389 4227 4227 MR c np
gr

  18   18 4079 1667 PO
gs 1464 389 4227 4227 MR c np
gr

  18   18 3866 1714 PO
gs 1464 389 4227 4227 MR c np
gr

  18   18 3763 1734 PO
gs 1464 389 4227 4227 MR c np
gr

  18   18 4005 1705 PO
gs 1464 389 4227 4227 MR c np
gr

  18   18 4213 1731 PO
gs 1464 389 4227 4227 MR c np
gr

  18   18 4457 1751 PO
gs 1464 389 4227 4227 MR c np
gr

  18   18 3940 1703 PO
gs 1464 389 4227 4227 MR c np
gr

  18   18 4165 1751 PO
gs 1464 389 4227 4227 MR c np
gr

/c23 { 1.000000 0.437500 0.000000 sr} bdef
c23
  18   18 3854 1746 PO
gs 1464 389 4227 4227 MR c np
gr

  18   18 3928 1725 PO
gs 1464 389 4227 4227 MR c np
gr

  18   18 4362 1787 PO
gs 1464 389 4227 4227 MR c np
gr

  18   18 4759 1685 PO
gs 1464 389 4227 4227 MR c np
gr

  18   18 3844 1740 PO
gs 1464 389 4227 4227 MR c np
gr

  18   18 3840 1763 PO
gs 1464 389 4227 4227 MR c np
gr

  18   18 4465 1724 PO
gs 1464 389 4227 4227 MR c np
gr

  18   18 3837 1737 PO
gs 1464 389 4227 4227 MR c np
gr

  18   18 4487 1796 PO
gs 1464 389 4227 4227 MR c np
gr

  18   18 3893 1729 PO
gs 1464 389 4227 4227 MR c np
gr

  18   18 3819 1764 PO
gs 1464 389 4227 4227 MR c np
gr

  18   18 3792 1752 PO
gs 1464 389 4227 4227 MR c np
gr

  18   18 3808 1768 PO
gs 1464 389 4227 4227 MR c np
gr

  18   18 3883 1756 PO
gs 1464 389 4227 4227 MR c np
gr

  18   18 4469 1766 PO
gs 1464 389 4227 4227 MR c np
gr

/c24 { 1.000000 0.500000 0.000000 sr} bdef
c24
  18   18 3869 1813 PO
gs 1464 389 4227 4227 MR c np
gr

  18   18 3905 1779 PO
gs 1464 389 4227 4227 MR c np
gr

  18   18 4362 1789 PO
gs 1464 389 4227 4227 MR c np
gr

  18   18 3807 1760 PO
gs 1464 389 4227 4227 MR c np
gr

  18   18 4424 1768 PO
gs 1464 389 4227 4227 MR c np
gr

  18   18 4390 1805 PO
gs 1464 389 4227 4227 MR c np
gr

  18   18 4423 1770 PO
gs 1464 389 4227 4227 MR c np
gr

  18   18 3797 1738 PO
gs 1464 389 4227 4227 MR c np
gr

  18   18 4218 1803 PO
gs 1464 389 4227 4227 MR c np
gr

  18   18 3643 1827 PO
gs 1464 389 4227 4227 MR c np
gr

  18   18 3751 1782 PO
gs 1464 389 4227 4227 MR c np
gr

  18   18 4187 1781 PO
gs 1464 389 4227 4227 MR c np
gr

  18   18 4007 1860 PO
gs 1464 389 4227 4227 MR c np
gr

  18   18 4425 1768 PO
gs 1464 389 4227 4227 MR c np
gr

  18   18 3729 1870 PO
gs 1464 389 4227 4227 MR c np
gr

  18   18 3875 1833 PO
gs 1464 389 4227 4227 MR c np
gr

/c25 { 1.000000 0.562500 0.000000 sr} bdef
c25
  18   18 3960 1835 PO
gs 1464 389 4227 4227 MR c np
gr

  18   18 4144 1781 PO
gs 1464 389 4227 4227 MR c np
gr

  18   18 4283 1884 PO
gs 1464 389 4227 4227 MR c np
gr

  18   18 4139 1849 PO
gs 1464 389 4227 4227 MR c np
gr

  18   18 3588 1905 PO
gs 1464 389 4227 4227 MR c np
gr

  18   18 3598 1808 PO
gs 1464 389 4227 4227 MR c np
gr

  18   18 4538 1841 PO
gs 1464 389 4227 4227 MR c np
gr

  18   18 3956 1815 PO
gs 1464 389 4227 4227 MR c np
gr

  18   18 4671 1836 PO
gs 1464 389 4227 4227 MR c np
gr

  18   18 4754 1792 PO
gs 1464 389 4227 4227 MR c np
gr

  18   18 3973 1835 PO
gs 1464 389 4227 4227 MR c np
gr

  18   18 4703 1859 PO
gs 1464 389 4227 4227 MR c np
gr

  18   18 4201 1835 PO
gs 1464 389 4227 4227 MR c np
gr

  18   18 3686 1823 PO
gs 1464 389 4227 4227 MR c np
gr

  18   18 3735 1858 PO
gs 1464 389 4227 4227 MR c np
gr

/c26 { 1.000000 0.625000 0.000000 sr} bdef
c26
  18   18 4170 1852 PO
gs 1464 389 4227 4227 MR c np
gr

  18   18 3905 1885 PO
gs 1464 389 4227 4227 MR c np
gr

  18   18 4676 1923 PO
gs 1464 389 4227 4227 MR c np
gr

  18   18 4016 1830 PO
gs 1464 389 4227 4227 MR c np
gr

  18   18 4514 1870 PO
gs 1464 389 4227 4227 MR c np
gr

  18   18 4057 1854 PO
gs 1464 389 4227 4227 MR c np
gr

  18   18 3908 1885 PO
gs 1464 389 4227 4227 MR c np
gr

  18   18 3962 1856 PO
gs 1464 389 4227 4227 MR c np
gr

  18   18 3648 1960 PO
gs 1464 389 4227 4227 MR c np
gr

  18   18 3698 1939 PO
gs 1464 389 4227 4227 MR c np
gr

  18   18 4313 1890 PO
gs 1464 389 4227 4227 MR c np
gr

  18   18 3962 1944 PO
gs 1464 389 4227 4227 MR c np
gr

  18   18 4718 1853 PO
gs 1464 389 4227 4227 MR c np
gr

  18   18 4294 1873 PO
gs 1464 389 4227 4227 MR c np
gr

  18   18 4000 1930 PO
gs 1464 389 4227 4227 MR c np
gr

  18   18 4346 1864 PO
gs 1464 389 4227 4227 MR c np
gr

/c27 { 1.000000 0.687500 0.000000 sr} bdef
c27
  18   18 3587 1899 PO
gs 1464 389 4227 4227 MR c np
gr

  18   18 3919 1959 PO
gs 1464 389 4227 4227 MR c np
gr

  18   18 3705 1898 PO
gs 1464 389 4227 4227 MR c np
gr

  18   18 4426 1857 PO
gs 1464 389 4227 4227 MR c np
gr

  18   18 3555 1910 PO
gs 1464 389 4227 4227 MR c np
gr

  18   18 4244 1922 PO
gs 1464 389 4227 4227 MR c np
gr

  18   18 3479 1927 PO
gs 1464 389 4227 4227 MR c np
gr

  18   18 3971 1911 PO
gs 1464 389 4227 4227 MR c np
gr

  18   18 4101 1883 PO
gs 1464 389 4227 4227 MR c np
gr

  18   18 4502 1982 PO
gs 1464 389 4227 4227 MR c np
gr

  18   18 3790 1992 PO
gs 1464 389 4227 4227 MR c np
gr

  18   18 4479 1945 PO
gs 1464 389 4227 4227 MR c np
gr

  18   18 4458 1880 PO
gs 1464 389 4227 4227 MR c np
gr

  18   18 3945 1959 PO
gs 1464 389 4227 4227 MR c np
gr

  18   18 4492 1976 PO
gs 1464 389 4227 4227 MR c np
gr

  18   18 3651 1963 PO
gs 1464 389 4227 4227 MR c np
gr

/c28 { 1.000000 0.750000 0.000000 sr} bdef
c28
  18   18 3958 1958 PO
gs 1464 389 4227 4227 MR c np
gr

  18   18 4287 1965 PO
gs 1464 389 4227 4227 MR c np
gr

  18   18 4053 1963 PO
gs 1464 389 4227 4227 MR c np
gr

  18   18 4394 1980 PO
gs 1464 389 4227 4227 MR c np
gr

  18   18 4439 1943 PO
gs 1464 389 4227 4227 MR c np
gr

  18   18 3416 2013 PO
gs 1464 389 4227 4227 MR c np
gr

  18   18 4198 1913 PO
gs 1464 389 4227 4227 MR c np
gr

  18   18 3822 1991 PO
gs 1464 389 4227 4227 MR c np
gr

  18   18 3451 1993 PO
gs 1464 389 4227 4227 MR c np
gr

  18   18 3917 1984 PO
gs 1464 389 4227 4227 MR c np
gr

  18   18 3680 2018 PO
gs 1464 389 4227 4227 MR c np
gr

  18   18 3569 1936 PO
gs 1464 389 4227 4227 MR c np
gr

  18   18 3520 2004 PO
gs 1464 389 4227 4227 MR c np
gr

  18   18 3633 1975 PO
gs 1464 389 4227 4227 MR c np
gr

  18   18 3968 1989 PO
gs 1464 389 4227 4227 MR c np
gr

/c29 { 1.000000 0.812500 0.000000 sr} bdef
c29
  18   18 3592 2008 PO
gs 1464 389 4227 4227 MR c np
gr

  18   18 4058 2045 PO
gs 1464 389 4227 4227 MR c np
gr

  18   18 4234 1957 PO
gs 1464 389 4227 4227 MR c np
gr

  18   18 4289 1989 PO
gs 1464 389 4227 4227 MR c np
gr

  18   18 3918 1978 PO
gs 1464 389 4227 4227 MR c np
gr

  18   18 4189 2003 PO
gs 1464 389 4227 4227 MR c np
gr

  18   18 3744 2001 PO
gs 1464 389 4227 4227 MR c np
gr

  18   18 3670 2013 PO
gs 1464 389 4227 4227 MR c np
gr

  18   18 3900 2024 PO
gs 1464 389 4227 4227 MR c np
gr

  18   18 3480 2025 PO
gs 1464 389 4227 4227 MR c np
gr

  18   18 3922 2084 PO
gs 1464 389 4227 4227 MR c np
gr

  18   18 4009 1999 PO
gs 1464 389 4227 4227 MR c np
gr

  18   18 4106 2031 PO
gs 1464 389 4227 4227 MR c np
gr

  18   18 3926 2042 PO
gs 1464 389 4227 4227 MR c np
gr

  18   18 4119 2016 PO
gs 1464 389 4227 4227 MR c np
gr

  18   18 3241 2046 PO
gs 1464 389 4227 4227 MR c np
gr

/c30 { 1.000000 0.875000 0.000000 sr} bdef
c30
  18   18 4091 2034 PO
gs 1464 389 4227 4227 MR c np
gr

  18   18 3923 2024 PO
gs 1464 389 4227 4227 MR c np
gr

  18   18 4195 2042 PO
gs 1464 389 4227 4227 MR c np
gr

  18   18 3833 2056 PO
gs 1464 389 4227 4227 MR c np
gr

  18   18 4163 2105 PO
gs 1464 389 4227 4227 MR c np
gr

  18   18 3276 2059 PO
gs 1464 389 4227 4227 MR c np
gr

  18   18 4066 2048 PO
gs 1464 389 4227 4227 MR c np
gr

  18   18 4034 2051 PO
gs 1464 389 4227 4227 MR c np
gr

  18   18 3348 2063 PO
gs 1464 389 4227 4227 MR c np
gr

  18   18 3523 2060 PO
gs 1464 389 4227 4227 MR c np
gr

  18   18 3529 2070 PO
gs 1464 389 4227 4227 MR c np
gr

  18   18 4144 2097 PO
gs 1464 389 4227 4227 MR c np
gr

  18   18 3119 2069 PO
gs 1464 389 4227 4227 MR c np
gr

  18   18 3938 2088 PO
gs 1464 389 4227 4227 MR c np
gr

  18   18 3642 2038 PO
gs 1464 389 4227 4227 MR c np
gr

  18   18 3216 2040 PO
gs 1464 389 4227 4227 MR c np
gr

/c31 { 1.000000 0.937500 0.000000 sr} bdef
c31
  18   18 3541 2115 PO
gs 1464 389 4227 4227 MR c np
gr

  18   18 3885 2123 PO
gs 1464 389 4227 4227 MR c np
gr

  18   18 3521 2096 PO
gs 1464 389 4227 4227 MR c np
gr

  18   18 3182 2115 PO
gs 1464 389 4227 4227 MR c np
gr

  18   18 3925 2092 PO
gs 1464 389 4227 4227 MR c np
gr

  18   18 3138 2152 PO
gs 1464 389 4227 4227 MR c np
gr

  18   18 3251 2119 PO
gs 1464 389 4227 4227 MR c np
gr

  18   18 4113 2084 PO
gs 1464 389 4227 4227 MR c np
gr

  18   18 3527 2045 PO
gs 1464 389 4227 4227 MR c np
gr

  18   18 3306 2105 PO
gs 1464 389 4227 4227 MR c np
gr

  18   18 3520 2121 PO
gs 1464 389 4227 4227 MR c np
gr

  18   18 3932 2124 PO
gs 1464 389 4227 4227 MR c np
gr

  18   18 3658 2095 PO
gs 1464 389 4227 4227 MR c np
gr

  18   18 3672 2171 PO
gs 1464 389 4227 4227 MR c np
gr

  18   18 3198 2128 PO
gs 1464 389 4227 4227 MR c np
gr

/c32 { 1.000000 1.000000 0.000000 sr} bdef
c32
  18   18 3246 2090 PO
gs 1464 389 4227 4227 MR c np
gr

  18   18 4005 2179 PO
gs 1464 389 4227 4227 MR c np
gr

  18   18 3770 2118 PO
gs 1464 389 4227 4227 MR c np
gr

  18   18 3784 2189 PO
gs 1464 389 4227 4227 MR c np
gr

  18   18 3240 2151 PO
gs 1464 389 4227 4227 MR c np
gr

  18   18 3379 2163 PO
gs 1464 389 4227 4227 MR c np
gr

  18   18 3289 2164 PO
gs 1464 389 4227 4227 MR c np
gr

  18   18 3353 2161 PO
gs 1464 389 4227 4227 MR c np
gr

  18   18 3930 2155 PO
gs 1464 389 4227 4227 MR c np
gr

  18   18 3665 2118 PO
gs 1464 389 4227 4227 MR c np
gr

  18   18 3345 2171 PO
gs 1464 389 4227 4227 MR c np
gr

  18   18 3491 2157 PO
gs 1464 389 4227 4227 MR c np
gr

  18   18 3837 2178 PO
gs 1464 389 4227 4227 MR c np
gr

  18   18 3607 2163 PO
gs 1464 389 4227 4227 MR c np
gr

  18   18 3984 2156 PO
gs 1464 389 4227 4227 MR c np
gr

  18   18 3083 2173 PO
gs 1464 389 4227 4227 MR c np
gr

/c33 { 0.937500 1.000000 0.062500 sr} bdef
c33
  18   18 3830 2192 PO
gs 1464 389 4227 4227 MR c np
gr

  18   18 3650 2166 PO
gs 1464 389 4227 4227 MR c np
gr

  18   18 4000 2255 PO
gs 1464 389 4227 4227 MR c np
gr

  18   18 3790 2167 PO
gs 1464 389 4227 4227 MR c np
gr

  18   18 3453 2160 PO
gs 1464 389 4227 4227 MR c np
gr

  18   18 3799 2189 PO
gs 1464 389 4227 4227 MR c np
gr

  18   18 3714 2186 PO
gs 1464 389 4227 4227 MR c np
gr

  18   18 3669 2182 PO
gs 1464 389 4227 4227 MR c np
gr

  18   18 3091 2229 PO
gs 1464 389 4227 4227 MR c np
gr

  18   18 3324 2138 PO
gs 1464 389 4227 4227 MR c np
gr

  18   18 3944 2219 PO
gs 1464 389 4227 4227 MR c np
gr

  18   18 3004 2259 PO
gs 1464 389 4227 4227 MR c np
gr

  18   18 3955 2297 PO
gs 1464 389 4227 4227 MR c np
gr

  18   18 3919 2234 PO
gs 1464 389 4227 4227 MR c np
gr

  18   18 3640 2203 PO
gs 1464 389 4227 4227 MR c np
gr

/c34 { 0.875000 1.000000 0.125000 sr} bdef
c34
  18   18 3762 2253 PO
gs 1464 389 4227 4227 MR c np
gr

  18   18 3196 2188 PO
gs 1464 389 4227 4227 MR c np
gr

  18   18 3629 2242 PO
gs 1464 389 4227 4227 MR c np
gr

  18   18 3374 2216 PO
gs 1464 389 4227 4227 MR c np
gr

  18   18 3285 2201 PO
gs 1464 389 4227 4227 MR c np
gr

  18   18 3058 2190 PO
gs 1464 389 4227 4227 MR c np
gr

  18   18 3164 2234 PO
gs 1464 389 4227 4227 MR c np
gr

  18   18 3687 2231 PO
gs 1464 389 4227 4227 MR c np
gr

  18   18 3931 2282 PO
gs 1464 389 4227 4227 MR c np
gr

  18   18 3777 2220 PO
gs 1464 389 4227 4227 MR c np
gr

  18   18 3210 2312 PO
gs 1464 389 4227 4227 MR c np
gr

  18   18 3553 2232 PO
gs 1464 389 4227 4227 MR c np
gr

  18   18 3972 2264 PO
gs 1464 389 4227 4227 MR c np
gr

  18   18 3575 2324 PO
gs 1464 389 4227 4227 MR c np
gr

  18   18 3718 2246 PO
gs 1464 389 4227 4227 MR c np
gr

  18   18 3031 2255 PO
gs 1464 389 4227 4227 MR c np
gr

/c35 { 0.812500 1.000000 0.187500 sr} bdef
c35
  18   18 3167 2234 PO
gs 1464 389 4227 4227 MR c np
gr

  18   18 3633 2291 PO
gs 1464 389 4227 4227 MR c np
gr

  18   18 3271 2238 PO
gs 1464 389 4227 4227 MR c np
gr

  18   18 3930 2253 PO
gs 1464 389 4227 4227 MR c np
gr

  18   18 2982 2304 PO
gs 1464 389 4227 4227 MR c np
gr

  18   18 2962 2286 PO
gs 1464 389 4227 4227 MR c np
gr

  18   18 3920 2280 PO
gs 1464 389 4227 4227 MR c np
gr

  18   18 3506 2295 PO
gs 1464 389 4227 4227 MR c np
gr

  18   18 3015 2287 PO
gs 1464 389 4227 4227 MR c np
gr

  18   18 3558 2289 PO
gs 1464 389 4227 4227 MR c np
gr

  18   18 3869 2282 PO
gs 1464 389 4227 4227 MR c np
gr

  18   18 3720 2292 PO
gs 1464 389 4227 4227 MR c np
gr

  18   18 2985 2388 PO
gs 1464 389 4227 4227 MR c np
gr

  18   18 3103 2327 PO
gs 1464 389 4227 4227 MR c np
gr

  18   18 3343 2335 PO
gs 1464 389 4227 4227 MR c np
gr

  18   18 3061 2284 PO
gs 1464 389 4227 4227 MR c np
gr

/c36 { 0.750000 1.000000 0.250000 sr} bdef
c36
  18   18 3107 2339 PO
gs 1464 389 4227 4227 MR c np
gr

  18   18 3537 2354 PO
gs 1464 389 4227 4227 MR c np
gr

  18   18 3509 2260 PO
gs 1464 389 4227 4227 MR c np
gr

  18   18 3743 2330 PO
gs 1464 389 4227 4227 MR c np
gr

  18   18 3006 2299 PO
gs 1464 389 4227 4227 MR c np
gr

  18   18 3866 2319 PO
gs 1464 389 4227 4227 MR c np
gr

  18   18 3188 2380 PO
gs 1464 389 4227 4227 MR c np
gr

  18   18 3736 2399 PO
gs 1464 389 4227 4227 MR c np
gr

  18   18 3730 2371 PO
gs 1464 389 4227 4227 MR c np
gr

  18   18 3347 2366 PO
gs 1464 389 4227 4227 MR c np
gr

  18   18 3840 2441 PO
gs 1464 389 4227 4227 MR c np
gr

  18   18 3199 2324 PO
gs 1464 389 4227 4227 MR c np
gr

  18   18 3259 2341 PO
gs 1464 389 4227 4227 MR c np
gr

  18   18 3047 2351 PO
gs 1464 389 4227 4227 MR c np
gr

  18   18 3029 2465 PO
gs 1464 389 4227 4227 MR c np
gr

/c37 { 0.687500 1.000000 0.312500 sr} bdef
c37
  18   18 3439 2367 PO
gs 1464 389 4227 4227 MR c np
gr

  18   18 3623 2427 PO
gs 1464 389 4227 4227 MR c np
gr

  18   18 3915 2395 PO
gs 1464 389 4227 4227 MR c np
gr

  18   18 3102 2376 PO
gs 1464 389 4227 4227 MR c np
gr

  18   18 3397 2387 PO
gs 1464 389 4227 4227 MR c np
gr

  18   18 3160 2363 PO
gs 1464 389 4227 4227 MR c np
gr

  18   18 3453 2419 PO
gs 1464 389 4227 4227 MR c np
gr

  18   18 3887 2437 PO
gs 1464 389 4227 4227 MR c np
gr

  18   18 3695 2393 PO
gs 1464 389 4227 4227 MR c np
gr

  18   18 3181 2397 PO
gs 1464 389 4227 4227 MR c np
gr

  18   18 3112 2447 PO
gs 1464 389 4227 4227 MR c np
gr

  18   18 3723 2416 PO
gs 1464 389 4227 4227 MR c np
gr

  18   18 3965 2389 PO
gs 1464 389 4227 4227 MR c np
gr

  18   18 3925 2368 PO
gs 1464 389 4227 4227 MR c np
gr

  18   18 3607 2442 PO
gs 1464 389 4227 4227 MR c np
gr

  18   18 3158 2400 PO
gs 1464 389 4227 4227 MR c np
gr

/c38 { 0.625000 1.000000 0.375000 sr} bdef
c38
  18   18 3333 2444 PO
gs 1464 389 4227 4227 MR c np
gr

  18   18 3314 2387 PO
gs 1464 389 4227 4227 MR c np
gr

  18   18 3459 2428 PO
gs 1464 389 4227 4227 MR c np
gr

  18   18 3715 2418 PO
gs 1464 389 4227 4227 MR c np
gr

  18   18 3964 2427 PO
gs 1464 389 4227 4227 MR c np
gr

  18   18 2873 2438 PO
gs 1464 389 4227 4227 MR c np
gr

  18   18 3392 2417 PO
gs 1464 389 4227 4227 MR c np
gr

  18   18 3772 2387 PO
gs 1464 389 4227 4227 MR c np
gr

  18   18 2969 2415 PO
gs 1464 389 4227 4227 MR c np
gr

  18   18 3030 2428 PO
gs 1464 389 4227 4227 MR c np
gr

  18   18 3885 2438 PO
gs 1464 389 4227 4227 MR c np
gr

  18   18 3531 2436 PO
gs 1464 389 4227 4227 MR c np
gr

  18   18 3410 2425 PO
gs 1464 389 4227 4227 MR c np
gr

  18   18 3398 2476 PO
gs 1464 389 4227 4227 MR c np
gr

  18   18 3088 2475 PO
gs 1464 389 4227 4227 MR c np
gr

/c39 { 0.562500 1.000000 0.437500 sr} bdef
c39
  18   18 3263 2499 PO
gs 1464 389 4227 4227 MR c np
gr

  18   18 3858 2464 PO
gs 1464 389 4227 4227 MR c np
gr

  18   18 3266 2448 PO
gs 1464 389 4227 4227 MR c np
gr

  18   18 3499 2414 PO
gs 1464 389 4227 4227 MR c np
gr

  18   18 3970 2510 PO
gs 1464 389 4227 4227 MR c np
gr

  18   18 3419 2475 PO
gs 1464 389 4227 4227 MR c np
gr

  18   18 3120 2486 PO
gs 1464 389 4227 4227 MR c np
gr

  18   18 3221 2430 PO
gs 1464 389 4227 4227 MR c np
gr

  18   18 3023 2530 PO
gs 1464 389 4227 4227 MR c np
gr

  18   18 3479 2425 PO
gs 1464 389 4227 4227 MR c np
gr

  18   18 3446 2557 PO
gs 1464 389 4227 4227 MR c np
gr

  18   18 2894 2488 PO
gs 1464 389 4227 4227 MR c np
gr

  18   18 3928 2496 PO
gs 1464 389 4227 4227 MR c np
gr

  18   18 3343 2507 PO
gs 1464 389 4227 4227 MR c np
gr

  18   18 3453 2512 PO
gs 1464 389 4227 4227 MR c np
gr

  18   18 3459 2522 PO
gs 1464 389 4227 4227 MR c np
gr

/c40 { 0.500000 1.000000 0.500000 sr} bdef
c40
  18   18 3974 2516 PO
gs 1464 389 4227 4227 MR c np
gr

  18   18 4112 2519 PO
gs 1464 389 4227 4227 MR c np
gr

  18   18 3384 2495 PO
gs 1464 389 4227 4227 MR c np
gr

  18   18 4004 2546 PO
gs 1464 389 4227 4227 MR c np
gr

  18   18 3792 2536 PO
gs 1464 389 4227 4227 MR c np
gr

  18   18 3258 2487 PO
gs 1464 389 4227 4227 MR c np
gr

  18   18 3408 2518 PO
gs 1464 389 4227 4227 MR c np
gr

  18   18 3525 2518 PO
gs 1464 389 4227 4227 MR c np
gr

  18   18 2951 2532 PO
gs 1464 389 4227 4227 MR c np
gr

  18   18 3676 2521 PO
gs 1464 389 4227 4227 MR c np
gr

  18   18 3501 2581 PO
gs 1464 389 4227 4227 MR c np
gr

  18   18 3267 2534 PO
gs 1464 389 4227 4227 MR c np
gr

  18   18 3519 2523 PO
gs 1464 389 4227 4227 MR c np
gr

  18   18 3339 2450 PO
gs 1464 389 4227 4227 MR c np
gr

  18   18 3085 2567 PO
gs 1464 389 4227 4227 MR c np
gr

  18   18 3832 2543 PO
gs 1464 389 4227 4227 MR c np
gr

/c41 { 0.437500 1.000000 0.562500 sr} bdef
c41
  18   18 2942 2537 PO
gs 1464 389 4227 4227 MR c np
gr

  18   18 4159 2561 PO
gs 1464 389 4227 4227 MR c np
gr

  18   18 3608 2557 PO
gs 1464 389 4227 4227 MR c np
gr

  18   18 3360 2553 PO
gs 1464 389 4227 4227 MR c np
gr

  18   18 3241 2545 PO
gs 1464 389 4227 4227 MR c np
gr

  18   18 3531 2588 PO
gs 1464 389 4227 4227 MR c np
gr

  18   18 3469 2536 PO
gs 1464 389 4227 4227 MR c np
gr

  18   18 3959 2611 PO
gs 1464 389 4227 4227 MR c np
gr

  18   18 3554 2564 PO
gs 1464 389 4227 4227 MR c np
gr

  18   18 2925 2554 PO
gs 1464 389 4227 4227 MR c np
gr

  18   18 3509 2626 PO
gs 1464 389 4227 4227 MR c np
gr

  18   18 3012 2631 PO
gs 1464 389 4227 4227 MR c np
gr

  18   18 4166 2556 PO
gs 1464 389 4227 4227 MR c np
gr

  18   18 3353 2582 PO
gs 1464 389 4227 4227 MR c np
gr

  18   18 3604 2591 PO
gs 1464 389 4227 4227 MR c np
gr

/c42 { 0.375000 1.000000 0.625000 sr} bdef
c42
  18   18 3663 2586 PO
gs 1464 389 4227 4227 MR c np
gr

  18   18 3271 2609 PO
gs 1464 389 4227 4227 MR c np
gr

  18   18 2925 2557 PO
gs 1464 389 4227 4227 MR c np
gr

  18   18 3646 2626 PO
gs 1464 389 4227 4227 MR c np
gr

  18   18 3268 2611 PO
gs 1464 389 4227 4227 MR c np
gr

  18   18 3962 2598 PO
gs 1464 389 4227 4227 MR c np
gr

  18   18 4138 2582 PO
gs 1464 389 4227 4227 MR c np
gr

  18   18 3822 2559 PO
gs 1464 389 4227 4227 MR c np
gr

  18   18 3388 2587 PO
gs 1464 389 4227 4227 MR c np
gr

  18   18 2877 2664 PO
gs 1464 389 4227 4227 MR c np
gr

  18   18 4165 2584 PO
gs 1464 389 4227 4227 MR c np
gr

  18   18 3100 2621 PO
gs 1464 389 4227 4227 MR c np
gr

  18   18 3314 2649 PO
gs 1464 389 4227 4227 MR c np
gr

  18   18 3766 2650 PO
gs 1464 389 4227 4227 MR c np
gr

  18   18 3838 2651 PO
gs 1464 389 4227 4227 MR c np
gr

  18   18 3504 2632 PO
gs 1464 389 4227 4227 MR c np
gr

/c43 { 0.312500 1.000000 0.687500 sr} bdef
c43
  18   18 3850 2622 PO
gs 1464 389 4227 4227 MR c np
gr

  18   18 2902 2654 PO
gs 1464 389 4227 4227 MR c np
gr

  18   18 3576 2666 PO
gs 1464 389 4227 4227 MR c np
gr

  18   18 2992 2653 PO
gs 1464 389 4227 4227 MR c np
gr

  18   18 3425 2613 PO
gs 1464 389 4227 4227 MR c np
gr

  18   18 3370 2639 PO
gs 1464 389 4227 4227 MR c np
gr

  18   18 3326 2627 PO
gs 1464 389 4227 4227 MR c np
gr

  18   18 4030 2704 PO
gs 1464 389 4227 4227 MR c np
gr

  18   18 3651 2639 PO
gs 1464 389 4227 4227 MR c np
gr

  18   18 3841 2697 PO
gs 1464 389 4227 4227 MR c np
gr

  18   18 3583 2700 PO
gs 1464 389 4227 4227 MR c np
gr

  18   18 3532 2668 PO
gs 1464 389 4227 4227 MR c np
gr

  18   18 3113 2683 PO
gs 1464 389 4227 4227 MR c np
gr

  18   18 3929 2645 PO
gs 1464 389 4227 4227 MR c np
gr

  18   18 3927 2683 PO
gs 1464 389 4227 4227 MR c np
gr

/c44 { 0.250000 1.000000 0.750000 sr} bdef
c44
  18   18 4181 2724 PO
gs 1464 389 4227 4227 MR c np
gr

  18   18 3853 2678 PO
gs 1464 389 4227 4227 MR c np
gr

  18   18 3991 2676 PO
gs 1464 389 4227 4227 MR c np
gr

  18   18 3474 2698 PO
gs 1464 389 4227 4227 MR c np
gr

  18   18 2918 2696 PO
gs 1464 389 4227 4227 MR c np
gr

  18   18 3852 2672 PO
gs 1464 389 4227 4227 MR c np
gr

  18   18 3079 2697 PO
gs 1464 389 4227 4227 MR c np
gr

  18   18 3096 2685 PO
gs 1464 389 4227 4227 MR c np
gr

  18   18 3234 2761 PO
gs 1464 389 4227 4227 MR c np
gr

  18   18 3674 2687 PO
gs 1464 389 4227 4227 MR c np
gr

  18   18 3690 2677 PO
gs 1464 389 4227 4227 MR c np
gr

  18   18 3141 2705 PO
gs 1464 389 4227 4227 MR c np
gr

  18   18 2980 2696 PO
gs 1464 389 4227 4227 MR c np
gr

  18   18 3777 2719 PO
gs 1464 389 4227 4227 MR c np
gr

  18   18 2815 2727 PO
gs 1464 389 4227 4227 MR c np
gr

  18   18 3208 2752 PO
gs 1464 389 4227 4227 MR c np
gr

/c45 { 0.187500 1.000000 0.812500 sr} bdef
c45
  18   18 2973 2732 PO
gs 1464 389 4227 4227 MR c np
gr

  18   18 3061 2724 PO
gs 1464 389 4227 4227 MR c np
gr

  18   18 3200 2726 PO
gs 1464 389 4227 4227 MR c np
gr

  18   18 3123 2724 PO
gs 1464 389 4227 4227 MR c np
gr

  18   18 2948 2720 PO
gs 1464 389 4227 4227 MR c np
gr

  18   18 3591 2765 PO
gs 1464 389 4227 4227 MR c np
gr

  18   18 3593 2712 PO
gs 1464 389 4227 4227 MR c np
gr

  18   18 2920 2794 PO
gs 1464 389 4227 4227 MR c np
gr

  18   18 3877 2731 PO
gs 1464 389 4227 4227 MR c np
gr

  18   18 3684 2796 PO
gs 1464 389 4227 4227 MR c np
gr

  18   18 3459 2807 PO
gs 1464 389 4227 4227 MR c np
gr

  18   18 3403 2786 PO
gs 1464 389 4227 4227 MR c np
gr

  18   18 3564 2799 PO
gs 1464 389 4227 4227 MR c np
gr

  18   18 3259 2775 PO
gs 1464 389 4227 4227 MR c np
gr

  18   18 3434 2716 PO
gs 1464 389 4227 4227 MR c np
gr

  18   18 4006 2778 PO
gs 1464 389 4227 4227 MR c np
gr

/c46 { 0.125000 1.000000 0.875000 sr} bdef
c46
  18   18 3900 2717 PO
gs 1464 389 4227 4227 MR c np
gr

  18   18 3996 2797 PO
gs 1464 389 4227 4227 MR c np
gr

  18   18 3760 2775 PO
gs 1464 389 4227 4227 MR c np
gr

  18   18 4025 2810 PO
gs 1464 389 4227 4227 MR c np
gr

  18   18 2861 2744 PO
gs 1464 389 4227 4227 MR c np
gr

  18   18 4084 2772 PO
gs 1464 389 4227 4227 MR c np
gr

  18   18 3200 2804 PO
gs 1464 389 4227 4227 MR c np
gr

  18   18 3828 2818 PO
gs 1464 389 4227 4227 MR c np
gr

  18   18 3340 2834 PO
gs 1464 389 4227 4227 MR c np
gr

  18   18 3841 2802 PO
gs 1464 389 4227 4227 MR c np
gr

  18   18 3794 2737 PO
gs 1464 389 4227 4227 MR c np
gr

  18   18 3359 2750 PO
gs 1464 389 4227 4227 MR c np
gr

  18   18 3595 2798 PO
gs 1464 389 4227 4227 MR c np
gr

  18   18 3086 2829 PO
gs 1464 389 4227 4227 MR c np
gr

  18   18 3380 2821 PO
gs 1464 389 4227 4227 MR c np
gr

/c47 { 0.062500 1.000000 0.937500 sr} bdef
c47
  18   18 2955 2806 PO
gs 1464 389 4227 4227 MR c np
gr

  18   18 3263 2825 PO
gs 1464 389 4227 4227 MR c np
gr

  18   18 2824 2818 PO
gs 1464 389 4227 4227 MR c np
gr

  18   18 3133 2898 PO
gs 1464 389 4227 4227 MR c np
gr

  18   18 3560 2800 PO
gs 1464 389 4227 4227 MR c np
gr

  18   18 3507 2847 PO
gs 1464 389 4227 4227 MR c np
gr

  18   18 3515 2860 PO
gs 1464 389 4227 4227 MR c np
gr

  18   18 3499 2827 PO
gs 1464 389 4227 4227 MR c np
gr

  18   18 3485 2855 PO
gs 1464 389 4227 4227 MR c np
gr

  18   18 3025 2873 PO
gs 1464 389 4227 4227 MR c np
gr

  18   18 3495 2879 PO
gs 1464 389 4227 4227 MR c np
gr

  18   18 3080 2858 PO
gs 1464 389 4227 4227 MR c np
gr

  18   18 4008 2829 PO
gs 1464 389 4227 4227 MR c np
gr

  18   18 2829 2857 PO
gs 1464 389 4227 4227 MR c np
gr

  18   18 3061 2855 PO
gs 1464 389 4227 4227 MR c np
gr

  18   18 4067 2889 PO
gs 1464 389 4227 4227 MR c np
gr

/c48 { 0.000000 1.000000 1.000000 sr} bdef
c48
  18   18 3688 2900 PO
gs 1464 389 4227 4227 MR c np
gr

  18   18 2970 2859 PO
gs 1464 389 4227 4227 MR c np
gr

  18   18 2696 2953 PO
gs 1464 389 4227 4227 MR c np
gr

  18   18 2749 2927 PO
gs 1464 389 4227 4227 MR c np
gr

  18   18 3393 2908 PO
gs 1464 389 4227 4227 MR c np
gr

  18   18 3490 2892 PO
gs 1464 389 4227 4227 MR c np
gr

  18   18 3358 2863 PO
gs 1464 389 4227 4227 MR c np
gr

  18   18 2803 2869 PO
gs 1464 389 4227 4227 MR c np
gr

  18   18 3100 2832 PO
gs 1464 389 4227 4227 MR c np
gr

  18   18 2742 2891 PO
gs 1464 389 4227 4227 MR c np
gr

  18   18 3118 2906 PO
gs 1464 389 4227 4227 MR c np
gr

  18   18 2770 2866 PO
gs 1464 389 4227 4227 MR c np
gr

  18   18 2968 2887 PO
gs 1464 389 4227 4227 MR c np
gr

  18   18 3056 2871 PO
gs 1464 389 4227 4227 MR c np
gr

  18   18 3883 2874 PO
gs 1464 389 4227 4227 MR c np
gr

/c49 { 0.000000 0.937500 1.000000 sr} bdef
c49
  18   18 3733 2943 PO
gs 1464 389 4227 4227 MR c np
gr

  18   18 2942 2955 PO
gs 1464 389 4227 4227 MR c np
gr

  18   18 4007 2915 PO
gs 1464 389 4227 4227 MR c np
gr

  18   18 3236 2949 PO
gs 1464 389 4227 4227 MR c np
gr

  18   18 3885 2870 PO
gs 1464 389 4227 4227 MR c np
gr

  18   18 3582 2898 PO
gs 1464 389 4227 4227 MR c np
gr

  18   18 3550 2950 PO
gs 1464 389 4227 4227 MR c np
gr

  18   18 3757 2933 PO
gs 1464 389 4227 4227 MR c np
gr

  18   18 2679 2899 PO
gs 1464 389 4227 4227 MR c np
gr

  18   18 3709 2930 PO
gs 1464 389 4227 4227 MR c np
gr

  18   18 3346 2930 PO
gs 1464 389 4227 4227 MR c np
gr

  18   18 2789 2965 PO
gs 1464 389 4227 4227 MR c np
gr

  18   18 3827 2953 PO
gs 1464 389 4227 4227 MR c np
gr

  18   18 3511 2963 PO
gs 1464 389 4227 4227 MR c np
gr

  18   18 2831 2928 PO
gs 1464 389 4227 4227 MR c np
gr

  18   18 3597 2988 PO
gs 1464 389 4227 4227 MR c np
gr

/c50 { 0.000000 0.875000 1.000000 sr} bdef
c50
  18   18 2923 2974 PO
gs 1464 389 4227 4227 MR c np
gr

  18   18 3077 2956 PO
gs 1464 389 4227 4227 MR c np
gr

  18   18 2784 2939 PO
gs 1464 389 4227 4227 MR c np
gr

  18   18 3320 3005 PO
gs 1464 389 4227 4227 MR c np
gr

  18   18 3459 2942 PO
gs 1464 389 4227 4227 MR c np
gr

  18   18 3756 2989 PO
gs 1464 389 4227 4227 MR c np
gr

  18   18 3729 2936 PO
gs 1464 389 4227 4227 MR c np
gr

  18   18 3627 2954 PO
gs 1464 389 4227 4227 MR c np
gr

  18   18 3544 2995 PO
gs 1464 389 4227 4227 MR c np
gr

  18   18 2607 3019 PO
gs 1464 389 4227 4227 MR c np
gr

  18   18 2584 2949 PO
gs 1464 389 4227 4227 MR c np
gr

  18   18 3651 3011 PO
gs 1464 389 4227 4227 MR c np
gr

  18   18 2711 3002 PO
gs 1464 389 4227 4227 MR c np
gr

  18   18 3608 2998 PO
gs 1464 389 4227 4227 MR c np
gr

  18   18 2672 2979 PO
gs 1464 389 4227 4227 MR c np
gr

  18   18 3075 2989 PO
gs 1464 389 4227 4227 MR c np
gr

/c51 { 0.000000 0.812500 1.000000 sr} bdef
c51
  18   18 3486 2977 PO
gs 1464 389 4227 4227 MR c np
gr

  18   18 3087 3007 PO
gs 1464 389 4227 4227 MR c np
gr

  18   18 2627 2991 PO
gs 1464 389 4227 4227 MR c np
gr

  18   18 3765 3067 PO
gs 1464 389 4227 4227 MR c np
gr

  18   18 3088 3002 PO
gs 1464 389 4227 4227 MR c np
gr

  18   18 3509 3049 PO
gs 1464 389 4227 4227 MR c np
gr

  18   18 3507 3052 PO
gs 1464 389 4227 4227 MR c np
gr

  18   18 3002 3055 PO
gs 1464 389 4227 4227 MR c np
gr

  18   18 2837 3028 PO
gs 1464 389 4227 4227 MR c np
gr

  18   18 3208 3092 PO
gs 1464 389 4227 4227 MR c np
gr

  18   18 3629 3100 PO
gs 1464 389 4227 4227 MR c np
gr

  18   18 2750 3026 PO
gs 1464 389 4227 4227 MR c np
gr

  18   18 3309 3087 PO
gs 1464 389 4227 4227 MR c np
gr

  18   18 3176 3042 PO
gs 1464 389 4227 4227 MR c np
gr

  18   18 3759 3010 PO
gs 1464 389 4227 4227 MR c np
gr

/c52 { 0.000000 0.750000 1.000000 sr} bdef
c52
  18   18 2771 3065 PO
gs 1464 389 4227 4227 MR c np
gr

  18   18 2980 3019 PO
gs 1464 389 4227 4227 MR c np
gr

  18   18 3131 3051 PO
gs 1464 389 4227 4227 MR c np
gr

  18   18 3094 3054 PO
gs 1464 389 4227 4227 MR c np
gr

  18   18 3386 3046 PO
gs 1464 389 4227 4227 MR c np
gr

  18   18 2903 3087 PO
gs 1464 389 4227 4227 MR c np
gr

  18   18 2606 3070 PO
gs 1464 389 4227 4227 MR c np
gr

  18   18 2925 3038 PO
gs 1464 389 4227 4227 MR c np
gr

  18   18 3085 3099 PO
gs 1464 389 4227 4227 MR c np
gr

  18   18 2511 3081 PO
gs 1464 389 4227 4227 MR c np
gr

  18   18 3160 3078 PO
gs 1464 389 4227 4227 MR c np
gr

  18   18 3546 3065 PO
gs 1464 389 4227 4227 MR c np
gr

  18   18 2921 3040 PO
gs 1464 389 4227 4227 MR c np
gr

  18   18 3652 3119 PO
gs 1464 389 4227 4227 MR c np
gr

  18   18 2769 3107 PO
gs 1464 389 4227 4227 MR c np
gr

  18   18 3541 3125 PO
gs 1464 389 4227 4227 MR c np
gr

/c53 { 0.000000 0.687500 1.000000 sr} bdef
c53
  18   18 2493 3097 PO
gs 1464 389 4227 4227 MR c np
gr

  18   18 2624 3151 PO
gs 1464 389 4227 4227 MR c np
gr

  18   18 3566 3103 PO
gs 1464 389 4227 4227 MR c np
gr

  18   18 3412 3077 PO
gs 1464 389 4227 4227 MR c np
gr

  18   18 3192 3096 PO
gs 1464 389 4227 4227 MR c np
gr

  18   18 3242 3180 PO
gs 1464 389 4227 4227 MR c np
gr

  18   18 2977 3145 PO
gs 1464 389 4227 4227 MR c np
gr

  18   18 2855 3100 PO
gs 1464 389 4227 4227 MR c np
gr

  18   18 3295 3101 PO
gs 1464 389 4227 4227 MR c np
gr

  18   18 3538 3115 PO
gs 1464 389 4227 4227 MR c np
gr

  18   18 2891 3105 PO
gs 1464 389 4227 4227 MR c np
gr

  18   18 3467 3076 PO
gs 1464 389 4227 4227 MR c np
gr

  18   18 2457 3125 PO
gs 1464 389 4227 4227 MR c np
gr

  18   18 2910 3122 PO
gs 1464 389 4227 4227 MR c np
gr

  18   18 2697 3140 PO
gs 1464 389 4227 4227 MR c np
gr

  18   18 3317 3137 PO
gs 1464 389 4227 4227 MR c np
gr

/c54 { 0.000000 0.625000 1.000000 sr} bdef
c54
  18   18 3121 3132 PO
gs 1464 389 4227 4227 MR c np
gr

  18   18 3482 3125 PO
gs 1464 389 4227 4227 MR c np
gr

  18   18 2649 3117 PO
gs 1464 389 4227 4227 MR c np
gr

  18   18 2929 3112 PO
gs 1464 389 4227 4227 MR c np
gr

  18   18 3080 3146 PO
gs 1464 389 4227 4227 MR c np
gr

  18   18 2531 3181 PO
gs 1464 389 4227 4227 MR c np
gr

  18   18 2682 3212 PO
gs 1464 389 4227 4227 MR c np
gr

  18   18 3381 3149 PO
gs 1464 389 4227 4227 MR c np
gr

  18   18 3599 3148 PO
gs 1464 389 4227 4227 MR c np
gr

  18   18 3650 3214 PO
gs 1464 389 4227 4227 MR c np
gr

  18   18 3573 3187 PO
gs 1464 389 4227 4227 MR c np
gr

  18   18 2742 3178 PO
gs 1464 389 4227 4227 MR c np
gr

  18   18 2444 3204 PO
gs 1464 389 4227 4227 MR c np
gr

  18   18 3336 3123 PO
gs 1464 389 4227 4227 MR c np
gr

  18   18 2594 3198 PO
gs 1464 389 4227 4227 MR c np
gr

/c55 { 0.000000 0.562500 1.000000 sr} bdef
c55
  18   18 3497 3184 PO
gs 1464 389 4227 4227 MR c np
gr

  18   18 3231 3198 PO
gs 1464 389 4227 4227 MR c np
gr

  18   18 2698 3176 PO
gs 1464 389 4227 4227 MR c np
gr

  18   18 3080 3198 PO
gs 1464 389 4227 4227 MR c np
gr

  18   18 3484 3168 PO
gs 1464 389 4227 4227 MR c np
gr

  18   18 3148 3184 PO
gs 1464 389 4227 4227 MR c np
gr

  18   18 2888 3238 PO
gs 1464 389 4227 4227 MR c np
gr

  18   18 3047 3228 PO
gs 1464 389 4227 4227 MR c np
gr

  18   18 3296 3262 PO
gs 1464 389 4227 4227 MR c np
gr

  18   18 3164 3180 PO
gs 1464 389 4227 4227 MR c np
gr

  18   18 2543 3160 PO
gs 1464 389 4227 4227 MR c np
gr

  18   18 2424 3260 PO
gs 1464 389 4227 4227 MR c np
gr

  18   18 3572 3289 PO
gs 1464 389 4227 4227 MR c np
gr

  18   18 3576 3235 PO
gs 1464 389 4227 4227 MR c np
gr

  18   18 3438 3188 PO
gs 1464 389 4227 4227 MR c np
gr

  18   18 3470 3226 PO
gs 1464 389 4227 4227 MR c np
gr

/c56 { 0.000000 0.500000 1.000000 sr} bdef
c56
  18   18 3364 3286 PO
gs 1464 389 4227 4227 MR c np
gr

  18   18 3553 3203 PO
gs 1464 389 4227 4227 MR c np
gr

  18   18 3586 3262 PO
gs 1464 389 4227 4227 MR c np
gr

  18   18 3262 3258 PO
gs 1464 389 4227 4227 MR c np
gr

  18   18 3289 3224 PO
gs 1464 389 4227 4227 MR c np
gr

  18   18 3185 3210 PO
gs 1464 389 4227 4227 MR c np
gr

  18   18 2414 3224 PO
gs 1464 389 4227 4227 MR c np
gr

  18   18 2947 3266 PO
gs 1464 389 4227 4227 MR c np
gr

  18   18 3386 3252 PO
gs 1464 389 4227 4227 MR c np
gr

  18   18 2619 3222 PO
gs 1464 389 4227 4227 MR c np
gr

  18   18 2551 3302 PO
gs 1464 389 4227 4227 MR c np
gr

  18   18 3491 3339 PO
gs 1464 389 4227 4227 MR c np
gr

  18   18 2994 3286 PO
gs 1464 389 4227 4227 MR c np
gr

  18   18 3046 3361 PO
gs 1464 389 4227 4227 MR c np
gr

  18   18 2877 3322 PO
gs 1464 389 4227 4227 MR c np
gr

/c57 { 0.000000 0.437500 1.000000 sr} bdef
c57
  18   18 2603 3252 PO
gs 1464 389 4227 4227 MR c np
gr

  18   18 2609 3301 PO
gs 1464 389 4227 4227 MR c np
gr

  18   18 3319 3278 PO
gs 1464 389 4227 4227 MR c np
gr

  18   18 3177 3353 PO
gs 1464 389 4227 4227 MR c np
gr

  18   18 2969 3313 PO
gs 1464 389 4227 4227 MR c np
gr

  18   18 3081 3279 PO
gs 1464 389 4227 4227 MR c np
gr

  18   18 3237 3269 PO
gs 1464 389 4227 4227 MR c np
gr

  18   18 3258 3331 PO
gs 1464 389 4227 4227 MR c np
gr

  18   18 3198 3301 PO
gs 1464 389 4227 4227 MR c np
gr

  18   18 2642 3356 PO
gs 1464 389 4227 4227 MR c np
gr

  18   18 2947 3391 PO
gs 1464 389 4227 4227 MR c np
gr

  18   18 2658 3304 PO
gs 1464 389 4227 4227 MR c np
gr

  18   18 2983 3349 PO
gs 1464 389 4227 4227 MR c np
gr

  18   18 3097 3294 PO
gs 1464 389 4227 4227 MR c np
gr

  18   18 2674 3292 PO
gs 1464 389 4227 4227 MR c np
gr

  18   18 2783 3333 PO
gs 1464 389 4227 4227 MR c np
gr

/c58 { 0.000000 0.375000 1.000000 sr} bdef
c58
  18   18 3520 3369 PO
gs 1464 389 4227 4227 MR c np
gr

  18   18 3425 3354 PO
gs 1464 389 4227 4227 MR c np
gr

  18   18 2732 3349 PO
gs 1464 389 4227 4227 MR c np
gr

  18   18 3104 3318 PO
gs 1464 389 4227 4227 MR c np
gr

  18   18 3338 3335 PO
gs 1464 389 4227 4227 MR c np
gr

  18   18 3575 3336 PO
gs 1464 389 4227 4227 MR c np
gr

  18   18 3440 3336 PO
gs 1464 389 4227 4227 MR c np
gr

  18   18 2783 3323 PO
gs 1464 389 4227 4227 MR c np
gr

  18   18 2583 3294 PO
gs 1464 389 4227 4227 MR c np
gr

  18   18 2756 3318 PO
gs 1464 389 4227 4227 MR c np
gr

  18   18 2499 3299 PO
gs 1464 389 4227 4227 MR c np
gr

  18   18 3035 3334 PO
gs 1464 389 4227 4227 MR c np
gr

  18   18 2913 3370 PO
gs 1464 389 4227 4227 MR c np
gr

  18   18 2808 3390 PO
gs 1464 389 4227 4227 MR c np
gr

  18   18 3232 3352 PO
gs 1464 389 4227 4227 MR c np
gr

  18   18 2306 3385 PO
gs 1464 389 4227 4227 MR c np
gr

/c59 { 0.000000 0.312500 1.000000 sr} bdef
c59
  18   18 3090 3350 PO
gs 1464 389 4227 4227 MR c np
gr

  18   18 3253 3384 PO
gs 1464 389 4227 4227 MR c np
gr

  18   18 2406 3348 PO
gs 1464 389 4227 4227 MR c np
gr

  18   18 2605 3319 PO
gs 1464 389 4227 4227 MR c np
gr

  18   18 2721 3361 PO
gs 1464 389 4227 4227 MR c np
gr

  18   18 3010 3381 PO
gs 1464 389 4227 4227 MR c np
gr

  18   18 2291 3372 PO
gs 1464 389 4227 4227 MR c np
gr

  18   18 3129 3348 PO
gs 1464 389 4227 4227 MR c np
gr

  18   18 2474 3430 PO
gs 1464 389 4227 4227 MR c np
gr

  18   18 2695 3399 PO
gs 1464 389 4227 4227 MR c np
gr

  18   18 2306 3384 PO
gs 1464 389 4227 4227 MR c np
gr

  18   18 3157 3449 PO
gs 1464 389 4227 4227 MR c np
gr

  18   18 2811 3400 PO
gs 1464 389 4227 4227 MR c np
gr

  18   18 2472 3361 PO
gs 1464 389 4227 4227 MR c np
gr

  18   18 3334 3387 PO
gs 1464 389 4227 4227 MR c np
gr

/c60 { 0.000000 0.250000 1.000000 sr} bdef
c60
  18   18 2224 3396 PO
gs 1464 389 4227 4227 MR c np
gr

  18   18 2268 3419 PO
gs 1464 389 4227 4227 MR c np
gr

  18   18 2855 3373 PO
gs 1464 389 4227 4227 MR c np
gr

  18   18 3115 3454 PO
gs 1464 389 4227 4227 MR c np
gr

  18   18 2637 3402 PO
gs 1464 389 4227 4227 MR c np
gr

  18   18 2355 3375 PO
gs 1464 389 4227 4227 MR c np
gr

  18   18 2682 3384 PO
gs 1464 389 4227 4227 MR c np
gr

  18   18 3065 3426 PO
gs 1464 389 4227 4227 MR c np
gr

  18   18 2350 3409 PO
gs 1464 389 4227 4227 MR c np
gr

  18   18 2404 3438 PO
gs 1464 389 4227 4227 MR c np
gr

  18   18 2670 3370 PO
gs 1464 389 4227 4227 MR c np
gr

  18   18 2462 3469 PO
gs 1464 389 4227 4227 MR c np
gr

  18   18 2635 3461 PO
gs 1464 389 4227 4227 MR c np
gr

  18   18 2550 3448 PO
gs 1464 389 4227 4227 MR c np
gr

  18   18 3246 3443 PO
gs 1464 389 4227 4227 MR c np
gr

  18   18 2466 3426 PO
gs 1464 389 4227 4227 MR c np
gr

/c61 { 0.000000 0.187500 1.000000 sr} bdef
c61
  18   18 2394 3491 PO
gs 1464 389 4227 4227 MR c np
gr

  18   18 2929 3465 PO
gs 1464 389 4227 4227 MR c np
gr

  18   18 2612 3415 PO
gs 1464 389 4227 4227 MR c np
gr

  18   18 2506 3501 PO
gs 1464 389 4227 4227 MR c np
gr

  18   18 2902 3466 PO
gs 1464 389 4227 4227 MR c np
gr

  18   18 3030 3474 PO
gs 1464 389 4227 4227 MR c np
gr

  18   18 2517 3488 PO
gs 1464 389 4227 4227 MR c np
gr

  18   18 2934 3455 PO
gs 1464 389 4227 4227 MR c np
gr

  18   18 2262 3484 PO
gs 1464 389 4227 4227 MR c np
gr

  18   18 3183 3513 PO
gs 1464 389 4227 4227 MR c np
gr

  18   18 2923 3529 PO
gs 1464 389 4227 4227 MR c np
gr

  18   18 3012 3475 PO
gs 1464 389 4227 4227 MR c np
gr

  18   18 2787 3509 PO
gs 1464 389 4227 4227 MR c np
gr

  18   18 3193 3455 PO
gs 1464 389 4227 4227 MR c np
gr

  18   18 2705 3527 PO
gs 1464 389 4227 4227 MR c np
gr

/c62 { 0.000000 0.125000 1.000000 sr} bdef
c62
  18   18 2637 3485 PO
gs 1464 389 4227 4227 MR c np
gr

  18   18 2243 3519 PO
gs 1464 389 4227 4227 MR c np
gr

  18   18 2351 3557 PO
gs 1464 389 4227 4227 MR c np
gr

  18   18 3045 3478 PO
gs 1464 389 4227 4227 MR c np
gr

  18   18 2339 3490 PO
gs 1464 389 4227 4227 MR c np
gr

  18   18 2240 3482 PO
gs 1464 389 4227 4227 MR c np
gr

  18   18 2956 3513 PO
gs 1464 389 4227 4227 MR c np
gr

  18   18 2107 3551 PO
gs 1464 389 4227 4227 MR c np
gr

  18   18 2179 3517 PO
gs 1464 389 4227 4227 MR c np
gr

  18   18 2060 3524 PO
gs 1464 389 4227 4227 MR c np
gr

  18   18 2864 3526 PO
gs 1464 389 4227 4227 MR c np
gr

  18   18 2828 3568 PO
gs 1464 389 4227 4227 MR c np
gr

  18   18 2833 3560 PO
gs 1464 389 4227 4227 MR c np
gr

  18   18 3051 3582 PO
gs 1464 389 4227 4227 MR c np
gr

  18   18 2542 3543 PO
gs 1464 389 4227 4227 MR c np
gr

  18   18 2379 3536 PO
gs 1464 389 4227 4227 MR c np
gr

/c63 { 0.000000 0.062500 1.000000 sr} bdef
c63
  18   18 2033 3490 PO
gs 1464 389 4227 4227 MR c np
gr

  18   18 2155 3535 PO
gs 1464 389 4227 4227 MR c np
gr

  18   18 2502 3598 PO
gs 1464 389 4227 4227 MR c np
gr

  18   18 2101 3564 PO
gs 1464 389 4227 4227 MR c np
gr

  18   18 3128 3520 PO
gs 1464 389 4227 4227 MR c np
gr

  18   18 2361 3583 PO
gs 1464 389 4227 4227 MR c np
gr

  18   18 2369 3590 PO
gs 1464 389 4227 4227 MR c np
gr

  18   18 2030 3609 PO
gs 1464 389 4227 4227 MR c np
gr

  18   18 2061 3571 PO
gs 1464 389 4227 4227 MR c np
gr

  18   18 2478 3560 PO
gs 1464 389 4227 4227 MR c np
gr

  18   18 2269 3586 PO
gs 1464 389 4227 4227 MR c np
gr

  18   18 2372 3644 PO
gs 1464 389 4227 4227 MR c np
gr

  18   18 2401 3593 PO
gs 1464 389 4227 4227 MR c np
gr

  18   18 2499 3604 PO
gs 1464 389 4227 4227 MR c np
gr

  18   18 2739 3570 PO
gs 1464 389 4227 4227 MR c np
gr

  18   18 2677 3641 PO
gs 1464 389 4227 4227 MR c np
gr

/c64 { 0.000000 0.000000 1.000000 sr} bdef
c64
  18   18 2847 3637 PO
gs 1464 389 4227 4227 MR c np
gr

  18   18 2788 3596 PO
gs 1464 389 4227 4227 MR c np
gr

  18   18 2923 3578 PO
gs 1464 389 4227 4227 MR c np
gr

  18   18 2475 3595 PO
gs 1464 389 4227 4227 MR c np
gr

  18   18 2425 3637 PO
gs 1464 389 4227 4227 MR c np
gr

  18   18 2384 3626 PO
gs 1464 389 4227 4227 MR c np
gr

  18   18 2962 3636 PO
gs 1464 389 4227 4227 MR c np
gr

  18   18 2733 3632 PO
gs 1464 389 4227 4227 MR c np
gr

  18   18 2432 3587 PO
gs 1464 389 4227 4227 MR c np
gr

  18   18 2562 3608 PO
gs 1464 389 4227 4227 MR c np
gr

  18   18 2589 3652 PO
gs 1464 389 4227 4227 MR c np
gr

  18   18 2821 3622 PO
gs 1464 389 4227 4227 MR c np
gr

  18   18 2936 3666 PO
gs 1464 389 4227 4227 MR c np
gr

  18   18 2077 3634 PO
gs 1464 389 4227 4227 MR c np
gr

  18   18 2532 3667 PO
gs 1464 389 4227 4227 MR c np
gr

/c65 { 0.000000 0.000000 0.937500 sr} bdef
c65
  18   18 2856 3592 PO
gs 1464 389 4227 4227 MR c np
gr

  18   18 2909 3687 PO
gs 1464 389 4227 4227 MR c np
gr

  18   18 2711 3600 PO
gs 1464 389 4227 4227 MR c np
gr

  18   18 2086 3620 PO
gs 1464 389 4227 4227 MR c np
gr

  18   18 2383 3645 PO
gs 1464 389 4227 4227 MR c np
gr

  18   18 2628 3661 PO
gs 1464 389 4227 4227 MR c np
gr

  18   18 2703 3645 PO
gs 1464 389 4227 4227 MR c np
gr

  18   18 2013 3665 PO
gs 1464 389 4227 4227 MR c np
gr

  18   18 2872 3673 PO
gs 1464 389 4227 4227 MR c np
gr

  18   18 2291 3640 PO
gs 1464 389 4227 4227 MR c np
gr

  18   18 2482 3643 PO
gs 1464 389 4227 4227 MR c np
gr

  18   18 2766 3664 PO
gs 1464 389 4227 4227 MR c np
gr

  18   18 2510 3734 PO
gs 1464 389 4227 4227 MR c np
gr

  18   18 2561 3700 PO
gs 1464 389 4227 4227 MR c np
gr

  18   18 2169 3683 PO
gs 1464 389 4227 4227 MR c np
gr

  18   18 2130 3698 PO
gs 1464 389 4227 4227 MR c np
gr

/c66 { 0.000000 0.000000 0.875000 sr} bdef
c66
  18   18 2454 3714 PO
gs 1464 389 4227 4227 MR c np
gr

  18   18 2968 3694 PO
gs 1464 389 4227 4227 MR c np
gr

  18   18 2779 3737 PO
gs 1464 389 4227 4227 MR c np
gr

  18   18 2874 3681 PO
gs 1464 389 4227 4227 MR c np
gr

  18   18 2432 3654 PO
gs 1464 389 4227 4227 MR c np
gr

  18   18 2790 3640 PO
gs 1464 389 4227 4227 MR c np
gr

  18   18 2187 3700 PO
gs 1464 389 4227 4227 MR c np
gr

  18   18 2100 3707 PO
gs 1464 389 4227 4227 MR c np
gr

  18   18 2875 3674 PO
gs 1464 389 4227 4227 MR c np
gr

  18   18 2228 3707 PO
gs 1464 389 4227 4227 MR c np
gr

  18   18 2467 3743 PO
gs 1464 389 4227 4227 MR c np
gr

  18   18 2292 3715 PO
gs 1464 389 4227 4227 MR c np
gr

  18   18 1838 3710 PO
gs 1464 389 4227 4227 MR c np
gr

  18   18 2691 3741 PO
gs 1464 389 4227 4227 MR c np
gr

  18   18 2800 3708 PO
gs 1464 389 4227 4227 MR c np
gr

/c67 { 0.000000 0.000000 0.812500 sr} bdef
c67
  18   18 2120 3750 PO
gs 1464 389 4227 4227 MR c np
gr

  18   18 2947 3753 PO
gs 1464 389 4227 4227 MR c np
gr

  18   18 2483 3744 PO
gs 1464 389 4227 4227 MR c np
gr

  18   18 2768 3746 PO
gs 1464 389 4227 4227 MR c np
gr

  18   18 1866 3771 PO
gs 1464 389 4227 4227 MR c np
gr

  18   18 2122 3784 PO
gs 1464 389 4227 4227 MR c np
gr

  18   18 2887 3768 PO
gs 1464 389 4227 4227 MR c np
gr

  18   18 1903 3764 PO
gs 1464 389 4227 4227 MR c np
gr

  18   18 2340 3702 PO
gs 1464 389 4227 4227 MR c np
gr

  18   18 2648 3695 PO
gs 1464 389 4227 4227 MR c np
gr

  18   18 2344 3690 PO
gs 1464 389 4227 4227 MR c np
gr

  18   18 2553 3771 PO
gs 1464 389 4227 4227 MR c np
gr

  18   18 2354 3741 PO
gs 1464 389 4227 4227 MR c np
gr

  18   18 2801 3808 PO
gs 1464 389 4227 4227 MR c np
gr

  18   18 1971 3731 PO
gs 1464 389 4227 4227 MR c np
gr

  18   18 2789 3786 PO
gs 1464 389 4227 4227 MR c np
gr

/c68 { 0.000000 0.000000 0.750000 sr} bdef
c68
  18   18 2528 3746 PO
gs 1464 389 4227 4227 MR c np
gr

  18   18 2508 3807 PO
gs 1464 389 4227 4227 MR c np
gr

  18   18 1834 3810 PO
gs 1464 389 4227 4227 MR c np
gr

  18   18 2748 3822 PO
gs 1464 389 4227 4227 MR c np
gr

  18   18 1928 3784 PO
gs 1464 389 4227 4227 MR c np
gr

  18   18 2686 3827 PO
gs 1464 389 4227 4227 MR c np
gr

  18   18 1874 3795 PO
gs 1464 389 4227 4227 MR c np
gr

  18   18 1840 3800 PO
gs 1464 389 4227 4227 MR c np
gr

  18   18 2136 3805 PO
gs 1464 389 4227 4227 MR c np
gr

  18   18 2740 3812 PO
gs 1464 389 4227 4227 MR c np
gr

  18   18 2406 3822 PO
gs 1464 389 4227 4227 MR c np
gr

  18   18 1790 3816 PO
gs 1464 389 4227 4227 MR c np
gr

  18   18 1946 3786 PO
gs 1464 389 4227 4227 MR c np
gr

  18   18 2714 3836 PO
gs 1464 389 4227 4227 MR c np
gr

  18   18 1763 3846 PO
gs 1464 389 4227 4227 MR c np
gr

  18   18 1879 3792 PO
gs 1464 389 4227 4227 MR c np
gr

/c69 { 0.000000 0.000000 0.687500 sr} bdef
c69
  18   18 2006 3844 PO
gs 1464 389 4227 4227 MR c np
gr

  18   18 2527 3814 PO
gs 1464 389 4227 4227 MR c np
gr

  18   18 2602 3817 PO
gs 1464 389 4227 4227 MR c np
gr

  18   18 2731 3812 PO
gs 1464 389 4227 4227 MR c np
gr

  18   18 2677 3846 PO
gs 1464 389 4227 4227 MR c np
gr

  18   18 2223 3851 PO
gs 1464 389 4227 4227 MR c np
gr

  18   18 1824 3855 PO
gs 1464 389 4227 4227 MR c np
gr

  18   18 1969 3847 PO
gs 1464 389 4227 4227 MR c np
gr

  18   18 2656 3862 PO
gs 1464 389 4227 4227 MR c np
gr

  18   18 1937 3811 PO
gs 1464 389 4227 4227 MR c np
gr

  18   18 2465 3824 PO
gs 1464 389 4227 4227 MR c np
gr

  18   18 2630 3890 PO
gs 1464 389 4227 4227 MR c np
gr

  18   18 2665 3837 PO
gs 1464 389 4227 4227 MR c np
gr

  18   18 2566 3863 PO
gs 1464 389 4227 4227 MR c np
gr

  18   18 2448 3896 PO
gs 1464 389 4227 4227 MR c np
gr

/c70 { 0.000000 0.000000 0.625000 sr} bdef
c70
  18   18 2331 3878 PO
gs 1464 389 4227 4227 MR c np
gr

  18   18 2796 3788 PO
gs 1464 389 4227 4227 MR c np
gr

  18   18 2543 3907 PO
gs 1464 389 4227 4227 MR c np
gr

  18   18 2683 3838 PO
gs 1464 389 4227 4227 MR c np
gr

  18   18 2185 3843 PO
gs 1464 389 4227 4227 MR c np
gr

  18   18 2042 3936 PO
gs 1464 389 4227 4227 MR c np
gr

  18   18 2814 3922 PO
gs 1464 389 4227 4227 MR c np
gr

  18   18 2219 3936 PO
gs 1464 389 4227 4227 MR c np
gr

  18   18 2357 3902 PO
gs 1464 389 4227 4227 MR c np
gr

  18   18 2214 3899 PO
gs 1464 389 4227 4227 MR c np
gr

  18   18 2256 3838 PO
gs 1464 389 4227 4227 MR c np
gr

  18   18 2239 3874 PO
gs 1464 389 4227 4227 MR c np
gr

  18   18 1937 3893 PO
gs 1464 389 4227 4227 MR c np
gr

  18   18 2744 3854 PO
gs 1464 389 4227 4227 MR c np
gr

  18   18 2825 3865 PO
gs 1464 389 4227 4227 MR c np
gr

  18   18 1952 3915 PO
gs 1464 389 4227 4227 MR c np
gr

/c71 { 0.000000 0.000000 0.562500 sr} bdef
c71
  18   18 1803 3946 PO
gs 1464 389 4227 4227 MR c np
gr

  18   18 2887 3906 PO
gs 1464 389 4227 4227 MR c np
gr

  18   18 1947 3942 PO
gs 1464 389 4227 4227 MR c np
gr

  18   18 2427 3860 PO
gs 1464 389 4227 4227 MR c np
gr

  18   18 1828 3903 PO
gs 1464 389 4227 4227 MR c np
gr

  18   18 2030 3969 PO
gs 1464 389 4227 4227 MR c np
gr

  18   18 2802 3943 PO
gs 1464 389 4227 4227 MR c np
gr

  18   18 2859 3933 PO
gs 1464 389 4227 4227 MR c np
gr

  18   18 2797 3950 PO
gs 1464 389 4227 4227 MR c np
gr

  18   18 2292 3979 PO
gs 1464 389 4227 4227 MR c np
gr

  18   18 2459 3841 PO
gs 1464 389 4227 4227 MR c np
gr

  18   18 2295 3990 PO
gs 1464 389 4227 4227 MR c np
gr

  18   18 2418 3919 PO
gs 1464 389 4227 4227 MR c np
gr

  18   18 1790 3912 PO
gs 1464 389 4227 4227 MR c np
gr

  18   18 1972 3976 PO
gs 1464 389 4227 4227 MR c np
gr

  18   18 2744 3946 PO
gs 1464 389 4227 4227 MR c np
gr

0 sg
3473 4903 mt 
(g\(x\)) s
1111 2606 mt  -90 rotate
(h\(y\)) s
90 rotate

end %%Color Dict

eplot
%%EndObject

epage
end

showpage

%%Trailer
%%EOF
