%!PS-Adobe-2.0 EPSF-1.2
%%Creator: MATLAB, The MathWorks, Inc. Version 8.3.0.532 (R2014a). Operating System: Linux 2.6.32-431.20.3.el6.x86_64 #1 SMP Thu Jun 19 14:01:59 CDT 2014 x86_64.
%%Title: ./inputY.eps
%%CreationDate: 05/29/2015  15:32:42
%%DocumentNeededFonts: Helvetica
%%DocumentProcessColors: Cyan Magenta Yellow Black
%%Extensions: CMYK
%%Pages: 1
%%BoundingBox:    82   199   526   583
%%EndComments

%%BeginProlog
% MathWorks dictionary
/MathWorks 160 dict begin
% definition operators
/bdef {bind def} bind def
/ldef {load def} bind def
/xdef {exch def} bdef
/xstore {exch store} bdef
% operator abbreviations
/c  /clip ldef
/cc /concat ldef
/cp /closepath ldef
/gr /grestore ldef
/gs /gsave ldef
/mt /moveto ldef
/np /newpath ldef
/cm /currentmatrix ldef
/sm /setmatrix ldef
/rm /rmoveto ldef
/rl /rlineto ldef
/s {show newpath} bdef
/sc {setcmykcolor} bdef
/sr /setrgbcolor ldef
/sg /setgray ldef
/w /setlinewidth ldef
/j /setlinejoin ldef
/cap /setlinecap ldef
/rc {rectclip} bdef
/rf {rectfill} bdef
% page state control
/pgsv () def
/bpage {/pgsv save def} bdef
/epage {pgsv restore} bdef
/bplot /gsave ldef
/eplot {stroke grestore} bdef
% orientation switch
/portraitMode 0 def /landscapeMode 1 def /rotateMode 2 def
% coordinate system mappings
/dpi2point 0 def
% font control
/FontSize 0 def
/FMS {/FontSize xstore findfont [FontSize 0 0 FontSize neg 0 0]
  makefont setfont} bdef
/reencode {exch dup where {pop load} {pop StandardEncoding} ifelse
  exch dup 3 1 roll findfont dup length dict begin
  { 1 index /FID ne {def}{pop pop} ifelse } forall
  /Encoding exch def currentdict end definefont pop} bdef
/isroman {findfont /CharStrings get /Agrave known} bdef
/FMSR {3 1 roll 1 index dup isroman {reencode} {pop pop} ifelse
  exch FMS} bdef
/csm {1 dpi2point div -1 dpi2point div scale neg translate
 dup landscapeMode eq {pop -90 rotate}
  {rotateMode eq {90 rotate} if} ifelse} bdef
% line types: solid, dotted, dashed, dotdash
/SO { [] 0 setdash } bdef
/DO { [.5 dpi2point mul 4 dpi2point mul] 0 setdash } bdef
/DA { [6 dpi2point mul] 0 setdash } bdef
/DD { [.5 dpi2point mul 4 dpi2point mul 6 dpi2point mul 4
  dpi2point mul] 0 setdash } bdef
% macros for lines and objects
/L {lineto stroke} bdef
/MP {3 1 roll moveto 1 sub {rlineto} repeat} bdef
/AP {{rlineto} repeat} bdef
/PDlw -1 def
/W {/PDlw currentlinewidth def setlinewidth} def
/PP {closepath eofill} bdef
/DP {closepath stroke} bdef
/MR {4 -2 roll moveto dup  0 exch rlineto exch 0 rlineto
  neg 0 exch rlineto closepath} bdef
/FR {MR stroke} bdef
/PR {MR fill} bdef
/L1i {{currentfile picstr readhexstring pop} image} bdef
/tMatrix matrix def
/MakeOval {newpath tMatrix currentmatrix pop translate scale
0 0 1 0 360 arc tMatrix setmatrix} bdef
/FO {MakeOval stroke} bdef
/PO {MakeOval fill} bdef
/PD {currentlinewidth 2 div 0 360 arc fill
   PDlw -1 eq not {PDlw w /PDlw -1 def} if} def
/FA {newpath tMatrix currentmatrix pop translate scale
  0 0 1 5 -2 roll arc tMatrix setmatrix stroke} bdef
/PA {newpath tMatrix currentmatrix pop	translate 0 0 moveto scale
  0 0 1 5 -2 roll arc closepath tMatrix setmatrix fill} bdef
/FAn {newpath tMatrix currentmatrix pop translate scale
  0 0 1 5 -2 roll arcn tMatrix setmatrix stroke} bdef
/PAn {newpath tMatrix currentmatrix pop translate 0 0 moveto scale
  0 0 1 5 -2 roll arcn closepath tMatrix setmatrix fill} bdef
/vradius 0 def /hradius 0 def /lry 0 def
/lrx 0 def /uly 0 def /ulx 0 def /rad 0 def
/MRR {/vradius xdef /hradius xdef /lry xdef /lrx xdef /uly xdef
  /ulx xdef newpath tMatrix currentmatrix pop ulx hradius add uly
  vradius add translate hradius vradius scale 0 0 1 180 270 arc 
  tMatrix setmatrix lrx hradius sub uly vradius add translate
  hradius vradius scale 0 0 1 270 360 arc tMatrix setmatrix
  lrx hradius sub lry vradius sub translate hradius vradius scale
  0 0 1 0 90 arc tMatrix setmatrix ulx hradius add lry vradius sub
  translate hradius vradius scale 0 0 1 90 180 arc tMatrix setmatrix
  closepath} bdef
/FRR {MRR stroke } bdef
/PRR {MRR fill } bdef
/MlrRR {/lry xdef /lrx xdef /uly xdef /ulx xdef /rad lry uly sub 2 div def
  newpath tMatrix currentmatrix pop ulx rad add uly rad add translate
  rad rad scale 0 0 1 90 270 arc tMatrix setmatrix lrx rad sub lry rad
  sub translate rad rad scale 0 0 1 270 90 arc tMatrix setmatrix
  closepath} bdef
/FlrRR {MlrRR stroke } bdef
/PlrRR {MlrRR fill } bdef
/MtbRR {/lry xdef /lrx xdef /uly xdef /ulx xdef /rad lrx ulx sub 2 div def
  newpath tMatrix currentmatrix pop ulx rad add uly rad add translate
  rad rad scale 0 0 1 180 360 arc tMatrix setmatrix lrx rad sub lry rad
  sub translate rad rad scale 0 0 1 0 180 arc tMatrix setmatrix
  closepath} bdef
/FtbRR {MtbRR stroke } bdef
/PtbRR {MtbRR fill } bdef
/stri 6 array def /dtri 6 array def
/smat 6 array def /dmat 6 array def
/tmat1 6 array def /tmat2 6 array def /dif 3 array def
/asub {/ind2 exch def /ind1 exch def dup dup
  ind1 get exch ind2 get sub exch } bdef
/tri_to_matrix {
  2 0 asub 3 1 asub 4 0 asub 5 1 asub
  dup 0 get exch 1 get 7 -1 roll astore } bdef
/compute_transform {
  dmat dtri tri_to_matrix tmat1 invertmatrix 
  smat stri tri_to_matrix tmat2 concatmatrix } bdef
/ds {stri astore pop} bdef
/dt {dtri astore pop} bdef
/db {2 copy /cols xdef /rows xdef mul dup 3 mul string
  currentfile exch readhexstring pop
  dup 0 3 index getinterval /rbmap xdef
  dup 2 index dup getinterval /gbmap xdef
  1 index dup 2 mul exch getinterval /bbmap xdef pop pop}bdef
/it {gs np dtri aload pop moveto lineto lineto cp c
  cols rows 8 compute_transform 
  rbmap gbmap bbmap true 3 colorimage gr}bdef
/il {newpath moveto lineto stroke}bdef
currentdict end def
%%EndProlog

%%BeginSetup
MathWorks begin

0 cap

end
%%EndSetup

%%Page: 1 1
%%BeginPageSetup
%%PageBoundingBox:    82   199   526   583
MathWorks begin
bpage
%%EndPageSetup

%%BeginObject: obj1
bplot

/dpi2point 12 def
portraitMode 0216 7344 csm

  773   341  5334  4614 MR c np
85 dict begin %Colortable dictionary
/c0 { 0.000000 0.000000 0.000000 sr} bdef
/c1 { 1.000000 1.000000 1.000000 sr} bdef
/c2 { 0.900000 0.000000 0.000000 sr} bdef
/c3 { 0.000000 0.820000 0.000000 sr} bdef
/c4 { 0.000000 0.000000 0.800000 sr} bdef
/c5 { 0.910000 0.820000 0.320000 sr} bdef
/c6 { 1.000000 0.260000 0.820000 sr} bdef
/c7 { 0.000000 0.820000 0.820000 sr} bdef
c0
1 j
1 sg
   0    0 6913 5186 PR
6 w
0 4226 4829 0 0 -4226 1162 4615 4 MP
PP
-4829 0 0 4226 4829 0 0 -4226 1162 4615 5 MP stroke
4 w
DO
SO
6 w
0 sg
1162 4615 mt 5991 4615 L
1162  389 mt 5991  389 L
1162 4615 mt 1162  389 L
5991 4615 mt 5991  389 L
1162 4615 mt 5991 4615 L
1162 4615 mt 1162  389 L
1162 4615 mt 1162 4566 L
1162  389 mt 1162  437 L
%%IncludeResource: font Helvetica
/Helvetica /ISOLatin1Encoding 120 FMSR

1059 4760 mt 
(-2) s
1765 4615 mt 1765 4566 L
1765  389 mt 1765  437 L
1732 4760 mt 
(0) s
2369 4615 mt 2369 4566 L
2369  389 mt 2369  437 L
2336 4760 mt 
(2) s
2973 4615 mt 2973 4566 L
2973  389 mt 2973  437 L
2940 4760 mt 
(4) s
3577 4615 mt 3577 4566 L
3577  389 mt 3577  437 L
3544 4760 mt 
(6) s
4180 4615 mt 4180 4566 L
4180  389 mt 4180  437 L
4147 4760 mt 
(8) s
4784 4615 mt 4784 4566 L
4784  389 mt 4784  437 L
4718 4760 mt 
(10) s
5388 4615 mt 5388 4566 L
5388  389 mt 5388  437 L
5322 4760 mt 
(12) s
5991 4615 mt 5991 4566 L
5991  389 mt 5991  437 L
5925 4760 mt 
(14) s
1162 4313 mt 1210 4313 L
5991 4313 mt 5943 4313 L
 991 4357 mt 
(-6) s
1162 3709 mt 1210 3709 L
5991 3709 mt 5943 3709 L
 991 3753 mt 
(-4) s
1162 3105 mt 1210 3105 L
5991 3105 mt 5943 3105 L
 991 3149 mt 
(-2) s
1162 2502 mt 1210 2502 L
5991 2502 mt 5943 2502 L
1061 2546 mt 
(0) s
1162 1898 mt 1210 1898 L
5991 1898 mt 5943 1898 L
1061 1942 mt 
(2) s
1162 1294 mt 1210 1294 L
5991 1294 mt 5943 1294 L
1061 1338 mt 
(4) s
1162  690 mt 1210  690 L
5991  690 mt 5943  690 L
1061  734 mt 
(6) s
1162 4615 mt 5991 4615 L
1162  389 mt 5991  389 L
1162 4615 mt 1162  389 L
5991 4615 mt 5991  389 L
gs 1162 389 4830 4227 MR c np
0 j
gr

/c8 { 0.500000 0.000000 0.000000 sr} bdef
c8
  18   18 5559 2309 PO
gs 1162 389 4830 4227 MR c np
gr

  18   18 5555 3611 PO
gs 1162 389 4830 4227 MR c np
gr

  18   18 5551 2097 PO
gs 1162 389 4830 4227 MR c np
gr

  18   18 5547 3049 PO
gs 1162 389 4830 4227 MR c np
gr

  18   18 5543 2717 PO
gs 1162 389 4830 4227 MR c np
gr

  18   18 5540 3369 PO
gs 1162 389 4830 4227 MR c np
gr

  18   18 5536 2385 PO
gs 1162 389 4830 4227 MR c np
gr

  18   18 5532 2929 PO
gs 1162 389 4830 4227 MR c np
gr

  18   18 5528  678 PO
gs 1162 389 4830 4227 MR c np
gr

  18   18 5524 2367 PO
gs 1162 389 4830 4227 MR c np
gr

  18   18 5521 2291 PO
gs 1162 389 4830 4227 MR c np
gr

  18   18 5517 2291 PO
gs 1162 389 4830 4227 MR c np
gr

  18   18 5513 1507 PO
gs 1162 389 4830 4227 MR c np
gr

  18   18 5509 3128 PO
gs 1162 389 4830 4227 MR c np
gr

  18   18 5505 1865 PO
gs 1162 389 4830 4227 MR c np
gr

  18   18 5502 2421 PO
gs 1162 389 4830 4227 MR c np
gr

/c9 { 0.562500 0.000000 0.000000 sr} bdef
c9
  18   18 5498 3017 PO
gs 1162 389 4830 4227 MR c np
gr

  18   18 5494 2513 PO
gs 1162 389 4830 4227 MR c np
gr

  18   18 5490 2564 PO
gs 1162 389 4830 4227 MR c np
gr

  18   18 5486 1733 PO
gs 1162 389 4830 4227 MR c np
gr

  18   18 5483 3835 PO
gs 1162 389 4830 4227 MR c np
gr

  18   18 5479 2954 PO
gs 1162 389 4830 4227 MR c np
gr

  18   18 5475 2659 PO
gs 1162 389 4830 4227 MR c np
gr

  18   18 5471 2660 PO
gs 1162 389 4830 4227 MR c np
gr

  18   18 5467 2598 PO
gs 1162 389 4830 4227 MR c np
gr

  18   18 5464 2697 PO
gs 1162 389 4830 4227 MR c np
gr

  18   18 5460 2476 PO
gs 1162 389 4830 4227 MR c np
gr

  18   18 5456 1926 PO
gs 1162 389 4830 4227 MR c np
gr

  18   18 5452 2743 PO
gs 1162 389 4830 4227 MR c np
gr

  18   18 5448 3174 PO
gs 1162 389 4830 4227 MR c np
gr

  18   18 5445 2791 PO
gs 1162 389 4830 4227 MR c np
gr

  18   18 5441 2358 PO
gs 1162 389 4830 4227 MR c np
gr

/c10 { 0.625000 0.000000 0.000000 sr} bdef
c10
  18   18 5437 2308 PO
gs 1162 389 4830 4227 MR c np
gr

  18   18 5433 2381 PO
gs 1162 389 4830 4227 MR c np
gr

  18   18 5430 3520 PO
gs 1162 389 4830 4227 MR c np
gr

  18   18 5426 3354 PO
gs 1162 389 4830 4227 MR c np
gr

  18   18 5422 2811 PO
gs 1162 389 4830 4227 MR c np
gr

  18   18 5418 2113 PO
gs 1162 389 4830 4227 MR c np
gr

  18   18 5414 2087 PO
gs 1162 389 4830 4227 MR c np
gr

  18   18 5411 1978 PO
gs 1162 389 4830 4227 MR c np
gr

  18   18 5407 3333 PO
gs 1162 389 4830 4227 MR c np
gr

  18   18 5403 3290 PO
gs 1162 389 4830 4227 MR c np
gr

  18   18 5399 2424 PO
gs 1162 389 4830 4227 MR c np
gr

  18   18 5395 2993 PO
gs 1162 389 4830 4227 MR c np
gr

  18   18 5392 1430 PO
gs 1162 389 4830 4227 MR c np
gr

  18   18 5388 2828 PO
gs 1162 389 4830 4227 MR c np
gr

  18   18 5384 2884 PO
gs 1162 389 4830 4227 MR c np
gr

/c11 { 0.687500 0.000000 0.000000 sr} bdef
c11
  18   18 5380 3017 PO
gs 1162 389 4830 4227 MR c np
gr

  18   18 5376 1819 PO
gs 1162 389 4830 4227 MR c np
gr

  18   18 5373 3139 PO
gs 1162 389 4830 4227 MR c np
gr

  18   18 5369 2828 PO
gs 1162 389 4830 4227 MR c np
gr

  18   18 5365 2706 PO
gs 1162 389 4830 4227 MR c np
gr

  18   18 5361 2313 PO
gs 1162 389 4830 4227 MR c np
gr

  18   18 5357 2318 PO
gs 1162 389 4830 4227 MR c np
gr

  18   18 5354 2347 PO
gs 1162 389 4830 4227 MR c np
gr

  18   18 5350 2449 PO
gs 1162 389 4830 4227 MR c np
gr

  18   18 5346 1710 PO
gs 1162 389 4830 4227 MR c np
gr

  18   18 5342 3147 PO
gs 1162 389 4830 4227 MR c np
gr

  18   18 5338 1971 PO
gs 1162 389 4830 4227 MR c np
gr

  18   18 5335 3066 PO
gs 1162 389 4830 4227 MR c np
gr

  18   18 5331 3666 PO
gs 1162 389 4830 4227 MR c np
gr

  18   18 5327 1471 PO
gs 1162 389 4830 4227 MR c np
gr

  18   18 5323 3235 PO
gs 1162 389 4830 4227 MR c np
gr

/c12 { 0.750000 0.000000 0.000000 sr} bdef
c12
  18   18 5319 2684 PO
gs 1162 389 4830 4227 MR c np
gr

  18   18 5316 1865 PO
gs 1162 389 4830 4227 MR c np
gr

  18   18 5312 3124 PO
gs 1162 389 4830 4227 MR c np
gr

  18   18 5308 1408 PO
gs 1162 389 4830 4227 MR c np
gr

  18   18 5304 2885 PO
gs 1162 389 4830 4227 MR c np
gr

  18   18 5300 1984 PO
gs 1162 389 4830 4227 MR c np
gr

  18   18 5297 1400 PO
gs 1162 389 4830 4227 MR c np
gr

  18   18 5293 2379 PO
gs 1162 389 4830 4227 MR c np
gr

  18   18 5289 3301 PO
gs 1162 389 4830 4227 MR c np
gr

  18   18 5285 2405 PO
gs 1162 389 4830 4227 MR c np
gr

  18   18 5281 1928 PO
gs 1162 389 4830 4227 MR c np
gr

  18   18 5278 3197 PO
gs 1162 389 4830 4227 MR c np
gr

  18   18 5274 2172 PO
gs 1162 389 4830 4227 MR c np
gr

  18   18 5270 1861 PO
gs 1162 389 4830 4227 MR c np
gr

  18   18 5266 2005 PO
gs 1162 389 4830 4227 MR c np
gr

  18   18 5262 2172 PO
gs 1162 389 4830 4227 MR c np
gr

/c13 { 0.812500 0.000000 0.000000 sr} bdef
c13
  18   18 5259 2762 PO
gs 1162 389 4830 4227 MR c np
gr

  18   18 5255 2474 PO
gs 1162 389 4830 4227 MR c np
gr

  18   18 5251 2359 PO
gs 1162 389 4830 4227 MR c np
gr

  18   18 5247 3344 PO
gs 1162 389 4830 4227 MR c np
gr

  18   18 5243 2428 PO
gs 1162 389 4830 4227 MR c np
gr

  18   18 5240 1960 PO
gs 1162 389 4830 4227 MR c np
gr

  18   18 5236 3297 PO
gs 1162 389 4830 4227 MR c np
gr

  18   18 5232 2094 PO
gs 1162 389 4830 4227 MR c np
gr

  18   18 5228 3780 PO
gs 1162 389 4830 4227 MR c np
gr

  18   18 5224 3021 PO
gs 1162 389 4830 4227 MR c np
gr

  18   18 5221 1948 PO
gs 1162 389 4830 4227 MR c np
gr

  18   18 5217 3054 PO
gs 1162 389 4830 4227 MR c np
gr

  18   18 5213 3041 PO
gs 1162 389 4830 4227 MR c np
gr

  18   18 5209 2103 PO
gs 1162 389 4830 4227 MR c np
gr

  18   18 5205 2242 PO
gs 1162 389 4830 4227 MR c np
gr

/c14 { 0.875000 0.000000 0.000000 sr} bdef
c14
  18   18 5202 2034 PO
gs 1162 389 4830 4227 MR c np
gr

  18   18 5198 2443 PO
gs 1162 389 4830 4227 MR c np
gr

  18   18 5194 2076 PO
gs 1162 389 4830 4227 MR c np
gr

  18   18 5190 3182 PO
gs 1162 389 4830 4227 MR c np
gr

  18   18 5186 2574 PO
gs 1162 389 4830 4227 MR c np
gr

  18   18 5183 2795 PO
gs 1162 389 4830 4227 MR c np
gr

  18   18 5179 2696 PO
gs 1162 389 4830 4227 MR c np
gr

  18   18 5175 2825 PO
gs 1162 389 4830 4227 MR c np
gr

  18   18 5171 1303 PO
gs 1162 389 4830 4227 MR c np
gr

  18   18 5168 1480 PO
gs 1162 389 4830 4227 MR c np
gr

  18   18 5164 2497 PO
gs 1162 389 4830 4227 MR c np
gr

  18   18 5160  883 PO
gs 1162 389 4830 4227 MR c np
gr

  18   18 5156 2587 PO
gs 1162 389 4830 4227 MR c np
gr

  18   18 5152 2087 PO
gs 1162 389 4830 4227 MR c np
gr

  18   18 5149 1509 PO
gs 1162 389 4830 4227 MR c np
gr

  18   18 5145 2206 PO
gs 1162 389 4830 4227 MR c np
gr

/c15 { 0.937500 0.000000 0.000000 sr} bdef
c15
  18   18 5141 2926 PO
gs 1162 389 4830 4227 MR c np
gr

  18   18 5137 2979 PO
gs 1162 389 4830 4227 MR c np
gr

  18   18 5133 3706 PO
gs 1162 389 4830 4227 MR c np
gr

  18   18 5130 2206 PO
gs 1162 389 4830 4227 MR c np
gr

  18   18 5126 3372 PO
gs 1162 389 4830 4227 MR c np
gr

  18   18 5122 2062 PO
gs 1162 389 4830 4227 MR c np
gr

  18   18 5118 3351 PO
gs 1162 389 4830 4227 MR c np
gr

  18   18 5114 1183 PO
gs 1162 389 4830 4227 MR c np
gr

  18   18 5111 3377 PO
gs 1162 389 4830 4227 MR c np
gr

  18   18 5107 2119 PO
gs 1162 389 4830 4227 MR c np
gr

  18   18 5103 2789 PO
gs 1162 389 4830 4227 MR c np
gr

  18   18 5099 2765 PO
gs 1162 389 4830 4227 MR c np
gr

  18   18 5095 2708 PO
gs 1162 389 4830 4227 MR c np
gr

  18   18 5092 2564 PO
gs 1162 389 4830 4227 MR c np
gr

  18   18 5088 2542 PO
gs 1162 389 4830 4227 MR c np
gr

/c16 { 1.000000 0.000000 0.000000 sr} bdef
c16
  18   18 5084  704 PO
gs 1162 389 4830 4227 MR c np
gr

  18   18 5080 1951 PO
gs 1162 389 4830 4227 MR c np
gr

  18   18 5076 2891 PO
gs 1162 389 4830 4227 MR c np
gr

  18   18 5073 2483 PO
gs 1162 389 4830 4227 MR c np
gr

  18   18 5069 2252 PO
gs 1162 389 4830 4227 MR c np
gr

  18   18 5065 2281 PO
gs 1162 389 4830 4227 MR c np
gr

  18   18 5061 2815 PO
gs 1162 389 4830 4227 MR c np
gr

  18   18 5057 2653 PO
gs 1162 389 4830 4227 MR c np
gr

  18   18 5054 3249 PO
gs 1162 389 4830 4227 MR c np
gr

  18   18 5050 2682 PO
gs 1162 389 4830 4227 MR c np
gr

  18   18 5046 1818 PO
gs 1162 389 4830 4227 MR c np
gr

  18   18 5042 2412 PO
gs 1162 389 4830 4227 MR c np
gr

  18   18 5038 2040 PO
gs 1162 389 4830 4227 MR c np
gr

  18   18 5035 3384 PO
gs 1162 389 4830 4227 MR c np
gr

  18   18 5031 2973 PO
gs 1162 389 4830 4227 MR c np
gr

  18   18 5027 4025 PO
gs 1162 389 4830 4227 MR c np
gr

/c17 { 1.000000 0.062500 0.000000 sr} bdef
c17
  18   18 5023 2039 PO
gs 1162 389 4830 4227 MR c np
gr

  18   18 5019 2155 PO
gs 1162 389 4830 4227 MR c np
gr

  18   18 5016 2167 PO
gs 1162 389 4830 4227 MR c np
gr

  18   18 5012 2891 PO
gs 1162 389 4830 4227 MR c np
gr

  18   18 5008 3180 PO
gs 1162 389 4830 4227 MR c np
gr

  18   18 5004 1709 PO
gs 1162 389 4830 4227 MR c np
gr

  18   18 5000 3373 PO
gs 1162 389 4830 4227 MR c np
gr

  18   18 4997 2536 PO
gs 1162 389 4830 4227 MR c np
gr

  18   18 4993 3913 PO
gs 1162 389 4830 4227 MR c np
gr

  18   18 4989 1788 PO
gs 1162 389 4830 4227 MR c np
gr

  18   18 4985 3132 PO
gs 1162 389 4830 4227 MR c np
gr

  18   18 4981 2841 PO
gs 1162 389 4830 4227 MR c np
gr

  18   18 4978 3447 PO
gs 1162 389 4830 4227 MR c np
gr

  18   18 4974 2193 PO
gs 1162 389 4830 4227 MR c np
gr

  18   18 4970 1899 PO
gs 1162 389 4830 4227 MR c np
gr

  18   18 4966 1525 PO
gs 1162 389 4830 4227 MR c np
gr

/c18 { 1.000000 0.125000 0.000000 sr} bdef
c18
  18   18 4962 2714 PO
gs 1162 389 4830 4227 MR c np
gr

  18   18 4959 2499 PO
gs 1162 389 4830 4227 MR c np
gr

  18   18 4955 3096 PO
gs 1162 389 4830 4227 MR c np
gr

  18   18 4951 2751 PO
gs 1162 389 4830 4227 MR c np
gr

  18   18 4947 2873 PO
gs 1162 389 4830 4227 MR c np
gr

  18   18 4943 1574 PO
gs 1162 389 4830 4227 MR c np
gr

  18   18 4940 2946 PO
gs 1162 389 4830 4227 MR c np
gr

  18   18 4936 3182 PO
gs 1162 389 4830 4227 MR c np
gr

  18   18 4932 1519 PO
gs 1162 389 4830 4227 MR c np
gr

  18   18 4928 2758 PO
gs 1162 389 4830 4227 MR c np
gr

  18   18 4924 3579 PO
gs 1162 389 4830 4227 MR c np
gr

  18   18 4921 2187 PO
gs 1162 389 4830 4227 MR c np
gr

  18   18 4917 3451 PO
gs 1162 389 4830 4227 MR c np
gr

  18   18 4913 2247 PO
gs 1162 389 4830 4227 MR c np
gr

  18   18 4909 3476 PO
gs 1162 389 4830 4227 MR c np
gr

/c19 { 1.000000 0.187500 0.000000 sr} bdef
c19
  18   18 4906 1447 PO
gs 1162 389 4830 4227 MR c np
gr

  18   18 4902 2286 PO
gs 1162 389 4830 4227 MR c np
gr

  18   18 4898 2277 PO
gs 1162 389 4830 4227 MR c np
gr

  18   18 4894 3314 PO
gs 1162 389 4830 4227 MR c np
gr

  18   18 4890 1435 PO
gs 1162 389 4830 4227 MR c np
gr

  18   18 4887 2741 PO
gs 1162 389 4830 4227 MR c np
gr

  18   18 4883 2689 PO
gs 1162 389 4830 4227 MR c np
gr

  18   18 4879 2558 PO
gs 1162 389 4830 4227 MR c np
gr

  18   18 4875 2091 PO
gs 1162 389 4830 4227 MR c np
gr

  18   18 4871 1216 PO
gs 1162 389 4830 4227 MR c np
gr

  18   18 4868 1776 PO
gs 1162 389 4830 4227 MR c np
gr

  18   18 4864 2263 PO
gs 1162 389 4830 4227 MR c np
gr

  18   18 4860 3424 PO
gs 1162 389 4830 4227 MR c np
gr

  18   18 4856 3082 PO
gs 1162 389 4830 4227 MR c np
gr

  18   18 4852 3425 PO
gs 1162 389 4830 4227 MR c np
gr

  18   18 4849 1847 PO
gs 1162 389 4830 4227 MR c np
gr

/c20 { 1.000000 0.250000 0.000000 sr} bdef
c20
  18   18 4845 3454 PO
gs 1162 389 4830 4227 MR c np
gr

  18   18 4841 3725 PO
gs 1162 389 4830 4227 MR c np
gr

  18   18 4837 2140 PO
gs 1162 389 4830 4227 MR c np
gr

  18   18 4833 3377 PO
gs 1162 389 4830 4227 MR c np
gr

  18   18 4830 2038 PO
gs 1162 389 4830 4227 MR c np
gr

  18   18 4826 3590 PO
gs 1162 389 4830 4227 MR c np
gr

  18   18 4822 2873 PO
gs 1162 389 4830 4227 MR c np
gr

  18   18 4818 2889 PO
gs 1162 389 4830 4227 MR c np
gr

  18   18 4814 2382 PO
gs 1162 389 4830 4227 MR c np
gr

  18   18 4811 2225 PO
gs 1162 389 4830 4227 MR c np
gr

  18   18 4807 2459 PO
gs 1162 389 4830 4227 MR c np
gr

  18   18 4803 2931 PO
gs 1162 389 4830 4227 MR c np
gr

  18   18 4799 2153 PO
gs 1162 389 4830 4227 MR c np
gr

  18   18 4795 2897 PO
gs 1162 389 4830 4227 MR c np
gr

  18   18 4792 1656 PO
gs 1162 389 4830 4227 MR c np
gr

/c21 { 1.000000 0.312500 0.000000 sr} bdef
c21
  18   18 4788 2379 PO
gs 1162 389 4830 4227 MR c np
gr

  18   18 4784 2082 PO
gs 1162 389 4830 4227 MR c np
gr

  18   18 4780 1858 PO
gs 1162 389 4830 4227 MR c np
gr

  18   18 4776 2463 PO
gs 1162 389 4830 4227 MR c np
gr

  18   18 4773 1977 PO
gs 1162 389 4830 4227 MR c np
gr

  18   18 4769 1956 PO
gs 1162 389 4830 4227 MR c np
gr

  18   18 4765 3329 PO
gs 1162 389 4830 4227 MR c np
gr

  18   18 4761 2507 PO
gs 1162 389 4830 4227 MR c np
gr

  18   18 4757 2130 PO
gs 1162 389 4830 4227 MR c np
gr

  18   18 4754 2176 PO
gs 1162 389 4830 4227 MR c np
gr

  18   18 4750 1506 PO
gs 1162 389 4830 4227 MR c np
gr

  18   18 4746 2688 PO
gs 1162 389 4830 4227 MR c np
gr

  18   18 4742 2663 PO
gs 1162 389 4830 4227 MR c np
gr

  18   18 4738 2002 PO
gs 1162 389 4830 4227 MR c np
gr

  18   18 4735 2620 PO
gs 1162 389 4830 4227 MR c np
gr

  18   18 4731 1630 PO
gs 1162 389 4830 4227 MR c np
gr

/c22 { 1.000000 0.375000 0.000000 sr} bdef
c22
  18   18 4727 2611 PO
gs 1162 389 4830 4227 MR c np
gr

  18   18 4723 2439 PO
gs 1162 389 4830 4227 MR c np
gr

  18   18 4719  924 PO
gs 1162 389 4830 4227 MR c np
gr

  18   18 4716 2658 PO
gs 1162 389 4830 4227 MR c np
gr

  18   18 4712 3763 PO
gs 1162 389 4830 4227 MR c np
gr

  18   18 4708 1644 PO
gs 1162 389 4830 4227 MR c np
gr

  18   18 4704 3021 PO
gs 1162 389 4830 4227 MR c np
gr

  18   18 4700 2462 PO
gs 1162 389 4830 4227 MR c np
gr

  18   18 4697 2782 PO
gs 1162 389 4830 4227 MR c np
gr

  18   18 4693 3085 PO
gs 1162 389 4830 4227 MR c np
gr

  18   18 4689 3540 PO
gs 1162 389 4830 4227 MR c np
gr

  18   18 4685 1947 PO
gs 1162 389 4830 4227 MR c np
gr

  18   18 4681 2395 PO
gs 1162 389 4830 4227 MR c np
gr

  18   18 4678 2039 PO
gs 1162 389 4830 4227 MR c np
gr

  18   18 4674 1862 PO
gs 1162 389 4830 4227 MR c np
gr

  18   18 4670 2634 PO
gs 1162 389 4830 4227 MR c np
gr

/c23 { 1.000000 0.437500 0.000000 sr} bdef
c23
  18   18 4666 1720 PO
gs 1162 389 4830 4227 MR c np
gr

  18   18 4663 3536 PO
gs 1162 389 4830 4227 MR c np
gr

  18   18 4659 2411 PO
gs 1162 389 4830 4227 MR c np
gr

  18   18 4655 2200 PO
gs 1162 389 4830 4227 MR c np
gr

  18   18 4651 2940 PO
gs 1162 389 4830 4227 MR c np
gr

  18   18 4647 2341 PO
gs 1162 389 4830 4227 MR c np
gr

  18   18 4644 3239 PO
gs 1162 389 4830 4227 MR c np
gr

  18   18 4640 3043 PO
gs 1162 389 4830 4227 MR c np
gr

  18   18 4636 2402 PO
gs 1162 389 4830 4227 MR c np
gr

  18   18 4632 1884 PO
gs 1162 389 4830 4227 MR c np
gr

  18   18 4628 2501 PO
gs 1162 389 4830 4227 MR c np
gr

  18   18 4625 2120 PO
gs 1162 389 4830 4227 MR c np
gr

  18   18 4621 1412 PO
gs 1162 389 4830 4227 MR c np
gr

  18   18 4617 1230 PO
gs 1162 389 4830 4227 MR c np
gr

  18   18 4613 2719 PO
gs 1162 389 4830 4227 MR c np
gr

/c24 { 1.000000 0.500000 0.000000 sr} bdef
c24
  18   18 4609 2252 PO
gs 1162 389 4830 4227 MR c np
gr

  18   18 4606 2803 PO
gs 1162 389 4830 4227 MR c np
gr

  18   18 4602 2305 PO
gs 1162 389 4830 4227 MR c np
gr

  18   18 4598 2653 PO
gs 1162 389 4830 4227 MR c np
gr

  18   18 4594 2525 PO
gs 1162 389 4830 4227 MR c np
gr

  18   18 4590 2634 PO
gs 1162 389 4830 4227 MR c np
gr

  18   18 4587 2943 PO
gs 1162 389 4830 4227 MR c np
gr

  18   18 4583 4118 PO
gs 1162 389 4830 4227 MR c np
gr

  18   18 4579 2656 PO
gs 1162 389 4830 4227 MR c np
gr

  18   18 4575 2280 PO
gs 1162 389 4830 4227 MR c np
gr

  18   18 4571 4039 PO
gs 1162 389 4830 4227 MR c np
gr

  18   18 4568 2895 PO
gs 1162 389 4830 4227 MR c np
gr

  18   18 4564 3204 PO
gs 1162 389 4830 4227 MR c np
gr

  18   18 4560 1747 PO
gs 1162 389 4830 4227 MR c np
gr

  18   18 4556 1716 PO
gs 1162 389 4830 4227 MR c np
gr

  18   18 4552 2775 PO
gs 1162 389 4830 4227 MR c np
gr

/c25 { 1.000000 0.562500 0.000000 sr} bdef
c25
  18   18 4549 2173 PO
gs 1162 389 4830 4227 MR c np
gr

  18   18 4545 1931 PO
gs 1162 389 4830 4227 MR c np
gr

  18   18 4541 2007 PO
gs 1162 389 4830 4227 MR c np
gr

  18   18 4537 2309 PO
gs 1162 389 4830 4227 MR c np
gr

  18   18 4533 2058 PO
gs 1162 389 4830 4227 MR c np
gr

  18   18 4530 2647 PO
gs 1162 389 4830 4227 MR c np
gr

  18   18 4526 2686 PO
gs 1162 389 4830 4227 MR c np
gr

  18   18 4522 3885 PO
gs 1162 389 4830 4227 MR c np
gr

  18   18 4518 3309 PO
gs 1162 389 4830 4227 MR c np
gr

  18   18 4514 2236 PO
gs 1162 389 4830 4227 MR c np
gr

  18   18 4511 1674 PO
gs 1162 389 4830 4227 MR c np
gr

  18   18 4507 1669 PO
gs 1162 389 4830 4227 MR c np
gr

  18   18 4503 3271 PO
gs 1162 389 4830 4227 MR c np
gr

  18   18 4499 1860 PO
gs 1162 389 4830 4227 MR c np
gr

  18   18 4495 2305 PO
gs 1162 389 4830 4227 MR c np
gr

/c26 { 1.000000 0.625000 0.000000 sr} bdef
c26
  18   18 4492 2376 PO
gs 1162 389 4830 4227 MR c np
gr

  18   18 4488 2289 PO
gs 1162 389 4830 4227 MR c np
gr

  18   18 4484 2538 PO
gs 1162 389 4830 4227 MR c np
gr

  18   18 4480 2623 PO
gs 1162 389 4830 4227 MR c np
gr

  18   18 4476 2529 PO
gs 1162 389 4830 4227 MR c np
gr

  18   18 4473 1780 PO
gs 1162 389 4830 4227 MR c np
gr

  18   18 4469 1814 PO
gs 1162 389 4830 4227 MR c np
gr

  18   18 4465  717 PO
gs 1162 389 4830 4227 MR c np
gr

  18   18 4461 1890 PO
gs 1162 389 4830 4227 MR c np
gr

  18   18 4457 2390 PO
gs 1162 389 4830 4227 MR c np
gr

  18   18 4454 3019 PO
gs 1162 389 4830 4227 MR c np
gr

  18   18 4450 2945 PO
gs 1162 389 4830 4227 MR c np
gr

  18   18 4446 2179 PO
gs 1162 389 4830 4227 MR c np
gr

  18   18 4442 3236 PO
gs 1162 389 4830 4227 MR c np
gr

  18   18 4438 2097 PO
gs 1162 389 4830 4227 MR c np
gr

  18   18 4435 1936 PO
gs 1162 389 4830 4227 MR c np
gr

/c27 { 1.000000 0.687500 0.000000 sr} bdef
c27
  18   18 4431 3679 PO
gs 1162 389 4830 4227 MR c np
gr

  18   18 4427 2008 PO
gs 1162 389 4830 4227 MR c np
gr

  18   18 4423 2573 PO
gs 1162 389 4830 4227 MR c np
gr

  18   18 4419 2023 PO
gs 1162 389 4830 4227 MR c np
gr

  18   18 4416 3455 PO
gs 1162 389 4830 4227 MR c np
gr

  18   18 4412  763 PO
gs 1162 389 4830 4227 MR c np
gr

  18   18 4408 2497 PO
gs 1162 389 4830 4227 MR c np
gr

  18   18 4404 3321 PO
gs 1162 389 4830 4227 MR c np
gr

  18   18 4401 3265 PO
gs 1162 389 4830 4227 MR c np
gr

  18   18 4397 2917 PO
gs 1162 389 4830 4227 MR c np
gr

  18   18 4393 2363 PO
gs 1162 389 4830 4227 MR c np
gr

  18   18 4389 2386 PO
gs 1162 389 4830 4227 MR c np
gr

  18   18 4385 2035 PO
gs 1162 389 4830 4227 MR c np
gr

  18   18 4382 2366 PO
gs 1162 389 4830 4227 MR c np
gr

  18   18 4378 2432 PO
gs 1162 389 4830 4227 MR c np
gr

  18   18 4374 1676 PO
gs 1162 389 4830 4227 MR c np
gr

/c28 { 1.000000 0.750000 0.000000 sr} bdef
c28
  18   18 4370 1178 PO
gs 1162 389 4830 4227 MR c np
gr

  18   18 4366 2627 PO
gs 1162 389 4830 4227 MR c np
gr

  18   18 4363 2348 PO
gs 1162 389 4830 4227 MR c np
gr

  18   18 4359 2040 PO
gs 1162 389 4830 4227 MR c np
gr

  18   18 4355 2392 PO
gs 1162 389 4830 4227 MR c np
gr

  18   18 4351 4182 PO
gs 1162 389 4830 4227 MR c np
gr

  18   18 4347 2860 PO
gs 1162 389 4830 4227 MR c np
gr

  18   18 4344 1756 PO
gs 1162 389 4830 4227 MR c np
gr

  18   18 4340 2808 PO
gs 1162 389 4830 4227 MR c np
gr

  18   18 4336 2103 PO
gs 1162 389 4830 4227 MR c np
gr

  18   18 4332 2469 PO
gs 1162 389 4830 4227 MR c np
gr

  18   18 4328 2481 PO
gs 1162 389 4830 4227 MR c np
gr

  18   18 4325 1972 PO
gs 1162 389 4830 4227 MR c np
gr

  18   18 4321 2768 PO
gs 1162 389 4830 4227 MR c np
gr

  18   18 4317 2014 PO
gs 1162 389 4830 4227 MR c np
gr

/c29 { 1.000000 0.812500 0.000000 sr} bdef
c29
  18   18 4313 2912 PO
gs 1162 389 4830 4227 MR c np
gr

  18   18 4309 1873 PO
gs 1162 389 4830 4227 MR c np
gr

  18   18 4306 2169 PO
gs 1162 389 4830 4227 MR c np
gr

  18   18 4302 2748 PO
gs 1162 389 4830 4227 MR c np
gr

  18   18 4298 4073 PO
gs 1162 389 4830 4227 MR c np
gr

  18   18 4294 2242 PO
gs 1162 389 4830 4227 MR c np
gr

  18   18 4290 3215 PO
gs 1162 389 4830 4227 MR c np
gr

  18   18 4287 2248 PO
gs 1162 389 4830 4227 MR c np
gr

  18   18 4283 2330 PO
gs 1162 389 4830 4227 MR c np
gr

  18   18 4279 2062 PO
gs 1162 389 4830 4227 MR c np
gr

  18   18 4275 1981 PO
gs 1162 389 4830 4227 MR c np
gr

  18   18 4271 2944 PO
gs 1162 389 4830 4227 MR c np
gr

  18   18 4268 2253 PO
gs 1162 389 4830 4227 MR c np
gr

  18   18 4264 2081 PO
gs 1162 389 4830 4227 MR c np
gr

  18   18 4260 3164 PO
gs 1162 389 4830 4227 MR c np
gr

  18   18 4256 1464 PO
gs 1162 389 4830 4227 MR c np
gr

/c30 { 1.000000 0.875000 0.000000 sr} bdef
c30
  18   18 4252 3361 PO
gs 1162 389 4830 4227 MR c np
gr

  18   18 4249 2351 PO
gs 1162 389 4830 4227 MR c np
gr

  18   18 4245 2084 PO
gs 1162 389 4830 4227 MR c np
gr

  18   18 4241 2685 PO
gs 1162 389 4830 4227 MR c np
gr

  18   18 4237 2647 PO
gs 1162 389 4830 4227 MR c np
gr

  18   18 4233 3027 PO
gs 1162 389 4830 4227 MR c np
gr

  18   18 4230 2357 PO
gs 1162 389 4830 4227 MR c np
gr

  18   18 4226 2237 PO
gs 1162 389 4830 4227 MR c np
gr

  18   18 4222 2586 PO
gs 1162 389 4830 4227 MR c np
gr

  18   18 4218 2107 PO
gs 1162 389 4830 4227 MR c np
gr

  18   18 4214 2000 PO
gs 1162 389 4830 4227 MR c np
gr

  18   18 4211 2322 PO
gs 1162 389 4830 4227 MR c np
gr

  18   18 4207 1995 PO
gs 1162 389 4830 4227 MR c np
gr

  18   18 4203 2217 PO
gs 1162 389 4830 4227 MR c np
gr

  18   18 4199 2817 PO
gs 1162 389 4830 4227 MR c np
gr

  18   18 4195 1821 PO
gs 1162 389 4830 4227 MR c np
gr

/c31 { 1.000000 0.937500 0.000000 sr} bdef
c31
  18   18 4192 2083 PO
gs 1162 389 4830 4227 MR c np
gr

  18   18 4188 2424 PO
gs 1162 389 4830 4227 MR c np
gr

  18   18 4184 1688 PO
gs 1162 389 4830 4227 MR c np
gr

  18   18 4180 1718 PO
gs 1162 389 4830 4227 MR c np
gr

  18   18 4176 1437 PO
gs 1162 389 4830 4227 MR c np
gr

  18   18 4173 2909 PO
gs 1162 389 4830 4227 MR c np
gr

  18   18 4169 2474 PO
gs 1162 389 4830 4227 MR c np
gr

  18   18 4165 2706 PO
gs 1162 389 4830 4227 MR c np
gr

  18   18 4161 2664 PO
gs 1162 389 4830 4227 MR c np
gr

  18   18 4157 3076 PO
gs 1162 389 4830 4227 MR c np
gr

  18   18 4154 2877 PO
gs 1162 389 4830 4227 MR c np
gr

  18   18 4150 2660 PO
gs 1162 389 4830 4227 MR c np
gr

  18   18 4146 1704 PO
gs 1162 389 4830 4227 MR c np
gr

  18   18 4142 1696 PO
gs 1162 389 4830 4227 MR c np
gr

  18   18 4139 2750 PO
gs 1162 389 4830 4227 MR c np
gr

/c32 { 1.000000 1.000000 0.000000 sr} bdef
c32
  18   18 4135 2257 PO
gs 1162 389 4830 4227 MR c np
gr

  18   18 4131 3151 PO
gs 1162 389 4830 4227 MR c np
gr

  18   18 4127 1780 PO
gs 1162 389 4830 4227 MR c np
gr

  18   18 4123 2858 PO
gs 1162 389 4830 4227 MR c np
gr

  18   18 4120 3109 PO
gs 1162 389 4830 4227 MR c np
gr

  18   18 4116 3261 PO
gs 1162 389 4830 4227 MR c np
gr

  18   18 4112 2620 PO
gs 1162 389 4830 4227 MR c np
gr

  18   18 4108 3653 PO
gs 1162 389 4830 4227 MR c np
gr

  18   18 4104 2154 PO
gs 1162 389 4830 4227 MR c np
gr

  18   18 4101 1979 PO
gs 1162 389 4830 4227 MR c np
gr

  18   18 4097 2039 PO
gs 1162 389 4830 4227 MR c np
gr

  18   18 4093 2569 PO
gs 1162 389 4830 4227 MR c np
gr

  18   18 4089 1982 PO
gs 1162 389 4830 4227 MR c np
gr

  18   18 4085 3293 PO
gs 1162 389 4830 4227 MR c np
gr

  18   18 4082 2851 PO
gs 1162 389 4830 4227 MR c np
gr

  18   18 4078 2028 PO
gs 1162 389 4830 4227 MR c np
gr

/c33 { 0.937500 1.000000 0.062500 sr} bdef
c33
  18   18 4074 1625 PO
gs 1162 389 4830 4227 MR c np
gr

  18   18 4070 2541 PO
gs 1162 389 4830 4227 MR c np
gr

  18   18 4066 2909 PO
gs 1162 389 4830 4227 MR c np
gr

  18   18 4063 3390 PO
gs 1162 389 4830 4227 MR c np
gr

  18   18 4059 3357 PO
gs 1162 389 4830 4227 MR c np
gr

  18   18 4055 1972 PO
gs 1162 389 4830 4227 MR c np
gr

  18   18 4051 3498 PO
gs 1162 389 4830 4227 MR c np
gr

  18   18 4047 2794 PO
gs 1162 389 4830 4227 MR c np
gr

  18   18 4044 2841 PO
gs 1162 389 4830 4227 MR c np
gr

  18   18 4040 3494 PO
gs 1162 389 4830 4227 MR c np
gr

  18   18 4036 2718 PO
gs 1162 389 4830 4227 MR c np
gr

  18   18 4032 2872 PO
gs 1162 389 4830 4227 MR c np
gr

  18   18 4028 2895 PO
gs 1162 389 4830 4227 MR c np
gr

  18   18 4025 1712 PO
gs 1162 389 4830 4227 MR c np
gr

  18   18 4021 1643 PO
gs 1162 389 4830 4227 MR c np
gr

/c34 { 0.875000 1.000000 0.125000 sr} bdef
c34
  18   18 4017 3385 PO
gs 1162 389 4830 4227 MR c np
gr

  18   18 4013 2664 PO
gs 1162 389 4830 4227 MR c np
gr

  18   18 4009 2310 PO
gs 1162 389 4830 4227 MR c np
gr

  18   18 4006 3212 PO
gs 1162 389 4830 4227 MR c np
gr

  18   18 4002 2609 PO
gs 1162 389 4830 4227 MR c np
gr

  18   18 3998 2691 PO
gs 1162 389 4830 4227 MR c np
gr

  18   18 3994 3307 PO
gs 1162 389 4830 4227 MR c np
gr

  18   18 3990 2059 PO
gs 1162 389 4830 4227 MR c np
gr

  18   18 3987 2058 PO
gs 1162 389 4830 4227 MR c np
gr

  18   18 3983 3266 PO
gs 1162 389 4830 4227 MR c np
gr

  18   18 3979 1840 PO
gs 1162 389 4830 4227 MR c np
gr

  18   18 3975 2868 PO
gs 1162 389 4830 4227 MR c np
gr

  18   18 3971 3332 PO
gs 1162 389 4830 4227 MR c np
gr

  18   18 3968 2271 PO
gs 1162 389 4830 4227 MR c np
gr

  18   18 3964 2068 PO
gs 1162 389 4830 4227 MR c np
gr

  18   18 3960 2777 PO
gs 1162 389 4830 4227 MR c np
gr

/c35 { 0.812500 1.000000 0.187500 sr} bdef
c35
  18   18 3956 1861 PO
gs 1162 389 4830 4227 MR c np
gr

  18   18 3952 2351 PO
gs 1162 389 4830 4227 MR c np
gr

  18   18 3949 3263 PO
gs 1162 389 4830 4227 MR c np
gr

  18   18 3945 3517 PO
gs 1162 389 4830 4227 MR c np
gr

  18   18 3941 2445 PO
gs 1162 389 4830 4227 MR c np
gr

  18   18 3937 3096 PO
gs 1162 389 4830 4227 MR c np
gr

  18   18 3933 2458 PO
gs 1162 389 4830 4227 MR c np
gr

  18   18 3930 1212 PO
gs 1162 389 4830 4227 MR c np
gr

  18   18 3926 2397 PO
gs 1162 389 4830 4227 MR c np
gr

  18   18 3922 2430 PO
gs 1162 389 4830 4227 MR c np
gr

  18   18 3918 2496 PO
gs 1162 389 4830 4227 MR c np
gr

  18   18 3914 1755 PO
gs 1162 389 4830 4227 MR c np
gr

  18   18 3911 1930 PO
gs 1162 389 4830 4227 MR c np
gr

  18   18 3907 2209 PO
gs 1162 389 4830 4227 MR c np
gr

  18   18 3903 3068 PO
gs 1162 389 4830 4227 MR c np
gr

  18   18 3899 2262 PO
gs 1162 389 4830 4227 MR c np
gr

/c36 { 0.750000 1.000000 0.250000 sr} bdef
c36
  18   18 3895 3432 PO
gs 1162 389 4830 4227 MR c np
gr

  18   18 3892 1229 PO
gs 1162 389 4830 4227 MR c np
gr

  18   18 3888 3097 PO
gs 1162 389 4830 4227 MR c np
gr

  18   18 3884 2607 PO
gs 1162 389 4830 4227 MR c np
gr

  18   18 3880 2886 PO
gs 1162 389 4830 4227 MR c np
gr

  18   18 3877 2115 PO
gs 1162 389 4830 4227 MR c np
gr

  18   18 3873 3050 PO
gs 1162 389 4830 4227 MR c np
gr

  18   18 3869 2404 PO
gs 1162 389 4830 4227 MR c np
gr

  18   18 3865 2249 PO
gs 1162 389 4830 4227 MR c np
gr

  18   18 3861 2758 PO
gs 1162 389 4830 4227 MR c np
gr

  18   18 3858 3121 PO
gs 1162 389 4830 4227 MR c np
gr

  18   18 3854 2839 PO
gs 1162 389 4830 4227 MR c np
gr

  18   18 3850 2729 PO
gs 1162 389 4830 4227 MR c np
gr

  18   18 3846 1657 PO
gs 1162 389 4830 4227 MR c np
gr

  18   18 3842 2470 PO
gs 1162 389 4830 4227 MR c np
gr

/c37 { 0.687500 1.000000 0.312500 sr} bdef
c37
  18   18 3839 3324 PO
gs 1162 389 4830 4227 MR c np
gr

  18   18 3835 3139 PO
gs 1162 389 4830 4227 MR c np
gr

  18   18 3831 1985 PO
gs 1162 389 4830 4227 MR c np
gr

  18   18 3827 1762 PO
gs 1162 389 4830 4227 MR c np
gr

  18   18 3823 2471 PO
gs 1162 389 4830 4227 MR c np
gr

  18   18 3820 2910 PO
gs 1162 389 4830 4227 MR c np
gr

  18   18 3816 1448 PO
gs 1162 389 4830 4227 MR c np
gr

  18   18 3812 3547 PO
gs 1162 389 4830 4227 MR c np
gr

  18   18 3808 2882 PO
gs 1162 389 4830 4227 MR c np
gr

  18   18 3804 2662 PO
gs 1162 389 4830 4227 MR c np
gr

  18   18 3801 2597 PO
gs 1162 389 4830 4227 MR c np
gr

  18   18 3797 1440 PO
gs 1162 389 4830 4227 MR c np
gr

  18   18 3793 3067 PO
gs 1162 389 4830 4227 MR c np
gr

  18   18 3789 2144 PO
gs 1162 389 4830 4227 MR c np
gr

  18   18 3785 2420 PO
gs 1162 389 4830 4227 MR c np
gr

  18   18 3782 1863 PO
gs 1162 389 4830 4227 MR c np
gr

/c38 { 0.625000 1.000000 0.375000 sr} bdef
c38
  18   18 3778 3005 PO
gs 1162 389 4830 4227 MR c np
gr

  18   18 3774 2445 PO
gs 1162 389 4830 4227 MR c np
gr

  18   18 3770 3594 PO
gs 1162 389 4830 4227 MR c np
gr

  18   18 3766 2748 PO
gs 1162 389 4830 4227 MR c np
gr

  18   18 3763 3001 PO
gs 1162 389 4830 4227 MR c np
gr

  18   18 3759 2784 PO
gs 1162 389 4830 4227 MR c np
gr

  18   18 3755 1901 PO
gs 1162 389 4830 4227 MR c np
gr

  18   18 3751 1805 PO
gs 1162 389 4830 4227 MR c np
gr

  18   18 3747 3100 PO
gs 1162 389 4830 4227 MR c np
gr

  18   18 3744 2106 PO
gs 1162 389 4830 4227 MR c np
gr

  18   18 3740 2274 PO
gs 1162 389 4830 4227 MR c np
gr

  18   18 3736 2819 PO
gs 1162 389 4830 4227 MR c np
gr

  18   18 3732 2791 PO
gs 1162 389 4830 4227 MR c np
gr

  18   18 3728 2628 PO
gs 1162 389 4830 4227 MR c np
gr

  18   18 3725 3598 PO
gs 1162 389 4830 4227 MR c np
gr

/c39 { 0.562500 1.000000 0.437500 sr} bdef
c39
  18   18 3721 3220 PO
gs 1162 389 4830 4227 MR c np
gr

  18   18 3717 2507 PO
gs 1162 389 4830 4227 MR c np
gr

  18   18 3713 2291 PO
gs 1162 389 4830 4227 MR c np
gr

  18   18 3709 2261 PO
gs 1162 389 4830 4227 MR c np
gr

  18   18 3706 3673 PO
gs 1162 389 4830 4227 MR c np
gr

  18   18 3702 2511 PO
gs 1162 389 4830 4227 MR c np
gr

  18   18 3698 1804 PO
gs 1162 389 4830 4227 MR c np
gr

  18   18 3694 3685 PO
gs 1162 389 4830 4227 MR c np
gr

  18   18 3690 2134 PO
gs 1162 389 4830 4227 MR c np
gr

  18   18 3687 2029 PO
gs 1162 389 4830 4227 MR c np
gr

  18   18 3683 2744 PO
gs 1162 389 4830 4227 MR c np
gr

  18   18 3679 2296 PO
gs 1162 389 4830 4227 MR c np
gr

  18   18 3675 2195 PO
gs 1162 389 4830 4227 MR c np
gr

  18   18 3671 3693 PO
gs 1162 389 4830 4227 MR c np
gr

  18   18 3668 2738 PO
gs 1162 389 4830 4227 MR c np
gr

  18   18 3664 2298 PO
gs 1162 389 4830 4227 MR c np
gr

/c40 { 0.500000 1.000000 0.500000 sr} bdef
c40
  18   18 3660  728 PO
gs 1162 389 4830 4227 MR c np
gr

  18   18 3656 2437 PO
gs 1162 389 4830 4227 MR c np
gr

  18   18 3652 1496 PO
gs 1162 389 4830 4227 MR c np
gr

  18   18 3649 1523 PO
gs 1162 389 4830 4227 MR c np
gr

  18   18 3645 2345 PO
gs 1162 389 4830 4227 MR c np
gr

  18   18 3641 1880 PO
gs 1162 389 4830 4227 MR c np
gr

  18   18 3637 2862 PO
gs 1162 389 4830 4227 MR c np
gr

  18   18 3634 2406 PO
gs 1162 389 4830 4227 MR c np
gr

  18   18 3630 2274 PO
gs 1162 389 4830 4227 MR c np
gr

  18   18 3626 2199 PO
gs 1162 389 4830 4227 MR c np
gr

  18   18 3622 2796 PO
gs 1162 389 4830 4227 MR c np
gr

  18   18 3618 2153 PO
gs 1162 389 4830 4227 MR c np
gr

  18   18 3615 3806 PO
gs 1162 389 4830 4227 MR c np
gr

  18   18 3611 1588 PO
gs 1162 389 4830 4227 MR c np
gr

  18   18 3607 3263 PO
gs 1162 389 4830 4227 MR c np
gr

  18   18 3603 2992 PO
gs 1162 389 4830 4227 MR c np
gr

/c41 { 0.437500 1.000000 0.562500 sr} bdef
c41
  18   18 3599 1573 PO
gs 1162 389 4830 4227 MR c np
gr

  18   18 3596 2399 PO
gs 1162 389 4830 4227 MR c np
gr

  18   18 3592 1538 PO
gs 1162 389 4830 4227 MR c np
gr

  18   18 3588 1916 PO
gs 1162 389 4830 4227 MR c np
gr

  18   18 3584 2528 PO
gs 1162 389 4830 4227 MR c np
gr

  18   18 3580 1432 PO
gs 1162 389 4830 4227 MR c np
gr

  18   18 3577 2276 PO
gs 1162 389 4830 4227 MR c np
gr

  18   18 3573 1854 PO
gs 1162 389 4830 4227 MR c np
gr

  18   18 3569 1547 PO
gs 1162 389 4830 4227 MR c np
gr

  18   18 3565 1831 PO
gs 1162 389 4830 4227 MR c np
gr

  18   18 3561 2820 PO
gs 1162 389 4830 4227 MR c np
gr

  18   18 3558 2043 PO
gs 1162 389 4830 4227 MR c np
gr

  18   18 3554 1030 PO
gs 1162 389 4830 4227 MR c np
gr

  18   18 3550 2385 PO
gs 1162 389 4830 4227 MR c np
gr

  18   18 3546 1955 PO
gs 1162 389 4830 4227 MR c np
gr

/c42 { 0.375000 1.000000 0.625000 sr} bdef
c42
  18   18 3542 1257 PO
gs 1162 389 4830 4227 MR c np
gr

  18   18 3539 3238 PO
gs 1162 389 4830 4227 MR c np
gr

  18   18 3535 2439 PO
gs 1162 389 4830 4227 MR c np
gr

  18   18 3531 1405 PO
gs 1162 389 4830 4227 MR c np
gr

  18   18 3527 2717 PO
gs 1162 389 4830 4227 MR c np
gr

  18   18 3523 3365 PO
gs 1162 389 4830 4227 MR c np
gr

  18   18 3520 2972 PO
gs 1162 389 4830 4227 MR c np
gr

  18   18 3516 1510 PO
gs 1162 389 4830 4227 MR c np
gr

  18   18 3512 2731 PO
gs 1162 389 4830 4227 MR c np
gr

  18   18 3508 2069 PO
gs 1162 389 4830 4227 MR c np
gr

  18   18 3504 2188 PO
gs 1162 389 4830 4227 MR c np
gr

  18   18 3501 3114 PO
gs 1162 389 4830 4227 MR c np
gr

  18   18 3497 2081 PO
gs 1162 389 4830 4227 MR c np
gr

  18   18 3493 3290 PO
gs 1162 389 4830 4227 MR c np
gr

  18   18 3489 2128 PO
gs 1162 389 4830 4227 MR c np
gr

  18   18 3485 2884 PO
gs 1162 389 4830 4227 MR c np
gr

/c43 { 0.312500 1.000000 0.687500 sr} bdef
c43
  18   18 3482 1683 PO
gs 1162 389 4830 4227 MR c np
gr

  18   18 3478 3007 PO
gs 1162 389 4830 4227 MR c np
gr

  18   18 3474 3163 PO
gs 1162 389 4830 4227 MR c np
gr

  18   18 3470 3326 PO
gs 1162 389 4830 4227 MR c np
gr

  18   18 3466 2591 PO
gs 1162 389 4830 4227 MR c np
gr

  18   18 3463 2473 PO
gs 1162 389 4830 4227 MR c np
gr

  18   18 3459 2355 PO
gs 1162 389 4830 4227 MR c np
gr

  18   18 3455 1843 PO
gs 1162 389 4830 4227 MR c np
gr

  18   18 3451 2738 PO
gs 1162 389 4830 4227 MR c np
gr

  18   18 3447 2844 PO
gs 1162 389 4830 4227 MR c np
gr

  18   18 3444 2233 PO
gs 1162 389 4830 4227 MR c np
gr

  18   18 3440 3025 PO
gs 1162 389 4830 4227 MR c np
gr

  18   18 3436 2325 PO
gs 1162 389 4830 4227 MR c np
gr

  18   18 3432 1698 PO
gs 1162 389 4830 4227 MR c np
gr

  18   18 3428 1918 PO
gs 1162 389 4830 4227 MR c np
gr

/c44 { 0.250000 1.000000 0.750000 sr} bdef
c44
  18   18 3425 1715 PO
gs 1162 389 4830 4227 MR c np
gr

  18   18 3421 2468 PO
gs 1162 389 4830 4227 MR c np
gr

  18   18 3417 2514 PO
gs 1162 389 4830 4227 MR c np
gr

  18   18 3413 3057 PO
gs 1162 389 4830 4227 MR c np
gr

  18   18 3409 1980 PO
gs 1162 389 4830 4227 MR c np
gr

  18   18 3406 2578 PO
gs 1162 389 4830 4227 MR c np
gr

  18   18 3402 2713 PO
gs 1162 389 4830 4227 MR c np
gr

  18   18 3398 3878 PO
gs 1162 389 4830 4227 MR c np
gr

  18   18 3394 2200 PO
gs 1162 389 4830 4227 MR c np
gr

  18   18 3390 2262 PO
gs 1162 389 4830 4227 MR c np
gr

  18   18 3387 3154 PO
gs 1162 389 4830 4227 MR c np
gr

  18   18 3383 2664 PO
gs 1162 389 4830 4227 MR c np
gr

  18   18 3379 3565 PO
gs 1162 389 4830 4227 MR c np
gr

  18   18 3375 1811 PO
gs 1162 389 4830 4227 MR c np
gr

  18   18 3372 2213 PO
gs 1162 389 4830 4227 MR c np
gr

  18   18 3368 1278 PO
gs 1162 389 4830 4227 MR c np
gr

/c45 { 0.187500 1.000000 0.812500 sr} bdef
c45
  18   18 3364 3324 PO
gs 1162 389 4830 4227 MR c np
gr

  18   18 3360 1852 PO
gs 1162 389 4830 4227 MR c np
gr

  18   18 3356 1958 PO
gs 1162 389 4830 4227 MR c np
gr

  18   18 3353 2119 PO
gs 1162 389 4830 4227 MR c np
gr

  18   18 3349 3735 PO
gs 1162 389 4830 4227 MR c np
gr

  18   18 3345 2740 PO
gs 1162 389 4830 4227 MR c np
gr

  18   18 3341 2654 PO
gs 1162 389 4830 4227 MR c np
gr

  18   18 3337 2868 PO
gs 1162 389 4830 4227 MR c np
gr

  18   18 3334 2648 PO
gs 1162 389 4830 4227 MR c np
gr

  18   18 3330 2355 PO
gs 1162 389 4830 4227 MR c np
gr

  18   18 3326 2315 PO
gs 1162 389 4830 4227 MR c np
gr

  18   18 3322 2655 PO
gs 1162 389 4830 4227 MR c np
gr

  18   18 3318 2664 PO
gs 1162 389 4830 4227 MR c np
gr

  18   18 3315 3662 PO
gs 1162 389 4830 4227 MR c np
gr

  18   18 3311 1902 PO
gs 1162 389 4830 4227 MR c np
gr

  18   18 3307 3019 PO
gs 1162 389 4830 4227 MR c np
gr

/c46 { 0.125000 1.000000 0.875000 sr} bdef
c46
  18   18 3303 3167 PO
gs 1162 389 4830 4227 MR c np
gr

  18   18 3299 1831 PO
gs 1162 389 4830 4227 MR c np
gr

  18   18 3296  849 PO
gs 1162 389 4830 4227 MR c np
gr

  18   18 3292 1845 PO
gs 1162 389 4830 4227 MR c np
gr

  18   18 3288 3487 PO
gs 1162 389 4830 4227 MR c np
gr

  18   18 3284 2374 PO
gs 1162 389 4830 4227 MR c np
gr

  18   18 3280 1521 PO
gs 1162 389 4830 4227 MR c np
gr

  18   18 3277 2147 PO
gs 1162 389 4830 4227 MR c np
gr

  18   18 3273 2004 PO
gs 1162 389 4830 4227 MR c np
gr

  18   18 3269 3176 PO
gs 1162 389 4830 4227 MR c np
gr

  18   18 3265 3891 PO
gs 1162 389 4830 4227 MR c np
gr

  18   18 3261 2901 PO
gs 1162 389 4830 4227 MR c np
gr

  18   18 3258 2132 PO
gs 1162 389 4830 4227 MR c np
gr

  18   18 3254 1629 PO
gs 1162 389 4830 4227 MR c np
gr

  18   18 3250 2052 PO
gs 1162 389 4830 4227 MR c np
gr

/c47 { 0.062500 1.000000 0.937500 sr} bdef
c47
  18   18 3246 2237 PO
gs 1162 389 4830 4227 MR c np
gr

  18   18 3242 2535 PO
gs 1162 389 4830 4227 MR c np
gr

  18   18 3239 2498 PO
gs 1162 389 4830 4227 MR c np
gr

  18   18 3235 2328 PO
gs 1162 389 4830 4227 MR c np
gr

  18   18 3231 2442 PO
gs 1162 389 4830 4227 MR c np
gr

  18   18 3227 2008 PO
gs 1162 389 4830 4227 MR c np
gr

  18   18 3223 2090 PO
gs 1162 389 4830 4227 MR c np
gr

  18   18 3220 1571 PO
gs 1162 389 4830 4227 MR c np
gr

  18   18 3216 2811 PO
gs 1162 389 4830 4227 MR c np
gr

  18   18 3212 3385 PO
gs 1162 389 4830 4227 MR c np
gr

  18   18 3208 2694 PO
gs 1162 389 4830 4227 MR c np
gr

  18   18 3204 2376 PO
gs 1162 389 4830 4227 MR c np
gr

  18   18 3201 2892 PO
gs 1162 389 4830 4227 MR c np
gr

  18   18 3197 2497 PO
gs 1162 389 4830 4227 MR c np
gr

  18   18 3193 2968 PO
gs 1162 389 4830 4227 MR c np
gr

  18   18 3189 3520 PO
gs 1162 389 4830 4227 MR c np
gr

/c48 { 0.000000 1.000000 1.000000 sr} bdef
c48
  18   18 3185 2759 PO
gs 1162 389 4830 4227 MR c np
gr

  18   18 3182 2758 PO
gs 1162 389 4830 4227 MR c np
gr

  18   18 3178 3006 PO
gs 1162 389 4830 4227 MR c np
gr

  18   18 3174 3051 PO
gs 1162 389 4830 4227 MR c np
gr

  18   18 3170 1181 PO
gs 1162 389 4830 4227 MR c np
gr

  18   18 3166 2884 PO
gs 1162 389 4830 4227 MR c np
gr

  18   18 3163 2796 PO
gs 1162 389 4830 4227 MR c np
gr

  18   18 3159 2364 PO
gs 1162 389 4830 4227 MR c np
gr

  18   18 3155 2678 PO
gs 1162 389 4830 4227 MR c np
gr

  18   18 3151 2252 PO
gs 1162 389 4830 4227 MR c np
gr

  18   18 3147 2514 PO
gs 1162 389 4830 4227 MR c np
gr

  18   18 3144 3952 PO
gs 1162 389 4830 4227 MR c np
gr

  18   18 3140 2745 PO
gs 1162 389 4830 4227 MR c np
gr

  18   18 3136 3009 PO
gs 1162 389 4830 4227 MR c np
gr

  18   18 3132 3276 PO
gs 1162 389 4830 4227 MR c np
gr

/c49 { 0.000000 0.937500 1.000000 sr} bdef
c49
  18   18 3128 2479 PO
gs 1162 389 4830 4227 MR c np
gr

  18   18 3125 1623 PO
gs 1162 389 4830 4227 MR c np
gr

  18   18 3121 4371 PO
gs 1162 389 4830 4227 MR c np
gr

  18   18 3117 1744 PO
gs 1162 389 4830 4227 MR c np
gr

  18   18 3113 2361 PO
gs 1162 389 4830 4227 MR c np
gr

  18   18 3110 2161 PO
gs 1162 389 4830 4227 MR c np
gr

  18   18 3106 2823 PO
gs 1162 389 4830 4227 MR c np
gr

  18   18 3102 3293 PO
gs 1162 389 4830 4227 MR c np
gr

  18   18 3098 3142 PO
gs 1162 389 4830 4227 MR c np
gr

  18   18 3094 2864 PO
gs 1162 389 4830 4227 MR c np
gr

  18   18 3091 2039 PO
gs 1162 389 4830 4227 MR c np
gr

  18   18 3087 2483 PO
gs 1162 389 4830 4227 MR c np
gr

  18   18 3083 2574 PO
gs 1162 389 4830 4227 MR c np
gr

  18   18 3079 2368 PO
gs 1162 389 4830 4227 MR c np
gr

  18   18 3075 2643 PO
gs 1162 389 4830 4227 MR c np
gr

  18   18 3072 2685 PO
gs 1162 389 4830 4227 MR c np
gr

/c50 { 0.000000 0.875000 1.000000 sr} bdef
c50
  18   18 3068 2566 PO
gs 1162 389 4830 4227 MR c np
gr

  18   18 3064 2324 PO
gs 1162 389 4830 4227 MR c np
gr

  18   18 3060 1652 PO
gs 1162 389 4830 4227 MR c np
gr

  18   18 3056 3273 PO
gs 1162 389 4830 4227 MR c np
gr

  18   18 3053 2601 PO
gs 1162 389 4830 4227 MR c np
gr

  18   18 3049 3273 PO
gs 1162 389 4830 4227 MR c np
gr

  18   18 3045 3807 PO
gs 1162 389 4830 4227 MR c np
gr

  18   18 3041 1207 PO
gs 1162 389 4830 4227 MR c np
gr

  18   18 3037 1609 PO
gs 1162 389 4830 4227 MR c np
gr

  18   18 3034 3788 PO
gs 1162 389 4830 4227 MR c np
gr

  18   18 3030 1967 PO
gs 1162 389 4830 4227 MR c np
gr

  18   18 3026 2390 PO
gs 1162 389 4830 4227 MR c np
gr

  18   18 3022 2977 PO
gs 1162 389 4830 4227 MR c np
gr

  18   18 3018 2918 PO
gs 1162 389 4830 4227 MR c np
gr

  18   18 3015 3182 PO
gs 1162 389 4830 4227 MR c np
gr

  18   18 3011 1811 PO
gs 1162 389 4830 4227 MR c np
gr

/c51 { 0.000000 0.812500 1.000000 sr} bdef
c51
  18   18 3007 1936 PO
gs 1162 389 4830 4227 MR c np
gr

  18   18 3003 1998 PO
gs 1162 389 4830 4227 MR c np
gr

  18   18 2999 1284 PO
gs 1162 389 4830 4227 MR c np
gr

  18   18 2996 1478 PO
gs 1162 389 4830 4227 MR c np
gr

  18   18 2992 2365 PO
gs 1162 389 4830 4227 MR c np
gr

  18   18 2988 1473 PO
gs 1162 389 4830 4227 MR c np
gr

  18   18 2984 3759 PO
gs 1162 389 4830 4227 MR c np
gr

  18   18 2980 2155 PO
gs 1162 389 4830 4227 MR c np
gr

  18   18 2977 2289 PO
gs 1162 389 4830 4227 MR c np
gr

  18   18 2973 3556 PO
gs 1162 389 4830 4227 MR c np
gr

  18   18 2969 2227 PO
gs 1162 389 4830 4227 MR c np
gr

  18   18 2965 2108 PO
gs 1162 389 4830 4227 MR c np
gr

  18   18 2961 1641 PO
gs 1162 389 4830 4227 MR c np
gr

  18   18 2958 1652 PO
gs 1162 389 4830 4227 MR c np
gr

  18   18 2954 2081 PO
gs 1162 389 4830 4227 MR c np
gr

/c52 { 0.000000 0.750000 1.000000 sr} bdef
c52
  18   18 2950 3335 PO
gs 1162 389 4830 4227 MR c np
gr

  18   18 2946 3128 PO
gs 1162 389 4830 4227 MR c np
gr

  18   18 2942 4030 PO
gs 1162 389 4830 4227 MR c np
gr

  18   18 2939 2796 PO
gs 1162 389 4830 4227 MR c np
gr

  18   18 2935 2165 PO
gs 1162 389 4830 4227 MR c np
gr

  18   18 2931 2512 PO
gs 1162 389 4830 4227 MR c np
gr

  18   18 2927 2888 PO
gs 1162 389 4830 4227 MR c np
gr

  18   18 2923 3011 PO
gs 1162 389 4830 4227 MR c np
gr

  18   18 2920 1649 PO
gs 1162 389 4830 4227 MR c np
gr

  18   18 2916 3018 PO
gs 1162 389 4830 4227 MR c np
gr

  18   18 2912 1306 PO
gs 1162 389 4830 4227 MR c np
gr

  18   18 2908 2737 PO
gs 1162 389 4830 4227 MR c np
gr

  18   18 2904 1638 PO
gs 1162 389 4830 4227 MR c np
gr

  18   18 2901 2761 PO
gs 1162 389 4830 4227 MR c np
gr

  18   18 2897 2020 PO
gs 1162 389 4830 4227 MR c np
gr

  18   18 2893 2523 PO
gs 1162 389 4830 4227 MR c np
gr

/c53 { 0.000000 0.687500 1.000000 sr} bdef
c53
  18   18 2889 1859 PO
gs 1162 389 4830 4227 MR c np
gr

  18   18 2885 2240 PO
gs 1162 389 4830 4227 MR c np
gr

  18   18 2882 1706 PO
gs 1162 389 4830 4227 MR c np
gr

  18   18 2878 3163 PO
gs 1162 389 4830 4227 MR c np
gr

  18   18 2874 2812 PO
gs 1162 389 4830 4227 MR c np
gr

  18   18 2870 1824 PO
gs 1162 389 4830 4227 MR c np
gr

  18   18 2867 3139 PO
gs 1162 389 4830 4227 MR c np
gr

  18   18 2863 2094 PO
gs 1162 389 4830 4227 MR c np
gr

  18   18 2859 1332 PO
gs 1162 389 4830 4227 MR c np
gr

  18   18 2855 2405 PO
gs 1162 389 4830 4227 MR c np
gr

  18   18 2851 3717 PO
gs 1162 389 4830 4227 MR c np
gr

  18   18 2848 1780 PO
gs 1162 389 4830 4227 MR c np
gr

  18   18 2844 2329 PO
gs 1162 389 4830 4227 MR c np
gr

  18   18 2840 2804 PO
gs 1162 389 4830 4227 MR c np
gr

  18   18 2836 3387 PO
gs 1162 389 4830 4227 MR c np
gr

  18   18 2832 1515 PO
gs 1162 389 4830 4227 MR c np
gr

/c54 { 0.000000 0.625000 1.000000 sr} bdef
c54
  18   18 2829 1514 PO
gs 1162 389 4830 4227 MR c np
gr

  18   18 2825 2744 PO
gs 1162 389 4830 4227 MR c np
gr

  18   18 2821 3029 PO
gs 1162 389 4830 4227 MR c np
gr

  18   18 2817 1657 PO
gs 1162 389 4830 4227 MR c np
gr

  18   18 2813 2614 PO
gs 1162 389 4830 4227 MR c np
gr

  18   18 2810 2663 PO
gs 1162 389 4830 4227 MR c np
gr

  18   18 2806 2305 PO
gs 1162 389 4830 4227 MR c np
gr

  18   18 2802 2941 PO
gs 1162 389 4830 4227 MR c np
gr

  18   18 2798 1550 PO
gs 1162 389 4830 4227 MR c np
gr

  18   18 2794 1991 PO
gs 1162 389 4830 4227 MR c np
gr

  18   18 2791 4141 PO
gs 1162 389 4830 4227 MR c np
gr

  18   18 2787 2560 PO
gs 1162 389 4830 4227 MR c np
gr

  18   18 2783 2490 PO
gs 1162 389 4830 4227 MR c np
gr

  18   18 2779 1009 PO
gs 1162 389 4830 4227 MR c np
gr

  18   18 2775 2733 PO
gs 1162 389 4830 4227 MR c np
gr

/c55 { 0.000000 0.562500 1.000000 sr} bdef
c55
  18   18 2772 1757 PO
gs 1162 389 4830 4227 MR c np
gr

  18   18 2768 1553 PO
gs 1162 389 4830 4227 MR c np
gr

  18   18 2764 2576 PO
gs 1162 389 4830 4227 MR c np
gr

  18   18 2760 2731 PO
gs 1162 389 4830 4227 MR c np
gr

  18   18 2756 2271 PO
gs 1162 389 4830 4227 MR c np
gr

  18   18 2753 3385 PO
gs 1162 389 4830 4227 MR c np
gr

  18   18 2749 3261 PO
gs 1162 389 4830 4227 MR c np
gr

  18   18 2745 2070 PO
gs 1162 389 4830 4227 MR c np
gr

  18   18 2741 2589 PO
gs 1162 389 4830 4227 MR c np
gr

  18   18 2737 2470 PO
gs 1162 389 4830 4227 MR c np
gr

  18   18 2734 2917 PO
gs 1162 389 4830 4227 MR c np
gr

  18   18 2730 2601 PO
gs 1162 389 4830 4227 MR c np
gr

  18   18 2726 2386 PO
gs 1162 389 4830 4227 MR c np
gr

  18   18 2722 3554 PO
gs 1162 389 4830 4227 MR c np
gr

  18   18 2718 2662 PO
gs 1162 389 4830 4227 MR c np
gr

  18   18 2715 3057 PO
gs 1162 389 4830 4227 MR c np
gr

/c56 { 0.000000 0.500000 1.000000 sr} bdef
c56
  18   18 2711 2814 PO
gs 1162 389 4830 4227 MR c np
gr

  18   18 2707 3057 PO
gs 1162 389 4830 4227 MR c np
gr

  18   18 2703 2587 PO
gs 1162 389 4830 4227 MR c np
gr

  18   18 2699 3109 PO
gs 1162 389 4830 4227 MR c np
gr

  18   18 2696 3189 PO
gs 1162 389 4830 4227 MR c np
gr

  18   18 2692 2438 PO
gs 1162 389 4830 4227 MR c np
gr

  18   18 2688 2440 PO
gs 1162 389 4830 4227 MR c np
gr

  18   18 2684 2184 PO
gs 1162 389 4830 4227 MR c np
gr

  18   18 2680 1543 PO
gs 1162 389 4830 4227 MR c np
gr

  18   18 2677 2959 PO
gs 1162 389 4830 4227 MR c np
gr

  18   18 2673 1569 PO
gs 1162 389 4830 4227 MR c np
gr

  18   18 2669 2357 PO
gs 1162 389 4830 4227 MR c np
gr

  18   18 2665 2686 PO
gs 1162 389 4830 4227 MR c np
gr

  18   18 2661 2497 PO
gs 1162 389 4830 4227 MR c np
gr

  18   18 2658 2653 PO
gs 1162 389 4830 4227 MR c np
gr

/c57 { 0.000000 0.437500 1.000000 sr} bdef
c57
  18   18 2654 3353 PO
gs 1162 389 4830 4227 MR c np
gr

  18   18 2650 2218 PO
gs 1162 389 4830 4227 MR c np
gr

  18   18 2646 1491 PO
gs 1162 389 4830 4227 MR c np
gr

  18   18 2642 3626 PO
gs 1162 389 4830 4227 MR c np
gr

  18   18 2639 1819 PO
gs 1162 389 4830 4227 MR c np
gr

  18   18 2635 1550 PO
gs 1162 389 4830 4227 MR c np
gr

  18   18 2631 2782 PO
gs 1162 389 4830 4227 MR c np
gr

  18   18 2627 2751 PO
gs 1162 389 4830 4227 MR c np
gr

  18   18 2623 2266 PO
gs 1162 389 4830 4227 MR c np
gr

  18   18 2620 2104 PO
gs 1162 389 4830 4227 MR c np
gr

  18   18 2616 2530 PO
gs 1162 389 4830 4227 MR c np
gr

  18   18 2612 2380 PO
gs 1162 389 4830 4227 MR c np
gr

  18   18 2608 1742 PO
gs 1162 389 4830 4227 MR c np
gr

  18   18 2605 1225 PO
gs 1162 389 4830 4227 MR c np
gr

  18   18 2601 2981 PO
gs 1162 389 4830 4227 MR c np
gr

  18   18 2597 2862 PO
gs 1162 389 4830 4227 MR c np
gr

/c58 { 0.000000 0.375000 1.000000 sr} bdef
c58
  18   18 2593 1685 PO
gs 1162 389 4830 4227 MR c np
gr

  18   18 2589 2733 PO
gs 1162 389 4830 4227 MR c np
gr

  18   18 2586 2490 PO
gs 1162 389 4830 4227 MR c np
gr

  18   18 2582 2544 PO
gs 1162 389 4830 4227 MR c np
gr

  18   18 2578 2811 PO
gs 1162 389 4830 4227 MR c np
gr

  18   18 2574 2233 PO
gs 1162 389 4830 4227 MR c np
gr

  18   18 2570 2061 PO
gs 1162 389 4830 4227 MR c np
gr

  18   18 2567 2945 PO
gs 1162 389 4830 4227 MR c np
gr

  18   18 2563 2785 PO
gs 1162 389 4830 4227 MR c np
gr

  18   18 2559 3766 PO
gs 1162 389 4830 4227 MR c np
gr

  18   18 2555 2694 PO
gs 1162 389 4830 4227 MR c np
gr

  18   18 2551 2277 PO
gs 1162 389 4830 4227 MR c np
gr

  18   18 2548 2530 PO
gs 1162 389 4830 4227 MR c np
gr

  18   18 2544 1322 PO
gs 1162 389 4830 4227 MR c np
gr

  18   18 2540 1948 PO
gs 1162 389 4830 4227 MR c np
gr

  18   18 2536 3311 PO
gs 1162 389 4830 4227 MR c np
gr

/c59 { 0.000000 0.312500 1.000000 sr} bdef
c59
  18   18 2532 2616 PO
gs 1162 389 4830 4227 MR c np
gr

  18   18 2529 3127 PO
gs 1162 389 4830 4227 MR c np
gr

  18   18 2525 2805 PO
gs 1162 389 4830 4227 MR c np
gr

  18   18 2521 2633 PO
gs 1162 389 4830 4227 MR c np
gr

  18   18 2517 3211 PO
gs 1162 389 4830 4227 MR c np
gr

  18   18 2513 1297 PO
gs 1162 389 4830 4227 MR c np
gr

  18   18 2510 1899 PO
gs 1162 389 4830 4227 MR c np
gr

  18   18 2506 2136 PO
gs 1162 389 4830 4227 MR c np
gr

  18   18 2502 2963 PO
gs 1162 389 4830 4227 MR c np
gr

  18   18 2498 2470 PO
gs 1162 389 4830 4227 MR c np
gr

  18   18 2494 2525 PO
gs 1162 389 4830 4227 MR c np
gr

  18   18 2491 2183 PO
gs 1162 389 4830 4227 MR c np
gr

  18   18 2487 3680 PO
gs 1162 389 4830 4227 MR c np
gr

  18   18 2483 2065 PO
gs 1162 389 4830 4227 MR c np
gr

  18   18 2479 2270 PO
gs 1162 389 4830 4227 MR c np
gr

/c60 { 0.000000 0.250000 1.000000 sr} bdef
c60
  18   18 2475 1736 PO
gs 1162 389 4830 4227 MR c np
gr

  18   18 2472 1696 PO
gs 1162 389 4830 4227 MR c np
gr

  18   18 2468 2977 PO
gs 1162 389 4830 4227 MR c np
gr

  18   18 2464 2738 PO
gs 1162 389 4830 4227 MR c np
gr

  18   18 2460 2787 PO
gs 1162 389 4830 4227 MR c np
gr

  18   18 2456 2815 PO
gs 1162 389 4830 4227 MR c np
gr

  18   18 2453 3078 PO
gs 1162 389 4830 4227 MR c np
gr

  18   18 2449 2502 PO
gs 1162 389 4830 4227 MR c np
gr

  18   18 2445 2973 PO
gs 1162 389 4830 4227 MR c np
gr

  18   18 2441 2809 PO
gs 1162 389 4830 4227 MR c np
gr

  18   18 2437 2833 PO
gs 1162 389 4830 4227 MR c np
gr

  18   18 2434 2959 PO
gs 1162 389 4830 4227 MR c np
gr

  18   18 2430 2774 PO
gs 1162 389 4830 4227 MR c np
gr

  18   18 2426 2290 PO
gs 1162 389 4830 4227 MR c np
gr

  18   18 2422 1952 PO
gs 1162 389 4830 4227 MR c np
gr

  18   18 2418 2615 PO
gs 1162 389 4830 4227 MR c np
gr

/c61 { 0.000000 0.187500 1.000000 sr} bdef
c61
  18   18 2415 2281 PO
gs 1162 389 4830 4227 MR c np
gr

  18   18 2411 3374 PO
gs 1162 389 4830 4227 MR c np
gr

  18   18 2407 2290 PO
gs 1162 389 4830 4227 MR c np
gr

  18   18 2403 2828 PO
gs 1162 389 4830 4227 MR c np
gr

  18   18 2399 3019 PO
gs 1162 389 4830 4227 MR c np
gr

  18   18 2396 1678 PO
gs 1162 389 4830 4227 MR c np
gr

  18   18 2392 1968 PO
gs 1162 389 4830 4227 MR c np
gr

  18   18 2388 2536 PO
gs 1162 389 4830 4227 MR c np
gr

  18   18 2384 3383 PO
gs 1162 389 4830 4227 MR c np
gr

  18   18 2380 2781 PO
gs 1162 389 4830 4227 MR c np
gr

  18   18 2377 1973 PO
gs 1162 389 4830 4227 MR c np
gr

  18   18 2373 2409 PO
gs 1162 389 4830 4227 MR c np
gr

  18   18 2369 2413 PO
gs 1162 389 4830 4227 MR c np
gr

  18   18 2365 2161 PO
gs 1162 389 4830 4227 MR c np
gr

  18   18 2361 1833 PO
gs 1162 389 4830 4227 MR c np
gr

/c62 { 0.000000 0.125000 1.000000 sr} bdef
c62
  18   18 2358 1263 PO
gs 1162 389 4830 4227 MR c np
gr

  18   18 2354 2761 PO
gs 1162 389 4830 4227 MR c np
gr

  18   18 2350 2980 PO
gs 1162 389 4830 4227 MR c np
gr

  18   18 2346 2419 PO
gs 1162 389 4830 4227 MR c np
gr

  18   18 2343 2613 PO
gs 1162 389 4830 4227 MR c np
gr

  18   18 2339 3237 PO
gs 1162 389 4830 4227 MR c np
gr

  18   18 2335 2994 PO
gs 1162 389 4830 4227 MR c np
gr

  18   18 2331 1863 PO
gs 1162 389 4830 4227 MR c np
gr

  18   18 2327  984 PO
gs 1162 389 4830 4227 MR c np
gr

  18   18 2324 2775 PO
gs 1162 389 4830 4227 MR c np
gr

  18   18 2320 2008 PO
gs 1162 389 4830 4227 MR c np
gr

  18   18 2316 2563 PO
gs 1162 389 4830 4227 MR c np
gr

  18   18 2312 2464 PO
gs 1162 389 4830 4227 MR c np
gr

  18   18 2308 2522 PO
gs 1162 389 4830 4227 MR c np
gr

  18   18 2305 1726 PO
gs 1162 389 4830 4227 MR c np
gr

  18   18 2301 1996 PO
gs 1162 389 4830 4227 MR c np
gr

/c63 { 0.000000 0.062500 1.000000 sr} bdef
c63
  18   18 2297 3594 PO
gs 1162 389 4830 4227 MR c np
gr

  18   18 2293 1934 PO
gs 1162 389 4830 4227 MR c np
gr

  18   18 2289 2489 PO
gs 1162 389 4830 4227 MR c np
gr

  18   18 2286 1309 PO
gs 1162 389 4830 4227 MR c np
gr

  18   18 2282 2100 PO
gs 1162 389 4830 4227 MR c np
gr

  18   18 2278 2025 PO
gs 1162 389 4830 4227 MR c np
gr

  18   18 2274 2111 PO
gs 1162 389 4830 4227 MR c np
gr

  18   18 2270 2524 PO
gs 1162 389 4830 4227 MR c np
gr

  18   18 2267 2754 PO
gs 1162 389 4830 4227 MR c np
gr

  18   18 2263 3281 PO
gs 1162 389 4830 4227 MR c np
gr

  18   18 2259 2910 PO
gs 1162 389 4830 4227 MR c np
gr

  18   18 2255 2503 PO
gs 1162 389 4830 4227 MR c np
gr

  18   18 2251 3042 PO
gs 1162 389 4830 4227 MR c np
gr

  18   18 2248 1185 PO
gs 1162 389 4830 4227 MR c np
gr

  18   18 2244 3055 PO
gs 1162 389 4830 4227 MR c np
gr

  18   18 2240 2465 PO
gs 1162 389 4830 4227 MR c np
gr

/c64 { 0.000000 0.000000 1.000000 sr} bdef
c64
  18   18 2236 2152 PO
gs 1162 389 4830 4227 MR c np
gr

  18   18 2232 1420 PO
gs 1162 389 4830 4227 MR c np
gr

  18   18 2229 3777 PO
gs 1162 389 4830 4227 MR c np
gr

  18   18 2225 2575 PO
gs 1162 389 4830 4227 MR c np
gr

  18   18 2221 3298 PO
gs 1162 389 4830 4227 MR c np
gr

  18   18 2217 2379 PO
gs 1162 389 4830 4227 MR c np
gr

  18   18 2213 1638 PO
gs 1162 389 4830 4227 MR c np
gr

  18   18 2210 3442 PO
gs 1162 389 4830 4227 MR c np
gr

  18   18 2206 1574 PO
gs 1162 389 4830 4227 MR c np
gr

  18   18 2202 1526 PO
gs 1162 389 4830 4227 MR c np
gr

  18   18 2198 1873 PO
gs 1162 389 4830 4227 MR c np
gr

  18   18 2194 1847 PO
gs 1162 389 4830 4227 MR c np
gr

  18   18 2191 3352 PO
gs 1162 389 4830 4227 MR c np
gr

  18   18 2187 2116 PO
gs 1162 389 4830 4227 MR c np
gr

  18   18 2183 2587 PO
gs 1162 389 4830 4227 MR c np
gr

/c65 { 0.000000 0.000000 0.937500 sr} bdef
c65
  18   18 2179 1656 PO
gs 1162 389 4830 4227 MR c np
gr

  18   18 2175 3075 PO
gs 1162 389 4830 4227 MR c np
gr

  18   18 2172 1686 PO
gs 1162 389 4830 4227 MR c np
gr

  18   18 2168 2066 PO
gs 1162 389 4830 4227 MR c np
gr

  18   18 2164 2876 PO
gs 1162 389 4830 4227 MR c np
gr

  18   18 2160 2753 PO
gs 1162 389 4830 4227 MR c np
gr

  18   18 2156 3219 PO
gs 1162 389 4830 4227 MR c np
gr

  18   18 2153 3008 PO
gs 1162 389 4830 4227 MR c np
gr

  18   18 2149 2720 PO
gs 1162 389 4830 4227 MR c np
gr

  18   18 2145 2870 PO
gs 1162 389 4830 4227 MR c np
gr

  18   18 2141 1344 PO
gs 1162 389 4830 4227 MR c np
gr

  18   18 2137 3072 PO
gs 1162 389 4830 4227 MR c np
gr

  18   18 2134 2834 PO
gs 1162 389 4830 4227 MR c np
gr

  18   18 2130 2046 PO
gs 1162 389 4830 4227 MR c np
gr

  18   18 2126 2736 PO
gs 1162 389 4830 4227 MR c np
gr

  18   18 2122 1503 PO
gs 1162 389 4830 4227 MR c np
gr

/c66 { 0.000000 0.000000 0.875000 sr} bdef
c66
  18   18 2118  599 PO
gs 1162 389 4830 4227 MR c np
gr

  18   18 2115 2553 PO
gs 1162 389 4830 4227 MR c np
gr

  18   18 2111 2641 PO
gs 1162 389 4830 4227 MR c np
gr

  18   18 2107 3075 PO
gs 1162 389 4830 4227 MR c np
gr

  18   18 2103 2946 PO
gs 1162 389 4830 4227 MR c np
gr

  18   18 2099 2982 PO
gs 1162 389 4830 4227 MR c np
gr

  18   18 2096 3857 PO
gs 1162 389 4830 4227 MR c np
gr

  18   18 2092 2565 PO
gs 1162 389 4830 4227 MR c np
gr

  18   18 2088 1622 PO
gs 1162 389 4830 4227 MR c np
gr

  18   18 2084 3399 PO
gs 1162 389 4830 4227 MR c np
gr

  18   18 2081 2825 PO
gs 1162 389 4830 4227 MR c np
gr

  18   18 2077 2222 PO
gs 1162 389 4830 4227 MR c np
gr

  18   18 2073 1934 PO
gs 1162 389 4830 4227 MR c np
gr

  18   18 2069 2951 PO
gs 1162 389 4830 4227 MR c np
gr

  18   18 2065 3214 PO
gs 1162 389 4830 4227 MR c np
gr

/c67 { 0.000000 0.000000 0.812500 sr} bdef
c67
  18   18 2062 1253 PO
gs 1162 389 4830 4227 MR c np
gr

  18   18 2058 3110 PO
gs 1162 389 4830 4227 MR c np
gr

  18   18 2054 2668 PO
gs 1162 389 4830 4227 MR c np
gr

  18   18 2050 1403 PO
gs 1162 389 4830 4227 MR c np
gr

  18   18 2046 1764 PO
gs 1162 389 4830 4227 MR c np
gr

  18   18 2043 2550 PO
gs 1162 389 4830 4227 MR c np
gr

  18   18 2039 2282 PO
gs 1162 389 4830 4227 MR c np
gr

  18   18 2035 3139 PO
gs 1162 389 4830 4227 MR c np
gr

  18   18 2031 2341 PO
gs 1162 389 4830 4227 MR c np
gr

  18   18 2027 3439 PO
gs 1162 389 4830 4227 MR c np
gr

  18   18 2024 2615 PO
gs 1162 389 4830 4227 MR c np
gr

  18   18 2020 2591 PO
gs 1162 389 4830 4227 MR c np
gr

  18   18 2016 2049 PO
gs 1162 389 4830 4227 MR c np
gr

  18   18 2012 2413 PO
gs 1162 389 4830 4227 MR c np
gr

  18   18 2008 3642 PO
gs 1162 389 4830 4227 MR c np
gr

  18   18 2005 2024 PO
gs 1162 389 4830 4227 MR c np
gr

/c68 { 0.000000 0.000000 0.750000 sr} bdef
c68
  18   18 2001 2362 PO
gs 1162 389 4830 4227 MR c np
gr

  18   18 1997 3757 PO
gs 1162 389 4830 4227 MR c np
gr

  18   18 1993 2686 PO
gs 1162 389 4830 4227 MR c np
gr

  18   18 1989 2567 PO
gs 1162 389 4830 4227 MR c np
gr

  18   18 1986 2590 PO
gs 1162 389 4830 4227 MR c np
gr

  18   18 1982 1781 PO
gs 1162 389 4830 4227 MR c np
gr

  18   18 1978 2942 PO
gs 1162 389 4830 4227 MR c np
gr

  18   18 1974 4234 PO
gs 1162 389 4830 4227 MR c np
gr

  18   18 1970 1929 PO
gs 1162 389 4830 4227 MR c np
gr

  18   18 1967 2320 PO
gs 1162 389 4830 4227 MR c np
gr

  18   18 1963 2183 PO
gs 1162 389 4830 4227 MR c np
gr

  18   18 1959 2625 PO
gs 1162 389 4830 4227 MR c np
gr

  18   18 1955 2959 PO
gs 1162 389 4830 4227 MR c np
gr

  18   18 1951 1901 PO
gs 1162 389 4830 4227 MR c np
gr

  18   18 1948 2679 PO
gs 1162 389 4830 4227 MR c np
gr

  18   18 1944 1643 PO
gs 1162 389 4830 4227 MR c np
gr

/c69 { 0.000000 0.000000 0.687500 sr} bdef
c69
  18   18 1940 2429 PO
gs 1162 389 4830 4227 MR c np
gr

  18   18 1936 2748 PO
gs 1162 389 4830 4227 MR c np
gr

  18   18 1932 3914 PO
gs 1162 389 4830 4227 MR c np
gr

  18   18 1929  563 PO
gs 1162 389 4830 4227 MR c np
gr

  18   18 1925 3287 PO
gs 1162 389 4830 4227 MR c np
gr

  18   18 1921 1519 PO
gs 1162 389 4830 4227 MR c np
gr

  18   18 1917 1774 PO
gs 1162 389 4830 4227 MR c np
gr

  18   18 1913 3497 PO
gs 1162 389 4830 4227 MR c np
gr

  18   18 1910 1770 PO
gs 1162 389 4830 4227 MR c np
gr

  18   18 1906 1540 PO
gs 1162 389 4830 4227 MR c np
gr

  18   18 1902 2958 PO
gs 1162 389 4830 4227 MR c np
gr

  18   18 1898 1774 PO
gs 1162 389 4830 4227 MR c np
gr

  18   18 1894 2649 PO
gs 1162 389 4830 4227 MR c np
gr

  18   18 1891 4067 PO
gs 1162 389 4830 4227 MR c np
gr

  18   18 1887 2846 PO
gs 1162 389 4830 4227 MR c np
gr

/c70 { 0.000000 0.000000 0.625000 sr} bdef
c70
  18   18 1883 2219 PO
gs 1162 389 4830 4227 MR c np
gr

  18   18 1879 1604 PO
gs 1162 389 4830 4227 MR c np
gr

  18   18 1875 3350 PO
gs 1162 389 4830 4227 MR c np
gr

  18   18 1872 2717 PO
gs 1162 389 4830 4227 MR c np
gr

  18   18 1868 1767 PO
gs 1162 389 4830 4227 MR c np
gr

  18   18 1864 2901 PO
gs 1162 389 4830 4227 MR c np
gr

  18   18 1860 3699 PO
gs 1162 389 4830 4227 MR c np
gr

  18   18 1856 3643 PO
gs 1162 389 4830 4227 MR c np
gr

  18   18 1853 2011 PO
gs 1162 389 4830 4227 MR c np
gr

  18   18 1849 1075 PO
gs 1162 389 4830 4227 MR c np
gr

  18   18 1845 2823 PO
gs 1162 389 4830 4227 MR c np
gr

  18   18 1841 2946 PO
gs 1162 389 4830 4227 MR c np
gr

  18   18 1838 2020 PO
gs 1162 389 4830 4227 MR c np
gr

  18   18 1834 2163 PO
gs 1162 389 4830 4227 MR c np
gr

  18   18 1830 2082 PO
gs 1162 389 4830 4227 MR c np
gr

  18   18 1826 3458 PO
gs 1162 389 4830 4227 MR c np
gr

/c71 { 0.000000 0.000000 0.562500 sr} bdef
c71
  18   18 1822 1150 PO
gs 1162 389 4830 4227 MR c np
gr

  18   18 1819 2010 PO
gs 1162 389 4830 4227 MR c np
gr

  18   18 1815 3052 PO
gs 1162 389 4830 4227 MR c np
gr

  18   18 1811 2350 PO
gs 1162 389 4830 4227 MR c np
gr

  18   18 1807 2837 PO
gs 1162 389 4830 4227 MR c np
gr

  18   18 1803 2381 PO
gs 1162 389 4830 4227 MR c np
gr

  18   18 1800 2102 PO
gs 1162 389 4830 4227 MR c np
gr

  18   18 1796 2767 PO
gs 1162 389 4830 4227 MR c np
gr

  18   18 1792 2892 PO
gs 1162 389 4830 4227 MR c np
gr

  18   18 1788 3191 PO
gs 1162 389 4830 4227 MR c np
gr

  18   18 1784 3099 PO
gs 1162 389 4830 4227 MR c np
gr

  18   18 1781 2306 PO
gs 1162 389 4830 4227 MR c np
gr

  18   18 1777 2251 PO
gs 1162 389 4830 4227 MR c np
gr

  18   18 1773 2658 PO
gs 1162 389 4830 4227 MR c np
gr

  18   18 1769 1571 PO
gs 1162 389 4830 4227 MR c np
gr

  18   18 1765 3260 PO
gs 1162 389 4830 4227 MR c np
gr

0 sg
3546 4903 mt 
(x) s
 909 2533 mt  -90 rotate
(y) s
90 rotate

end %%Color Dict

eplot
%%EndObject

epage
end

showpage

%%Trailer
%%EOF
