%!PS-Adobe-2.0 EPSF-1.2
%%Creator: MATLAB, The MathWorks, Inc. Version 8.3.0.532 (R2014a). Operating System: Linux 2.6.32-431.20.3.el6.x86_64 #1 SMP Thu Jun 19 14:01:59 CDT 2014 x86_64.
%%Title: ./inputX.eps
%%CreationDate: 05/29/2015  15:32:42
%%DocumentNeededFonts: Helvetica
%%DocumentProcessColors: Cyan Magenta Yellow Black
%%Extensions: CMYK
%%Pages: 1
%%BoundingBox:    91   199   512   589
%%EndComments

%%BeginProlog
% MathWorks dictionary
/MathWorks 160 dict begin
% definition operators
/bdef {bind def} bind def
/ldef {load def} bind def
/xdef {exch def} bdef
/xstore {exch store} bdef
% operator abbreviations
/c  /clip ldef
/cc /concat ldef
/cp /closepath ldef
/gr /grestore ldef
/gs /gsave ldef
/mt /moveto ldef
/np /newpath ldef
/cm /currentmatrix ldef
/sm /setmatrix ldef
/rm /rmoveto ldef
/rl /rlineto ldef
/s {show newpath} bdef
/sc {setcmykcolor} bdef
/sr /setrgbcolor ldef
/sg /setgray ldef
/w /setlinewidth ldef
/j /setlinejoin ldef
/cap /setlinecap ldef
/rc {rectclip} bdef
/rf {rectfill} bdef
% page state control
/pgsv () def
/bpage {/pgsv save def} bdef
/epage {pgsv restore} bdef
/bplot /gsave ldef
/eplot {stroke grestore} bdef
% orientation switch
/portraitMode 0 def /landscapeMode 1 def /rotateMode 2 def
% coordinate system mappings
/dpi2point 0 def
% font control
/FontSize 0 def
/FMS {/FontSize xstore findfont [FontSize 0 0 FontSize neg 0 0]
  makefont setfont} bdef
/reencode {exch dup where {pop load} {pop StandardEncoding} ifelse
  exch dup 3 1 roll findfont dup length dict begin
  { 1 index /FID ne {def}{pop pop} ifelse } forall
  /Encoding exch def currentdict end definefont pop} bdef
/isroman {findfont /CharStrings get /Agrave known} bdef
/FMSR {3 1 roll 1 index dup isroman {reencode} {pop pop} ifelse
  exch FMS} bdef
/csm {1 dpi2point div -1 dpi2point div scale neg translate
 dup landscapeMode eq {pop -90 rotate}
  {rotateMode eq {90 rotate} if} ifelse} bdef
% line types: solid, dotted, dashed, dotdash
/SO { [] 0 setdash } bdef
/DO { [.5 dpi2point mul 4 dpi2point mul] 0 setdash } bdef
/DA { [6 dpi2point mul] 0 setdash } bdef
/DD { [.5 dpi2point mul 4 dpi2point mul 6 dpi2point mul 4
  dpi2point mul] 0 setdash } bdef
% macros for lines and objects
/L {lineto stroke} bdef
/MP {3 1 roll moveto 1 sub {rlineto} repeat} bdef
/AP {{rlineto} repeat} bdef
/PDlw -1 def
/W {/PDlw currentlinewidth def setlinewidth} def
/PP {closepath eofill} bdef
/DP {closepath stroke} bdef
/MR {4 -2 roll moveto dup  0 exch rlineto exch 0 rlineto
  neg 0 exch rlineto closepath} bdef
/FR {MR stroke} bdef
/PR {MR fill} bdef
/L1i {{currentfile picstr readhexstring pop} image} bdef
/tMatrix matrix def
/MakeOval {newpath tMatrix currentmatrix pop translate scale
0 0 1 0 360 arc tMatrix setmatrix} bdef
/FO {MakeOval stroke} bdef
/PO {MakeOval fill} bdef
/PD {currentlinewidth 2 div 0 360 arc fill
   PDlw -1 eq not {PDlw w /PDlw -1 def} if} def
/FA {newpath tMatrix currentmatrix pop translate scale
  0 0 1 5 -2 roll arc tMatrix setmatrix stroke} bdef
/PA {newpath tMatrix currentmatrix pop	translate 0 0 moveto scale
  0 0 1 5 -2 roll arc closepath tMatrix setmatrix fill} bdef
/FAn {newpath tMatrix currentmatrix pop translate scale
  0 0 1 5 -2 roll arcn tMatrix setmatrix stroke} bdef
/PAn {newpath tMatrix currentmatrix pop translate 0 0 moveto scale
  0 0 1 5 -2 roll arcn closepath tMatrix setmatrix fill} bdef
/vradius 0 def /hradius 0 def /lry 0 def
/lrx 0 def /uly 0 def /ulx 0 def /rad 0 def
/MRR {/vradius xdef /hradius xdef /lry xdef /lrx xdef /uly xdef
  /ulx xdef newpath tMatrix currentmatrix pop ulx hradius add uly
  vradius add translate hradius vradius scale 0 0 1 180 270 arc 
  tMatrix setmatrix lrx hradius sub uly vradius add translate
  hradius vradius scale 0 0 1 270 360 arc tMatrix setmatrix
  lrx hradius sub lry vradius sub translate hradius vradius scale
  0 0 1 0 90 arc tMatrix setmatrix ulx hradius add lry vradius sub
  translate hradius vradius scale 0 0 1 90 180 arc tMatrix setmatrix
  closepath} bdef
/FRR {MRR stroke } bdef
/PRR {MRR fill } bdef
/MlrRR {/lry xdef /lrx xdef /uly xdef /ulx xdef /rad lry uly sub 2 div def
  newpath tMatrix currentmatrix pop ulx rad add uly rad add translate
  rad rad scale 0 0 1 90 270 arc tMatrix setmatrix lrx rad sub lry rad
  sub translate rad rad scale 0 0 1 270 90 arc tMatrix setmatrix
  closepath} bdef
/FlrRR {MlrRR stroke } bdef
/PlrRR {MlrRR fill } bdef
/MtbRR {/lry xdef /lrx xdef /uly xdef /ulx xdef /rad lrx ulx sub 2 div def
  newpath tMatrix currentmatrix pop ulx rad add uly rad add translate
  rad rad scale 0 0 1 180 360 arc tMatrix setmatrix lrx rad sub lry rad
  sub translate rad rad scale 0 0 1 0 180 arc tMatrix setmatrix
  closepath} bdef
/FtbRR {MtbRR stroke } bdef
/PtbRR {MtbRR fill } bdef
/stri 6 array def /dtri 6 array def
/smat 6 array def /dmat 6 array def
/tmat1 6 array def /tmat2 6 array def /dif 3 array def
/asub {/ind2 exch def /ind1 exch def dup dup
  ind1 get exch ind2 get sub exch } bdef
/tri_to_matrix {
  2 0 asub 3 1 asub 4 0 asub 5 1 asub
  dup 0 get exch 1 get 7 -1 roll astore } bdef
/compute_transform {
  dmat dtri tri_to_matrix tmat1 invertmatrix 
  smat stri tri_to_matrix tmat2 concatmatrix } bdef
/ds {stri astore pop} bdef
/dt {dtri astore pop} bdef
/db {2 copy /cols xdef /rows xdef mul dup 3 mul string
  currentfile exch readhexstring pop
  dup 0 3 index getinterval /rbmap xdef
  dup 2 index dup getinterval /gbmap xdef
  1 index dup 2 mul exch getinterval /bbmap xdef pop pop}bdef
/it {gs np dtri aload pop moveto lineto lineto cp c
  cols rows 8 compute_transform 
  rbmap gbmap bbmap true 3 colorimage gr}bdef
/il {newpath moveto lineto stroke}bdef
currentdict end def
%%EndProlog

%%BeginSetup
MathWorks begin

0 cap

end
%%EndSetup

%%Page: 1 1
%%BeginPageSetup
%%PageBoundingBox:    91   199   512   589
MathWorks begin
bpage
%%EndPageSetup

%%BeginObject: obj1
bplot

/dpi2point 12 def
portraitMode 0216 7344 csm

  883   273  5049  4682 MR c np
85 dict begin %Colortable dictionary
/c0 { 0.000000 0.000000 0.000000 sr} bdef
/c1 { 1.000000 1.000000 1.000000 sr} bdef
/c2 { 0.900000 0.000000 0.000000 sr} bdef
/c3 { 0.000000 0.820000 0.000000 sr} bdef
/c4 { 0.000000 0.000000 0.800000 sr} bdef
/c5 { 0.910000 0.820000 0.320000 sr} bdef
/c6 { 1.000000 0.260000 0.820000 sr} bdef
/c7 { 0.000000 0.820000 0.820000 sr} bdef
c0
1 j
1 sg
   0    0 6913 5186 PR
6 w
0 4227 4611 0 0 -4227 1271 4615 4 MP
PP
-4611 0 0 4227 4611 0 0 -4227 1271 4615 5 MP stroke
4 w
DO
SO
6 w
0 sg
1271 4615 mt 5882 4615 L
1271  388 mt 5882  388 L
1271 4615 mt 1271  388 L
5882 4615 mt 5882  388 L
1271 4615 mt 5882 4615 L
1271 4615 mt 1271  388 L
1848 4615 mt 1848 4568 L
1848  388 mt 1848  435 L
%%IncludeResource: font Helvetica
/Helvetica /ISOLatin1Encoding 120 FMSR

1745 4760 mt 
(-4) s
2616 4615 mt 2616 4568 L
2616  388 mt 2616  435 L
2513 4760 mt 
(-2) s
3384 4615 mt 3384 4568 L
3384  388 mt 3384  435 L
3351 4760 mt 
(0) s
4153 4615 mt 4153 4568 L
4153  388 mt 4153  435 L
4120 4760 mt 
(2) s
4921 4615 mt 4921 4568 L
4921  388 mt 4921  435 L
4888 4760 mt 
(4) s
5690 4615 mt 5690 4568 L
5690  388 mt 5690  435 L
5657 4760 mt 
(6) s
1271 4615 mt 1318 4615 L
5882 4615 mt 5835 4615 L
1101 4659 mt 
(-6) s
1271 4230 mt 1318 4230 L
5882 4230 mt 5835 4230 L
1101 4274 mt 
(-5) s
1271 3846 mt 1318 3846 L
5882 3846 mt 5835 3846 L
1101 3890 mt 
(-4) s
1271 3462 mt 1318 3462 L
5882 3462 mt 5835 3462 L
1101 3506 mt 
(-3) s
1271 3078 mt 1318 3078 L
5882 3078 mt 5835 3078 L
1101 3122 mt 
(-2) s
1271 2694 mt 1318 2694 L
5882 2694 mt 5835 2694 L
1101 2738 mt 
(-1) s
1271 2309 mt 1318 2309 L
5882 2309 mt 5835 2309 L
1171 2353 mt 
(0) s
1271 1925 mt 1318 1925 L
5882 1925 mt 5835 1925 L
1171 1969 mt 
(1) s
1271 1541 mt 1318 1541 L
5882 1541 mt 5835 1541 L
1171 1585 mt 
(2) s
1271 1157 mt 1318 1157 L
5882 1157 mt 5835 1157 L
1171 1201 mt 
(3) s
1271  773 mt 1318  773 L
5882  773 mt 5835  773 L
1171  817 mt 
(4) s
1271  388 mt 1318  388 L
5882  388 mt 5835  388 L
1171  432 mt 
(5) s
1271 4615 mt 5882 4615 L
1271  388 mt 5882  388 L
1271 4615 mt 1271  388 L
5882 4615 mt 5882  388 L
gs 1271 388 4612 4228 MR c np
0 j
gr

/c8 { 0.500000 0.000000 0.000000 sr} bdef
c8
  18   18 5199 2309 PO
gs 1271 388 4612 4228 MR c np
gr

  18   18 5373 2334 PO
gs 1271 388 4612 4228 MR c np
gr

  18   18 5481 2362 PO
gs 1271 388 4612 4228 MR c np
gr

  18   18 5271 2381 PO
gs 1271 388 4612 4228 MR c np
gr

  18   18 5052 2393 PO
gs 1271 388 4612 4228 MR c np
gr

  18   18 5371 2435 PO
gs 1271 388 4612 4228 MR c np
gr

  18   18 4919 2425 PO
gs 1271 388 4612 4228 MR c np
gr

  18   18 5491 2495 PO
gs 1271 388 4612 4228 MR c np
gr

  18   18 5665 2540 PO
gs 1271 388 4612 4228 MR c np
gr

  18   18 5583 2559 PO
gs 1271 388 4612 4228 MR c np
gr

  18   18 5367 2560 PO
gs 1271 388 4612 4228 MR c np
gr

  18   18 5614 2620 PO
gs 1271 388 4612 4228 MR c np
gr

  18   18 4892 2539 PO
gs 1271 388 4612 4228 MR c np
gr

  18   18 5248 2617 PO
gs 1271 388 4612 4228 MR c np
gr

  18   18 4928 2584 PO
gs 1271 388 4612 4228 MR c np
gr

  18   18 5119 2641 PO
gs 1271 388 4612 4228 MR c np
gr

/c9 { 0.562500 0.000000 0.000000 sr} bdef
c9
  18   18 5262 2693 PO
gs 1271 388 4612 4228 MR c np
gr

  18   18 5237 2712 PO
gs 1271 388 4612 4228 MR c np
gr

  18   18 5150 2716 PO
gs 1271 388 4612 4228 MR c np
gr

  18   18 4907 2680 PO
gs 1271 388 4612 4228 MR c np
gr

  18   18 5114 2754 PO
gs 1271 388 4612 4228 MR c np
gr

  18   18 5322 2833 PO
gs 1271 388 4612 4228 MR c np
gr

  18   18 5370 2873 PO
gs 1271 388 4612 4228 MR c np
gr

  18   18 4871 2752 PO
gs 1271 388 4612 4228 MR c np
gr

  18   18 5546 2983 PO
gs 1271 388 4612 4228 MR c np
gr

  18   18 5366 2954 PO
gs 1271 388 4612 4228 MR c np
gr

  18   18 5486 3022 PO
gs 1271 388 4612 4228 MR c np
gr

  18   18 5209 2954 PO
gs 1271 388 4612 4228 MR c np
gr

  18   18 4878 2858 PO
gs 1271 388 4612 4228 MR c np
gr

  18   18 5292 3038 PO
gs 1271 388 4612 4228 MR c np
gr

  18   18 4804 2872 PO
gs 1271 388 4612 4228 MR c np
gr

  18   18 5294 3094 PO
gs 1271 388 4612 4228 MR c np
gr

/c10 { 0.625000 0.000000 0.000000 sr} bdef
c10
  18   18 5175 3072 PO
gs 1271 388 4612 4228 MR c np
gr

  18   18 4788 2928 PO
gs 1271 388 4612 4228 MR c np
gr

  18   18 5039 3064 PO
gs 1271 388 4612 4228 MR c np
gr

  18   18 5388 3253 PO
gs 1271 388 4612 4228 MR c np
gr

  18   18 5395 3288 PO
gs 1271 388 4612 4228 MR c np
gr

  18   18 5023 3133 PO
gs 1271 388 4612 4228 MR c np
gr

  18   18 4770 3027 PO
gs 1271 388 4612 4228 MR c np
gr

  18   18 5139 3247 PO
gs 1271 388 4612 4228 MR c np
gr

  18   18 4791 3084 PO
gs 1271 388 4612 4228 MR c np
gr

  18   18 4967 3207 PO
gs 1271 388 4612 4228 MR c np
gr

  18   18 4994 3249 PO
gs 1271 388 4612 4228 MR c np
gr

  18   18 4954 3252 PO
gs 1271 388 4612 4228 MR c np
gr

  18   18 5201 3432 PO
gs 1271 388 4612 4228 MR c np
gr

  18   18 5130 3419 PO
gs 1271 388 4612 4228 MR c np
gr

  18   18 4679 3155 PO
gs 1271 388 4612 4228 MR c np
gr

/c11 { 0.687500 0.000000 0.000000 sr} bdef
c11
  18   18 4919 3340 PO
gs 1271 388 4612 4228 MR c np
gr

  18   18 5167 3539 PO
gs 1271 388 4612 4228 MR c np
gr

  18   18 5053 3492 PO
gs 1271 388 4612 4228 MR c np
gr

  18   18 5130 3579 PO
gs 1271 388 4612 4228 MR c np
gr

  18   18 4876 3424 PO
gs 1271 388 4612 4228 MR c np
gr

  18   18 5121 3641 PO
gs 1271 388 4612 4228 MR c np
gr

  18   18 4781 3408 PO
gs 1271 388 4612 4228 MR c np
gr

  18   18 4984 3601 PO
gs 1271 388 4612 4228 MR c np
gr

  18   18 4987 3637 PO
gs 1271 388 4612 4228 MR c np
gr

  18   18 4534 3286 PO
gs 1271 388 4612 4228 MR c np
gr

  18   18 4793 3537 PO
gs 1271 388 4612 4228 MR c np
gr

  18   18 4475 3284 PO
gs 1271 388 4612 4228 MR c np
gr

  18   18 5019 3808 PO
gs 1271 388 4612 4228 MR c np
gr

  18   18 4709 3555 PO
gs 1271 388 4612 4228 MR c np
gr

  18   18 4920 3790 PO
gs 1271 388 4612 4228 MR c np
gr

  18   18 4568 3480 PO
gs 1271 388 4612 4228 MR c np
gr

/c12 { 0.750000 0.000000 0.000000 sr} bdef
c12
  18   18 4703 3647 PO
gs 1271 388 4612 4228 MR c np
gr

  18   18 4869 3854 PO
gs 1271 388 4612 4228 MR c np
gr

  18   18 4847 3869 PO
gs 1271 388 4612 4228 MR c np
gr

  18   18 4805 3863 PO
gs 1271 388 4612 4228 MR c np
gr

  18   18 4731 3821 PO
gs 1271 388 4612 4228 MR c np
gr

  18   18 4602 3711 PO
gs 1271 388 4612 4228 MR c np
gr

  18   18 4650 3803 PO
gs 1271 388 4612 4228 MR c np
gr

  18   18 4583 3760 PO
gs 1271 388 4612 4228 MR c np
gr

  18   18 4512 3711 PO
gs 1271 388 4612 4228 MR c np
gr

  18   18 4616 3880 PO
gs 1271 388 4612 4228 MR c np
gr

  18   18 4439 3690 PO
gs 1271 388 4612 4228 MR c np
gr

  18   18 4563 3892 PO
gs 1271 388 4612 4228 MR c np
gr

  18   18 4572 3948 PO
gs 1271 388 4612 4228 MR c np
gr

  18   18 4546 3954 PO
gs 1271 388 4612 4228 MR c np
gr

  18   18 4439 3843 PO
gs 1271 388 4612 4228 MR c np
gr

  18   18 4465 3924 PO
gs 1271 388 4612 4228 MR c np
gr

/c13 { 0.812500 0.000000 0.000000 sr} bdef
c13
  18   18 4532 4073 PO
gs 1271 388 4612 4228 MR c np
gr

  18   18 4511 4089 PO
gs 1271 388 4612 4228 MR c np
gr

  18   18 4279 3763 PO
gs 1271 388 4612 4228 MR c np
gr

  18   18 4453 4094 PO
gs 1271 388 4612 4228 MR c np
gr

  18   18 4331 3937 PO
gs 1271 388 4612 4228 MR c np
gr

  18   18 4226 3799 PO
gs 1271 388 4612 4228 MR c np
gr

  18   18 4345 4060 PO
gs 1271 388 4612 4228 MR c np
gr

  18   18 4165 3777 PO
gs 1271 388 4612 4228 MR c np
gr

  18   18 4257 4000 PO
gs 1271 388 4612 4228 MR c np
gr

  18   18 4304 4148 PO
gs 1271 388 4612 4228 MR c np
gr

  18   18 4311 4222 PO
gs 1271 388 4612 4228 MR c np
gr

  18   18 3983 3585 PO
gs 1271 388 4612 4228 MR c np
gr

  18   18 4246 4208 PO
gs 1271 388 4612 4228 MR c np
gr

  18   18 3976 3657 PO
gs 1271 388 4612 4228 MR c np
gr

  18   18 3953 3650 PO
gs 1271 388 4612 4228 MR c np
gr

/c14 { 0.875000 0.000000 0.000000 sr} bdef
c14
  18   18 4055 3949 PO
gs 1271 388 4612 4228 MR c np
gr

  18   18 4069 4045 PO
gs 1271 388 4612 4228 MR c np
gr

  18   18 3988 3898 PO
gs 1271 388 4612 4228 MR c np
gr

  18   18 3969 3907 PO
gs 1271 388 4612 4228 MR c np
gr

  18   18 4016 4105 PO
gs 1271 388 4612 4228 MR c np
gr

  18   18 3906 3855 PO
gs 1271 388 4612 4228 MR c np
gr

  18   18 4036 4322 PO
gs 1271 388 4612 4228 MR c np
gr

  18   18 4014 4342 PO
gs 1271 388 4612 4228 MR c np
gr

  18   18 3798 3708 PO
gs 1271 388 4612 4228 MR c np
gr

  18   18 3956 4333 PO
gs 1271 388 4612 4228 MR c np
gr

  18   18 3903 4239 PO
gs 1271 388 4612 4228 MR c np
gr

  18   18 3807 3964 PO
gs 1271 388 4612 4228 MR c np
gr

  18   18 3715 3676 PO
gs 1271 388 4612 4228 MR c np
gr

  18   18 3705 3710 PO
gs 1271 388 4612 4228 MR c np
gr

  18   18 3679 3675 PO
gs 1271 388 4612 4228 MR c np
gr

  18   18 3743 4082 PO
gs 1271 388 4612 4228 MR c np
gr

/c15 { 0.937500 0.000000 0.000000 sr} bdef
c15
  18   18 3720 4082 PO
gs 1271 388 4612 4228 MR c np
gr

  18   18 3702 4112 PO
gs 1271 388 4612 4228 MR c np
gr

  18   18 3627 3795 PO
gs 1271 388 4612 4228 MR c np
gr

  18   18 3639 3998 PO
gs 1271 388 4612 4228 MR c np
gr

  18   18 3578 3714 PO
gs 1271 388 4612 4228 MR c np
gr

  18   18 3575 3833 PO
gs 1271 388 4612 4228 MR c np
gr

  18   18 3545 3742 PO
gs 1271 388 4612 4228 MR c np
gr

  18   18 3589 4363 PO
gs 1271 388 4612 4228 MR c np
gr

  18   18 3509 3747 PO
gs 1271 388 4612 4228 MR c np
gr

  18   18 3522 4166 PO
gs 1271 388 4612 4228 MR c np
gr

  18   18 3501 4209 PO
gs 1271 388 4612 4228 MR c np
gr

  18   18 3460 3869 PO
gs 1271 388 4612 4228 MR c np
gr

  18   18 3442 3889 PO
gs 1271 388 4612 4228 MR c np
gr

  18   18 3420 3831 PO
gs 1271 388 4612 4228 MR c np
gr

  18   18 3407 4318 PO
gs 1271 388 4612 4228 MR c np
gr

/c16 { 1.000000 0.000000 0.000000 sr} bdef
c16
  18   18 3382 4138 PO
gs 1271 388 4612 4228 MR c np
gr

  18   18 3365 3676 PO
gs 1271 388 4612 4228 MR c np
gr

  18   18 3347 3704 PO
gs 1271 388 4612 4228 MR c np
gr

  18   18 3328 3749 PO
gs 1271 388 4612 4228 MR c np
gr

  18   18 3301 3921 PO
gs 1271 388 4612 4228 MR c np
gr

  18   18 3293 3730 PO
gs 1271 388 4612 4228 MR c np
gr

  18   18 3247 4096 PO
gs 1271 388 4612 4228 MR c np
gr

  18   18 3254 3757 PO
gs 1271 388 4612 4228 MR c np
gr

  18   18 3213 3980 PO
gs 1271 388 4612 4228 MR c np
gr

  18   18 3228 3670 PO
gs 1271 388 4612 4228 MR c np
gr

  18   18 3135 4260 PO
gs 1271 388 4612 4228 MR c np
gr

  18   18 3122 4174 PO
gs 1271 388 4612 4228 MR c np
gr

  18   18 3136 3922 PO
gs 1271 388 4612 4228 MR c np
gr

  18   18 3088 4086 PO
gs 1271 388 4612 4228 MR c np
gr

  18   18 3146 3637 PO
gs 1271 388 4612 4228 MR c np
gr

  18   18 3100 3787 PO
gs 1271 388 4612 4228 MR c np
gr

/c17 { 1.000000 0.062500 0.000000 sr} bdef
c17
  18   18 3022 4074 PO
gs 1271 388 4612 4228 MR c np
gr

  18   18 3046 3857 PO
gs 1271 388 4612 4228 MR c np
gr

  18   18 2980 4051 PO
gs 1271 388 4612 4228 MR c np
gr

  18   18 3037 3727 PO
gs 1271 388 4612 4228 MR c np
gr

  18   18 2901 4179 PO
gs 1271 388 4612 4228 MR c np
gr

  18   18 2930 3980 PO
gs 1271 388 4612 4228 MR c np
gr

  18   18 2935 3884 PO
gs 1271 388 4612 4228 MR c np
gr

  18   18 2895 3946 PO
gs 1271 388 4612 4228 MR c np
gr

  18   18 2930 3761 PO
gs 1271 388 4612 4228 MR c np
gr

  18   18 2832 3997 PO
gs 1271 388 4612 4228 MR c np
gr

  18   18 2885 3773 PO
gs 1271 388 4612 4228 MR c np
gr

  18   18 2863 3778 PO
gs 1271 388 4612 4228 MR c np
gr

  18   18 2898 3625 PO
gs 1271 388 4612 4228 MR c np
gr

  18   18 2695 4106 PO
gs 1271 388 4612 4228 MR c np
gr

  18   18 2788 3806 PO
gs 1271 388 4612 4228 MR c np
gr

  18   18 2663 4056 PO
gs 1271 388 4612 4228 MR c np
gr

/c18 { 1.000000 0.125000 0.000000 sr} bdef
c18
  18   18 2864 3527 PO
gs 1271 388 4612 4228 MR c np
gr

  18   18 2646 3977 PO
gs 1271 388 4612 4228 MR c np
gr

  18   18 2703 3798 PO
gs 1271 388 4612 4228 MR c np
gr

  18   18 2593 3983 PO
gs 1271 388 4612 4228 MR c np
gr

  18   18 2580 3957 PO
gs 1271 388 4612 4228 MR c np
gr

  18   18 2505 4054 PO
gs 1271 388 4612 4228 MR c np
gr

  18   18 2432 4141 PO
gs 1271 388 4612 4228 MR c np
gr

  18   18 2712 3564 PO
gs 1271 388 4612 4228 MR c np
gr

  18   18 2740 3476 PO
gs 1271 388 4612 4228 MR c np
gr

  18   18 2555 3768 PO
gs 1271 388 4612 4228 MR c np
gr

  18   18 2484 3847 PO
gs 1271 388 4612 4228 MR c np
gr

  18   18 2546 3701 PO
gs 1271 388 4612 4228 MR c np
gr

  18   18 2303 4054 PO
gs 1271 388 4612 4228 MR c np
gr

  18   18 2660 3446 PO
gs 1271 388 4612 4228 MR c np
gr

  18   18 2548 3586 PO
gs 1271 388 4612 4228 MR c np
gr

/c19 { 1.000000 0.187500 0.000000 sr} bdef
c19
  18   18 2621 3443 PO
gs 1271 388 4612 4228 MR c np
gr

  18   18 2651 3369 PO
gs 1271 388 4612 4228 MR c np
gr

  18   18 2240 3919 PO
gs 1271 388 4612 4228 MR c np
gr

  18   18 2585 3405 PO
gs 1271 388 4612 4228 MR c np
gr

  18   18 2296 3762 PO
gs 1271 388 4612 4228 MR c np
gr

  18   18 2577 3359 PO
gs 1271 388 4612 4228 MR c np
gr

  18   18 2217 3789 PO
gs 1271 388 4612 4228 MR c np
gr

  18   18 2389 3539 PO
gs 1271 388 4612 4228 MR c np
gr

  18   18 2132 3816 PO
gs 1271 388 4612 4228 MR c np
gr

  18   18 2141 3768 PO
gs 1271 388 4612 4228 MR c np
gr

  18   18 2499 3322 PO
gs 1271 388 4612 4228 MR c np
gr

  18   18 2302 3516 PO
gs 1271 388 4612 4228 MR c np
gr

  18   18 2177 3622 PO
gs 1271 388 4612 4228 MR c np
gr

  18   18 2131 3638 PO
gs 1271 388 4612 4228 MR c np
gr

  18   18 1988 3753 PO
gs 1271 388 4612 4228 MR c np
gr

  18   18 2151 3553 PO
gs 1271 388 4612 4228 MR c np
gr

/c20 { 1.000000 0.250000 0.000000 sr} bdef
c20
  18   18 2142 3531 PO
gs 1271 388 4612 4228 MR c np
gr

  18   18 2034 3604 PO
gs 1271 388 4612 4228 MR c np
gr

  18   18 2318 3306 PO
gs 1271 388 4612 4228 MR c np
gr

  18   18 2166 3420 PO
gs 1271 388 4612 4228 MR c np
gr

  18   18 2036 3507 PO
gs 1271 388 4612 4228 MR c np
gr

  18   18 1972 3533 PO
gs 1271 388 4612 4228 MR c np
gr

  18   18 2308 3219 PO
gs 1271 388 4612 4228 MR c np
gr

  18   18 2083 3381 PO
gs 1271 388 4612 4228 MR c np
gr

  18   18 1820 3565 PO
gs 1271 388 4612 4228 MR c np
gr

  18   18 1815 3536 PO
gs 1271 388 4612 4228 MR c np
gr

  18   18 2283 3148 PO
gs 1271 388 4612 4228 MR c np
gr

  18   18 1800 3485 PO
gs 1271 388 4612 4228 MR c np
gr

  18   18 1970 3331 PO
gs 1271 388 4612 4228 MR c np
gr

  18   18 2335 3048 PO
gs 1271 388 4612 4228 MR c np
gr

  18   18 1831 3374 PO
gs 1271 388 4612 4228 MR c np
gr

/c21 { 1.000000 0.312500 0.000000 sr} bdef
c21
  18   18 2095 3169 PO
gs 1271 388 4612 4228 MR c np
gr

  18   18 2065 3165 PO
gs 1271 388 4612 4228 MR c np
gr

  18   18 2072 3138 PO
gs 1271 388 4612 4228 MR c np
gr

  18   18 2195 3039 PO
gs 1271 388 4612 4228 MR c np
gr

  18   18 1961 3158 PO
gs 1271 388 4612 4228 MR c np
gr

  18   18 1967 3131 PO
gs 1271 388 4612 4228 MR c np
gr

  18   18 2013 3081 PO
gs 1271 388 4612 4228 MR c np
gr

  18   18 2230 2940 PO
gs 1271 388 4612 4228 MR c np
gr

  18   18 2264 2904 PO
gs 1271 388 4612 4228 MR c np
gr

  18   18 1882 3082 PO
gs 1271 388 4612 4228 MR c np
gr

  18   18 1612 3193 PO
gs 1271 388 4612 4228 MR c np
gr

  18   18 1623 3160 PO
gs 1271 388 4612 4228 MR c np
gr

  18   18 1981 2965 PO
gs 1271 388 4612 4228 MR c np
gr

  18   18 1649 3094 PO
gs 1271 388 4612 4228 MR c np
gr

  18   18 2242 2809 PO
gs 1271 388 4612 4228 MR c np
gr

  18   18 1929 2924 PO
gs 1271 388 4612 4228 MR c np
gr

/c22 { 1.000000 0.375000 0.000000 sr} bdef
c22
  18   18 2245 2773 PO
gs 1271 388 4612 4228 MR c np
gr

  18   18 1854 2910 PO
gs 1271 388 4612 4228 MR c np
gr

  18   18 2154 2775 PO
gs 1271 388 4612 4228 MR c np
gr

  18   18 1563 2973 PO
gs 1271 388 4612 4228 MR c np
gr

  18   18 2049 2777 PO
gs 1271 388 4612 4228 MR c np
gr

  18   18 1951 2791 PO
gs 1271 388 4612 4228 MR c np
gr

  18   18 1941 2774 PO
gs 1271 388 4612 4228 MR c np
gr

  18   18 2120 2699 PO
gs 1271 388 4612 4228 MR c np
gr

  18   18 1710 2802 PO
gs 1271 388 4612 4228 MR c np
gr

  18   18 1981 2703 PO
gs 1271 388 4612 4228 MR c np
gr

  18   18 1695 2761 PO
gs 1271 388 4612 4228 MR c np
gr

  18   18 1495 2789 PO
gs 1271 388 4612 4228 MR c np
gr

  18   18 1912 2663 PO
gs 1271 388 4612 4228 MR c np
gr

  18   18 2204 2577 PO
gs 1271 388 4612 4228 MR c np
gr

  18   18 1581 2695 PO
gs 1271 388 4612 4228 MR c np
gr

  18   18 1987 2590 PO
gs 1271 388 4612 4228 MR c np
gr

/c23 { 1.000000 0.437500 0.000000 sr} bdef
c23
  18   18 1648 2635 PO
gs 1271 388 4612 4228 MR c np
gr

  18   18 1928 2564 PO
gs 1271 388 4612 4228 MR c np
gr

  18   18 2132 2512 PO
gs 1271 388 4612 4228 MR c np
gr

  18   18 2106 2500 PO
gs 1271 388 4612 4228 MR c np
gr

  18   18 1705 2538 PO
gs 1271 388 4612 4228 MR c np
gr

  18   18 1970 2484 PO
gs 1271 388 4612 4228 MR c np
gr

  18   18 1704 2495 PO
gs 1271 388 4612 4228 MR c np
gr

  18   18 2193 2426 PO
gs 1271 388 4612 4228 MR c np
gr

  18   18 1452 2474 PO
gs 1271 388 4612 4228 MR c np
gr

  18   18 1752 2428 PO
gs 1271 388 4612 4228 MR c np
gr

  18   18 1737 2408 PO
gs 1271 388 4612 4228 MR c np
gr

  18   18 1515 2398 PO
gs 1271 388 4612 4228 MR c np
gr

  18   18 2105 2354 PO
gs 1271 388 4612 4228 MR c np
gr

  18   18 1571 2349 PO
gs 1271 388 4612 4228 MR c np
gr

  18   18 1469 2327 PO
gs 1271 388 4612 4228 MR c np
gr

/c24 { 1.000000 0.500000 0.000000 sr} bdef
c24
  18   18 1476 2303 PO
gs 1271 388 4612 4228 MR c np
gr

  18   18 1846 2285 PO
gs 1271 388 4612 4228 MR c np
gr

  18   18 1689 2261 PO
gs 1271 388 4612 4228 MR c np
gr

  18   18 1922 2250 PO
gs 1271 388 4612 4228 MR c np
gr

  18   18 1756 2222 PO
gs 1271 388 4612 4228 MR c np
gr

  18   18 1930 2213 PO
gs 1271 388 4612 4228 MR c np
gr

  18   18 1782 2183 PO
gs 1271 388 4612 4228 MR c np
gr

  18   18 1517 2139 PO
gs 1271 388 4612 4228 MR c np
gr

  18   18 2215 2188 PO
gs 1271 388 4612 4228 MR c np
gr

  18   18 1838 2129 PO
gs 1271 388 4612 4228 MR c np
gr

  18   18 1489 2064 PO
gs 1271 388 4612 4228 MR c np
gr

  18   18 1651 2062 PO
gs 1271 388 4612 4228 MR c np
gr

  18   18 1690 2046 PO
gs 1271 388 4612 4228 MR c np
gr

  18   18 1593 2008 PO
gs 1271 388 4612 4228 MR c np
gr

  18   18 2161 2088 PO
gs 1271 388 4612 4228 MR c np
gr

  18   18 1770 1996 PO
gs 1271 388 4612 4228 MR c np
gr

/c25 { 1.000000 0.562500 0.000000 sr} bdef
c25
  18   18 1765 1974 PO
gs 1271 388 4612 4228 MR c np
gr

  18   18 1650 1927 PO
gs 1271 388 4612 4228 MR c np
gr

  18   18 1608 1894 PO
gs 1271 388 4612 4228 MR c np
gr

  18   18 1735 1902 PO
gs 1271 388 4612 4228 MR c np
gr

  18   18 2231 2009 PO
gs 1271 388 4612 4228 MR c np
gr

  18   18 1947 1916 PO
gs 1271 388 4612 4228 MR c np
gr

  18   18 2184 1964 PO
gs 1271 388 4612 4228 MR c np
gr

  18   18 1922 1869 PO
gs 1271 388 4612 4228 MR c np
gr

  18   18 2247 1951 PO
gs 1271 388 4612 4228 MR c np
gr

  18   18 1951 1838 PO
gs 1271 388 4612 4228 MR c np
gr

  18   18 2150 1886 PO
gs 1271 388 4612 4228 MR c np
gr

  18   18 1597 1671 PO
gs 1271 388 4612 4228 MR c np
gr

  18   18 2067 1820 PO
gs 1271 388 4612 4228 MR c np
gr

  18   18 2307 1894 PO
gs 1271 388 4612 4228 MR c np
gr

  18   18 2182 1828 PO
gs 1271 388 4612 4228 MR c np
gr

/c26 { 1.000000 0.625000 0.000000 sr} bdef
c26
  18   18 2151 1798 PO
gs 1271 388 4612 4228 MR c np
gr

  18   18 2024 1725 PO
gs 1271 388 4612 4228 MR c np
gr

  18   18 1715 1567 PO
gs 1271 388 4612 4228 MR c np
gr

  18   18 2204 1767 PO
gs 1271 388 4612 4228 MR c np
gr

  18   18 1795 1554 PO
gs 1271 388 4612 4228 MR c np
gr

  18   18 2090 1675 PO
gs 1271 388 4612 4228 MR c np
gr

  18   18 2083 1651 PO
gs 1271 388 4612 4228 MR c np
gr

  18   18 2019 1597 PO
gs 1271 388 4612 4228 MR c np
gr

  18   18 2195 1669 PO
gs 1271 388 4612 4228 MR c np
gr

  18   18 1896 1484 PO
gs 1271 388 4612 4228 MR c np
gr

  18   18 2282 1680 PO
gs 1271 388 4612 4228 MR c np
gr

  18   18 2299 1671 PO
gs 1271 388 4612 4228 MR c np
gr

  18   18 1800 1351 PO
gs 1271 388 4612 4228 MR c np
gr

  18   18 2374 1681 PO
gs 1271 388 4612 4228 MR c np
gr

  18   18 2078 1474 PO
gs 1271 388 4612 4228 MR c np
gr

  18   18 2181 1518 PO
gs 1271 388 4612 4228 MR c np
gr

/c27 { 1.000000 0.687500 0.000000 sr} bdef
c27
  18   18 2397 1642 PO
gs 1271 388 4612 4228 MR c np
gr

  18   18 2289 1549 PO
gs 1271 388 4612 4228 MR c np
gr

  18   18 2215 1475 PO
gs 1271 388 4612 4228 MR c np
gr

  18   18 2233 1466 PO
gs 1271 388 4612 4228 MR c np
gr

  18   18 2153 1383 PO
gs 1271 388 4612 4228 MR c np
gr

  18   18 2282 1459 PO
gs 1271 388 4612 4228 MR c np
gr

  18   18 2271 1428 PO
gs 1271 388 4612 4228 MR c np
gr

  18   18 2147 1304 PO
gs 1271 388 4612 4228 MR c np
gr

  18   18 2164 1292 PO
gs 1271 388 4612 4228 MR c np
gr

  18   18 2392 1461 PO
gs 1271 388 4612 4228 MR c np
gr

  18   18 2281 1342 PO
gs 1271 388 4612 4228 MR c np
gr

  18   18 2270 1307 PO
gs 1271 388 4612 4228 MR c np
gr

  18   18 2070 1096 PO
gs 1271 388 4612 4228 MR c np
gr

  18   18 2532 1502 PO
gs 1271 388 4612 4228 MR c np
gr

  18   18 2345 1301 PO
gs 1271 388 4612 4228 MR c np
gr

  18   18 2252 1183 PO
gs 1271 388 4612 4228 MR c np
gr

/c28 { 1.000000 0.750000 0.000000 sr} bdef
c28
  18   18 2399 1303 PO
gs 1271 388 4612 4228 MR c np
gr

  18   18 2150 1018 PO
gs 1271 388 4612 4228 MR c np
gr

  18   18 2257 1099 PO
gs 1271 388 4612 4228 MR c np
gr

  18   18 2220 1028 PO
gs 1271 388 4612 4228 MR c np
gr

  18   18 2313 1099 PO
gs 1271 388 4612 4228 MR c np
gr

  18   18 2561 1356 PO
gs 1271 388 4612 4228 MR c np
gr

  18   18 2268  984 PO
gs 1271 388 4612 4228 MR c np
gr

  18   18 2255  933 PO
gs 1271 388 4612 4228 MR c np
gr

  18   18 2425 1109 PO
gs 1271 388 4612 4228 MR c np
gr

  18   18 2501 1176 PO
gs 1271 388 4612 4228 MR c np
gr

  18   18 2689 1393 PO
gs 1271 388 4612 4228 MR c np
gr

  18   18 2301  844 PO
gs 1271 388 4612 4228 MR c np
gr

  18   18 2718 1384 PO
gs 1271 388 4612 4228 MR c np
gr

  18   18 2617 1216 PO
gs 1271 388 4612 4228 MR c np
gr

  18   18 2695 1300 PO
gs 1271 388 4612 4228 MR c np
gr

/c29 { 1.000000 0.812500 0.000000 sr} bdef
c29
  18   18 2561 1070 PO
gs 1271 388 4612 4228 MR c np
gr

  18   18 2592 1084 PO
gs 1271 388 4612 4228 MR c np
gr

  18   18 2752 1304 PO
gs 1271 388 4612 4228 MR c np
gr

  18   18 2593 1015 PO
gs 1271 388 4612 4228 MR c np
gr

  18   18 2504  828 PO
gs 1271 388 4612 4228 MR c np
gr

  18   18 2765 1237 PO
gs 1271 388 4612 4228 MR c np
gr

  18   18 2686 1063 PO
gs 1271 388 4612 4228 MR c np
gr

  18   18 2563  800 PO
gs 1271 388 4612 4228 MR c np
gr

  18   18 2801 1205 PO
gs 1271 388 4612 4228 MR c np
gr

  18   18 2592  762 PO
gs 1271 388 4612 4228 MR c np
gr

  18   18 2627  783 PO
gs 1271 388 4612 4228 MR c np
gr

  18   18 2748  987 PO
gs 1271 388 4612 4228 MR c np
gr

  18   18 2655  742 PO
gs 1271 388 4612 4228 MR c np
gr

  18   18 2684  752 PO
gs 1271 388 4612 4228 MR c np
gr

  18   18 2740  827 PO
gs 1271 388 4612 4228 MR c np
gr

  18   18 2927 1220 PO
gs 1271 388 4612 4228 MR c np
gr

/c30 { 1.000000 0.875000 0.000000 sr} bdef
c30
  18   18 2794  854 PO
gs 1271 388 4612 4228 MR c np
gr

  18   18 2850  942 PO
gs 1271 388 4612 4228 MR c np
gr

  18   18 2810  784 PO
gs 1271 388 4612 4228 MR c np
gr

  18   18 2837  798 PO
gs 1271 388 4612 4228 MR c np
gr

  18   18 2849  770 PO
gs 1271 388 4612 4228 MR c np
gr

  18   18 2923  929 PO
gs 1271 388 4612 4228 MR c np
gr

  18   18 2977 1038 PO
gs 1271 388 4612 4228 MR c np
gr

  18   18 2969  952 PO
gs 1271 388 4612 4228 MR c np
gr

  18   18 3096 1325 PO
gs 1271 388 4612 4228 MR c np
gr

  18   18 3098 1283 PO
gs 1271 388 4612 4228 MR c np
gr

  18   18 3005  879 PO
gs 1271 388 4612 4228 MR c np
gr

  18   18 3109 1217 PO
gs 1271 388 4612 4228 MR c np
gr

  18   18 2974  588 PO
gs 1271 388 4612 4228 MR c np
gr

  18   18 3157 1299 PO
gs 1271 388 4612 4228 MR c np
gr

  18   18 3156 1235 PO
gs 1271 388 4612 4228 MR c np
gr

  18   18 3040  580 PO
gs 1271 388 4612 4228 MR c np
gr

/c31 { 1.000000 0.937500 0.000000 sr} bdef
c31
  18   18 3183 1228 PO
gs 1271 388 4612 4228 MR c np
gr

  18   18 3098  657 PO
gs 1271 388 4612 4228 MR c np
gr

  18   18 3184 1060 PO
gs 1271 388 4612 4228 MR c np
gr

  18   18 3230 1259 PO
gs 1271 388 4612 4228 MR c np
gr

  18   18 3206  983 PO
gs 1271 388 4612 4228 MR c np
gr

  18   18 3175  591 PO
gs 1271 388 4612 4228 MR c np
gr

  18   18 3234  928 PO
gs 1271 388 4612 4228 MR c np
gr

  18   18 3281 1234 PO
gs 1271 388 4612 4228 MR c np
gr

  18   18 3295 1241 PO
gs 1271 388 4612 4228 MR c np
gr

  18   18 3300 1124 PO
gs 1271 388 4612 4228 MR c np
gr

  18   18 3311 1054 PO
gs 1271 388 4612 4228 MR c np
gr

  18   18 3317  823 PO
gs 1271 388 4612 4228 MR c np
gr

  18   18 3327  583 PO
gs 1271 388 4612 4228 MR c np
gr

  18   18 3351  656 PO
gs 1271 388 4612 4228 MR c np
gr

  18   18 3376 1244 PO
gs 1271 388 4612 4228 MR c np
gr

/c32 { 1.000000 1.000000 0.000000 sr} bdef
c32
  18   18 3391  952 PO
gs 1271 388 4612 4228 MR c np
gr

  18   18 3402 1267 PO
gs 1271 388 4612 4228 MR c np
gr

  18   18 3434  654 PO
gs 1271 388 4612 4228 MR c np
gr

  18   18 3442  945 PO
gs 1271 388 4612 4228 MR c np
gr

  18   18 3469  766 PO
gs 1271 388 4612 4228 MR c np
gr

  18   18 3495  679 PO
gs 1271 388 4612 4228 MR c np
gr

  18   18 3468 1274 PO
gs 1271 388 4612 4228 MR c np
gr

  18   18 3531  728 PO
gs 1271 388 4612 4228 MR c np
gr

  18   18 3530  929 PO
gs 1271 388 4612 4228 MR c np
gr

  18   18 3513 1226 PO
gs 1271 388 4612 4228 MR c np
gr

  18   18 3544 1094 PO
gs 1271 388 4612 4228 MR c np
gr

  18   18 3600  815 PO
gs 1271 388 4612 4228 MR c np
gr

  18   18 3547 1270 PO
gs 1271 388 4612 4228 MR c np
gr

  18   18 3610  978 PO
gs 1271 388 4612 4228 MR c np
gr

  18   18 3613 1061 PO
gs 1271 388 4612 4228 MR c np
gr

  18   18 3611 1155 PO
gs 1271 388 4612 4228 MR c np
gr

/c33 { 0.937500 1.000000 0.062500 sr} bdef
c33
  18   18 3722  693 PO
gs 1271 388 4612 4228 MR c np
gr

  18   18 3615 1271 PO
gs 1271 388 4612 4228 MR c np
gr

  18   18 3619 1315 PO
gs 1271 388 4612 4228 MR c np
gr

  18   18 3731  916 PO
gs 1271 388 4612 4228 MR c np
gr

  18   18 3659 1262 PO
gs 1271 388 4612 4228 MR c np
gr

  18   18 3748  990 PO
gs 1271 388 4612 4228 MR c np
gr

  18   18 3666 1335 PO
gs 1271 388 4612 4228 MR c np
gr

  18   18 3843  794 PO
gs 1271 388 4612 4228 MR c np
gr

  18   18 3881  741 PO
gs 1271 388 4612 4228 MR c np
gr

  18   18 3841  927 PO
gs 1271 388 4612 4228 MR c np
gr

  18   18 3754 1237 PO
gs 1271 388 4612 4228 MR c np
gr

  18   18 3866  967 PO
gs 1271 388 4612 4228 MR c np
gr

  18   18 3754 1318 PO
gs 1271 388 4612 4228 MR c np
gr

  18   18 3895  992 PO
gs 1271 388 4612 4228 MR c np
gr

  18   18 3872 1095 PO
gs 1271 388 4612 4228 MR c np
gr

/c34 { 0.875000 1.000000 0.125000 sr} bdef
c34
  18   18 3880 1119 PO
gs 1271 388 4612 4228 MR c np
gr

  18   18 3887 1143 PO
gs 1271 388 4612 4228 MR c np
gr

  18   18 3950 1043 PO
gs 1271 388 4612 4228 MR c np
gr

  18   18 3876 1245 PO
gs 1271 388 4612 4228 MR c np
gr

  18   18 3937 1151 PO
gs 1271 388 4612 4228 MR c np
gr

  18   18 3958 1145 PO
gs 1271 388 4612 4228 MR c np
gr

  18   18 3842 1410 PO
gs 1271 388 4612 4228 MR c np
gr

  18   18 3903 1320 PO
gs 1271 388 4612 4228 MR c np
gr

  18   18 3959 1247 PO
gs 1271 388 4612 4228 MR c np
gr

  18   18 3878 1423 PO
gs 1271 388 4612 4228 MR c np
gr

  18   18 3921 1373 PO
gs 1271 388 4612 4228 MR c np
gr

  18   18 3885 1460 PO
gs 1271 388 4612 4228 MR c np
gr

  18   18 4041 1228 PO
gs 1271 388 4612 4228 MR c np
gr

  18   18 4252  919 PO
gs 1271 388 4612 4228 MR c np
gr

  18   18 3933 1454 PO
gs 1271 388 4612 4228 MR c np
gr

  18   18 4115 1202 PO
gs 1271 388 4612 4228 MR c np
gr

/c35 { 0.812500 1.000000 0.187500 sr} bdef
c35
  18   18 4125 1217 PO
gs 1271 388 4612 4228 MR c np
gr

  18   18 4266 1045 PO
gs 1271 388 4612 4228 MR c np
gr

  18   18 4094 1318 PO
gs 1271 388 4612 4228 MR c np
gr

  18   18 4332 1019 PO
gs 1271 388 4612 4228 MR c np
gr

  18   18 4058 1417 PO
gs 1271 388 4612 4228 MR c np
gr

  18   18 4015 1495 PO
gs 1271 388 4612 4228 MR c np
gr

  18   18 3973 1568 PO
gs 1271 388 4612 4228 MR c np
gr

  18   18 4426 1031 PO
gs 1271 388 4612 4228 MR c np
gr

  18   18 4016 1554 PO
gs 1271 388 4612 4228 MR c np
gr

  18   18 4362 1170 PO
gs 1271 388 4612 4228 MR c np
gr

  18   18 4132 1460 PO
gs 1271 388 4612 4228 MR c np
gr

  18   18 4027 1598 PO
gs 1271 388 4612 4228 MR c np
gr

  18   18 4281 1340 PO
gs 1271 388 4612 4228 MR c np
gr

  18   18 4071 1586 PO
gs 1271 388 4612 4228 MR c np
gr

  18   18 4341 1327 PO
gs 1271 388 4612 4228 MR c np
gr

  18   18 4212 1481 PO
gs 1271 388 4612 4228 MR c np
gr

/c36 { 0.750000 1.000000 0.250000 sr} bdef
c36
  18   18 4454 1265 PO
gs 1271 388 4612 4228 MR c np
gr

  18   18 4116 1613 PO
gs 1271 388 4612 4228 MR c np
gr

  18   18 4404 1362 PO
gs 1271 388 4612 4228 MR c np
gr

  18   18 4516 1284 PO
gs 1271 388 4612 4228 MR c np
gr

  18   18 4569 1264 PO
gs 1271 388 4612 4228 MR c np
gr

  18   18 4148 1652 PO
gs 1271 388 4612 4228 MR c np
gr

  18   18 4639 1257 PO
gs 1271 388 4612 4228 MR c np
gr

  18   18 4141 1690 PO
gs 1271 388 4612 4228 MR c np
gr

  18   18 4130 1715 PO
gs 1271 388 4612 4228 MR c np
gr

  18   18 4487 1453 PO
gs 1271 388 4612 4228 MR c np
gr

  18   18 4557 1422 PO
gs 1271 388 4612 4228 MR c np
gr

  18   18 4134 1757 PO
gs 1271 388 4612 4228 MR c np
gr

  18   18 4639 1408 PO
gs 1271 388 4612 4228 MR c np
gr

  18   18 4518 1517 PO
gs 1271 388 4612 4228 MR c np
gr

  18   18 4452 1583 PO
gs 1271 388 4612 4228 MR c np
gr

/c37 { 0.687500 1.000000 0.312500 sr} bdef
c37
  18   18 4246 1739 PO
gs 1271 388 4612 4228 MR c np
gr

  18   18 4647 1496 PO
gs 1271 388 4612 4228 MR c np
gr

  18   18 4367 1693 PO
gs 1271 388 4612 4228 MR c np
gr

  18   18 4321 1739 PO
gs 1271 388 4612 4228 MR c np
gr

  18   18 4224 1812 PO
gs 1271 388 4612 4228 MR c np
gr

  18   18 4593 1614 PO
gs 1271 388 4612 4228 MR c np
gr

  18   18 4705 1572 PO
gs 1271 388 4612 4228 MR c np
gr

  18   18 4267 1831 PO
gs 1271 388 4612 4228 MR c np
gr

  18   18 4367 1792 PO
gs 1271 388 4612 4228 MR c np
gr

  18   18 4522 1729 PO
gs 1271 388 4612 4228 MR c np
gr

  18   18 4530 1743 PO
gs 1271 388 4612 4228 MR c np
gr

  18   18 4716 1672 PO
gs 1271 388 4612 4228 MR c np
gr

  18   18 4769 1668 PO
gs 1271 388 4612 4228 MR c np
gr

  18   18 4287 1905 PO
gs 1271 388 4612 4228 MR c np
gr

  18   18 4395 1872 PO
gs 1271 388 4612 4228 MR c np
gr

  18   18 4624 1791 PO
gs 1271 388 4612 4228 MR c np
gr

/c38 { 0.625000 1.000000 0.375000 sr} bdef
c38
  18   18 4533 1846 PO
gs 1271 388 4612 4228 MR c np
gr

  18   18 4418 1907 PO
gs 1271 388 4612 4228 MR c np
gr

  18   18 4441 1913 PO
gs 1271 388 4612 4228 MR c np
gr

  18   18 4849 1782 PO
gs 1271 388 4612 4228 MR c np
gr

  18   18 4361 1971 PO
gs 1271 388 4612 4228 MR c np
gr

  18   18 4331 1995 PO
gs 1271 388 4612 4228 MR c np
gr

  18   18 4810 1856 PO
gs 1271 388 4612 4228 MR c np
gr

  18   18 4319 2025 PO
gs 1271 388 4612 4228 MR c np
gr

  18   18 4264 2054 PO
gs 1271 388 4612 4228 MR c np
gr

  18   18 4410 2025 PO
gs 1271 388 4612 4228 MR c np
gr

  18   18 4734 1954 PO
gs 1271 388 4612 4228 MR c np
gr

  18   18 4470 2038 PO
gs 1271 388 4612 4228 MR c np
gr

  18   18 4874 1956 PO
gs 1271 388 4612 4228 MR c np
gr

  18   18 4689 2017 PO
gs 1271 388 4612 4228 MR c np
gr

  18   18 4442 2087 PO
gs 1271 388 4612 4228 MR c np
gr

/c39 { 0.562500 1.000000 0.437500 sr} bdef
c39
  18   18 4208 2147 PO
gs 1271 388 4612 4228 MR c np
gr

  18   18 4717 2064 PO
gs 1271 388 4612 4228 MR c np
gr

  18   18 4404 2135 PO
gs 1271 388 4612 4228 MR c np
gr

  18   18 4759 2091 PO
gs 1271 388 4612 4228 MR c np
gr

  18   18 4648 2125 PO
gs 1271 388 4612 4228 MR c np
gr

  18   18 4511 2160 PO
gs 1271 388 4612 4228 MR c np
gr

  18   18 4331 2196 PO
gs 1271 388 4612 4228 MR c np
gr

  18   18 4481 2192 PO
gs 1271 388 4612 4228 MR c np
gr

  18   18 4347 2218 PO
gs 1271 388 4612 4228 MR c np
gr

  18   18 4943 2182 PO
gs 1271 388 4612 4228 MR c np
gr

  18   18 4623 2224 PO
gs 1271 388 4612 4228 MR c np
gr

  18   18 4329 2256 PO
gs 1271 388 4612 4228 MR c np
gr

  18   18 4236 2272 PO
gs 1271 388 4612 4228 MR c np
gr

  18   18 4742 2267 PO
gs 1271 388 4612 4228 MR c np
gr

  18   18 4952 2280 PO
gs 1271 388 4612 4228 MR c np
gr

  18   18 4727 2301 PO
gs 1271 388 4612 4228 MR c np
gr

/c40 { 0.500000 1.000000 0.500000 sr} bdef
c40
  18   18 4844 2319 PO
gs 1271 388 4612 4228 MR c np
gr

  18   18 4839 2337 PO
gs 1271 388 4612 4228 MR c np
gr

  18   18 4648 2349 PO
gs 1271 388 4612 4228 MR c np
gr

  18   18 4696 2367 PO
gs 1271 388 4612 4228 MR c np
gr

  18   18 4587 2378 PO
gs 1271 388 4612 4228 MR c np
gr

  18   18 4909 2415 PO
gs 1271 388 4612 4228 MR c np
gr

  18   18 4415 2394 PO
gs 1271 388 4612 4228 MR c np
gr

  18   18 4565 2421 PO
gs 1271 388 4612 4228 MR c np
gr

  18   18 4834 2465 PO
gs 1271 388 4612 4228 MR c np
gr

  18   18 4735 2472 PO
gs 1271 388 4612 4228 MR c np
gr

  18   18 4325 2434 PO
gs 1271 388 4612 4228 MR c np
gr

  18   18 4635 2492 PO
gs 1271 388 4612 4228 MR c np
gr

  18   18 4418 2473 PO
gs 1271 388 4612 4228 MR c np
gr

  18   18 4810 2554 PO
gs 1271 388 4612 4228 MR c np
gr

  18   18 4670 2547 PO
gs 1271 388 4612 4228 MR c np
gr

  18   18 4674 2564 PO
gs 1271 388 4612 4228 MR c np
gr

/c41 { 0.437500 1.000000 0.562500 sr} bdef
c41
  18   18 4183 2477 PO
gs 1271 388 4612 4228 MR c np
gr

  18   18 4532 2566 PO
gs 1271 388 4612 4228 MR c np
gr

  18   18 4500 2574 PO
gs 1271 388 4612 4228 MR c np
gr

  18   18 4669 2631 PO
gs 1271 388 4612 4228 MR c np
gr

  18   18 4631 2638 PO
gs 1271 388 4612 4228 MR c np
gr

  18   18 4239 2546 PO
gs 1271 388 4612 4228 MR c np
gr

  18   18 4536 2644 PO
gs 1271 388 4612 4228 MR c np
gr

  18   18 4126 2535 PO
gs 1271 388 4612 4228 MR c np
gr

  18   18 4434 2644 PO
gs 1271 388 4612 4228 MR c np
gr

  18   18 4510 2683 PO
gs 1271 388 4612 4228 MR c np
gr

  18   18 4171 2582 PO
gs 1271 388 4612 4228 MR c np
gr

  18   18 4803 2821 PO
gs 1271 388 4612 4228 MR c np
gr

  18   18 4785 2834 PO
gs 1271 388 4612 4228 MR c np
gr

  18   18 4720 2829 PO
gs 1271 388 4612 4228 MR c np
gr

  18   18 4497 2758 PO
gs 1271 388 4612 4228 MR c np
gr

/c42 { 0.375000 1.000000 0.625000 sr} bdef
c42
  18   18 4379 2725 PO
gs 1271 388 4612 4228 MR c np
gr

  18   18 4481 2785 PO
gs 1271 388 4612 4228 MR c np
gr

  18   18 4179 2666 PO
gs 1271 388 4612 4228 MR c np
gr

  18   18 4608 2876 PO
gs 1271 388 4612 4228 MR c np
gr

  18   18 4753 2965 PO
gs 1271 388 4612 4228 MR c np
gr

  18   18 4669 2944 PO
gs 1271 388 4612 4228 MR c np
gr

  18   18 4733 2997 PO
gs 1271 388 4612 4228 MR c np
gr

  18   18 4054 2662 PO
gs 1271 388 4612 4228 MR c np
gr

  18   18 4181 2741 PO
gs 1271 388 4612 4228 MR c np
gr

  18   18 4473 2918 PO
gs 1271 388 4612 4228 MR c np
gr

  18   18 4442 2918 PO
gs 1271 388 4612 4228 MR c np
gr

  18   18 4178 2779 PO
gs 1271 388 4612 4228 MR c np
gr

  18   18 4031 2703 PO
gs 1271 388 4612 4228 MR c np
gr

  18   18 4442 2972 PO
gs 1271 388 4612 4228 MR c np
gr

  18   18 4157 2807 PO
gs 1271 388 4612 4228 MR c np
gr

  18   18 4277 2901 PO
gs 1271 388 4612 4228 MR c np
gr

/c43 { 0.312500 1.000000 0.687500 sr} bdef
c43
  18   18 4536 3093 PO
gs 1271 388 4612 4228 MR c np
gr

  18   18 4195 2876 PO
gs 1271 388 4612 4228 MR c np
gr

  18   18 4440 3067 PO
gs 1271 388 4612 4228 MR c np
gr

  18   18 4546 3166 PO
gs 1271 388 4612 4228 MR c np
gr

  18   18 4521 3170 PO
gs 1271 388 4612 4228 MR c np
gr

  18   18 4523 3194 PO
gs 1271 388 4612 4228 MR c np
gr

  18   18 4355 3083 PO
gs 1271 388 4612 4228 MR c np
gr

  18   18 4099 2894 PO
gs 1271 388 4612 4228 MR c np
gr

  18   18 4269 3052 PO
gs 1271 388 4612 4228 MR c np
gr

  18   18 4496 3266 PO
gs 1271 388 4612 4228 MR c np
gr

  18   18 4022 2873 PO
gs 1271 388 4612 4228 MR c np
gr

  18   18 4193 3041 PO
gs 1271 388 4612 4228 MR c np
gr

  18   18 4014 2895 PO
gs 1271 388 4612 4228 MR c np
gr

  18   18 4358 3237 PO
gs 1271 388 4612 4228 MR c np
gr

  18   18 4156 3063 PO
gs 1271 388 4612 4228 MR c np
gr

/c44 { 0.250000 1.000000 0.750000 sr} bdef
c44
  18   18 4088 3014 PO
gs 1271 388 4612 4228 MR c np
gr

  18   18 3967 2908 PO
gs 1271 388 4612 4228 MR c np
gr

  18   18 4211 3180 PO
gs 1271 388 4612 4228 MR c np
gr

  18   18 4275 3271 PO
gs 1271 388 4612 4228 MR c np
gr

  18   18 4067 3065 PO
gs 1271 388 4612 4228 MR c np
gr

  18   18 3913 2910 PO
gs 1271 388 4612 4228 MR c np
gr

  18   18 4238 3305 PO
gs 1271 388 4612 4228 MR c np
gr

  18   18 3893 2918 PO
gs 1271 388 4612 4228 MR c np
gr

  18   18 4134 3229 PO
gs 1271 388 4612 4228 MR c np
gr

  18   18 4216 3356 PO
gs 1271 388 4612 4228 MR c np
gr

  18   18 4270 3453 PO
gs 1271 388 4612 4228 MR c np
gr

  18   18 4264 3475 PO
gs 1271 388 4612 4228 MR c np
gr

  18   18 3803 2879 PO
gs 1271 388 4612 4228 MR c np
gr

  18   18 3938 3083 PO
gs 1271 388 4612 4228 MR c np
gr

  18   18 4198 3477 PO
gs 1271 388 4612 4228 MR c np
gr

  18   18 4110 3379 PO
gs 1271 388 4612 4228 MR c np
gr

/c45 { 0.187500 1.000000 0.812500 sr} bdef
c45
  18   18 3814 2960 PO
gs 1271 388 4612 4228 MR c np
gr

  18   18 4103 3428 PO
gs 1271 388 4612 4228 MR c np
gr

  18   18 3866 3081 PO
gs 1271 388 4612 4228 MR c np
gr

  18   18 4019 3354 PO
gs 1271 388 4612 4228 MR c np
gr

  18   18 4053 3442 PO
gs 1271 388 4612 4228 MR c np
gr

  18   18 3745 2939 PO
gs 1271 388 4612 4228 MR c np
gr

  18   18 4045 3497 PO
gs 1271 388 4612 4228 MR c np
gr

  18   18 4051 3544 PO
gs 1271 388 4612 4228 MR c np
gr

  18   18 3906 3305 PO
gs 1271 388 4612 4228 MR c np
gr

  18   18 3795 3117 PO
gs 1271 388 4612 4228 MR c np
gr

  18   18 3835 3224 PO
gs 1271 388 4612 4228 MR c np
gr

  18   18 3734 3043 PO
gs 1271 388 4612 4228 MR c np
gr

  18   18 3692 2976 PO
gs 1271 388 4612 4228 MR c np
gr

  18   18 3732 3088 PO
gs 1271 388 4612 4228 MR c np
gr

  18   18 3839 3363 PO
gs 1271 388 4612 4228 MR c np
gr

  18   18 3696 3058 PO
gs 1271 388 4612 4228 MR c np
gr

/c46 { 0.125000 1.000000 0.875000 sr} bdef
c46
  18   18 3909 3616 PO
gs 1271 388 4612 4228 MR c np
gr

  18   18 3853 3519 PO
gs 1271 388 4612 4228 MR c np
gr

  18   18 3875 3626 PO
gs 1271 388 4612 4228 MR c np
gr

  18   18 3815 3511 PO
gs 1271 388 4612 4228 MR c np
gr

  18   18 3817 3566 PO
gs 1271 388 4612 4228 MR c np
gr

  18   18 3679 3200 PO
gs 1271 388 4612 4228 MR c np
gr

  18   18 3776 3548 PO
gs 1271 388 4612 4228 MR c np
gr

  18   18 3644 3166 PO
gs 1271 388 4612 4228 MR c np
gr

  18   18 3764 3623 PO
gs 1271 388 4612 4228 MR c np
gr

  18   18 3587 3046 PO
gs 1271 388 4612 4228 MR c np
gr

  18   18 3676 3423 PO
gs 1271 388 4612 4228 MR c np
gr

  18   18 3706 3604 PO
gs 1271 388 4612 4228 MR c np
gr

  18   18 3565 3077 PO
gs 1271 388 4612 4228 MR c np
gr

  18   18 3678 3630 PO
gs 1271 388 4612 4228 MR c np
gr

  18   18 3569 3195 PO
gs 1271 388 4612 4228 MR c np
gr

/c47 { 0.062500 1.000000 0.937500 sr} bdef
c47
  18   18 3621 3519 PO
gs 1271 388 4612 4228 MR c np
gr

  18   18 3532 3117 PO
gs 1271 388 4612 4228 MR c np
gr

  18   18 3582 3475 PO
gs 1271 388 4612 4228 MR c np
gr

  18   18 3495 3011 PO
gs 1271 388 4612 4228 MR c np
gr

  18   18 3570 3597 PO
gs 1271 388 4612 4228 MR c np
gr

  18   18 3502 3204 PO
gs 1271 388 4612 4228 MR c np
gr

  18   18 3524 3486 PO
gs 1271 388 4612 4228 MR c np
gr

  18   18 3466 3086 PO
gs 1271 388 4612 4228 MR c np
gr

  18   18 3464 3170 PO
gs 1271 388 4612 4228 MR c np
gr

  18   18 3444 3052 PO
gs 1271 388 4612 4228 MR c np
gr

  18   18 3472 3603 PO
gs 1271 388 4612 4228 MR c np
gr

  18   18 3425 3055 PO
gs 1271 388 4612 4228 MR c np
gr

  18   18 3441 3635 PO
gs 1271 388 4612 4228 MR c np
gr

  18   18 3411 3194 PO
gs 1271 388 4612 4228 MR c np
gr

  18   18 3405 3523 PO
gs 1271 388 4612 4228 MR c np
gr

  18   18 3390 3567 PO
gs 1271 388 4612 4228 MR c np
gr

/c48 { 0.000000 1.000000 1.000000 sr} bdef
c48
  18   18 3375 3527 PO
gs 1271 388 4612 4228 MR c np
gr

  18   18 3370 2994 PO
gs 1271 388 4612 4228 MR c np
gr

  18   18 3351 3313 PO
gs 1271 388 4612 4228 MR c np
gr

  18   18 3353 2987 PO
gs 1271 388 4612 4228 MR c np
gr

  18   18 3322 3379 PO
gs 1271 388 4612 4228 MR c np
gr

  18   18 3300 3496 PO
gs 1271 388 4612 4228 MR c np
gr

  18   18 3304 3271 PO
gs 1271 388 4612 4228 MR c np
gr

  18   18 3303 3152 PO
gs 1271 388 4612 4228 MR c np
gr

  18   18 3294 3142 PO
gs 1271 388 4612 4228 MR c np
gr

  18   18 3228 3591 PO
gs 1271 388 4612 4228 MR c np
gr

  18   18 3210 3610 PO
gs 1271 388 4612 4228 MR c np
gr

  18   18 3187 3648 PO
gs 1271 388 4612 4228 MR c np
gr

  18   18 3256 3113 PO
gs 1271 388 4612 4228 MR c np
gr

  18   18 3158 3619 PO
gs 1271 388 4612 4228 MR c np
gr

  18   18 3255 3005 PO
gs 1271 388 4612 4228 MR c np
gr

/c49 { 0.000000 0.937500 1.000000 sr} bdef
c49
  18   18 3207 3202 PO
gs 1271 388 4612 4228 MR c np
gr

  18   18 3194 3207 PO
gs 1271 388 4612 4228 MR c np
gr

  18   18 3097 3585 PO
gs 1271 388 4612 4228 MR c np
gr

  18   18 3078 3591 PO
gs 1271 388 4612 4228 MR c np
gr

  18   18 3227 2934 PO
gs 1271 388 4612 4228 MR c np
gr

  18   18 3189 3047 PO
gs 1271 388 4612 4228 MR c np
gr

  18   18 3073 3425 PO
gs 1271 388 4612 4228 MR c np
gr

  18   18 3035 3504 PO
gs 1271 388 4612 4228 MR c np
gr

  18   18 3000 3565 PO
gs 1271 388 4612 4228 MR c np
gr

  18   18 3051 3350 PO
gs 1271 388 4612 4228 MR c np
gr

  18   18 3073 3243 PO
gs 1271 388 4612 4228 MR c np
gr

  18   18 2951 3556 PO
gs 1271 388 4612 4228 MR c np
gr

  18   18 3021 3313 PO
gs 1271 388 4612 4228 MR c np
gr

  18   18 3077 3127 PO
gs 1271 388 4612 4228 MR c np
gr

  18   18 3075 3101 PO
gs 1271 388 4612 4228 MR c np
gr

  18   18 2944 3395 PO
gs 1271 388 4612 4228 MR c np
gr

/c50 { 0.000000 0.875000 1.000000 sr} bdef
c50
  18   18 2960 3320 PO
gs 1271 388 4612 4228 MR c np
gr

  18   18 3148 2853 PO
gs 1271 388 4612 4228 MR c np
gr

  18   18 3118 2902 PO
gs 1271 388 4612 4228 MR c np
gr

  18   18 2862 3433 PO
gs 1271 388 4612 4228 MR c np
gr

  18   18 3047 3011 PO
gs 1271 388 4612 4228 MR c np
gr

  18   18 2989 3107 PO
gs 1271 388 4612 4228 MR c np
gr

  18   18 3042 2979 PO
gs 1271 388 4612 4228 MR c np
gr

  18   18 2994 3048 PO
gs 1271 388 4612 4228 MR c np
gr

  18   18 2965 3080 PO
gs 1271 388 4612 4228 MR c np
gr

  18   18 2855 3253 PO
gs 1271 388 4612 4228 MR c np
gr

  18   18 3082 2833 PO
gs 1271 388 4612 4228 MR c np
gr

  18   18 3055 2864 PO
gs 1271 388 4612 4228 MR c np
gr

  18   18 3001 2937 PO
gs 1271 388 4612 4228 MR c np
gr

  18   18 2769 3288 PO
gs 1271 388 4612 4228 MR c np
gr

  18   18 3060 2811 PO
gs 1271 388 4612 4228 MR c np
gr

  18   18 2909 3025 PO
gs 1271 388 4612 4228 MR c np
gr

/c51 { 0.000000 0.812500 1.000000 sr} bdef
c51
  18   18 2685 3333 PO
gs 1271 388 4612 4228 MR c np
gr

  18   18 2832 3098 PO
gs 1271 388 4612 4228 MR c np
gr

  18   18 3001 2841 PO
gs 1271 388 4612 4228 MR c np
gr

  18   18 2902 2961 PO
gs 1271 388 4612 4228 MR c np
gr

  18   18 2900 2947 PO
gs 1271 388 4612 4228 MR c np
gr

  18   18 2762 3108 PO
gs 1271 388 4612 4228 MR c np
gr

  18   18 2814 3022 PO
gs 1271 388 4612 4228 MR c np
gr

  18   18 2576 3294 PO
gs 1271 388 4612 4228 MR c np
gr

  18   18 2903 2881 PO
gs 1271 388 4612 4228 MR c np
gr

  18   18 2608 3209 PO
gs 1271 388 4612 4228 MR c np
gr

  18   18 2809 2960 PO
gs 1271 388 4612 4228 MR c np
gr

  18   18 2825 2925 PO
gs 1271 388 4612 4228 MR c np
gr

  18   18 2631 3118 PO
gs 1271 388 4612 4228 MR c np
gr

  18   18 2577 3154 PO
gs 1271 388 4612 4228 MR c np
gr

  18   18 2854 2851 PO
gs 1271 388 4612 4228 MR c np
gr

/c52 { 0.000000 0.750000 1.000000 sr} bdef
c52
  18   18 2464 3226 PO
gs 1271 388 4612 4228 MR c np
gr

  18   18 2774 2902 PO
gs 1271 388 4612 4228 MR c np
gr

  18   18 2761 2899 PO
gs 1271 388 4612 4228 MR c np
gr

  18   18 2652 2985 PO
gs 1271 388 4612 4228 MR c np
gr

  18   18 2523 3085 PO
gs 1271 388 4612 4228 MR c np
gr

  18   18 2738 2877 PO
gs 1271 388 4612 4228 MR c np
gr

  18   18 2737 2863 PO
gs 1271 388 4612 4228 MR c np
gr

  18   18 2552 3004 PO
gs 1271 388 4612 4228 MR c np
gr

  18   18 2624 2927 PO
gs 1271 388 4612 4228 MR c np
gr

  18   18 2446 3053 PO
gs 1271 388 4612 4228 MR c np
gr

  18   18 2824 2742 PO
gs 1271 388 4612 4228 MR c np
gr

  18   18 2417 3037 PO
gs 1271 388 4612 4228 MR c np
gr

  18   18 2575 2902 PO
gs 1271 388 4612 4228 MR c np
gr

  18   18 2726 2779 PO
gs 1271 388 4612 4228 MR c np
gr

  18   18 2382 3005 PO
gs 1271 388 4612 4228 MR c np
gr

  18   18 2436 2950 PO
gs 1271 388 4612 4228 MR c np
gr

/c53 { 0.000000 0.687500 1.000000 sr} bdef
c53
  18   18 2818 2682 PO
gs 1271 388 4612 4228 MR c np
gr

  18   18 2567 2833 PO
gs 1271 388 4612 4228 MR c np
gr

  18   18 2760 2698 PO
gs 1271 388 4612 4228 MR c np
gr

  18   18 2880 2614 PO
gs 1271 388 4612 4228 MR c np
gr

  18   18 2599 2771 PO
gs 1271 388 4612 4228 MR c np
gr

  18   18 2917 2576 PO
gs 1271 388 4612 4228 MR c np
gr

  18   18 2707 2685 PO
gs 1271 388 4612 4228 MR c np
gr

  18   18 2452 2811 PO
gs 1271 388 4612 4228 MR c np
gr

  18   18 2395 2826 PO
gs 1271 388 4612 4228 MR c np
gr

  18   18 2798 2606 PO
gs 1271 388 4612 4228 MR c np
gr

  18   18 2890 2552 PO
gs 1271 388 4612 4228 MR c np
gr

  18   18 2357 2798 PO
gs 1271 388 4612 4228 MR c np
gr

  18   18 2314 2802 PO
gs 1271 388 4612 4228 MR c np
gr

  18   18 2283 2799 PO
gs 1271 388 4612 4228 MR c np
gr

  18   18 2469 2703 PO
gs 1271 388 4612 4228 MR c np
gr

  18   18 2548 2656 PO
gs 1271 388 4612 4228 MR c np
gr

/c54 { 0.000000 0.625000 1.000000 sr} bdef
c54
  18   18 2641 2607 PO
gs 1271 388 4612 4228 MR c np
gr

  18   18 2666 2586 PO
gs 1271 388 4612 4228 MR c np
gr

  18   18 2927 2479 PO
gs 1271 388 4612 4228 MR c np
gr

  18   18 2345 2680 PO
gs 1271 388 4612 4228 MR c np
gr

  18   18 2918 2469 PO
gs 1271 388 4612 4228 MR c np
gr

  18   18 2659 2548 PO
gs 1271 388 4612 4228 MR c np
gr

  18   18 2394 2621 PO
gs 1271 388 4612 4228 MR c np
gr

  18   18 2492 2578 PO
gs 1271 388 4612 4228 MR c np
gr

  18   18 2249 2636 PO
gs 1271 388 4612 4228 MR c np
gr

  18   18 2492 2554 PO
gs 1271 388 4612 4228 MR c np
gr

  18   18 2681 2493 PO
gs 1271 388 4612 4228 MR c np
gr

  18   18 2192 2604 PO
gs 1271 388 4612 4228 MR c np
gr

  18   18 2281 2567 PO
gs 1271 388 4612 4228 MR c np
gr

  18   18 2346 2538 PO
gs 1271 388 4612 4228 MR c np
gr

  18   18 2294 2536 PO
gs 1271 388 4612 4228 MR c np
gr

/c55 { 0.000000 0.562500 1.000000 sr} bdef
c55
  18   18 2772 2428 PO
gs 1271 388 4612 4228 MR c np
gr

  18   18 2769 2421 PO
gs 1271 388 4612 4228 MR c np
gr

  18   18 2733 2419 PO
gs 1271 388 4612 4228 MR c np
gr

  18   18 2595 2432 PO
gs 1271 388 4612 4228 MR c np
gr

  18   18 2689 2408 PO
gs 1271 388 4612 4228 MR c np
gr

  18   18 2930 2368 PO
gs 1271 388 4612 4228 MR c np
gr

  18   18 2789 2379 PO
gs 1271 388 4612 4228 MR c np
gr

  18   18 2917 2358 PO
gs 1271 388 4612 4228 MR c np
gr

  18   18 2504 2390 PO
gs 1271 388 4612 4228 MR c np
gr

  18   18 2403 2387 PO
gs 1271 388 4612 4228 MR c np
gr

  18   18 2501 2368 PO
gs 1271 388 4612 4228 MR c np
gr

  18   18 2700 2346 PO
gs 1271 388 4612 4228 MR c np
gr

  18   18 2831 2332 PO
gs 1271 388 4612 4228 MR c np
gr

  18   18 2715 2328 PO
gs 1271 388 4612 4228 MR c np
gr

  18   18 2880 2317 PO
gs 1271 388 4612 4228 MR c np
gr

  18   18 2813 2311 PO
gs 1271 388 4612 4228 MR c np
gr

/c56 { 0.000000 0.500000 1.000000 sr} bdef
c56
  18   18 2233 2299 PO
gs 1271 388 4612 4228 MR c np
gr

  18   18 2408 2288 PO
gs 1271 388 4612 4228 MR c np
gr

  18   18 2261 2271 PO
gs 1271 388 4612 4228 MR c np
gr

  18   18 2528 2269 PO
gs 1271 388 4612 4228 MR c np
gr

  18   18 2681 2267 PO
gs 1271 388 4612 4228 MR c np
gr

  18   18 2584 2251 PO
gs 1271 388 4612 4228 MR c np
gr

  18   18 2537 2237 PO
gs 1271 388 4612 4228 MR c np
gr

  18   18 2775 2250 PO
gs 1271 388 4612 4228 MR c np
gr

  18   18 2204 2179 PO
gs 1271 388 4612 4228 MR c np
gr

  18   18 2780 2235 PO
gs 1271 388 4612 4228 MR c np
gr

  18   18 2356 2170 PO
gs 1271 388 4612 4228 MR c np
gr

  18   18 2670 2203 PO
gs 1271 388 4612 4228 MR c np
gr

  18   18 2710 2200 PO
gs 1271 388 4612 4228 MR c np
gr

  18   18 2341 2127 PO
gs 1271 388 4612 4228 MR c np
gr

  18   18 2899 2218 PO
gs 1271 388 4612 4228 MR c np
gr

/c57 { 0.000000 0.437500 1.000000 sr} bdef
c57
  18   18 2889 2210 PO
gs 1271 388 4612 4228 MR c np
gr

  18   18 2553 2132 PO
gs 1271 388 4612 4228 MR c np
gr

  18   18 2506 2110 PO
gs 1271 388 4612 4228 MR c np
gr

  18   18 2953 2206 PO
gs 1271 388 4612 4228 MR c np
gr

  18   18 2794 2160 PO
gs 1271 388 4612 4228 MR c np
gr

  18   18 2656 2115 PO
gs 1271 388 4612 4228 MR c np
gr

  18   18 2423 2040 PO
gs 1271 388 4612 4228 MR c np
gr

  18   18 2783 2132 PO
gs 1271 388 4612 4228 MR c np
gr

  18   18 2638 2079 PO
gs 1271 388 4612 4228 MR c np
gr

  18   18 2759 2108 PO
gs 1271 388 4612 4228 MR c np
gr

  18   18 2441 1993 PO
gs 1271 388 4612 4228 MR c np
gr

  18   18 2549 2017 PO
gs 1271 388 4612 4228 MR c np
gr

  18   18 2778 2089 PO
gs 1271 388 4612 4228 MR c np
gr

  18   18 2657 2034 PO
gs 1271 388 4612 4228 MR c np
gr

  18   18 2902 2120 PO
gs 1271 388 4612 4228 MR c np
gr

  18   18 2364 1894 PO
gs 1271 388 4612 4228 MR c np
gr

/c58 { 0.000000 0.375000 1.000000 sr} bdef
c58
  18   18 2430 1906 PO
gs 1271 388 4612 4228 MR c np
gr

  18   18 2524 1933 PO
gs 1271 388 4612 4228 MR c np
gr

  18   18 2885 2084 PO
gs 1271 388 4612 4228 MR c np
gr

  18   18 2497 1895 PO
gs 1271 388 4612 4228 MR c np
gr

  18   18 2851 2052 PO
gs 1271 388 4612 4228 MR c np
gr

  18   18 2556 1896 PO
gs 1271 388 4612 4228 MR c np
gr

  18   18 2710 1963 PO
gs 1271 388 4612 4228 MR c np
gr

  18   18 2427 1802 PO
gs 1271 388 4612 4228 MR c np
gr

  18   18 2512 1833 PO
gs 1271 388 4612 4228 MR c np
gr

  18   18 2717 1934 PO
gs 1271 388 4612 4228 MR c np
gr

  18   18 2988 2080 PO
gs 1271 388 4612 4228 MR c np
gr

  18   18 2455 1755 PO
gs 1271 388 4612 4228 MR c np
gr

  18   18 2521 1780 PO
gs 1271 388 4612 4228 MR c np
gr

  18   18 2583 1804 PO
gs 1271 388 4612 4228 MR c np
gr

  18   18 2932 2016 PO
gs 1271 388 4612 4228 MR c np
gr

  18   18 3017 2064 PO
gs 1271 388 4612 4228 MR c np
gr

/c59 { 0.000000 0.312500 1.000000 sr} bdef
c59
  18   18 2998 2045 PO
gs 1271 388 4612 4228 MR c np
gr

  18   18 2804 1901 PO
gs 1271 388 4612 4228 MR c np
gr

  18   18 2490 1663 PO
gs 1271 388 4612 4228 MR c np
gr

  18   18 2633 1752 PO
gs 1271 388 4612 4228 MR c np
gr

  18   18 2829 1886 PO
gs 1271 388 4612 4228 MR c np
gr

  18   18 2764 1824 PO
gs 1271 388 4612 4228 MR c np
gr

  18   18 3092 2075 PO
gs 1271 388 4612 4228 MR c np
gr

  18   18 2660 1713 PO
gs 1271 388 4612 4228 MR c np
gr

  18   18 2536 1593 PO
gs 1271 388 4612 4228 MR c np
gr

  18   18 2939 1923 PO
gs 1271 388 4612 4228 MR c np
gr

  18   18 2986 1955 PO
gs 1271 388 4612 4228 MR c np
gr

  18   18 3074 2026 PO
gs 1271 388 4612 4228 MR c np
gr

  18   18 2592 1569 PO
gs 1271 388 4612 4228 MR c np
gr

  18   18 2796 1745 PO
gs 1271 388 4612 4228 MR c np
gr

  18   18 2870 1804 PO
gs 1271 388 4612 4228 MR c np
gr

/c60 { 0.000000 0.250000 1.000000 sr} bdef
c60
  18   18 2959 1881 PO
gs 1271 388 4612 4228 MR c np
gr

  18   18 2742 1646 PO
gs 1271 388 4612 4228 MR c np
gr

  18   18 2865 1758 PO
gs 1271 388 4612 4228 MR c np
gr

  18   18 2848 1727 PO
gs 1271 388 4612 4228 MR c np
gr

  18   18 2903 1773 PO
gs 1271 388 4612 4228 MR c np
gr

  18   18 2684 1508 PO
gs 1271 388 4612 4228 MR c np
gr

  18   18 3049 1916 PO
gs 1271 388 4612 4228 MR c np
gr

  18   18 2783 1586 PO
gs 1271 388 4612 4228 MR c np
gr

  18   18 2810 1601 PO
gs 1271 388 4612 4228 MR c np
gr

  18   18 3168 2036 PO
gs 1271 388 4612 4228 MR c np
gr

  18   18 3051 1876 PO
gs 1271 388 4612 4228 MR c np
gr

  18   18 3062 1879 PO
gs 1271 388 4612 4228 MR c np
gr

  18   18 3134 1966 PO
gs 1271 388 4612 4228 MR c np
gr

  18   18 3051 1841 PO
gs 1271 388 4612 4228 MR c np
gr

  18   18 2830 1508 PO
gs 1271 388 4612 4228 MR c np
gr

  18   18 3024 1775 PO
gs 1271 388 4612 4228 MR c np
gr

/c61 { 0.000000 0.187500 1.000000 sr} bdef
c61
  18   18 2947 1642 PO
gs 1271 388 4612 4228 MR c np
gr

  18   18 3138 1922 PO
gs 1271 388 4612 4228 MR c np
gr

  18   18 2999 1688 PO
gs 1271 388 4612 4228 MR c np
gr

  18   18 2822 1376 PO
gs 1271 388 4612 4228 MR c np
gr

  18   18 2844 1387 PO
gs 1271 388 4612 4228 MR c np
gr

  18   18 2881 1424 PO
gs 1271 388 4612 4228 MR c np
gr

  18   18 2956 1534 PO
gs 1271 388 4612 4228 MR c np
gr

  18   18 3097 1774 PO
gs 1271 388 4612 4228 MR c np
gr

  18   18 2952 1478 PO
gs 1271 388 4612 4228 MR c np
gr

  18   18 3157 1859 PO
gs 1271 388 4612 4228 MR c np
gr

  18   18 3192 1915 PO
gs 1271 388 4612 4228 MR c np
gr

  18   18 3250 2025 PO
gs 1271 388 4612 4228 MR c np
gr

  18   18 3254 2024 PO
gs 1271 388 4612 4228 MR c np
gr

  18   18 3147 1773 PO
gs 1271 388 4612 4228 MR c np
gr

  18   18 3187 1848 PO
gs 1271 388 4612 4228 MR c np
gr

/c62 { 0.000000 0.125000 1.000000 sr} bdef
c62
  18   18 2993 1362 PO
gs 1271 388 4612 4228 MR c np
gr

  18   18 3184 1806 PO
gs 1271 388 4612 4228 MR c np
gr

  18   18 3137 1666 PO
gs 1271 388 4612 4228 MR c np
gr

  18   18 3112 1572 PO
gs 1271 388 4612 4228 MR c np
gr

  18   18 3242 1909 PO
gs 1271 388 4612 4228 MR c np
gr

  18   18 3225 1841 PO
gs 1271 388 4612 4228 MR c np
gr

  18   18 3056 1304 PO
gs 1271 388 4612 4228 MR c np
gr

  18   18 3116 1451 PO
gs 1271 388 4612 4228 MR c np
gr

  18   18 3118 1419 PO
gs 1271 388 4612 4228 MR c np
gr

  18   18 3194 1645 PO
gs 1271 388 4612 4228 MR c np
gr

  18   18 3183 1571 PO
gs 1271 388 4612 4228 MR c np
gr

  18   18 3126 1309 PO
gs 1271 388 4612 4228 MR c np
gr

  18   18 3144 1331 PO
gs 1271 388 4612 4228 MR c np
gr

  18   18 3291 1906 PO
gs 1271 388 4612 4228 MR c np
gr

  18   18 3321 2021 PO
gs 1271 388 4612 4228 MR c np
gr

  18   18 3209 1456 PO
gs 1271 388 4612 4228 MR c np
gr

/c63 { 0.000000 0.062500 1.000000 sr} bdef
c63
  18   18 3234 1527 PO
gs 1271 388 4612 4228 MR c np
gr

  18   18 3235 1475 PO
gs 1271 388 4612 4228 MR c np
gr

  18   18 3240 1445 PO
gs 1271 388 4612 4228 MR c np
gr

  18   18 3262 1511 PO
gs 1271 388 4612 4228 MR c np
gr

  18   18 3310 1781 PO
gs 1271 388 4612 4228 MR c np
gr

  18   18 3263 1362 PO
gs 1271 388 4612 4228 MR c np
gr

  18   18 3302 1596 PO
gs 1271 388 4612 4228 MR c np
gr

  18   18 3349 1963 PO
gs 1271 388 4612 4228 MR c np
gr

  18   18 3312 1504 PO
gs 1271 388 4612 4228 MR c np
gr

  18   18 3333 1645 PO
gs 1271 388 4612 4228 MR c np
gr

  18   18 3357 1883 PO
gs 1271 388 4612 4228 MR c np
gr

  18   18 3364 1910 PO
gs 1271 388 4612 4228 MR c np
gr

  18   18 3355 1564 PO
gs 1271 388 4612 4228 MR c np
gr

  18   18 3369 1746 PO
gs 1271 388 4612 4228 MR c np
gr

  18   18 3370 1323 PO
gs 1271 388 4612 4228 MR c np
gr

  18   18 3383 1516 PO
gs 1271 388 4612 4228 MR c np
gr

/c64 { 0.000000 0.000000 1.000000 sr} bdef
c64
  18   18 3392 1616 PO
gs 1271 388 4612 4228 MR c np
gr

  18   18 3407 1342 PO
gs 1271 388 4612 4228 MR c np
gr

  18   18 3400 1881 PO
gs 1271 388 4612 4228 MR c np
gr

  18   18 3425 1479 PO
gs 1271 388 4612 4228 MR c np
gr

  18   18 3406 1966 PO
gs 1271 388 4612 4228 MR c np
gr

  18   18 3416 1888 PO
gs 1271 388 4612 4228 MR c np
gr

  18   18 3431 1770 PO
gs 1271 388 4612 4228 MR c np
gr

  18   18 3417 1983 PO
gs 1271 388 4612 4228 MR c np
gr

  18   18 3467 1571 PO
gs 1271 388 4612 4228 MR c np
gr

  18   18 3478 1557 PO
gs 1271 388 4612 4228 MR c np
gr

  18   18 3482 1600 PO
gs 1271 388 4612 4228 MR c np
gr

  18   18 3472 1728 PO
gs 1271 388 4612 4228 MR c np
gr

  18   18 3510 1539 PO
gs 1271 388 4612 4228 MR c np
gr

  18   18 3522 1527 PO
gs 1271 388 4612 4228 MR c np
gr

  18   18 3563 1365 PO
gs 1271 388 4612 4228 MR c np
gr

/c65 { 0.000000 0.000000 0.937500 sr} bdef
c65
  18   18 3505 1712 PO
gs 1271 388 4612 4228 MR c np
gr

  18   18 3596 1329 PO
gs 1271 388 4612 4228 MR c np
gr

  18   18 3575 1475 PO
gs 1271 388 4612 4228 MR c np
gr

  18   18 3463 1983 PO
gs 1271 388 4612 4228 MR c np
gr

  18   18 3592 1496 PO
gs 1271 388 4612 4228 MR c np
gr

  18   18 3583 1571 PO
gs 1271 388 4612 4228 MR c np
gr

  18   18 3651 1367 PO
gs 1271 388 4612 4228 MR c np
gr

  18   18 3502 1914 PO
gs 1271 388 4612 4228 MR c np
gr

  18   18 3673 1377 PO
gs 1271 388 4612 4228 MR c np
gr

  18   18 3549 1801 PO
gs 1271 388 4612 4228 MR c np
gr

  18   18 3463 2076 PO
gs 1271 388 4612 4228 MR c np
gr

  18   18 3525 1908 PO
gs 1271 388 4612 4228 MR c np
gr

  18   18 3645 1598 PO
gs 1271 388 4612 4228 MR c np
gr

  18   18 3532 1920 PO
gs 1271 388 4612 4228 MR c np
gr

  18   18 3723 1452 PO
gs 1271 388 4612 4228 MR c np
gr

  18   18 3752 1411 PO
gs 1271 388 4612 4228 MR c np
gr

/c66 { 0.000000 0.000000 0.875000 sr} bdef
c66
  18   18 3564 1885 PO
gs 1271 388 4612 4228 MR c np
gr

  18   18 3674 1650 PO
gs 1271 388 4612 4228 MR c np
gr

  18   18 3618 1794 PO
gs 1271 388 4612 4228 MR c np
gr

  18   18 3583 1886 PO
gs 1271 388 4612 4228 MR c np
gr

  18   18 3788 1476 PO
gs 1271 388 4612 4228 MR c np
gr

  18   18 3817 1445 PO
gs 1271 388 4612 4228 MR c np
gr

  18   18 3549 1990 PO
gs 1271 388 4612 4228 MR c np
gr

  18   18 3653 1806 PO
gs 1271 388 4612 4228 MR c np
gr

  18   18 3568 1975 PO
gs 1271 388 4612 4228 MR c np
gr

  18   18 3659 1823 PO
gs 1271 388 4612 4228 MR c np
gr

  18   18 3595 1948 PO
gs 1271 388 4612 4228 MR c np
gr

  18   18 3783 1643 PO
gs 1271 388 4612 4228 MR c np
gr

  18   18 3865 1529 PO
gs 1271 388 4612 4228 MR c np
gr

  18   18 3873 1538 PO
gs 1271 388 4612 4228 MR c np
gr

  18   18 3682 1853 PO
gs 1271 388 4612 4228 MR c np
gr

/c67 { 0.000000 0.000000 0.812500 sr} bdef
c67
  18   18 3567 2037 PO
gs 1271 388 4612 4228 MR c np
gr

  18   18 3917 1535 PO
gs 1271 388 4612 4228 MR c np
gr

  18   18 3578 2035 PO
gs 1271 388 4612 4228 MR c np
gr

  18   18 3914 1580 PO
gs 1271 388 4612 4228 MR c np
gr

  18   18 3825 1718 PO
gs 1271 388 4612 4228 MR c np
gr

  18   18 3771 1804 PO
gs 1271 388 4612 4228 MR c np
gr

  18   18 3921 1626 PO
gs 1271 388 4612 4228 MR c np
gr

  18   18 3872 1703 PO
gs 1271 388 4612 4228 MR c np
gr

  18   18 3803 1803 PO
gs 1271 388 4612 4228 MR c np
gr

  18   18 3731 1901 PO
gs 1271 388 4612 4228 MR c np
gr

  18   18 3973 1632 PO
gs 1271 388 4612 4228 MR c np
gr

  18   18 3861 1774 PO
gs 1271 388 4612 4228 MR c np
gr

  18   18 3614 2058 PO
gs 1271 388 4612 4228 MR c np
gr

  18   18 3705 1967 PO
gs 1271 388 4612 4228 MR c np
gr

  18   18 3727 1953 PO
gs 1271 388 4612 4228 MR c np
gr

  18   18 3647 2043 PO
gs 1271 388 4612 4228 MR c np
gr

/c68 { 0.000000 0.000000 0.750000 sr} bdef
c68
  18   18 3990 1711 PO
gs 1271 388 4612 4228 MR c np
gr

  18   18 3706 2000 PO
gs 1271 388 4612 4228 MR c np
gr

  18   18 3717 1996 PO
gs 1271 388 4612 4228 MR c np
gr

  18   18 3777 1949 PO
gs 1271 388 4612 4228 MR c np
gr

  18   18 3883 1864 PO
gs 1271 388 4612 4228 MR c np
gr

  18   18 3711 2025 PO
gs 1271 388 4612 4228 MR c np
gr

  18   18 3607 2121 PO
gs 1271 388 4612 4228 MR c np
gr

  18   18 3530 2189 PO
gs 1271 388 4612 4228 MR c np
gr

  18   18 3647 2097 PO
gs 1271 388 4612 4228 MR c np
gr

  18   18 3951 1864 PO
gs 1271 388 4612 4228 MR c np
gr

  18   18 3885 1926 PO
gs 1271 388 4612 4228 MR c np
gr

  18   18 3930 1902 PO
gs 1271 388 4612 4228 MR c np
gr

  18   18 4004 1859 PO
gs 1271 388 4612 4228 MR c np
gr

  18   18 3525 2210 PO
gs 1271 388 4612 4228 MR c np
gr

  18   18 3802 2021 PO
gs 1271 388 4612 4228 MR c np
gr

  18   18 3564 2189 PO
gs 1271 388 4612 4228 MR c np
gr

/c69 { 0.000000 0.000000 0.687500 sr} bdef
c69
  18   18 3670 2123 PO
gs 1271 388 4612 4228 MR c np
gr

  18   18 3802 2044 PO
gs 1271 388 4612 4228 MR c np
gr

  18   18 3657 2141 PO
gs 1271 388 4612 4228 MR c np
gr

  18   18 3973 1956 PO
gs 1271 388 4612 4228 MR c np
gr

  18   18 3661 2148 PO
gs 1271 388 4612 4228 MR c np
gr

  18   18 3751 2102 PO
gs 1271 388 4612 4228 MR c np
gr

  18   18 4111 1909 PO
gs 1271 388 4612 4228 MR c np
gr

  18   18 3953 2005 PO
gs 1271 388 4612 4228 MR c np
gr

  18   18 3682 2155 PO
gs 1271 388 4612 4228 MR c np
gr

  18   18 3696 2153 PO
gs 1271 388 4612 4228 MR c np
gr

  18   18 4088 1967 PO
gs 1271 388 4612 4228 MR c np
gr

  18   18 3983 2027 PO
gs 1271 388 4612 4228 MR c np
gr

  18   18 3932 2060 PO
gs 1271 388 4612 4228 MR c np
gr

  18   18 4065 2010 PO
gs 1271 388 4612 4228 MR c np
gr

  18   18 3952 2068 PO
gs 1271 388 4612 4228 MR c np
gr

/c70 { 0.000000 0.000000 0.625000 sr} bdef
c70
  18   18 3588 2226 PO
gs 1271 388 4612 4228 MR c np
gr

  18   18 3529 2252 PO
gs 1271 388 4612 4228 MR c np
gr

  18   18 3736 2175 PO
gs 1271 388 4612 4228 MR c np
gr

  18   18 4096 2048 PO
gs 1271 388 4612 4228 MR c np
gr

  18   18 3725 2189 PO
gs 1271 388 4612 4228 MR c np
gr

  18   18 3673 2212 PO
gs 1271 388 4612 4228 MR c np
gr

  18   18 3552 2255 PO
gs 1271 388 4612 4228 MR c np
gr

  18   18 3885 2154 PO
gs 1271 388 4612 4228 MR c np
gr

  18   18 3822 2179 PO
gs 1271 388 4612 4228 MR c np
gr

  18   18 4022 2128 PO
gs 1271 388 4612 4228 MR c np
gr

  18   18 3749 2211 PO
gs 1271 388 4612 4228 MR c np
gr

  18   18 3522 2274 PO
gs 1271 388 4612 4228 MR c np
gr

  18   18 3567 2265 PO
gs 1271 388 4612 4228 MR c np
gr

  18   18 3867 2198 PO
gs 1271 388 4612 4228 MR c np
gr

  18   18 3796 2220 PO
gs 1271 388 4612 4228 MR c np
gr

  18   18 3798 2225 PO
gs 1271 388 4612 4228 MR c np
gr

/c71 { 0.000000 0.000000 0.562500 sr} bdef
c71
  18   18 3819 2226 PO
gs 1271 388 4612 4228 MR c np
gr

  18   18 4235 2158 PO
gs 1271 388 4612 4228 MR c np
gr

  18   18 4221 2171 PO
gs 1271 388 4612 4228 MR c np
gr

  18   18 3717 2259 PO
gs 1271 388 4612 4228 MR c np
gr

  18   18 3687 2267 PO
gs 1271 388 4612 4228 MR c np
gr

  18   18 3550 2289 PO
gs 1271 388 4612 4228 MR c np
gr

  18   18 4106 2227 PO
gs 1271 388 4612 4228 MR c np
gr

  18   18 3707 2277 PO
gs 1271 388 4612 4228 MR c np
gr

  18   18 3563 2294 PO
gs 1271 388 4612 4228 MR c np
gr

  18   18 4216 2246 PO
gs 1271 388 4612 4228 MR c np
gr

  18   18 3818 2282 PO
gs 1271 388 4612 4228 MR c np
gr

  18   18 3916 2283 PO
gs 1271 388 4612 4228 MR c np
gr

  18   18 3921 2289 PO
gs 1271 388 4612 4228 MR c np
gr

  18   18 3631 2303 PO
gs 1271 388 4612 4228 MR c np
gr

  18   18 3906 2303 PO
gs 1271 388 4612 4228 MR c np
gr

  18   18 3823 2309 PO
gs 1271 388 4612 4228 MR c np
gr

0 sg
3546 4903 mt 
(x) s
1019 2532 mt  -90 rotate
(y) s
90 rotate

end %%Color Dict

eplot
%%EndObject

epage
end

showpage

%%Trailer
%%EOF
