%!PS-Adobe-2.0 EPSF-1.2
%%Creator: MATLAB, The MathWorks, Inc. Version 8.3.0.532 (R2014a). Operating System: Linux 2.6.32-431.20.3.el6.x86_64 #1 SMP Thu Jun 19 14:01:59 CDT 2014 x86_64.
%%Title: ./NCCA.eps
%%CreationDate: 05/29/2015  16:24:34
%%DocumentNeededFonts: Helvetica
%%DocumentProcessColors: Cyan Magenta Yellow Black
%%Extensions: CMYK
%%Pages: 1
%%BoundingBox:    99   199   503   589
%%EndComments

%%BeginProlog
% MathWorks dictionary
/MathWorks 160 dict begin
% definition operators
/bdef {bind def} bind def
/ldef {load def} bind def
/xdef {exch def} bdef
/xstore {exch store} bdef
% operator abbreviations
/c  /clip ldef
/cc /concat ldef
/cp /closepath ldef
/gr /grestore ldef
/gs /gsave ldef
/mt /moveto ldef
/np /newpath ldef
/cm /currentmatrix ldef
/sm /setmatrix ldef
/rm /rmoveto ldef
/rl /rlineto ldef
/s {show newpath} bdef
/sc {setcmykcolor} bdef
/sr /setrgbcolor ldef
/sg /setgray ldef
/w /setlinewidth ldef
/j /setlinejoin ldef
/cap /setlinecap ldef
/rc {rectclip} bdef
/rf {rectfill} bdef
% page state control
/pgsv () def
/bpage {/pgsv save def} bdef
/epage {pgsv restore} bdef
/bplot /gsave ldef
/eplot {stroke grestore} bdef
% orientation switch
/portraitMode 0 def /landscapeMode 1 def /rotateMode 2 def
% coordinate system mappings
/dpi2point 0 def
% font control
/FontSize 0 def
/FMS {/FontSize xstore findfont [FontSize 0 0 FontSize neg 0 0]
  makefont setfont} bdef
/reencode {exch dup where {pop load} {pop StandardEncoding} ifelse
  exch dup 3 1 roll findfont dup length dict begin
  { 1 index /FID ne {def}{pop pop} ifelse } forall
  /Encoding exch def currentdict end definefont pop} bdef
/isroman {findfont /CharStrings get /Agrave known} bdef
/FMSR {3 1 roll 1 index dup isroman {reencode} {pop pop} ifelse
  exch FMS} bdef
/csm {1 dpi2point div -1 dpi2point div scale neg translate
 dup landscapeMode eq {pop -90 rotate}
  {rotateMode eq {90 rotate} if} ifelse} bdef
% line types: solid, dotted, dashed, dotdash
/SO { [] 0 setdash } bdef
/DO { [.5 dpi2point mul 4 dpi2point mul] 0 setdash } bdef
/DA { [6 dpi2point mul] 0 setdash } bdef
/DD { [.5 dpi2point mul 4 dpi2point mul 6 dpi2point mul 4
  dpi2point mul] 0 setdash } bdef
% macros for lines and objects
/L {lineto stroke} bdef
/MP {3 1 roll moveto 1 sub {rlineto} repeat} bdef
/AP {{rlineto} repeat} bdef
/PDlw -1 def
/W {/PDlw currentlinewidth def setlinewidth} def
/PP {closepath eofill} bdef
/DP {closepath stroke} bdef
/MR {4 -2 roll moveto dup  0 exch rlineto exch 0 rlineto
  neg 0 exch rlineto closepath} bdef
/FR {MR stroke} bdef
/PR {MR fill} bdef
/L1i {{currentfile picstr readhexstring pop} image} bdef
/tMatrix matrix def
/MakeOval {newpath tMatrix currentmatrix pop translate scale
0 0 1 0 360 arc tMatrix setmatrix} bdef
/FO {MakeOval stroke} bdef
/PO {MakeOval fill} bdef
/PD {currentlinewidth 2 div 0 360 arc fill
   PDlw -1 eq not {PDlw w /PDlw -1 def} if} def
/FA {newpath tMatrix currentmatrix pop translate scale
  0 0 1 5 -2 roll arc tMatrix setmatrix stroke} bdef
/PA {newpath tMatrix currentmatrix pop	translate 0 0 moveto scale
  0 0 1 5 -2 roll arc closepath tMatrix setmatrix fill} bdef
/FAn {newpath tMatrix currentmatrix pop translate scale
  0 0 1 5 -2 roll arcn tMatrix setmatrix stroke} bdef
/PAn {newpath tMatrix currentmatrix pop translate 0 0 moveto scale
  0 0 1 5 -2 roll arcn closepath tMatrix setmatrix fill} bdef
/vradius 0 def /hradius 0 def /lry 0 def
/lrx 0 def /uly 0 def /ulx 0 def /rad 0 def
/MRR {/vradius xdef /hradius xdef /lry xdef /lrx xdef /uly xdef
  /ulx xdef newpath tMatrix currentmatrix pop ulx hradius add uly
  vradius add translate hradius vradius scale 0 0 1 180 270 arc 
  tMatrix setmatrix lrx hradius sub uly vradius add translate
  hradius vradius scale 0 0 1 270 360 arc tMatrix setmatrix
  lrx hradius sub lry vradius sub translate hradius vradius scale
  0 0 1 0 90 arc tMatrix setmatrix ulx hradius add lry vradius sub
  translate hradius vradius scale 0 0 1 90 180 arc tMatrix setmatrix
  closepath} bdef
/FRR {MRR stroke } bdef
/PRR {MRR fill } bdef
/MlrRR {/lry xdef /lrx xdef /uly xdef /ulx xdef /rad lry uly sub 2 div def
  newpath tMatrix currentmatrix pop ulx rad add uly rad add translate
  rad rad scale 0 0 1 90 270 arc tMatrix setmatrix lrx rad sub lry rad
  sub translate rad rad scale 0 0 1 270 90 arc tMatrix setmatrix
  closepath} bdef
/FlrRR {MlrRR stroke } bdef
/PlrRR {MlrRR fill } bdef
/MtbRR {/lry xdef /lrx xdef /uly xdef /ulx xdef /rad lrx ulx sub 2 div def
  newpath tMatrix currentmatrix pop ulx rad add uly rad add translate
  rad rad scale 0 0 1 180 360 arc tMatrix setmatrix lrx rad sub lry rad
  sub translate rad rad scale 0 0 1 0 180 arc tMatrix setmatrix
  closepath} bdef
/FtbRR {MtbRR stroke } bdef
/PtbRR {MtbRR fill } bdef
/stri 6 array def /dtri 6 array def
/smat 6 array def /dmat 6 array def
/tmat1 6 array def /tmat2 6 array def /dif 3 array def
/asub {/ind2 exch def /ind1 exch def dup dup
  ind1 get exch ind2 get sub exch } bdef
/tri_to_matrix {
  2 0 asub 3 1 asub 4 0 asub 5 1 asub
  dup 0 get exch 1 get 7 -1 roll astore } bdef
/compute_transform {
  dmat dtri tri_to_matrix tmat1 invertmatrix 
  smat stri tri_to_matrix tmat2 concatmatrix } bdef
/ds {stri astore pop} bdef
/dt {dtri astore pop} bdef
/db {2 copy /cols xdef /rows xdef mul dup 3 mul string
  currentfile exch readhexstring pop
  dup 0 3 index getinterval /rbmap xdef
  dup 2 index dup getinterval /gbmap xdef
  1 index dup 2 mul exch getinterval /bbmap xdef pop pop}bdef
/it {gs np dtri aload pop moveto lineto lineto cp c
  cols rows 8 compute_transform 
  rbmap gbmap bbmap true 3 colorimage gr}bdef
/il {newpath moveto lineto stroke}bdef
currentdict end def
%%EndProlog

%%BeginSetup
MathWorks begin

0 cap

end
%%EndSetup

%%Page: 1 1
%%BeginPageSetup
%%PageBoundingBox:    99   199   503   589
MathWorks begin
bpage
%%EndPageSetup

%%BeginObject: obj1
bplot

/dpi2point 12 def
portraitMode 0216 7344 csm

  975   274  4847  4681 MR c np
85 dict begin %Colortable dictionary
/c0 { 0.000000 0.000000 0.000000 sr} bdef
/c1 { 1.000000 1.000000 1.000000 sr} bdef
/c2 { 0.900000 0.000000 0.000000 sr} bdef
/c3 { 0.000000 0.820000 0.000000 sr} bdef
/c4 { 0.000000 0.000000 0.800000 sr} bdef
/c5 { 0.910000 0.820000 0.320000 sr} bdef
/c6 { 1.000000 0.260000 0.820000 sr} bdef
/c7 { 0.000000 0.820000 0.820000 sr} bdef
c0
1 j
1 sg
   0    0 6913 5186 PR
6 w
0 4226 4226 0 0 -4226 1464 4615 4 MP
PP
-4226 0 0 4226 4226 0 0 -4226 1464 4615 5 MP stroke
4 w
DO
SO
6 w
0 sg
1464 4615 mt 5690 4615 L
1464  389 mt 5690  389 L
1464 4615 mt 1464  389 L
5690 4615 mt 5690  389 L
1464 4615 mt 5690 4615 L
1464 4615 mt 1464  389 L
1464 4615 mt 1464 4572 L
1464  389 mt 1464  431 L
%%IncludeResource: font Helvetica
/Helvetica /ISOLatin1Encoding 120 FMSR

1311 4760 mt 
(-2.5) s
1886 4615 mt 1886 4572 L
1886  389 mt 1886  431 L
1783 4760 mt 
(-2) s
2309 4615 mt 2309 4572 L
2309  389 mt 2309  431 L
2156 4760 mt 
(-1.5) s
2731 4615 mt 2731 4572 L
2731  389 mt 2731  431 L
2628 4760 mt 
(-1) s
3154 4615 mt 3154 4572 L
3154  389 mt 3154  431 L
3001 4760 mt 
(-0.5) s
3577 4615 mt 3577 4572 L
3577  389 mt 3577  431 L
3544 4760 mt 
(0) s
3999 4615 mt 3999 4572 L
3999  389 mt 3999  431 L
3916 4760 mt 
(0.5) s
4422 4615 mt 4422 4572 L
4422  389 mt 4422  431 L
4389 4760 mt 
(1) s
4844 4615 mt 4844 4572 L
4844  389 mt 4844  431 L
4761 4760 mt 
(1.5) s
5267 4615 mt 5267 4572 L
5267  389 mt 5267  431 L
5234 4760 mt 
(2) s
5690 4615 mt 5690 4572 L
5690  389 mt 5690  431 L
5607 4760 mt 
(2.5) s
1464 4615 mt 1506 4615 L
5690 4615 mt 5647 4615 L
1193 4659 mt 
(-2.5) s
1464 4192 mt 1506 4192 L
5690 4192 mt 5647 4192 L
1293 4236 mt 
(-2) s
1464 3769 mt 1506 3769 L
5690 3769 mt 5647 3769 L
1193 3813 mt 
(-1.5) s
1464 3347 mt 1506 3347 L
5690 3347 mt 5647 3347 L
1293 3391 mt 
(-1) s
1464 2924 mt 1506 2924 L
5690 2924 mt 5647 2924 L
1193 2968 mt 
(-0.5) s
1464 2502 mt 1506 2502 L
5690 2502 mt 5647 2502 L
1363 2546 mt 
(0) s
1464 2079 mt 1506 2079 L
5690 2079 mt 5647 2079 L
1263 2123 mt 
(0.5) s
1464 1656 mt 1506 1656 L
5690 1656 mt 5647 1656 L
1363 1700 mt 
(1) s
1464 1234 mt 1506 1234 L
5690 1234 mt 5647 1234 L
1263 1278 mt 
(1.5) s
1464  811 mt 1506  811 L
5690  811 mt 5647  811 L
1363  855 mt 
(2) s
1464  389 mt 1506  389 L
5690  389 mt 5647  389 L
1263  433 mt 
(2.5) s
1464 4615 mt 5690 4615 L
1464  389 mt 5690  389 L
1464 4615 mt 1464  389 L
5690 4615 mt 5690  389 L
gs 1464 389 4227 4227 MR c np
0 j
gr

/c8 { 0.500000 0.000000 0.000000 sr} bdef
c8
  18   18 2377 3623 PO
gs 1464 389 4227 4227 MR c np
gr

  18   18 2367 3694 PO
gs 1464 389 4227 4227 MR c np
gr

  18   18 2377 3603 PO
gs 1464 389 4227 4227 MR c np
gr

  18   18 2377 3617 PO
gs 1464 389 4227 4227 MR c np
gr

  18   18 2259 3610 PO
gs 1464 389 4227 4227 MR c np
gr

  18   18 2334 3619 PO
gs 1464 389 4227 4227 MR c np
gr

  18   18 2992 3614 PO
gs 1464 389 4227 4227 MR c np
gr

  18   18 2346 3622 PO
gs 1464 389 4227 4227 MR c np
gr

  18   18 2355 3662 PO
gs 1464 389 4227 4227 MR c np
gr

  18   18 2365 3623 PO
gs 1464 389 4227 4227 MR c np
gr

  18   18 2334 3606 PO
gs 1464 389 4227 4227 MR c np
gr

  18   18 2373 3617 PO
gs 1464 389 4227 4227 MR c np
gr

  18   18 2344 3649 PO
gs 1464 389 4227 4227 MR c np
gr

  18   18 2383 3622 PO
gs 1464 389 4227 4227 MR c np
gr

  18   18 2369 3686 PO
gs 1464 389 4227 4227 MR c np
gr

  18   18 2387 3641 PO
gs 1464 389 4227 4227 MR c np
gr

/c9 { 0.562500 0.000000 0.000000 sr} bdef
c9
  18   18 2387 3625 PO
gs 1464 389 4227 4227 MR c np
gr

  18   18 2339 3631 PO
gs 1464 389 4227 4227 MR c np
gr

  18   18 2352 3645 PO
gs 1464 389 4227 4227 MR c np
gr

  18   18 2388 3636 PO
gs 1464 389 4227 4227 MR c np
gr

  18   18 2388 3624 PO
gs 1464 389 4227 4227 MR c np
gr

  18   18 2350 3643 PO
gs 1464 389 4227 4227 MR c np
gr

  18   18 2308 3658 PO
gs 1464 389 4227 4227 MR c np
gr

  18   18 2308 3603 PO
gs 1464 389 4227 4227 MR c np
gr

  18   18 2358 3597 PO
gs 1464 389 4227 4227 MR c np
gr

  18   18 2307 3655 PO
gs 1464 389 4227 4227 MR c np
gr

  18   18 2307 3592 PO
gs 1464 389 4227 4227 MR c np
gr

  18   18 2372 3591 PO
gs 1464 389 4227 4227 MR c np
gr

  18   18 2363 3656 PO
gs 1464 389 4227 4227 MR c np
gr

  18   18 2356 3624 PO
gs 1464 389 4227 4227 MR c np
gr

  18   18 2322 3638 PO
gs 1464 389 4227 4227 MR c np
gr

  18   18 2357 3604 PO
gs 1464 389 4227 4227 MR c np
gr

/c10 { 0.625000 0.000000 0.000000 sr} bdef
c10
  18   18 2319 3615 PO
gs 1464 389 4227 4227 MR c np
gr

  18   18 2326 3630 PO
gs 1464 389 4227 4227 MR c np
gr

  18   18 2384 3610 PO
gs 1464 389 4227 4227 MR c np
gr

  18   18 2387 3620 PO
gs 1464 389 4227 4227 MR c np
gr

  18   18 2391 3663 PO
gs 1464 389 4227 4227 MR c np
gr

  18   18 2399 3587 PO
gs 1464 389 4227 4227 MR c np
gr

  18   18 2352 3668 PO
gs 1464 389 4227 4227 MR c np
gr

  18   18 2398 3661 PO
gs 1464 389 4227 4227 MR c np
gr

  18   18 2384 3642 PO
gs 1464 389 4227 4227 MR c np
gr

  18   18 2342 3595 PO
gs 1464 389 4227 4227 MR c np
gr

  18   18 2366 3605 PO
gs 1464 389 4227 4227 MR c np
gr

  18   18 2384 3619 PO
gs 1464 389 4227 4227 MR c np
gr

  18   18 2361 3590 PO
gs 1464 389 4227 4227 MR c np
gr

  18   18 2360 3636 PO
gs 1464 389 4227 4227 MR c np
gr

  18   18 2349 3608 PO
gs 1464 389 4227 4227 MR c np
gr

/c11 { 0.687500 0.000000 0.000000 sr} bdef
c11
  18   18 2349 3601 PO
gs 1464 389 4227 4227 MR c np
gr

  18   18 2627 3579 PO
gs 1464 389 4227 4227 MR c np
gr

  18   18 2359 3582 PO
gs 1464 389 4227 4227 MR c np
gr

  18   18 2357 3645 PO
gs 1464 389 4227 4227 MR c np
gr

  18   18 2397 3614 PO
gs 1464 389 4227 4227 MR c np
gr

  18   18 2398 3586 PO
gs 1464 389 4227 4227 MR c np
gr

  18   18 2373 3649 PO
gs 1464 389 4227 4227 MR c np
gr

  18   18 2393 3594 PO
gs 1464 389 4227 4227 MR c np
gr

  18   18 2398 3593 PO
gs 1464 389 4227 4227 MR c np
gr

  18   18 2348 3609 PO
gs 1464 389 4227 4227 MR c np
gr

  18   18 2370 3612 PO
gs 1464 389 4227 4227 MR c np
gr

  18   18 2354 3575 PO
gs 1464 389 4227 4227 MR c np
gr

  18   18 2347 3581 PO
gs 1464 389 4227 4227 MR c np
gr

  18   18 2347 3588 PO
gs 1464 389 4227 4227 MR c np
gr

  18   18 2383 3578 PO
gs 1464 389 4227 4227 MR c np
gr

  18   18 2451 3591 PO
gs 1464 389 4227 4227 MR c np
gr

/c12 { 0.750000 0.000000 0.000000 sr} bdef
c12
  18   18 2347 3569 PO
gs 1464 389 4227 4227 MR c np
gr

  18   18 2347 3587 PO
gs 1464 389 4227 4227 MR c np
gr

  18   18 2347 3613 PO
gs 1464 389 4227 4227 MR c np
gr

  18   18 2407 3580 PO
gs 1464 389 4227 4227 MR c np
gr

  18   18 2347 3632 PO
gs 1464 389 4227 4227 MR c np
gr

  18   18 2384 3619 PO
gs 1464 389 4227 4227 MR c np
gr

  18   18 2398 3587 PO
gs 1464 389 4227 4227 MR c np
gr

  18   18 2425 3564 PO
gs 1464 389 4227 4227 MR c np
gr

  18   18 2352 3583 PO
gs 1464 389 4227 4227 MR c np
gr

  18   18 2407 3569 PO
gs 1464 389 4227 4227 MR c np
gr

  18   18 2420 3561 PO
gs 1464 389 4227 4227 MR c np
gr

  18   18 2415 3586 PO
gs 1464 389 4227 4227 MR c np
gr

  18   18 2425 3627 PO
gs 1464 389 4227 4227 MR c np
gr

  18   18 2428 3583 PO
gs 1464 389 4227 4227 MR c np
gr

  18   18 2401 3559 PO
gs 1464 389 4227 4227 MR c np
gr

  18   18 2420 3613 PO
gs 1464 389 4227 4227 MR c np
gr

/c13 { 0.812500 0.000000 0.000000 sr} bdef
c13
  18   18 2428 3565 PO
gs 1464 389 4227 4227 MR c np
gr

  18   18 2420 3583 PO
gs 1464 389 4227 4227 MR c np
gr

  18   18 3859 3561 PO
gs 1464 389 4227 4227 MR c np
gr

  18   18 2418 3556 PO
gs 1464 389 4227 4227 MR c np
gr

  18   18 2431 3598 PO
gs 1464 389 4227 4227 MR c np
gr

  18   18 2434 3566 PO
gs 1464 389 4227 4227 MR c np
gr

  18   18 2435 3637 PO
gs 1464 389 4227 4227 MR c np
gr

  18   18 2435 3631 PO
gs 1464 389 4227 4227 MR c np
gr

  18   18 2360 3550 PO
gs 1464 389 4227 4227 MR c np
gr

  18   18 2392 3552 PO
gs 1464 389 4227 4227 MR c np
gr

  18   18 2457 3632 PO
gs 1464 389 4227 4227 MR c np
gr

  18   18 2440 3568 PO
gs 1464 389 4227 4227 MR c np
gr

  18   18 2434 3569 PO
gs 1464 389 4227 4227 MR c np
gr

  18   18 2444 3546 PO
gs 1464 389 4227 4227 MR c np
gr

  18   18 2430 3585 PO
gs 1464 389 4227 4227 MR c np
gr

/c14 { 0.875000 0.000000 0.000000 sr} bdef
c14
  18   18 2383 3558 PO
gs 1464 389 4227 4227 MR c np
gr

  18   18 2443 3546 PO
gs 1464 389 4227 4227 MR c np
gr

  18   18 2430 3622 PO
gs 1464 389 4227 4227 MR c np
gr

  18   18 2425 3538 PO
gs 1464 389 4227 4227 MR c np
gr

  18   18 2426 3586 PO
gs 1464 389 4227 4227 MR c np
gr

  18   18 2401 3618 PO
gs 1464 389 4227 4227 MR c np
gr

  18   18 2425 3554 PO
gs 1464 389 4227 4227 MR c np
gr

  18   18 2410 3536 PO
gs 1464 389 4227 4227 MR c np
gr

  18   18 2358 3549 PO
gs 1464 389 4227 4227 MR c np
gr

  18   18 2427 3532 PO
gs 1464 389 4227 4227 MR c np
gr

  18   18 2437 3532 PO
gs 1464 389 4227 4227 MR c np
gr

  18   18 2417 3547 PO
gs 1464 389 4227 4227 MR c np
gr

  18   18 2389 3556 PO
gs 1464 389 4227 4227 MR c np
gr

  18   18 2456 3608 PO
gs 1464 389 4227 4227 MR c np
gr

  18   18 2360 3620 PO
gs 1464 389 4227 4227 MR c np
gr

  18   18 2434 3533 PO
gs 1464 389 4227 4227 MR c np
gr

/c15 { 0.937500 0.000000 0.000000 sr} bdef
c15
  18   18 2387 3525 PO
gs 1464 389 4227 4227 MR c np
gr

  18   18 2386 3583 PO
gs 1464 389 4227 4227 MR c np
gr

  18   18 2399 3575 PO
gs 1464 389 4227 4227 MR c np
gr

  18   18 2462 3522 PO
gs 1464 389 4227 4227 MR c np
gr

  18   18 2462 3521 PO
gs 1464 389 4227 4227 MR c np
gr

  18   18 2467 3562 PO
gs 1464 389 4227 4227 MR c np
gr

  18   18 2411 3561 PO
gs 1464 389 4227 4227 MR c np
gr

  18   18 2411 3551 PO
gs 1464 389 4227 4227 MR c np
gr

  18   18 2393 3515 PO
gs 1464 389 4227 4227 MR c np
gr

  18   18 2461 3525 PO
gs 1464 389 4227 4227 MR c np
gr

  18   18 2438 3514 PO
gs 1464 389 4227 4227 MR c np
gr

  18   18 2443 3608 PO
gs 1464 389 4227 4227 MR c np
gr

  18   18 2456 3523 PO
gs 1464 389 4227 4227 MR c np
gr

  18   18 2460 3510 PO
gs 1464 389 4227 4227 MR c np
gr

  18   18 2446 3507 PO
gs 1464 389 4227 4227 MR c np
gr

/c16 { 1.000000 0.000000 0.000000 sr} bdef
c16
  18   18 2472 3516 PO
gs 1464 389 4227 4227 MR c np
gr

  18   18 2460 3511 PO
gs 1464 389 4227 4227 MR c np
gr

  18   18 2460 3556 PO
gs 1464 389 4227 4227 MR c np
gr

  18   18 2483 3503 PO
gs 1464 389 4227 4227 MR c np
gr

  18   18 2448 3511 PO
gs 1464 389 4227 4227 MR c np
gr

  18   18 2445 3595 PO
gs 1464 389 4227 4227 MR c np
gr

  18   18 2477 3504 PO
gs 1464 389 4227 4227 MR c np
gr

  18   18 2449 3538 PO
gs 1464 389 4227 4227 MR c np
gr

  18   18 2449 3571 PO
gs 1464 389 4227 4227 MR c np
gr

  18   18 2493 3587 PO
gs 1464 389 4227 4227 MR c np
gr

  18   18 2422 3592 PO
gs 1464 389 4227 4227 MR c np
gr

  18   18 2493 3526 PO
gs 1464 389 4227 4227 MR c np
gr

  18   18 2499 3544 PO
gs 1464 389 4227 4227 MR c np
gr

  18   18 3506 3510 PO
gs 1464 389 4227 4227 MR c np
gr

  18   18 2441 3487 PO
gs 1464 389 4227 4227 MR c np
gr

  18   18 2486 3551 PO
gs 1464 389 4227 4227 MR c np
gr

/c17 { 1.000000 0.062500 0.000000 sr} bdef
c17
  18   18 2503 3489 PO
gs 1464 389 4227 4227 MR c np
gr

  18   18 2452 3497 PO
gs 1464 389 4227 4227 MR c np
gr

  18   18 2440 3487 PO
gs 1464 389 4227 4227 MR c np
gr

  18   18 2440 3571 PO
gs 1464 389 4227 4227 MR c np
gr

  18   18 2496 3504 PO
gs 1464 389 4227 4227 MR c np
gr

  18   18 2503 3541 PO
gs 1464 389 4227 4227 MR c np
gr

  18   18 2461 3516 PO
gs 1464 389 4227 4227 MR c np
gr

  18   18 2440 3527 PO
gs 1464 389 4227 4227 MR c np
gr

  18   18 2434 3472 PO
gs 1464 389 4227 4227 MR c np
gr

  18   18 2513 3491 PO
gs 1464 389 4227 4227 MR c np
gr

  18   18 2513 3478 PO
gs 1464 389 4227 4227 MR c np
gr

  18   18 2458 3525 PO
gs 1464 389 4227 4227 MR c np
gr

  18   18 2514 3556 PO
gs 1464 389 4227 4227 MR c np
gr

  18   18 2467 3471 PO
gs 1464 389 4227 4227 MR c np
gr

  18   18 2512 3462 PO
gs 1464 389 4227 4227 MR c np
gr

  18   18 2485 3467 PO
gs 1464 389 4227 4227 MR c np
gr

/c18 { 1.000000 0.125000 0.000000 sr} bdef
c18
  18   18 2522 3502 PO
gs 1464 389 4227 4227 MR c np
gr

  18   18 2474 3467 PO
gs 1464 389 4227 4227 MR c np
gr

  18   18 2629 3490 PO
gs 1464 389 4227 4227 MR c np
gr

  18   18 2472 3455 PO
gs 1464 389 4227 4227 MR c np
gr

  18   18 2517 3452 PO
gs 1464 389 4227 4227 MR c np
gr

  18   18 2470 3486 PO
gs 1464 389 4227 4227 MR c np
gr

  18   18 2509 3449 PO
gs 1464 389 4227 4227 MR c np
gr

  18   18 2516 3534 PO
gs 1464 389 4227 4227 MR c np
gr

  18   18 2515 3451 PO
gs 1464 389 4227 4227 MR c np
gr

  18   18 2509 3449 PO
gs 1464 389 4227 4227 MR c np
gr

  18   18 2472 3448 PO
gs 1464 389 4227 4227 MR c np
gr

  18   18 2547 3447 PO
gs 1464 389 4227 4227 MR c np
gr

  18   18 2465 3446 PO
gs 1464 389 4227 4227 MR c np
gr

  18   18 2552 3464 PO
gs 1464 389 4227 4227 MR c np
gr

  18   18 2487 3483 PO
gs 1464 389 4227 4227 MR c np
gr

/c19 { 1.000000 0.187500 0.000000 sr} bdef
c19
  18   18 2527 3437 PO
gs 1464 389 4227 4227 MR c np
gr

  18   18 2712 3439 PO
gs 1464 389 4227 4227 MR c np
gr

  18   18 2553 3432 PO
gs 1464 389 4227 4227 MR c np
gr

  18   18 2558 3428 PO
gs 1464 389 4227 4227 MR c np
gr

  18   18 2558 3433 PO
gs 1464 389 4227 4227 MR c np
gr

  18   18 2558 3427 PO
gs 1464 389 4227 4227 MR c np
gr

  18   18 2523 3422 PO
gs 1464 389 4227 4227 MR c np
gr

  18   18 2571 3442 PO
gs 1464 389 4227 4227 MR c np
gr

  18   18 2565 3432 PO
gs 1464 389 4227 4227 MR c np
gr

  18   18 2496 3419 PO
gs 1464 389 4227 4227 MR c np
gr

  18   18 2572 3476 PO
gs 1464 389 4227 4227 MR c np
gr

  18   18 3955 3413 PO
gs 1464 389 4227 4227 MR c np
gr

  18   18 2505 3423 PO
gs 1464 389 4227 4227 MR c np
gr

  18   18 2580 3509 PO
gs 1464 389 4227 4227 MR c np
gr

  18   18 2499 3407 PO
gs 1464 389 4227 4227 MR c np
gr

  18   18 2532 3410 PO
gs 1464 389 4227 4227 MR c np
gr

/c20 { 1.000000 0.250000 0.000000 sr} bdef
c20
  18   18 2499 3463 PO
gs 1464 389 4227 4227 MR c np
gr

  18   18 4219 3402 PO
gs 1464 389 4227 4227 MR c np
gr

  18   18 2499 3415 PO
gs 1464 389 4227 4227 MR c np
gr

  18   18 2599 3455 PO
gs 1464 389 4227 4227 MR c np
gr

  18   18 2596 3403 PO
gs 1464 389 4227 4227 MR c np
gr

  18   18 2545 3399 PO
gs 1464 389 4227 4227 MR c np
gr

  18   18 2567 3445 PO
gs 1464 389 4227 4227 MR c np
gr

  18   18 2606 3393 PO
gs 1464 389 4227 4227 MR c np
gr

  18   18 2607 3447 PO
gs 1464 389 4227 4227 MR c np
gr

  18   18 2614 3395 PO
gs 1464 389 4227 4227 MR c np
gr

  18   18 2577 3441 PO
gs 1464 389 4227 4227 MR c np
gr

  18   18 2587 3400 PO
gs 1464 389 4227 4227 MR c np
gr

  18   18 2617 3380 PO
gs 1464 389 4227 4227 MR c np
gr

  18   18 2618 3383 PO
gs 1464 389 4227 4227 MR c np
gr

  18   18 3619 3384 PO
gs 1464 389 4227 4227 MR c np
gr

/c21 { 1.000000 0.312500 0.000000 sr} bdef
c21
  18   18 2599 3380 PO
gs 1464 389 4227 4227 MR c np
gr

  18   18 2581 3486 PO
gs 1464 389 4227 4227 MR c np
gr

  18   18 2599 3377 PO
gs 1464 389 4227 4227 MR c np
gr

  18   18 2632 3374 PO
gs 1464 389 4227 4227 MR c np
gr

  18   18 2625 3366 PO
gs 1464 389 4227 4227 MR c np
gr

  18   18 2632 3373 PO
gs 1464 389 4227 4227 MR c np
gr

  18   18 2644 3362 PO
gs 1464 389 4227 4227 MR c np
gr

  18   18 2646 3359 PO
gs 1464 389 4227 4227 MR c np
gr

  18   18 2577 3357 PO
gs 1464 389 4227 4227 MR c np
gr

  18   18 2646 3382 PO
gs 1464 389 4227 4227 MR c np
gr

  18   18 2635 3358 PO
gs 1464 389 4227 4227 MR c np
gr

  18   18 2725 3356 PO
gs 1464 389 4227 4227 MR c np
gr

  18   18 2646 3348 PO
gs 1464 389 4227 4227 MR c np
gr

  18   18 2635 3368 PO
gs 1464 389 4227 4227 MR c np
gr

  18   18 2657 3463 PO
gs 1464 389 4227 4227 MR c np
gr

  18   18 2665 3465 PO
gs 1464 389 4227 4227 MR c np
gr

/c22 { 1.000000 0.375000 0.000000 sr} bdef
c22
  18   18 2653 3409 PO
gs 1464 389 4227 4227 MR c np
gr

  18   18 2845 3370 PO
gs 1464 389 4227 4227 MR c np
gr

  18   18 2656 3339 PO
gs 1464 389 4227 4227 MR c np
gr

  18   18 2656 3353 PO
gs 1464 389 4227 4227 MR c np
gr

  18   18 2660 3425 PO
gs 1464 389 4227 4227 MR c np
gr

  18   18 2661 3342 PO
gs 1464 389 4227 4227 MR c np
gr

  18   18 2672 3326 PO
gs 1464 389 4227 4227 MR c np
gr

  18   18 2667 3335 PO
gs 1464 389 4227 4227 MR c np
gr

  18   18 2636 3391 PO
gs 1464 389 4227 4227 MR c np
gr

  18   18 2676 3321 PO
gs 1464 389 4227 4227 MR c np
gr

  18   18 3982 3318 PO
gs 1464 389 4227 4227 MR c np
gr

  18   18 2644 3325 PO
gs 1464 389 4227 4227 MR c np
gr

  18   18 2690 3313 PO
gs 1464 389 4227 4227 MR c np
gr

  18   18 2606 3317 PO
gs 1464 389 4227 4227 MR c np
gr

  18   18 2690 3333 PO
gs 1464 389 4227 4227 MR c np
gr

  18   18 2647 3309 PO
gs 1464 389 4227 4227 MR c np
gr

/c23 { 1.000000 0.437500 0.000000 sr} bdef
c23
  18   18 2709 3304 PO
gs 1464 389 4227 4227 MR c np
gr

  18   18 2693 3308 PO
gs 1464 389 4227 4227 MR c np
gr

  18   18 2683 3348 PO
gs 1464 389 4227 4227 MR c np
gr

  18   18 2688 3396 PO
gs 1464 389 4227 4227 MR c np
gr

  18   18 2710 3297 PO
gs 1464 389 4227 4227 MR c np
gr

  18   18 2710 3293 PO
gs 1464 389 4227 4227 MR c np
gr

  18   18 2665 3314 PO
gs 1464 389 4227 4227 MR c np
gr

  18   18 2708 3298 PO
gs 1464 389 4227 4227 MR c np
gr

  18   18 2670 3312 PO
gs 1464 389 4227 4227 MR c np
gr

  18   18 2672 3313 PO
gs 1464 389 4227 4227 MR c np
gr

  18   18 2669 3280 PO
gs 1464 389 4227 4227 MR c np
gr

  18   18 2669 3284 PO
gs 1464 389 4227 4227 MR c np
gr

  18   18 2669 3276 PO
gs 1464 389 4227 4227 MR c np
gr

  18   18 2669 3280 PO
gs 1464 389 4227 4227 MR c np
gr

  18   18 2747 3273 PO
gs 1464 389 4227 4227 MR c np
gr

/c24 { 1.000000 0.500000 0.000000 sr} bdef
c24
  18   18 2669 3289 PO
gs 1464 389 4227 4227 MR c np
gr

  18   18 2674 3266 PO
gs 1464 389 4227 4227 MR c np
gr

  18   18 2750 3263 PO
gs 1464 389 4227 4227 MR c np
gr

  18   18 2671 3278 PO
gs 1464 389 4227 4227 MR c np
gr

  18   18 2750 3269 PO
gs 1464 389 4227 4227 MR c np
gr

  18   18 2748 3257 PO
gs 1464 389 4227 4227 MR c np
gr

  18   18 2747 3268 PO
gs 1464 389 4227 4227 MR c np
gr

  18   18 4083 3345 PO
gs 1464 389 4227 4227 MR c np
gr

  18   18 2766 3248 PO
gs 1464 389 4227 4227 MR c np
gr

  18   18 3728 3252 PO
gs 1464 389 4227 4227 MR c np
gr

  18   18 3094 3255 PO
gs 1464 389 4227 4227 MR c np
gr

  18   18 2767 3258 PO
gs 1464 389 4227 4227 MR c np
gr

  18   18 2752 3285 PO
gs 1464 389 4227 4227 MR c np
gr

  18   18 2757 3290 PO
gs 1464 389 4227 4227 MR c np
gr

  18   18 2759 3294 PO
gs 1464 389 4227 4227 MR c np
gr

  18   18 2759 3232 PO
gs 1464 389 4227 4227 MR c np
gr

/c25 { 1.000000 0.562500 0.000000 sr} bdef
c25
  18   18 2790 3230 PO
gs 1464 389 4227 4227 MR c np
gr

  18   18 2800 3273 PO
gs 1464 389 4227 4227 MR c np
gr

  18   18 2782 3291 PO
gs 1464 389 4227 4227 MR c np
gr

  18   18 2799 3224 PO
gs 1464 389 4227 4227 MR c np
gr

  18   18 2793 3347 PO
gs 1464 389 4227 4227 MR c np
gr

  18   18 2789 3229 PO
gs 1464 389 4227 4227 MR c np
gr

  18   18 2795 3213 PO
gs 1464 389 4227 4227 MR c np
gr

  18   18 2787 3221 PO
gs 1464 389 4227 4227 MR c np
gr

  18   18 2792 3207 PO
gs 1464 389 4227 4227 MR c np
gr

  18   18 2792 3282 PO
gs 1464 389 4227 4227 MR c np
gr

  18   18 2783 3203 PO
gs 1464 389 4227 4227 MR c np
gr

  18   18 2792 3200 PO
gs 1464 389 4227 4227 MR c np
gr

  18   18 2811 3200 PO
gs 1464 389 4227 4227 MR c np
gr

  18   18 2810 3216 PO
gs 1464 389 4227 4227 MR c np
gr

  18   18 2826 3190 PO
gs 1464 389 4227 4227 MR c np
gr

/c26 { 1.000000 0.625000 0.000000 sr} bdef
c26
  18   18 2833 3188 PO
gs 1464 389 4227 4227 MR c np
gr

  18   18 2831 3191 PO
gs 1464 389 4227 4227 MR c np
gr

  18   18 2838 3231 PO
gs 1464 389 4227 4227 MR c np
gr

  18   18 2829 3215 PO
gs 1464 389 4227 4227 MR c np
gr

  18   18 2844 3176 PO
gs 1464 389 4227 4227 MR c np
gr

  18   18 2830 3178 PO
gs 1464 389 4227 4227 MR c np
gr

  18   18 2843 3173 PO
gs 1464 389 4227 4227 MR c np
gr

  18   18 2841 3176 PO
gs 1464 389 4227 4227 MR c np
gr

  18   18 2859 3290 PO
gs 1464 389 4227 4227 MR c np
gr

  18   18 2859 3200 PO
gs 1464 389 4227 4227 MR c np
gr

  18   18 2800 3160 PO
gs 1464 389 4227 4227 MR c np
gr

  18   18 2847 3194 PO
gs 1464 389 4227 4227 MR c np
gr

  18   18 2863 3189 PO
gs 1464 389 4227 4227 MR c np
gr

  18   18 2867 3155 PO
gs 1464 389 4227 4227 MR c np
gr

  18   18 2867 3160 PO
gs 1464 389 4227 4227 MR c np
gr

  18   18 2867 3172 PO
gs 1464 389 4227 4227 MR c np
gr

/c27 { 1.000000 0.687500 0.000000 sr} bdef
c27
  18   18 2818 3140 PO
gs 1464 389 4227 4227 MR c np
gr

  18   18 2872 3171 PO
gs 1464 389 4227 4227 MR c np
gr

  18   18 2785 3134 PO
gs 1464 389 4227 4227 MR c np
gr

  18   18 2875 3222 PO
gs 1464 389 4227 4227 MR c np
gr

  18   18 4088 3128 PO
gs 1464 389 4227 4227 MR c np
gr

  18   18 2871 3129 PO
gs 1464 389 4227 4227 MR c np
gr

  18   18 4559 3127 PO
gs 1464 389 4227 4227 MR c np
gr

  18   18 2883 3118 PO
gs 1464 389 4227 4227 MR c np
gr

  18   18 2903 3157 PO
gs 1464 389 4227 4227 MR c np
gr

  18   18 2908 3146 PO
gs 1464 389 4227 4227 MR c np
gr

  18   18 2914 3156 PO
gs 1464 389 4227 4227 MR c np
gr

  18   18 2908 3115 PO
gs 1464 389 4227 4227 MR c np
gr

  18   18 2908 3206 PO
gs 1464 389 4227 4227 MR c np
gr

  18   18 2918 3114 PO
gs 1464 389 4227 4227 MR c np
gr

  18   18 2912 3117 PO
gs 1464 389 4227 4227 MR c np
gr

  18   18 2880 3107 PO
gs 1464 389 4227 4227 MR c np
gr

/c28 { 1.000000 0.750000 0.000000 sr} bdef
c28
  18   18 2906 3099 PO
gs 1464 389 4227 4227 MR c np
gr

  18   18 2933 3099 PO
gs 1464 389 4227 4227 MR c np
gr

  18   18 2920 3094 PO
gs 1464 389 4227 4227 MR c np
gr

  18   18 2935 3099 PO
gs 1464 389 4227 4227 MR c np
gr

  18   18 2937 3076 PO
gs 1464 389 4227 4227 MR c np
gr

  18   18 3722 3106 PO
gs 1464 389 4227 4227 MR c np
gr

  18   18 2949 3148 PO
gs 1464 389 4227 4227 MR c np
gr

  18   18 2950 3087 PO
gs 1464 389 4227 4227 MR c np
gr

  18   18 2962 3084 PO
gs 1464 389 4227 4227 MR c np
gr

  18   18 2964 3073 PO
gs 1464 389 4227 4227 MR c np
gr

  18   18 2983 3086 PO
gs 1464 389 4227 4227 MR c np
gr

  18   18 2972 3092 PO
gs 1464 389 4227 4227 MR c np
gr

  18   18 2964 3072 PO
gs 1464 389 4227 4227 MR c np
gr

  18   18 2983 3047 PO
gs 1464 389 4227 4227 MR c np
gr

  18   18 2994 3051 PO
gs 1464 389 4227 4227 MR c np
gr

/c29 { 1.000000 0.812500 0.000000 sr} bdef
c29
  18   18 2983 3060 PO
gs 1464 389 4227 4227 MR c np
gr

  18   18 2781 3072 PO
gs 1464 389 4227 4227 MR c np
gr

  18   18 2779 3059 PO
gs 1464 389 4227 4227 MR c np
gr

  18   18 2780 3031 PO
gs 1464 389 4227 4227 MR c np
gr

  18   18 3000 3027 PO
gs 1464 389 4227 4227 MR c np
gr

  18   18 2853 3030 PO
gs 1464 389 4227 4227 MR c np
gr

  18   18 3005 3023 PO
gs 1464 389 4227 4227 MR c np
gr

  18   18 3005 3028 PO
gs 1464 389 4227 4227 MR c np
gr

  18   18 3020 3031 PO
gs 1464 389 4227 4227 MR c np
gr

  18   18 2999 3027 PO
gs 1464 389 4227 4227 MR c np
gr

  18   18 3036 3051 PO
gs 1464 389 4227 4227 MR c np
gr

  18   18 3032 3003 PO
gs 1464 389 4227 4227 MR c np
gr

  18   18 3008 3015 PO
gs 1464 389 4227 4227 MR c np
gr

  18   18 3035 3019 PO
gs 1464 389 4227 4227 MR c np
gr

  18   18 3010 2993 PO
gs 1464 389 4227 4227 MR c np
gr

  18   18 4569 3012 PO
gs 1464 389 4227 4227 MR c np
gr

/c30 { 1.000000 0.875000 0.000000 sr} bdef
c30
  18   18 3014 2995 PO
gs 1464 389 4227 4227 MR c np
gr

  18   18 3031 2983 PO
gs 1464 389 4227 4227 MR c np
gr

  18   18 3011 2990 PO
gs 1464 389 4227 4227 MR c np
gr

  18   18 3038 2998 PO
gs 1464 389 4227 4227 MR c np
gr

  18   18 3047 3012 PO
gs 1464 389 4227 4227 MR c np
gr

  18   18 4254 2989 PO
gs 1464 389 4227 4227 MR c np
gr

  18   18 3053 2972 PO
gs 1464 389 4227 4227 MR c np
gr

  18   18 3053 2969 PO
gs 1464 389 4227 4227 MR c np
gr

  18   18 3062 2975 PO
gs 1464 389 4227 4227 MR c np
gr

  18   18 3046 2966 PO
gs 1464 389 4227 4227 MR c np
gr

  18   18 3046 2970 PO
gs 1464 389 4227 4227 MR c np
gr

  18   18 3059 2987 PO
gs 1464 389 4227 4227 MR c np
gr

  18   18 4086 2957 PO
gs 1464 389 4227 4227 MR c np
gr

  18   18 3085 2970 PO
gs 1464 389 4227 4227 MR c np
gr

  18   18 3069 2952 PO
gs 1464 389 4227 4227 MR c np
gr

  18   18 3093 2950 PO
gs 1464 389 4227 4227 MR c np
gr

/c31 { 1.000000 0.937500 0.000000 sr} bdef
c31
  18   18 3082 2974 PO
gs 1464 389 4227 4227 MR c np
gr

  18   18 3086 2972 PO
gs 1464 389 4227 4227 MR c np
gr

  18   18 3082 2949 PO
gs 1464 389 4227 4227 MR c np
gr

  18   18 3090 2960 PO
gs 1464 389 4227 4227 MR c np
gr

  18   18 3086 2931 PO
gs 1464 389 4227 4227 MR c np
gr

  18   18 3129 2955 PO
gs 1464 389 4227 4227 MR c np
gr

  18   18 3119 2947 PO
gs 1464 389 4227 4227 MR c np
gr

  18   18 3123 2909 PO
gs 1464 389 4227 4227 MR c np
gr

  18   18 3129 3025 PO
gs 1464 389 4227 4227 MR c np
gr

  18   18 3138 2914 PO
gs 1464 389 4227 4227 MR c np
gr

  18   18 3139 2925 PO
gs 1464 389 4227 4227 MR c np
gr

  18   18 3125 2922 PO
gs 1464 389 4227 4227 MR c np
gr

  18   18 3127 2891 PO
gs 1464 389 4227 4227 MR c np
gr

  18   18 3128 2930 PO
gs 1464 389 4227 4227 MR c np
gr

  18   18 3152 2907 PO
gs 1464 389 4227 4227 MR c np
gr

/c32 { 1.000000 1.000000 0.000000 sr} bdef
c32
  18   18 3149 2885 PO
gs 1464 389 4227 4227 MR c np
gr

  18   18 3137 2921 PO
gs 1464 389 4227 4227 MR c np
gr

  18   18 3174 2879 PO
gs 1464 389 4227 4227 MR c np
gr

  18   18 3174 2911 PO
gs 1464 389 4227 4227 MR c np
gr

  18   18 3159 2901 PO
gs 1464 389 4227 4227 MR c np
gr

  18   18 3160 2906 PO
gs 1464 389 4227 4227 MR c np
gr

  18   18 3157 2901 PO
gs 1464 389 4227 4227 MR c np
gr

  18   18 3160 2893 PO
gs 1464 389 4227 4227 MR c np
gr

  18   18 3118 2880 PO
gs 1464 389 4227 4227 MR c np
gr

  18   18 3153 2852 PO
gs 1464 389 4227 4227 MR c np
gr

  18   18 3162 2884 PO
gs 1464 389 4227 4227 MR c np
gr

  18   18 3186 2863 PO
gs 1464 389 4227 4227 MR c np
gr

  18   18 3178 2879 PO
gs 1464 389 4227 4227 MR c np
gr

  18   18 3201 2857 PO
gs 1464 389 4227 4227 MR c np
gr

  18   18 3196 2844 PO
gs 1464 389 4227 4227 MR c np
gr

  18   18 4397 2855 PO
gs 1464 389 4227 4227 MR c np
gr

/c33 { 0.937500 1.000000 0.062500 sr} bdef
c33
  18   18 3191 2867 PO
gs 1464 389 4227 4227 MR c np
gr

  18   18 3212 2836 PO
gs 1464 389 4227 4227 MR c np
gr

  18   18 3196 2848 PO
gs 1464 389 4227 4227 MR c np
gr

  18   18 3216 2825 PO
gs 1464 389 4227 4227 MR c np
gr

  18   18 3199 2816 PO
gs 1464 389 4227 4227 MR c np
gr

  18   18 3218 2835 PO
gs 1464 389 4227 4227 MR c np
gr

  18   18 3219 2825 PO
gs 1464 389 4227 4227 MR c np
gr

  18   18 3213 2816 PO
gs 1464 389 4227 4227 MR c np
gr

  18   18 4064 2850 PO
gs 1464 389 4227 4227 MR c np
gr

  18   18 3237 2878 PO
gs 1464 389 4227 4227 MR c np
gr

  18   18 3234 2833 PO
gs 1464 389 4227 4227 MR c np
gr

  18   18 4717 2827 PO
gs 1464 389 4227 4227 MR c np
gr

  18   18 3235 2848 PO
gs 1464 389 4227 4227 MR c np
gr

  18   18 3234 2828 PO
gs 1464 389 4227 4227 MR c np
gr

  18   18 3243 2795 PO
gs 1464 389 4227 4227 MR c np
gr

/c34 { 0.875000 1.000000 0.125000 sr} bdef
c34
  18   18 3243 2827 PO
gs 1464 389 4227 4227 MR c np
gr

  18   18 3254 2775 PO
gs 1464 389 4227 4227 MR c np
gr

  18   18 3244 2813 PO
gs 1464 389 4227 4227 MR c np
gr

  18   18 3269 2783 PO
gs 1464 389 4227 4227 MR c np
gr

  18   18 3275 2768 PO
gs 1464 389 4227 4227 MR c np
gr

  18   18 3718 2763 PO
gs 1464 389 4227 4227 MR c np
gr

  18   18 3270 2782 PO
gs 1464 389 4227 4227 MR c np
gr

  18   18 3245 2774 PO
gs 1464 389 4227 4227 MR c np
gr

  18   18 3283 2797 PO
gs 1464 389 4227 4227 MR c np
gr

  18   18 3289 2755 PO
gs 1464 389 4227 4227 MR c np
gr

  18   18 3273 2758 PO
gs 1464 389 4227 4227 MR c np
gr

  18   18 3307 2753 PO
gs 1464 389 4227 4227 MR c np
gr

  18   18 3283 2774 PO
gs 1464 389 4227 4227 MR c np
gr

  18   18 3307 2743 PO
gs 1464 389 4227 4227 MR c np
gr

  18   18 3300 2748 PO
gs 1464 389 4227 4227 MR c np
gr

  18   18 3493 2750 PO
gs 1464 389 4227 4227 MR c np
gr

/c35 { 0.812500 1.000000 0.187500 sr} bdef
c35
  18   18 3305 2729 PO
gs 1464 389 4227 4227 MR c np
gr

  18   18 3305 2766 PO
gs 1464 389 4227 4227 MR c np
gr

  18   18 3317 2722 PO
gs 1464 389 4227 4227 MR c np
gr

  18   18 3322 2727 PO
gs 1464 389 4227 4227 MR c np
gr

  18   18 3670 2758 PO
gs 1464 389 4227 4227 MR c np
gr

  18   18 3553 2741 PO
gs 1464 389 4227 4227 MR c np
gr

  18   18 3338 2731 PO
gs 1464 389 4227 4227 MR c np
gr

  18   18 3343 2736 PO
gs 1464 389 4227 4227 MR c np
gr

  18   18 3331 2725 PO
gs 1464 389 4227 4227 MR c np
gr

  18   18 3346 2722 PO
gs 1464 389 4227 4227 MR c np
gr

  18   18 3336 2711 PO
gs 1464 389 4227 4227 MR c np
gr

  18   18 3331 2713 PO
gs 1464 389 4227 4227 MR c np
gr

  18   18 3355 2707 PO
gs 1464 389 4227 4227 MR c np
gr

  18   18 3348 2726 PO
gs 1464 389 4227 4227 MR c np
gr

  18   18 3349 2724 PO
gs 1464 389 4227 4227 MR c np
gr

  18   18 3363 2687 PO
gs 1464 389 4227 4227 MR c np
gr

/c36 { 0.750000 1.000000 0.250000 sr} bdef
c36
  18   18 3378 2717 PO
gs 1464 389 4227 4227 MR c np
gr

  18   18 3375 2712 PO
gs 1464 389 4227 4227 MR c np
gr

  18   18 3377 2676 PO
gs 1464 389 4227 4227 MR c np
gr

  18   18 3372 2697 PO
gs 1464 389 4227 4227 MR c np
gr

  18   18 3376 2672 PO
gs 1464 389 4227 4227 MR c np
gr

  18   18 3383 2681 PO
gs 1464 389 4227 4227 MR c np
gr

  18   18 3367 2681 PO
gs 1464 389 4227 4227 MR c np
gr

  18   18 3401 2649 PO
gs 1464 389 4227 4227 MR c np
gr

  18   18 3406 2689 PO
gs 1464 389 4227 4227 MR c np
gr

  18   18 3407 2686 PO
gs 1464 389 4227 4227 MR c np
gr

  18   18 3406 2694 PO
gs 1464 389 4227 4227 MR c np
gr

  18   18 3425 2654 PO
gs 1464 389 4227 4227 MR c np
gr

  18   18 3419 2659 PO
gs 1464 389 4227 4227 MR c np
gr

  18   18 3426 2659 PO
gs 1464 389 4227 4227 MR c np
gr

  18   18 3426 2717 PO
gs 1464 389 4227 4227 MR c np
gr

/c37 { 0.687500 1.000000 0.312500 sr} bdef
c37
  18   18 3407 2658 PO
gs 1464 389 4227 4227 MR c np
gr

  18   18 3428 2614 PO
gs 1464 389 4227 4227 MR c np
gr

  18   18 3425 2659 PO
gs 1464 389 4227 4227 MR c np
gr

  18   18 3432 2648 PO
gs 1464 389 4227 4227 MR c np
gr

  18   18 3431 2648 PO
gs 1464 389 4227 4227 MR c np
gr

  18   18 3439 2633 PO
gs 1464 389 4227 4227 MR c np
gr

  18   18 3447 2636 PO
gs 1464 389 4227 4227 MR c np
gr

  18   18 3471 2605 PO
gs 1464 389 4227 4227 MR c np
gr

  18   18 3473 2632 PO
gs 1464 389 4227 4227 MR c np
gr

  18   18 3446 2629 PO
gs 1464 389 4227 4227 MR c np
gr

  18   18 3456 2592 PO
gs 1464 389 4227 4227 MR c np
gr

  18   18 3489 2627 PO
gs 1464 389 4227 4227 MR c np
gr

  18   18 3462 2612 PO
gs 1464 389 4227 4227 MR c np
gr

  18   18 3462 2598 PO
gs 1464 389 4227 4227 MR c np
gr

  18   18 3473 2609 PO
gs 1464 389 4227 4227 MR c np
gr

  18   18 3465 2603 PO
gs 1464 389 4227 4227 MR c np
gr

/c38 { 0.625000 1.000000 0.375000 sr} bdef
c38
  18   18 3485 2605 PO
gs 1464 389 4227 4227 MR c np
gr

  18   18 3490 2590 PO
gs 1464 389 4227 4227 MR c np
gr

  18   18 3475 2600 PO
gs 1464 389 4227 4227 MR c np
gr

  18   18 3496 2592 PO
gs 1464 389 4227 4227 MR c np
gr

  18   18 3483 2591 PO
gs 1464 389 4227 4227 MR c np
gr

  18   18 3511 2591 PO
gs 1464 389 4227 4227 MR c np
gr

  18   18 3492 2579 PO
gs 1464 389 4227 4227 MR c np
gr

  18   18 3497 2558 PO
gs 1464 389 4227 4227 MR c np
gr

  18   18 3504 2571 PO
gs 1464 389 4227 4227 MR c np
gr

  18   18 3504 2570 PO
gs 1464 389 4227 4227 MR c np
gr

  18   18 3514 2568 PO
gs 1464 389 4227 4227 MR c np
gr

  18   18 3517 2564 PO
gs 1464 389 4227 4227 MR c np
gr

  18   18 3511 2557 PO
gs 1464 389 4227 4227 MR c np
gr

  18   18 3512 2565 PO
gs 1464 389 4227 4227 MR c np
gr

  18   18 3529 2562 PO
gs 1464 389 4227 4227 MR c np
gr

/c39 { 0.562500 1.000000 0.437500 sr} bdef
c39
  18   18 3544 2538 PO
gs 1464 389 4227 4227 MR c np
gr

  18   18 3528 2551 PO
gs 1464 389 4227 4227 MR c np
gr

  18   18 3540 2543 PO
gs 1464 389 4227 4227 MR c np
gr

  18   18 3572 2517 PO
gs 1464 389 4227 4227 MR c np
gr

  18   18 3557 2525 PO
gs 1464 389 4227 4227 MR c np
gr

  18   18 3543 2537 PO
gs 1464 389 4227 4227 MR c np
gr

  18   18 3555 2536 PO
gs 1464 389 4227 4227 MR c np
gr

  18   18 3548 2510 PO
gs 1464 389 4227 4227 MR c np
gr

  18   18 3683 2498 PO
gs 1464 389 4227 4227 MR c np
gr

  18   18 3560 2487 PO
gs 1464 389 4227 4227 MR c np
gr

  18   18 3563 2474 PO
gs 1464 389 4227 4227 MR c np
gr

  18   18 4291 2515 PO
gs 1464 389 4227 4227 MR c np
gr

  18   18 3579 2513 PO
gs 1464 389 4227 4227 MR c np
gr

  18   18 3586 2512 PO
gs 1464 389 4227 4227 MR c np
gr

  18   18 3583 2510 PO
gs 1464 389 4227 4227 MR c np
gr

  18   18 3594 2507 PO
gs 1464 389 4227 4227 MR c np
gr

/c40 { 0.500000 1.000000 0.500000 sr} bdef
c40
  18   18 3582 2502 PO
gs 1464 389 4227 4227 MR c np
gr

  18   18 3549 2499 PO
gs 1464 389 4227 4227 MR c np
gr

  18   18 3603 2490 PO
gs 1464 389 4227 4227 MR c np
gr

  18   18 3532 2485 PO
gs 1464 389 4227 4227 MR c np
gr

  18   18 3624 2490 PO
gs 1464 389 4227 4227 MR c np
gr

  18   18 3604 2478 PO
gs 1464 389 4227 4227 MR c np
gr

  18   18 3605 2477 PO
gs 1464 389 4227 4227 MR c np
gr

  18   18 3605 2473 PO
gs 1464 389 4227 4227 MR c np
gr

  18   18 3666 2472 PO
gs 1464 389 4227 4227 MR c np
gr

  18   18 3620 2466 PO
gs 1464 389 4227 4227 MR c np
gr

  18   18 3606 2440 PO
gs 1464 389 4227 4227 MR c np
gr

  18   18 3660 2460 PO
gs 1464 389 4227 4227 MR c np
gr

  18   18 3632 2456 PO
gs 1464 389 4227 4227 MR c np
gr

  18   18 3685 2348 PO
gs 1464 389 4227 4227 MR c np
gr

  18   18 3651 2455 PO
gs 1464 389 4227 4227 MR c np
gr

  18   18 3636 2446 PO
gs 1464 389 4227 4227 MR c np
gr

/c41 { 0.437500 1.000000 0.562500 sr} bdef
c41
  18   18 3666 2443 PO
gs 1464 389 4227 4227 MR c np
gr

  18   18 2389 2443 PO
gs 1464 389 4227 4227 MR c np
gr

  18   18 3648 2437 PO
gs 1464 389 4227 4227 MR c np
gr

  18   18 3691 2433 PO
gs 1464 389 4227 4227 MR c np
gr

  18   18 3691 2429 PO
gs 1464 389 4227 4227 MR c np
gr

  18   18 3670 2432 PO
gs 1464 389 4227 4227 MR c np
gr

  18   18 3694 2422 PO
gs 1464 389 4227 4227 MR c np
gr

  18   18 3661 2410 PO
gs 1464 389 4227 4227 MR c np
gr

  18   18 3678 2415 PO
gs 1464 389 4227 4227 MR c np
gr

  18   18 3673 2413 PO
gs 1464 389 4227 4227 MR c np
gr

  18   18 3693 2390 PO
gs 1464 389 4227 4227 MR c np
gr

  18   18 3676 2384 PO
gs 1464 389 4227 4227 MR c np
gr

  18   18 3357 2402 PO
gs 1464 389 4227 4227 MR c np
gr

  18   18 3727 2398 PO
gs 1464 389 4227 4227 MR c np
gr

  18   18 3695 2396 PO
gs 1464 389 4227 4227 MR c np
gr

/c42 { 0.375000 1.000000 0.625000 sr} bdef
c42
  18   18 3696 2391 PO
gs 1464 389 4227 4227 MR c np
gr

  18   18 3725 2394 PO
gs 1464 389 4227 4227 MR c np
gr

  18   18 3742 2380 PO
gs 1464 389 4227 4227 MR c np
gr

  18   18 3699 2388 PO
gs 1464 389 4227 4227 MR c np
gr

  18   18 3724 2381 PO
gs 1464 389 4227 4227 MR c np
gr

  18   18 3732 2374 PO
gs 1464 389 4227 4227 MR c np
gr

  18   18 3709 2372 PO
gs 1464 389 4227 4227 MR c np
gr

  18   18 3725 2349 PO
gs 1464 389 4227 4227 MR c np
gr

  18   18 3747 2365 PO
gs 1464 389 4227 4227 MR c np
gr

  18   18 3741 2348 PO
gs 1464 389 4227 4227 MR c np
gr

  18   18 3637 2357 PO
gs 1464 389 4227 4227 MR c np
gr

  18   18 3731 2354 PO
gs 1464 389 4227 4227 MR c np
gr

  18   18 3749 2358 PO
gs 1464 389 4227 4227 MR c np
gr

  18   18 3742 2355 PO
gs 1464 389 4227 4227 MR c np
gr

  18   18 3746 2351 PO
gs 1464 389 4227 4227 MR c np
gr

  18   18 3749 2340 PO
gs 1464 389 4227 4227 MR c np
gr

/c43 { 0.312500 1.000000 0.687500 sr} bdef
c43
  18   18 3758 2337 PO
gs 1464 389 4227 4227 MR c np
gr

  18   18 3735 2339 PO
gs 1464 389 4227 4227 MR c np
gr

  18   18 3758 2338 PO
gs 1464 389 4227 4227 MR c np
gr

  18   18 3766 2330 PO
gs 1464 389 4227 4227 MR c np
gr

  18   18 3751 2323 PO
gs 1464 389 4227 4227 MR c np
gr

  18   18 3755 2320 PO
gs 1464 389 4227 4227 MR c np
gr

  18   18 3760 2318 PO
gs 1464 389 4227 4227 MR c np
gr

  18   18 3758 2302 PO
gs 1464 389 4227 4227 MR c np
gr

  18   18 3782 2311 PO
gs 1464 389 4227 4227 MR c np
gr

  18   18 3773 2312 PO
gs 1464 389 4227 4227 MR c np
gr

  18   18 3784 2308 PO
gs 1464 389 4227 4227 MR c np
gr

  18   18 3792 2299 PO
gs 1464 389 4227 4227 MR c np
gr

  18   18 3790 2301 PO
gs 1464 389 4227 4227 MR c np
gr

  18   18 3811 2294 PO
gs 1464 389 4227 4227 MR c np
gr

  18   18 3811 2291 PO
gs 1464 389 4227 4227 MR c np
gr

/c44 { 0.250000 1.000000 0.750000 sr} bdef
c44
  18   18 2440 2281 PO
gs 1464 389 4227 4227 MR c np
gr

  18   18 3816 2282 PO
gs 1464 389 4227 4227 MR c np
gr

  18   18 3815 2278 PO
gs 1464 389 4227 4227 MR c np
gr

  18   18 3806 2279 PO
gs 1464 389 4227 4227 MR c np
gr

  18   18 3849 2274 PO
gs 1464 389 4227 4227 MR c np
gr

  18   18 3825 2270 PO
gs 1464 389 4227 4227 MR c np
gr

  18   18 3824 2265 PO
gs 1464 389 4227 4227 MR c np
gr

  18   18 3828 2262 PO
gs 1464 389 4227 4227 MR c np
gr

  18   18 3852 2237 PO
gs 1464 389 4227 4227 MR c np
gr

  18   18 3829 2255 PO
gs 1464 389 4227 4227 MR c np
gr

  18   18 3829 2254 PO
gs 1464 389 4227 4227 MR c np
gr

  18   18 3858 2247 PO
gs 1464 389 4227 4227 MR c np
gr

  18   18 3876 2245 PO
gs 1464 389 4227 4227 MR c np
gr

  18   18 3877 2242 PO
gs 1464 389 4227 4227 MR c np
gr

  18   18 3871 2241 PO
gs 1464 389 4227 4227 MR c np
gr

  18   18 3859 2245 PO
gs 1464 389 4227 4227 MR c np
gr

/c45 { 0.187500 1.000000 0.812500 sr} bdef
c45
  18   18 3866 2234 PO
gs 1464 389 4227 4227 MR c np
gr

  18   18 3868 2227 PO
gs 1464 389 4227 4227 MR c np
gr

  18   18 3866 2223 PO
gs 1464 389 4227 4227 MR c np
gr

  18   18 3869 2220 PO
gs 1464 389 4227 4227 MR c np
gr

  18   18 3871 2217 PO
gs 1464 389 4227 4227 MR c np
gr

  18   18 3879 2226 PO
gs 1464 389 4227 4227 MR c np
gr

  18   18 3889 2214 PO
gs 1464 389 4227 4227 MR c np
gr

  18   18 3899 2202 PO
gs 1464 389 4227 4227 MR c np
gr

  18   18 3887 2204 PO
gs 1464 389 4227 4227 MR c np
gr

  18   18 3883 2201 PO
gs 1464 389 4227 4227 MR c np
gr

  18   18 3895 2186 PO
gs 1464 389 4227 4227 MR c np
gr

  18   18 3894 2206 PO
gs 1464 389 4227 4227 MR c np
gr

  18   18 3910 2197 PO
gs 1464 389 4227 4227 MR c np
gr

  18   18 3894 2193 PO
gs 1464 389 4227 4227 MR c np
gr

  18   18 3900 2183 PO
gs 1464 389 4227 4227 MR c np
gr

  18   18 3739 2184 PO
gs 1464 389 4227 4227 MR c np
gr

/c46 { 0.125000 1.000000 0.875000 sr} bdef
c46
  18   18 3927 2172 PO
gs 1464 389 4227 4227 MR c np
gr

  18   18 3898 2185 PO
gs 1464 389 4227 4227 MR c np
gr

  18   18 3931 2169 PO
gs 1464 389 4227 4227 MR c np
gr

  18   18 3890 2180 PO
gs 1464 389 4227 4227 MR c np
gr

  18   18 3946 2168 PO
gs 1464 389 4227 4227 MR c np
gr

  18   18 3026 2159 PO
gs 1464 389 4227 4227 MR c np
gr

  18   18 3935 2164 PO
gs 1464 389 4227 4227 MR c np
gr

  18   18 3955 2167 PO
gs 1464 389 4227 4227 MR c np
gr

  18   18 3934 2158 PO
gs 1464 389 4227 4227 MR c np
gr

  18   18 3959 2148 PO
gs 1464 389 4227 4227 MR c np
gr

  18   18 3962 2132 PO
gs 1464 389 4227 4227 MR c np
gr

  18   18 3940 2142 PO
gs 1464 389 4227 4227 MR c np
gr

  18   18 4005 2134 PO
gs 1464 389 4227 4227 MR c np
gr

  18   18 3968 2144 PO
gs 1464 389 4227 4227 MR c np
gr

  18   18 3963 2134 PO
gs 1464 389 4227 4227 MR c np
gr

/c47 { 0.062500 1.000000 0.937500 sr} bdef
c47
  18   18 3965 2124 PO
gs 1464 389 4227 4227 MR c np
gr

  18   18 3967 2126 PO
gs 1464 389 4227 4227 MR c np
gr

  18   18 3979 2118 PO
gs 1464 389 4227 4227 MR c np
gr

  18   18 3983 2099 PO
gs 1464 389 4227 4227 MR c np
gr

  18   18 3983 2116 PO
gs 1464 389 4227 4227 MR c np
gr

  18   18 3985 2120 PO
gs 1464 389 4227 4227 MR c np
gr

  18   18 3986 2121 PO
gs 1464 389 4227 4227 MR c np
gr

  18   18 3987 2101 PO
gs 1464 389 4227 4227 MR c np
gr

  18   18 3987 2110 PO
gs 1464 389 4227 4227 MR c np
gr

  18   18 4009 2111 PO
gs 1464 389 4227 4227 MR c np
gr

  18   18 3998 2106 PO
gs 1464 389 4227 4227 MR c np
gr

  18   18 4012 2095 PO
gs 1464 389 4227 4227 MR c np
gr

  18   18 3986 2087 PO
gs 1464 389 4227 4227 MR c np
gr

  18   18 4023 2084 PO
gs 1464 389 4227 4227 MR c np
gr

  18   18 4017 2078 PO
gs 1464 389 4227 4227 MR c np
gr

  18   18 2491 2092 PO
gs 1464 389 4227 4227 MR c np
gr

/c48 { 0.000000 1.000000 1.000000 sr} bdef
c48
  18   18 4032 2084 PO
gs 1464 389 4227 4227 MR c np
gr

  18   18 4013 2067 PO
gs 1464 389 4227 4227 MR c np
gr

  18   18 4040 2072 PO
gs 1464 389 4227 4227 MR c np
gr

  18   18 4040 2053 PO
gs 1464 389 4227 4227 MR c np
gr

  18   18 4042 2074 PO
gs 1464 389 4227 4227 MR c np
gr

  18   18 4044 2066 PO
gs 1464 389 4227 4227 MR c np
gr

  18   18 4053 2052 PO
gs 1464 389 4227 4227 MR c np
gr

  18   18 4043 2048 PO
gs 1464 389 4227 4227 MR c np
gr

  18   18 4057 2065 PO
gs 1464 389 4227 4227 MR c np
gr

  18   18 4049 2044 PO
gs 1464 389 4227 4227 MR c np
gr

  18   18 4060 2050 PO
gs 1464 389 4227 4227 MR c np
gr

  18   18 4069 2042 PO
gs 1464 389 4227 4227 MR c np
gr

  18   18 4076 2031 PO
gs 1464 389 4227 4227 MR c np
gr

  18   18 4075 2036 PO
gs 1464 389 4227 4227 MR c np
gr

  18   18 3914 2032 PO
gs 1464 389 4227 4227 MR c np
gr

/c49 { 0.000000 0.937500 1.000000 sr} bdef
c49
  18   18 4108 2037 PO
gs 1464 389 4227 4227 MR c np
gr

  18   18 4086 2025 PO
gs 1464 389 4227 4227 MR c np
gr

  18   18 3926 2018 PO
gs 1464 389 4227 4227 MR c np
gr

  18   18 4090 2029 PO
gs 1464 389 4227 4227 MR c np
gr

  18   18 4103 2031 PO
gs 1464 389 4227 4227 MR c np
gr

  18   18 4111 2009 PO
gs 1464 389 4227 4227 MR c np
gr

  18   18 4116 2021 PO
gs 1464 389 4227 4227 MR c np
gr

  18   18 4099 2004 PO
gs 1464 389 4227 4227 MR c np
gr

  18   18 4095 2005 PO
gs 1464 389 4227 4227 MR c np
gr

  18   18 4106 1993 PO
gs 1464 389 4227 4227 MR c np
gr

  18   18 4109 1989 PO
gs 1464 389 4227 4227 MR c np
gr

  18   18 4124 2005 PO
gs 1464 389 4227 4227 MR c np
gr

  18   18 4097 1992 PO
gs 1464 389 4227 4227 MR c np
gr

  18   18 4128 1995 PO
gs 1464 389 4227 4227 MR c np
gr

  18   18 4150 1978 PO
gs 1464 389 4227 4227 MR c np
gr

  18   18 4139 1989 PO
gs 1464 389 4227 4227 MR c np
gr

/c50 { 0.000000 0.875000 1.000000 sr} bdef
c50
  18   18 4150 1986 PO
gs 1464 389 4227 4227 MR c np
gr

  18   18 4136 1968 PO
gs 1464 389 4227 4227 MR c np
gr

  18   18 4152 1966 PO
gs 1464 389 4227 4227 MR c np
gr

  18   18 4142 1972 PO
gs 1464 389 4227 4227 MR c np
gr

  18   18 4140 1961 PO
gs 1464 389 4227 4227 MR c np
gr

  18   18 4137 1971 PO
gs 1464 389 4227 4227 MR c np
gr

  18   18 4137 1964 PO
gs 1464 389 4227 4227 MR c np
gr

  18   18 4152 1950 PO
gs 1464 389 4227 4227 MR c np
gr

  18   18 4143 1959 PO
gs 1464 389 4227 4227 MR c np
gr

  18   18 4167 1956 PO
gs 1464 389 4227 4227 MR c np
gr

  18   18 4169 1951 PO
gs 1464 389 4227 4227 MR c np
gr

  18   18 4185 1954 PO
gs 1464 389 4227 4227 MR c np
gr

  18   18 4173 1943 PO
gs 1464 389 4227 4227 MR c np
gr

  18   18 4185 1935 PO
gs 1464 389 4227 4227 MR c np
gr

  18   18 4175 1926 PO
gs 1464 389 4227 4227 MR c np
gr

  18   18 4190 1922 PO
gs 1464 389 4227 4227 MR c np
gr

/c51 { 0.000000 0.812500 1.000000 sr} bdef
c51
  18   18 4183 1924 PO
gs 1464 389 4227 4227 MR c np
gr

  18   18 4192 1920 PO
gs 1464 389 4227 4227 MR c np
gr

  18   18 4178 1914 PO
gs 1464 389 4227 4227 MR c np
gr

  18   18 3700 1908 PO
gs 1464 389 4227 4227 MR c np
gr

  18   18 4199 1907 PO
gs 1464 389 4227 4227 MR c np
gr

  18   18 4221 1922 PO
gs 1464 389 4227 4227 MR c np
gr

  18   18 4229 1919 PO
gs 1464 389 4227 4227 MR c np
gr

  18   18 4209 1916 PO
gs 1464 389 4227 4227 MR c np
gr

  18   18 4213 1899 PO
gs 1464 389 4227 4227 MR c np
gr

  18   18 4181 1885 PO
gs 1464 389 4227 4227 MR c np
gr

  18   18 4203 1880 PO
gs 1464 389 4227 4227 MR c np
gr

  18   18 4210 1886 PO
gs 1464 389 4227 4227 MR c np
gr

  18   18 4250 1888 PO
gs 1464 389 4227 4227 MR c np
gr

  18   18 4217 1884 PO
gs 1464 389 4227 4227 MR c np
gr

  18   18 4222 1888 PO
gs 1464 389 4227 4227 MR c np
gr

/c52 { 0.000000 0.750000 1.000000 sr} bdef
c52
  18   18 4233 1890 PO
gs 1464 389 4227 4227 MR c np
gr

  18   18 4230 1879 PO
gs 1464 389 4227 4227 MR c np
gr

  18   18 4230 1871 PO
gs 1464 389 4227 4227 MR c np
gr

  18   18 4237 1868 PO
gs 1464 389 4227 4227 MR c np
gr

  18   18 4258 1862 PO
gs 1464 389 4227 4227 MR c np
gr

  18   18 4242 1877 PO
gs 1464 389 4227 4227 MR c np
gr

  18   18 4294 1863 PO
gs 1464 389 4227 4227 MR c np
gr

  18   18 4273 1860 PO
gs 1464 389 4227 4227 MR c np
gr

  18   18 4260 1868 PO
gs 1464 389 4227 4227 MR c np
gr

  18   18 4306 1856 PO
gs 1464 389 4227 4227 MR c np
gr

  18   18 4265 1849 PO
gs 1464 389 4227 4227 MR c np
gr

  18   18 4282 1842 PO
gs 1464 389 4227 4227 MR c np
gr

  18   18 4288 1859 PO
gs 1464 389 4227 4227 MR c np
gr

  18   18 4272 1851 PO
gs 1464 389 4227 4227 MR c np
gr

  18   18 4290 1848 PO
gs 1464 389 4227 4227 MR c np
gr

  18   18 4290 1845 PO
gs 1464 389 4227 4227 MR c np
gr

/c53 { 0.000000 0.687500 1.000000 sr} bdef
c53
  18   18 4306 1832 PO
gs 1464 389 4227 4227 MR c np
gr

  18   18 4294 1826 PO
gs 1464 389 4227 4227 MR c np
gr

  18   18 4291 1827 PO
gs 1464 389 4227 4227 MR c np
gr

  18   18 4309 1823 PO
gs 1464 389 4227 4227 MR c np
gr

  18   18 4306 1816 PO
gs 1464 389 4227 4227 MR c np
gr

  18   18 4300 1804 PO
gs 1464 389 4227 4227 MR c np
gr

  18   18 4304 1825 PO
gs 1464 389 4227 4227 MR c np
gr

  18   18 4304 1808 PO
gs 1464 389 4227 4227 MR c np
gr

  18   18 4308 1806 PO
gs 1464 389 4227 4227 MR c np
gr

  18   18 4329 1804 PO
gs 1464 389 4227 4227 MR c np
gr

  18   18 4310 1801 PO
gs 1464 389 4227 4227 MR c np
gr

  18   18 4327 1830 PO
gs 1464 389 4227 4227 MR c np
gr

  18   18 4338 1796 PO
gs 1464 389 4227 4227 MR c np
gr

  18   18 4347 1792 PO
gs 1464 389 4227 4227 MR c np
gr

  18   18 4319 1794 PO
gs 1464 389 4227 4227 MR c np
gr

  18   18 4311 1789 PO
gs 1464 389 4227 4227 MR c np
gr

/c54 { 0.000000 0.625000 1.000000 sr} bdef
c54
  18   18 4348 1784 PO
gs 1464 389 4227 4227 MR c np
gr

  18   18 4356 1782 PO
gs 1464 389 4227 4227 MR c np
gr

  18   18 4291 1784 PO
gs 1464 389 4227 4227 MR c np
gr

  18   18 4353 1788 PO
gs 1464 389 4227 4227 MR c np
gr

  18   18 4354 1774 PO
gs 1464 389 4227 4227 MR c np
gr

  18   18 4351 1782 PO
gs 1464 389 4227 4227 MR c np
gr

  18   18 4392 1770 PO
gs 1464 389 4227 4227 MR c np
gr

  18   18 4358 1765 PO
gs 1464 389 4227 4227 MR c np
gr

  18   18 4351 1763 PO
gs 1464 389 4227 4227 MR c np
gr

  18   18 4162 1766 PO
gs 1464 389 4227 4227 MR c np
gr

  18   18 4261 1767 PO
gs 1464 389 4227 4227 MR c np
gr

  18   18 4389 1759 PO
gs 1464 389 4227 4227 MR c np
gr

  18   18 4367 1763 PO
gs 1464 389 4227 4227 MR c np
gr

  18   18 4409 1790 PO
gs 1464 389 4227 4227 MR c np
gr

  18   18 4393 1755 PO
gs 1464 389 4227 4227 MR c np
gr

/c55 { 0.000000 0.562500 1.000000 sr} bdef
c55
  18   18 4386 1747 PO
gs 1464 389 4227 4227 MR c np
gr

  18   18 4373 1748 PO
gs 1464 389 4227 4227 MR c np
gr

  18   18 4394 1740 PO
gs 1464 389 4227 4227 MR c np
gr

  18   18 4404 1741 PO
gs 1464 389 4227 4227 MR c np
gr

  18   18 4378 1739 PO
gs 1464 389 4227 4227 MR c np
gr

  18   18 4411 1732 PO
gs 1464 389 4227 4227 MR c np
gr

  18   18 4398 1738 PO
gs 1464 389 4227 4227 MR c np
gr

  18   18 4408 1735 PO
gs 1464 389 4227 4227 MR c np
gr

  18   18 4412 1725 PO
gs 1464 389 4227 4227 MR c np
gr

  18   18 4413 1728 PO
gs 1464 389 4227 4227 MR c np
gr

  18   18 4421 1754 PO
gs 1464 389 4227 4227 MR c np
gr

  18   18 4405 1723 PO
gs 1464 389 4227 4227 MR c np
gr

  18   18 4285 1701 PO
gs 1464 389 4227 4227 MR c np
gr

  18   18 4421 1718 PO
gs 1464 389 4227 4227 MR c np
gr

  18   18 4436 1720 PO
gs 1464 389 4227 4227 MR c np
gr

  18   18 4436 1709 PO
gs 1464 389 4227 4227 MR c np
gr

/c56 { 0.000000 0.500000 1.000000 sr} bdef
c56
  18   18 4430 1705 PO
gs 1464 389 4227 4227 MR c np
gr

  18   18 4435 1708 PO
gs 1464 389 4227 4227 MR c np
gr

  18   18 4424 1706 PO
gs 1464 389 4227 4227 MR c np
gr

  18   18 4430 1703 PO
gs 1464 389 4227 4227 MR c np
gr

  18   18 4431 1697 PO
gs 1464 389 4227 4227 MR c np
gr

  18   18 4438 1701 PO
gs 1464 389 4227 4227 MR c np
gr

  18   18 4453 1693 PO
gs 1464 389 4227 4227 MR c np
gr

  18   18 4446 1693 PO
gs 1464 389 4227 4227 MR c np
gr

  18   18 4469 1688 PO
gs 1464 389 4227 4227 MR c np
gr

  18   18 4453 1691 PO
gs 1464 389 4227 4227 MR c np
gr

  18   18 4460 1685 PO
gs 1464 389 4227 4227 MR c np
gr

  18   18 4439 1653 PO
gs 1464 389 4227 4227 MR c np
gr

  18   18 4463 1681 PO
gs 1464 389 4227 4227 MR c np
gr

  18   18 4474 1598 PO
gs 1464 389 4227 4227 MR c np
gr

  18   18 4464 1673 PO
gs 1464 389 4227 4227 MR c np
gr

/c57 { 0.000000 0.437500 1.000000 sr} bdef
c57
  18   18 4474 1672 PO
gs 1464 389 4227 4227 MR c np
gr

  18   18 4480 1671 PO
gs 1464 389 4227 4227 MR c np
gr

  18   18 4486 1668 PO
gs 1464 389 4227 4227 MR c np
gr

  18   18 4490 1646 PO
gs 1464 389 4227 4227 MR c np
gr

  18   18 4495 1663 PO
gs 1464 389 4227 4227 MR c np
gr

  18   18 4479 1661 PO
gs 1464 389 4227 4227 MR c np
gr

  18   18 4490 1659 PO
gs 1464 389 4227 4227 MR c np
gr

  18   18 4490 1655 PO
gs 1464 389 4227 4227 MR c np
gr

  18   18 4498 1655 PO
gs 1464 389 4227 4227 MR c np
gr

  18   18 4492 1647 PO
gs 1464 389 4227 4227 MR c np
gr

  18   18 4507 1581 PO
gs 1464 389 4227 4227 MR c np
gr

  18   18 4498 1648 PO
gs 1464 389 4227 4227 MR c np
gr

  18   18 4523 1643 PO
gs 1464 389 4227 4227 MR c np
gr

  18   18 4500 1644 PO
gs 1464 389 4227 4227 MR c np
gr

  18   18 4509 1642 PO
gs 1464 389 4227 4227 MR c np
gr

  18   18 4508 1639 PO
gs 1464 389 4227 4227 MR c np
gr

/c58 { 0.000000 0.375000 1.000000 sr} bdef
c58
  18   18 4354 1633 PO
gs 1464 389 4227 4227 MR c np
gr

  18   18 4521 1632 PO
gs 1464 389 4227 4227 MR c np
gr

  18   18 4514 1631 PO
gs 1464 389 4227 4227 MR c np
gr

  18   18 4522 1632 PO
gs 1464 389 4227 4227 MR c np
gr

  18   18 4520 1630 PO
gs 1464 389 4227 4227 MR c np
gr

  18   18 4515 1628 PO
gs 1464 389 4227 4227 MR c np
gr

  18   18 4526 1626 PO
gs 1464 389 4227 4227 MR c np
gr

  18   18 4527 1624 PO
gs 1464 389 4227 4227 MR c np
gr

  18   18 4526 1631 PO
gs 1464 389 4227 4227 MR c np
gr

  18   18 4532 1620 PO
gs 1464 389 4227 4227 MR c np
gr

  18   18 4546 1627 PO
gs 1464 389 4227 4227 MR c np
gr

  18   18 4505 1616 PO
gs 1464 389 4227 4227 MR c np
gr

  18   18 4510 1612 PO
gs 1464 389 4227 4227 MR c np
gr

  18   18 4547 1604 PO
gs 1464 389 4227 4227 MR c np
gr

  18   18 4569 1611 PO
gs 1464 389 4227 4227 MR c np
gr

  18   18 4548 1603 PO
gs 1464 389 4227 4227 MR c np
gr

/c59 { 0.000000 0.312500 1.000000 sr} bdef
c59
  18   18 4557 1607 PO
gs 1464 389 4227 4227 MR c np
gr

  18   18 4557 1601 PO
gs 1464 389 4227 4227 MR c np
gr

  18   18 4544 1603 PO
gs 1464 389 4227 4227 MR c np
gr

  18   18 4564 1611 PO
gs 1464 389 4227 4227 MR c np
gr

  18   18 4553 1599 PO
gs 1464 389 4227 4227 MR c np
gr

  18   18 4594 1598 PO
gs 1464 389 4227 4227 MR c np
gr

  18   18 4571 1596 PO
gs 1464 389 4227 4227 MR c np
gr

  18   18 4567 1593 PO
gs 1464 389 4227 4227 MR c np
gr

  18   18 4567 1579 PO
gs 1464 389 4227 4227 MR c np
gr

  18   18 4571 1589 PO
gs 1464 389 4227 4227 MR c np
gr

  18   18 4576 1589 PO
gs 1464 389 4227 4227 MR c np
gr

  18   18 4578 1572 PO
gs 1464 389 4227 4227 MR c np
gr

  18   18 4582 1585 PO
gs 1464 389 4227 4227 MR c np
gr

  18   18 4571 1580 PO
gs 1464 389 4227 4227 MR c np
gr

  18   18 4565 1581 PO
gs 1464 389 4227 4227 MR c np
gr

/c60 { 0.000000 0.250000 1.000000 sr} bdef
c60
  18   18 4580 1580 PO
gs 1464 389 4227 4227 MR c np
gr

  18   18 4580 1577 PO
gs 1464 389 4227 4227 MR c np
gr

  18   18 4582 1572 PO
gs 1464 389 4227 4227 MR c np
gr

  18   18 4598 1559 PO
gs 1464 389 4227 4227 MR c np
gr

  18   18 4597 1573 PO
gs 1464 389 4227 4227 MR c np
gr

  18   18 4593 1566 PO
gs 1464 389 4227 4227 MR c np
gr

  18   18 4586 1564 PO
gs 1464 389 4227 4227 MR c np
gr

  18   18 4593 1568 PO
gs 1464 389 4227 4227 MR c np
gr

  18   18 4598 1565 PO
gs 1464 389 4227 4227 MR c np
gr

  18   18 4594 1564 PO
gs 1464 389 4227 4227 MR c np
gr

  18   18 4601 1567 PO
gs 1464 389 4227 4227 MR c np
gr

  18   18 4599 1547 PO
gs 1464 389 4227 4227 MR c np
gr

  18   18 4606 1552 PO
gs 1464 389 4227 4227 MR c np
gr

  18   18 4607 1558 PO
gs 1464 389 4227 4227 MR c np
gr

  18   18 4081 1557 PO
gs 1464 389 4227 4227 MR c np
gr

  18   18 4603 1553 PO
gs 1464 389 4227 4227 MR c np
gr

/c61 { 0.000000 0.187500 1.000000 sr} bdef
c61
  18   18 4603 1534 PO
gs 1464 389 4227 4227 MR c np
gr

  18   18 4633 1550 PO
gs 1464 389 4227 4227 MR c np
gr

  18   18 4607 1540 PO
gs 1464 389 4227 4227 MR c np
gr

  18   18 4616 1528 PO
gs 1464 389 4227 4227 MR c np
gr

  18   18 4636 1547 PO
gs 1464 389 4227 4227 MR c np
gr

  18   18 4632 1545 PO
gs 1464 389 4227 4227 MR c np
gr

  18   18 4622 1537 PO
gs 1464 389 4227 4227 MR c np
gr

  18   18 4638 1542 PO
gs 1464 389 4227 4227 MR c np
gr

  18   18 4639 1540 PO
gs 1464 389 4227 4227 MR c np
gr

  18   18 4639 1520 PO
gs 1464 389 4227 4227 MR c np
gr

  18   18 4637 1514 PO
gs 1464 389 4227 4227 MR c np
gr

  18   18 4630 1537 PO
gs 1464 389 4227 4227 MR c np
gr

  18   18 4642 1525 PO
gs 1464 389 4227 4227 MR c np
gr

  18   18 4687 1525 PO
gs 1464 389 4227 4227 MR c np
gr

  18   18 4638 1512 PO
gs 1464 389 4227 4227 MR c np
gr

/c62 { 0.000000 0.125000 1.000000 sr} bdef
c62
  18   18 4637 1531 PO
gs 1464 389 4227 4227 MR c np
gr

  18   18 4642 1520 PO
gs 1464 389 4227 4227 MR c np
gr

  18   18 4647 1500 PO
gs 1464 389 4227 4227 MR c np
gr

  18   18 4651 1522 PO
gs 1464 389 4227 4227 MR c np
gr

  18   18 4648 1525 PO
gs 1464 389 4227 4227 MR c np
gr

  18   18 4643 1518 PO
gs 1464 389 4227 4227 MR c np
gr

  18   18 4690 1523 PO
gs 1464 389 4227 4227 MR c np
gr

  18   18 4648 1498 PO
gs 1464 389 4227 4227 MR c np
gr

  18   18 4648 1520 PO
gs 1464 389 4227 4227 MR c np
gr

  18   18 4666 1519 PO
gs 1464 389 4227 4227 MR c np
gr

  18   18 4677 1517 PO
gs 1464 389 4227 4227 MR c np
gr

  18   18 4678 1489 PO
gs 1464 389 4227 4227 MR c np
gr

  18   18 4681 1495 PO
gs 1464 389 4227 4227 MR c np
gr

  18   18 4467 1482 PO
gs 1464 389 4227 4227 MR c np
gr

  18   18 4648 1511 PO
gs 1464 389 4227 4227 MR c np
gr

  18   18 4681 1511 PO
gs 1464 389 4227 4227 MR c np
gr

/c63 { 0.000000 0.062500 1.000000 sr} bdef
c63
  18   18 4683 1478 PO
gs 1464 389 4227 4227 MR c np
gr

  18   18 4665 1509 PO
gs 1464 389 4227 4227 MR c np
gr

  18   18 4686 1474 PO
gs 1464 389 4227 4227 MR c np
gr

  18   18 4672 1500 PO
gs 1464 389 4227 4227 MR c np
gr

  18   18 3173 1492 PO
gs 1464 389 4227 4227 MR c np
gr

  18   18 4684 1485 PO
gs 1464 389 4227 4227 MR c np
gr

  18   18 4685 1480 PO
gs 1464 389 4227 4227 MR c np
gr

  18   18 4683 1467 PO
gs 1464 389 4227 4227 MR c np
gr

  18   18 4679 1498 PO
gs 1464 389 4227 4227 MR c np
gr

  18   18 4736 1499 PO
gs 1464 389 4227 4227 MR c np
gr

  18   18 4679 1490 PO
gs 1464 389 4227 4227 MR c np
gr

  18   18 4713 1450 PO
gs 1464 389 4227 4227 MR c np
gr

  18   18 4734 1486 PO
gs 1464 389 4227 4227 MR c np
gr

  18   18 4740 1477 PO
gs 1464 389 4227 4227 MR c np
gr

  18   18 4679 1492 PO
gs 1464 389 4227 4227 MR c np
gr

  18   18 4688 1453 PO
gs 1464 389 4227 4227 MR c np
gr

/c64 { 0.000000 0.000000 1.000000 sr} bdef
c64
  18   18 4683 1454 PO
gs 1464 389 4227 4227 MR c np
gr

  18   18 4683 1487 PO
gs 1464 389 4227 4227 MR c np
gr

  18   18 4690 1487 PO
gs 1464 389 4227 4227 MR c np
gr

  18   18 4733 1487 PO
gs 1464 389 4227 4227 MR c np
gr

  18   18 4728 1455 PO
gs 1464 389 4227 4227 MR c np
gr

  18   18 4726 1468 PO
gs 1464 389 4227 4227 MR c np
gr

  18   18 4715 1459 PO
gs 1464 389 4227 4227 MR c np
gr

  18   18 4729 1465 PO
gs 1464 389 4227 4227 MR c np
gr

  18   18 4726 1476 PO
gs 1464 389 4227 4227 MR c np
gr

  18   18 4729 1481 PO
gs 1464 389 4227 4227 MR c np
gr

  18   18 4725 1450 PO
gs 1464 389 4227 4227 MR c np
gr

  18   18 4716 1477 PO
gs 1464 389 4227 4227 MR c np
gr

  18   18 4715 1441 PO
gs 1464 389 4227 4227 MR c np
gr

  18   18 4715 1472 PO
gs 1464 389 4227 4227 MR c np
gr

  18   18 4734 1442 PO
gs 1464 389 4227 4227 MR c np
gr

/c65 { 0.000000 0.000000 0.937500 sr} bdef
c65
  18   18 4726 1448 PO
gs 1464 389 4227 4227 MR c np
gr

  18   18 4731 1431 PO
gs 1464 389 4227 4227 MR c np
gr

  18   18 4705 1449 PO
gs 1464 389 4227 4227 MR c np
gr

  18   18 4722 1468 PO
gs 1464 389 4227 4227 MR c np
gr

  18   18 4707 1468 PO
gs 1464 389 4227 4227 MR c np
gr

  18   18 4705 1460 PO
gs 1464 389 4227 4227 MR c np
gr

  18   18 4702 1468 PO
gs 1464 389 4227 4227 MR c np
gr

  18   18 4738 1459 PO
gs 1464 389 4227 4227 MR c np
gr

  18   18 4707 1454 PO
gs 1464 389 4227 4227 MR c np
gr

  18   18 4761 1463 PO
gs 1464 389 4227 4227 MR c np
gr

  18   18 4715 1462 PO
gs 1464 389 4227 4227 MR c np
gr

  18   18 4708 1462 PO
gs 1464 389 4227 4227 MR c np
gr

  18   18 4717 1410 PO
gs 1464 389 4227 4227 MR c np
gr

  18   18 4717 1433 PO
gs 1464 389 4227 4227 MR c np
gr

  18   18 4731 1453 PO
gs 1464 389 4227 4227 MR c np
gr

  18   18 4751 1441 PO
gs 1464 389 4227 4227 MR c np
gr

/c66 { 0.000000 0.000000 0.875000 sr} bdef
c66
  18   18 4718 1425 PO
gs 1464 389 4227 4227 MR c np
gr

  18   18 4723 1449 PO
gs 1464 389 4227 4227 MR c np
gr

  18   18 4713 1411 PO
gs 1464 389 4227 4227 MR c np
gr

  18   18 4717 1456 PO
gs 1464 389 4227 4227 MR c np
gr

  18   18 4723 1433 PO
gs 1464 389 4227 4227 MR c np
gr

  18   18 4742 1400 PO
gs 1464 389 4227 4227 MR c np
gr

  18   18 4741 1449 PO
gs 1464 389 4227 4227 MR c np
gr

  18   18 4769 1446 PO
gs 1464 389 4227 4227 MR c np
gr

  18   18 4738 1441 PO
gs 1464 389 4227 4227 MR c np
gr

  18   18 4735 1448 PO
gs 1464 389 4227 4227 MR c np
gr

  18   18 4730 1415 PO
gs 1464 389 4227 4227 MR c np
gr

  18   18 4736 1445 PO
gs 1464 389 4227 4227 MR c np
gr

  18   18 4797 1447 PO
gs 1464 389 4227 4227 MR c np
gr

  18   18 4745 1424 PO
gs 1464 389 4227 4227 MR c np
gr

  18   18 4746 1446 PO
gs 1464 389 4227 4227 MR c np
gr

/c67 { 0.000000 0.000000 0.812500 sr} bdef
c67
  18   18 4756 1419 PO
gs 1464 389 4227 4227 MR c np
gr

  18   18 4704 1418 PO
gs 1464 389 4227 4227 MR c np
gr

  18   18 4736 1430 PO
gs 1464 389 4227 4227 MR c np
gr

  18   18 4745 1431 PO
gs 1464 389 4227 4227 MR c np
gr

  18   18 4811 1405 PO
gs 1464 389 4227 4227 MR c np
gr

  18   18 4757 1396 PO
gs 1464 389 4227 4227 MR c np
gr

  18   18 4567 1412 PO
gs 1464 389 4227 4227 MR c np
gr

  18   18 4781 1420 PO
gs 1464 389 4227 4227 MR c np
gr

  18   18 4761 1401 PO
gs 1464 389 4227 4227 MR c np
gr

  18   18 4745 1380 PO
gs 1464 389 4227 4227 MR c np
gr

  18   18 4762 1364 PO
gs 1464 389 4227 4227 MR c np
gr

  18   18 4744 1422 PO
gs 1464 389 4227 4227 MR c np
gr

  18   18 4761 1435 PO
gs 1464 389 4227 4227 MR c np
gr

  18   18 4751 1389 PO
gs 1464 389 4227 4227 MR c np
gr

  18   18 4752 1419 PO
gs 1464 389 4227 4227 MR c np
gr

  18   18 4752 1415 PO
gs 1464 389 4227 4227 MR c np
gr

/c68 { 0.000000 0.000000 0.750000 sr} bdef
c68
  18   18 4746 1428 PO
gs 1464 389 4227 4227 MR c np
gr

  18   18 4747 1395 PO
gs 1464 389 4227 4227 MR c np
gr

  18   18 4809 1395 PO
gs 1464 389 4227 4227 MR c np
gr

  18   18 4752 1386 PO
gs 1464 389 4227 4227 MR c np
gr

  18   18 4755 1425 PO
gs 1464 389 4227 4227 MR c np
gr

  18   18 4757 1386 PO
gs 1464 389 4227 4227 MR c np
gr

  18   18 4799 1420 PO
gs 1464 389 4227 4227 MR c np
gr

  18   18 4805 1417 PO
gs 1464 389 4227 4227 MR c np
gr

  18   18 4778 1415 PO
gs 1464 389 4227 4227 MR c np
gr

  18   18 4750 1410 PO
gs 1464 389 4227 4227 MR c np
gr

  18   18 4764 1402 PO
gs 1464 389 4227 4227 MR c np
gr

  18   18 4802 1410 PO
gs 1464 389 4227 4227 MR c np
gr

  18   18 4763 1423 PO
gs 1464 389 4227 4227 MR c np
gr

  18   18 4750 1393 PO
gs 1464 389 4227 4227 MR c np
gr

  18   18 4798 1385 PO
gs 1464 389 4227 4227 MR c np
gr

  18   18 4795 1420 PO
gs 1464 389 4227 4227 MR c np
gr

/c69 { 0.000000 0.000000 0.687500 sr} bdef
c69
  18   18 4783 1392 PO
gs 1464 389 4227 4227 MR c np
gr

  18   18 4835 1419 PO
gs 1464 389 4227 4227 MR c np
gr

  18   18 4884 1419 PO
gs 1464 389 4227 4227 MR c np
gr

  18   18 4787 1420 PO
gs 1464 389 4227 4227 MR c np
gr

  18   18 4795 1400 PO
gs 1464 389 4227 4227 MR c np
gr

  18   18 4789 1397 PO
gs 1464 389 4227 4227 MR c np
gr

  18   18 4796 1395 PO
gs 1464 389 4227 4227 MR c np
gr

  18   18 4784 1405 PO
gs 1464 389 4227 4227 MR c np
gr

  18   18 4802 1393 PO
gs 1464 389 4227 4227 MR c np
gr

  18   18 4781 1403 PO
gs 1464 389 4227 4227 MR c np
gr

  18   18 4766 1413 PO
gs 1464 389 4227 4227 MR c np
gr

  18   18 4822 1371 PO
gs 1464 389 4227 4227 MR c np
gr

  18   18 4817 1414 PO
gs 1464 389 4227 4227 MR c np
gr

  18   18 4794 1403 PO
gs 1464 389 4227 4227 MR c np
gr

  18   18 4761 1371 PO
gs 1464 389 4227 4227 MR c np
gr

/c70 { 0.000000 0.000000 0.625000 sr} bdef
c70
  18   18 4804 1392 PO
gs 1464 389 4227 4227 MR c np
gr

  18   18 4766 1317 PO
gs 1464 389 4227 4227 MR c np
gr

  18   18 4780 1368 PO
gs 1464 389 4227 4227 MR c np
gr

  18   18 4773 1399 PO
gs 1464 389 4227 4227 MR c np
gr

  18   18 4788 1402 PO
gs 1464 389 4227 4227 MR c np
gr

  18   18 4779 1353 PO
gs 1464 389 4227 4227 MR c np
gr

  18   18 4709 1363 PO
gs 1464 389 4227 4227 MR c np
gr

  18   18 4798 1355 PO
gs 1464 389 4227 4227 MR c np
gr

  18   18 4803 1387 PO
gs 1464 389 4227 4227 MR c np
gr

  18   18 4799 1392 PO
gs 1464 389 4227 4227 MR c np
gr

  18   18 4803 1354 PO
gs 1464 389 4227 4227 MR c np
gr

  18   18 4805 1406 PO
gs 1464 389 4227 4227 MR c np
gr

  18   18 4778 1402 PO
gs 1464 389 4227 4227 MR c np
gr

  18   18 4070 1369 PO
gs 1464 389 4227 4227 MR c np
gr

  18   18 3784 1386 PO
gs 1464 389 4227 4227 MR c np
gr

  18   18 4775 1390 PO
gs 1464 389 4227 4227 MR c np
gr

/c71 { 0.000000 0.000000 0.562500 sr} bdef
c71
  18   18 4789 1362 PO
gs 1464 389 4227 4227 MR c np
gr

  18   18 4271 1400 PO
gs 1464 389 4227 4227 MR c np
gr

  18   18 4777 1369 PO
gs 1464 389 4227 4227 MR c np
gr

  18   18 4794 1340 PO
gs 1464 389 4227 4227 MR c np
gr

  18   18 4788 1402 PO
gs 1464 389 4227 4227 MR c np
gr

  18   18 4773 1352 PO
gs 1464 389 4227 4227 MR c np
gr

  18   18 4791 1379 PO
gs 1464 389 4227 4227 MR c np
gr

  18   18 4656 1390 PO
gs 1464 389 4227 4227 MR c np
gr

  18   18 4796 1376 PO
gs 1464 389 4227 4227 MR c np
gr

  18   18 4787 1352 PO
gs 1464 389 4227 4227 MR c np
gr

  18   18 4798 1291 PO
gs 1464 389 4227 4227 MR c np
gr

  18   18 4784 1348 PO
gs 1464 389 4227 4227 MR c np
gr

  18   18 4803 1396 PO
gs 1464 389 4227 4227 MR c np
gr

  18   18 4782 1385 PO
gs 1464 389 4227 4227 MR c np
gr

  18   18 4776 1364 PO
gs 1464 389 4227 4227 MR c np
gr

  18   18 4800 1393 PO
gs 1464 389 4227 4227 MR c np
gr

0 sg
3473 4903 mt 
(g\(x\)) s
1111 2606 mt  -90 rotate
(h\(y\)) s
90 rotate

end %%Color Dict

eplot
%%EndObject

epage
end

showpage

%%Trailer
%%EOF
