%!PS-Adobe-2.0 EPSF-1.2
%%Creator: MATLAB, The MathWorks, Inc. Version 8.3.0.532 (R2014a). Operating System: Linux 2.6.32-431.20.3.el6.x86_64 #1 SMP Thu Jun 19 14:01:59 CDT 2014 x86_64.
%%Title: ./NKCCA.eps
%%CreationDate: 05/29/2015  16:27:35
%%DocumentNeededFonts: Helvetica
%%DocumentProcessColors: Cyan Magenta Yellow Black
%%Extensions: CMYK
%%Pages: 1
%%BoundingBox:    99   199   504   589
%%EndComments

%%BeginProlog
% MathWorks dictionary
/MathWorks 160 dict begin
% definition operators
/bdef {bind def} bind def
/ldef {load def} bind def
/xdef {exch def} bdef
/xstore {exch store} bdef
% operator abbreviations
/c  /clip ldef
/cc /concat ldef
/cp /closepath ldef
/gr /grestore ldef
/gs /gsave ldef
/mt /moveto ldef
/np /newpath ldef
/cm /currentmatrix ldef
/sm /setmatrix ldef
/rm /rmoveto ldef
/rl /rlineto ldef
/s {show newpath} bdef
/sc {setcmykcolor} bdef
/sr /setrgbcolor ldef
/sg /setgray ldef
/w /setlinewidth ldef
/j /setlinejoin ldef
/cap /setlinecap ldef
/rc {rectclip} bdef
/rf {rectfill} bdef
% page state control
/pgsv () def
/bpage {/pgsv save def} bdef
/epage {pgsv restore} bdef
/bplot /gsave ldef
/eplot {stroke grestore} bdef
% orientation switch
/portraitMode 0 def /landscapeMode 1 def /rotateMode 2 def
% coordinate system mappings
/dpi2point 0 def
% font control
/FontSize 0 def
/FMS {/FontSize xstore findfont [FontSize 0 0 FontSize neg 0 0]
  makefont setfont} bdef
/reencode {exch dup where {pop load} {pop StandardEncoding} ifelse
  exch dup 3 1 roll findfont dup length dict begin
  { 1 index /FID ne {def}{pop pop} ifelse } forall
  /Encoding exch def currentdict end definefont pop} bdef
/isroman {findfont /CharStrings get /Agrave known} bdef
/FMSR {3 1 roll 1 index dup isroman {reencode} {pop pop} ifelse
  exch FMS} bdef
/csm {1 dpi2point div -1 dpi2point div scale neg translate
 dup landscapeMode eq {pop -90 rotate}
  {rotateMode eq {90 rotate} if} ifelse} bdef
% line types: solid, dotted, dashed, dotdash
/SO { [] 0 setdash } bdef
/DO { [.5 dpi2point mul 4 dpi2point mul] 0 setdash } bdef
/DA { [6 dpi2point mul] 0 setdash } bdef
/DD { [.5 dpi2point mul 4 dpi2point mul 6 dpi2point mul 4
  dpi2point mul] 0 setdash } bdef
% macros for lines and objects
/L {lineto stroke} bdef
/MP {3 1 roll moveto 1 sub {rlineto} repeat} bdef
/AP {{rlineto} repeat} bdef
/PDlw -1 def
/W {/PDlw currentlinewidth def setlinewidth} def
/PP {closepath eofill} bdef
/DP {closepath stroke} bdef
/MR {4 -2 roll moveto dup  0 exch rlineto exch 0 rlineto
  neg 0 exch rlineto closepath} bdef
/FR {MR stroke} bdef
/PR {MR fill} bdef
/L1i {{currentfile picstr readhexstring pop} image} bdef
/tMatrix matrix def
/MakeOval {newpath tMatrix currentmatrix pop translate scale
0 0 1 0 360 arc tMatrix setmatrix} bdef
/FO {MakeOval stroke} bdef
/PO {MakeOval fill} bdef
/PD {currentlinewidth 2 div 0 360 arc fill
   PDlw -1 eq not {PDlw w /PDlw -1 def} if} def
/FA {newpath tMatrix currentmatrix pop translate scale
  0 0 1 5 -2 roll arc tMatrix setmatrix stroke} bdef
/PA {newpath tMatrix currentmatrix pop	translate 0 0 moveto scale
  0 0 1 5 -2 roll arc closepath tMatrix setmatrix fill} bdef
/FAn {newpath tMatrix currentmatrix pop translate scale
  0 0 1 5 -2 roll arcn tMatrix setmatrix stroke} bdef
/PAn {newpath tMatrix currentmatrix pop translate 0 0 moveto scale
  0 0 1 5 -2 roll arcn closepath tMatrix setmatrix fill} bdef
/vradius 0 def /hradius 0 def /lry 0 def
/lrx 0 def /uly 0 def /ulx 0 def /rad 0 def
/MRR {/vradius xdef /hradius xdef /lry xdef /lrx xdef /uly xdef
  /ulx xdef newpath tMatrix currentmatrix pop ulx hradius add uly
  vradius add translate hradius vradius scale 0 0 1 180 270 arc 
  tMatrix setmatrix lrx hradius sub uly vradius add translate
  hradius vradius scale 0 0 1 270 360 arc tMatrix setmatrix
  lrx hradius sub lry vradius sub translate hradius vradius scale
  0 0 1 0 90 arc tMatrix setmatrix ulx hradius add lry vradius sub
  translate hradius vradius scale 0 0 1 90 180 arc tMatrix setmatrix
  closepath} bdef
/FRR {MRR stroke } bdef
/PRR {MRR fill } bdef
/MlrRR {/lry xdef /lrx xdef /uly xdef /ulx xdef /rad lry uly sub 2 div def
  newpath tMatrix currentmatrix pop ulx rad add uly rad add translate
  rad rad scale 0 0 1 90 270 arc tMatrix setmatrix lrx rad sub lry rad
  sub translate rad rad scale 0 0 1 270 90 arc tMatrix setmatrix
  closepath} bdef
/FlrRR {MlrRR stroke } bdef
/PlrRR {MlrRR fill } bdef
/MtbRR {/lry xdef /lrx xdef /uly xdef /ulx xdef /rad lrx ulx sub 2 div def
  newpath tMatrix currentmatrix pop ulx rad add uly rad add translate
  rad rad scale 0 0 1 180 360 arc tMatrix setmatrix lrx rad sub lry rad
  sub translate rad rad scale 0 0 1 0 180 arc tMatrix setmatrix
  closepath} bdef
/FtbRR {MtbRR stroke } bdef
/PtbRR {MtbRR fill } bdef
/stri 6 array def /dtri 6 array def
/smat 6 array def /dmat 6 array def
/tmat1 6 array def /tmat2 6 array def /dif 3 array def
/asub {/ind2 exch def /ind1 exch def dup dup
  ind1 get exch ind2 get sub exch } bdef
/tri_to_matrix {
  2 0 asub 3 1 asub 4 0 asub 5 1 asub
  dup 0 get exch 1 get 7 -1 roll astore } bdef
/compute_transform {
  dmat dtri tri_to_matrix tmat1 invertmatrix 
  smat stri tri_to_matrix tmat2 concatmatrix } bdef
/ds {stri astore pop} bdef
/dt {dtri astore pop} bdef
/db {2 copy /cols xdef /rows xdef mul dup 3 mul string
  currentfile exch readhexstring pop
  dup 0 3 index getinterval /rbmap xdef
  dup 2 index dup getinterval /gbmap xdef
  1 index dup 2 mul exch getinterval /bbmap xdef pop pop}bdef
/it {gs np dtri aload pop moveto lineto lineto cp c
  cols rows 8 compute_transform 
  rbmap gbmap bbmap true 3 colorimage gr}bdef
/il {newpath moveto lineto stroke}bdef
currentdict end def
%%EndProlog

%%BeginSetup
MathWorks begin

0 cap

end
%%EndSetup

%%Page: 1 1
%%BeginPageSetup
%%PageBoundingBox:    99   199   504   589
MathWorks begin
bpage
%%EndPageSetup

%%BeginObject: obj1
bplot

/dpi2point 12 def
portraitMode 0216 7344 csm

  975   274  4866  4681 MR c np
85 dict begin %Colortable dictionary
/c0 { 0.000000 0.000000 0.000000 sr} bdef
/c1 { 1.000000 1.000000 1.000000 sr} bdef
/c2 { 0.900000 0.000000 0.000000 sr} bdef
/c3 { 0.000000 0.820000 0.000000 sr} bdef
/c4 { 0.000000 0.000000 0.800000 sr} bdef
/c5 { 0.910000 0.820000 0.320000 sr} bdef
/c6 { 1.000000 0.260000 0.820000 sr} bdef
/c7 { 0.000000 0.820000 0.820000 sr} bdef
c0
1 j
1 sg
   0    0 6913 5186 PR
6 w
0 4226 4226 0 0 -4226 1464 4615 4 MP
PP
-4226 0 0 4226 4226 0 0 -4226 1464 4615 5 MP stroke
4 w
DO
SO
6 w
0 sg
1464 4615 mt 5690 4615 L
1464  389 mt 5690  389 L
1464 4615 mt 1464  389 L
5690 4615 mt 5690  389 L
1464 4615 mt 5690 4615 L
1464 4615 mt 1464  389 L
1464 4615 mt 1464 4572 L
1464  389 mt 1464  431 L
%%IncludeResource: font Helvetica
/Helvetica /ISOLatin1Encoding 120 FMSR

1311 4760 mt 
(-2.5) s
1886 4615 mt 1886 4572 L
1886  389 mt 1886  431 L
1783 4760 mt 
(-2) s
2309 4615 mt 2309 4572 L
2309  389 mt 2309  431 L
2156 4760 mt 
(-1.5) s
2731 4615 mt 2731 4572 L
2731  389 mt 2731  431 L
2628 4760 mt 
(-1) s
3154 4615 mt 3154 4572 L
3154  389 mt 3154  431 L
3001 4760 mt 
(-0.5) s
3577 4615 mt 3577 4572 L
3577  389 mt 3577  431 L
3544 4760 mt 
(0) s
3999 4615 mt 3999 4572 L
3999  389 mt 3999  431 L
3916 4760 mt 
(0.5) s
4422 4615 mt 4422 4572 L
4422  389 mt 4422  431 L
4389 4760 mt 
(1) s
4844 4615 mt 4844 4572 L
4844  389 mt 4844  431 L
4761 4760 mt 
(1.5) s
5267 4615 mt 5267 4572 L
5267  389 mt 5267  431 L
5234 4760 mt 
(2) s
5690 4615 mt 5690 4572 L
5690  389 mt 5690  431 L
5607 4760 mt 
(2.5) s
1464 4615 mt 1506 4615 L
5690 4615 mt 5647 4615 L
1193 4659 mt 
(-2.5) s
1464 4192 mt 1506 4192 L
5690 4192 mt 5647 4192 L
1293 4236 mt 
(-2) s
1464 3769 mt 1506 3769 L
5690 3769 mt 5647 3769 L
1193 3813 mt 
(-1.5) s
1464 3347 mt 1506 3347 L
5690 3347 mt 5647 3347 L
1293 3391 mt 
(-1) s
1464 2924 mt 1506 2924 L
5690 2924 mt 5647 2924 L
1193 2968 mt 
(-0.5) s
1464 2502 mt 1506 2502 L
5690 2502 mt 5647 2502 L
1363 2546 mt 
(0) s
1464 2079 mt 1506 2079 L
5690 2079 mt 5647 2079 L
1263 2123 mt 
(0.5) s
1464 1656 mt 1506 1656 L
5690 1656 mt 5647 1656 L
1363 1700 mt 
(1) s
1464 1234 mt 1506 1234 L
5690 1234 mt 5647 1234 L
1263 1278 mt 
(1.5) s
1464  811 mt 1506  811 L
5690  811 mt 5647  811 L
1363  855 mt 
(2) s
1464  389 mt 1506  389 L
5690  389 mt 5647  389 L
1263  433 mt 
(2.5) s
1464 4615 mt 5690 4615 L
1464  389 mt 5690  389 L
1464 4615 mt 1464  389 L
5690 4615 mt 5690  389 L
gs 1464 389 4227 4227 MR c np
0 j
gr

/c8 { 0.500000 0.000000 0.000000 sr} bdef
c8
  18   18 4429  849 PO
gs 1464 389 4227 4227 MR c np
gr

  18   18 5239  547 PO
gs 1464 389 4227 4227 MR c np
gr

  18   18 5195  883 PO
gs 1464 389 4227 4227 MR c np
gr

  18   18 5149  872 PO
gs 1464 389 4227 4227 MR c np
gr

  18   18 4746  868 PO
gs 1464 389 4227 4227 MR c np
gr

  18   18 5122  879 PO
gs 1464 389 4227 4227 MR c np
gr

  18   18 4681  891 PO
gs 1464 389 4227 4227 MR c np
gr

  18   18 5637  881 PO
gs 1464 389 4227 4227 MR c np
gr

  18   18 5263  779 PO
gs 1464 389 4227 4227 MR c np
gr

  18   18 5559  888 PO
gs 1464 389 4227 4227 MR c np
gr

  18   18 5212  921 PO
gs 1464 389 4227 4227 MR c np
gr

  18   18 5150  908 PO
gs 1464 389 4227 4227 MR c np
gr

  18   18 5286  836 PO
gs 1464 389 4227 4227 MR c np
gr

  18   18 5328  906 PO
gs 1464 389 4227 4227 MR c np
gr

  18   18 5199  508 PO
gs 1464 389 4227 4227 MR c np
gr

  18   18 5192  871 PO
gs 1464 389 4227 4227 MR c np
gr

/c9 { 0.562500 0.000000 0.000000 sr} bdef
c9
  18   18 4968  913 PO
gs 1464 389 4227 4227 MR c np
gr

  18   18 5141  905 PO
gs 1464 389 4227 4227 MR c np
gr

  18   18 4986  871 PO
gs 1464 389 4227 4227 MR c np
gr

  18   18 4989  899 PO
gs 1464 389 4227 4227 MR c np
gr

gs 1464 389 4227 4227 MR c np
gr

  18   18 5098  889 PO
gs 1464 389 4227 4227 MR c np
gr

  18   18 5507  846 PO
gs 1464 389 4227 4227 MR c np
gr

  18   18 5217  982 PO
gs 1464 389 4227 4227 MR c np
gr

  18   18 5642  992 PO
gs 1464 389 4227 4227 MR c np
gr

  18   18 5157  864 PO
gs 1464 389 4227 4227 MR c np
gr

  18   18 4957 1001 PO
gs 1464 389 4227 4227 MR c np
gr

  18   18 5086 1002 PO
gs 1464 389 4227 4227 MR c np
gr

  18   18 5081  871 PO
gs 1464 389 4227 4227 MR c np
gr

  18   18 5388  967 PO
gs 1464 389 4227 4227 MR c np
gr

  18   18 5058  936 PO
gs 1464 389 4227 4227 MR c np
gr

gs 1464 389 4227 4227 MR c np
gr

/c10 { 0.625000 0.000000 0.000000 sr} bdef
c10
  18   18 5261  998 PO
gs 1464 389 4227 4227 MR c np
gr

  18   18 5120  969 PO
gs 1464 389 4227 4227 MR c np
gr

  18   18 4975 1016 PO
gs 1464 389 4227 4227 MR c np
gr

  18   18 4971  999 PO
gs 1464 389 4227 4227 MR c np
gr

  18   18 4883  862 PO
gs 1464 389 4227 4227 MR c np
gr

  18   18 4889 1055 PO
gs 1464 389 4227 4227 MR c np
gr

  18   18 5118  833 PO
gs 1464 389 4227 4227 MR c np
gr

  18   18 5211  880 PO
gs 1464 389 4227 4227 MR c np
gr

  18   18 5148  960 PO
gs 1464 389 4227 4227 MR c np
gr

  18   18 5123 1068 PO
gs 1464 389 4227 4227 MR c np
gr

  18   18 5112 1056 PO
gs 1464 389 4227 4227 MR c np
gr

  18   18 4940 1031 PO
gs 1464 389 4227 4227 MR c np
gr

  18   18 5073 1087 PO
gs 1464 389 4227 4227 MR c np
gr

  18   18 4987  993 PO
gs 1464 389 4227 4227 MR c np
gr

  18   18 4953 1065 PO
gs 1464 389 4227 4227 MR c np
gr

/c11 { 0.687500 0.000000 0.000000 sr} bdef
c11
  18   18 5075 1083 PO
gs 1464 389 4227 4227 MR c np
gr

  18   18 4578 1099 PO
gs 1464 389 4227 4227 MR c np
gr

  18   18 5129 1086 PO
gs 1464 389 4227 4227 MR c np
gr

  18   18 5474  982 PO
gs 1464 389 4227 4227 MR c np
gr

  18   18 5364 1071 PO
gs 1464 389 4227 4227 MR c np
gr

  18   18 5287 1124 PO
gs 1464 389 4227 4227 MR c np
gr

  18   18 4967  972 PO
gs 1464 389 4227 4227 MR c np
gr

  18   18 5060 1121 PO
gs 1464 389 4227 4227 MR c np
gr

  18   18 5349 1126 PO
gs 1464 389 4227 4227 MR c np
gr

  18   18 4982 1098 PO
gs 1464 389 4227 4227 MR c np
gr

gs 1464 389 4227 4227 MR c np
gr

  18   18 5082 1131 PO
gs 1464 389 4227 4227 MR c np
gr

  18   18 5484 1157 PO
gs 1464 389 4227 4227 MR c np
gr

  18   18 5108 1109 PO
gs 1464 389 4227 4227 MR c np
gr

  18   18 4862 1168 PO
gs 1464 389 4227 4227 MR c np
gr

  18   18 5678 1154 PO
gs 1464 389 4227 4227 MR c np
gr

gs 1464 389 4227 4227 MR c np
gr

/c12 { 0.750000 0.000000 0.000000 sr} bdef
c12
  18   18 4680 1168 PO
gs 1464 389 4227 4227 MR c np
gr

  18   18 4617 1117 PO
gs 1464 389 4227 4227 MR c np
gr

  18   18 4855 1185 PO
gs 1464 389 4227 4227 MR c np
gr

  18   18 4398 1072 PO
gs 1464 389 4227 4227 MR c np
gr

  18   18 4848 1112 PO
gs 1464 389 4227 4227 MR c np
gr

  18   18 4580 1184 PO
gs 1464 389 4227 4227 MR c np
gr

  18   18 4014 1209 PO
gs 1464 389 4227 4227 MR c np
gr

  18   18 5013 1198 PO
gs 1464 389 4227 4227 MR c np
gr

  18   18 4994 1219 PO
gs 1464 389 4227 4227 MR c np
gr

  18   18 4284 1212 PO
gs 1464 389 4227 4227 MR c np
gr

  18   18 4367 1203 PO
gs 1464 389 4227 4227 MR c np
gr

  18   18 4089 1108 PO
gs 1464 389 4227 4227 MR c np
gr

  18   18 4923 1213 PO
gs 1464 389 4227 4227 MR c np
gr

  18   18 4793 1219 PO
gs 1464 389 4227 4227 MR c np
gr

  18   18 4622 1155 PO
gs 1464 389 4227 4227 MR c np
gr

/c13 { 0.812500 0.000000 0.000000 sr} bdef
c13
  18   18 4785 1250 PO
gs 1464 389 4227 4227 MR c np
gr

  18   18 4433 1226 PO
gs 1464 389 4227 4227 MR c np
gr

  18   18 2760 1260 PO
gs 1464 389 4227 4227 MR c np
gr

  18   18 4762 1266 PO
gs 1464 389 4227 4227 MR c np
gr

  18   18 4840 1164 PO
gs 1464 389 4227 4227 MR c np
gr

  18   18 4834 1265 PO
gs 1464 389 4227 4227 MR c np
gr

  18   18 4827 1069 PO
gs 1464 389 4227 4227 MR c np
gr

  18   18 4834 1108 PO
gs 1464 389 4227 4227 MR c np
gr

  18   18 5013 1287 PO
gs 1464 389 4227 4227 MR c np
gr

  18   18 4861 1293 PO
gs 1464 389 4227 4227 MR c np
gr

  18   18 4647 1101 PO
gs 1464 389 4227 4227 MR c np
gr

  18   18 5174 1282 PO
gs 1464 389 4227 4227 MR c np
gr

  18   18 4861 1283 PO
gs 1464 389 4227 4227 MR c np
gr

  18   18 4727 1284 PO
gs 1464 389 4227 4227 MR c np
gr

  18   18 4807 1258 PO
gs 1464 389 4227 4227 MR c np
gr

/c14 { 0.875000 0.000000 0.000000 sr} bdef
c14
  18   18 4788 1308 PO
gs 1464 389 4227 4227 MR c np
gr

  18   18 4823 1324 PO
gs 1464 389 4227 4227 MR c np
gr

  18   18 4828 1158 PO
gs 1464 389 4227 4227 MR c np
gr

  18   18 4750 1322 PO
gs 1464 389 4227 4227 MR c np
gr

  18   18 4886 1269 PO
gs 1464 389 4227 4227 MR c np
gr

  18   18 4992 1179 PO
gs 1464 389 4227 4227 MR c np
gr

  18   18 4916 1332 PO
gs 1464 389 4227 4227 MR c np
gr

  18   18 4963 1326 PO
gs 1464 389 4227 4227 MR c np
gr

  18   18 4917 1345 PO
gs 1464 389 4227 4227 MR c np
gr

  18   18 4719 1349 PO
gs 1464 389 4227 4227 MR c np
gr

  18   18 4671 1343 PO
gs 1464 389 4227 4227 MR c np
gr

  18   18 5012 1356 PO
gs 1464 389 4227 4227 MR c np
gr

  18   18 4844 1345 PO
gs 1464 389 4227 4227 MR c np
gr

  18   18 5266 1228 PO
gs 1464 389 4227 4227 MR c np
gr

  18   18 4764 1157 PO
gs 1464 389 4227 4227 MR c np
gr

  18   18 4792 1384 PO
gs 1464 389 4227 4227 MR c np
gr

/c15 { 0.937500 0.000000 0.000000 sr} bdef
c15
  18   18 4456 1386 PO
gs 1464 389 4227 4227 MR c np
gr

  18   18 4796 1306 PO
gs 1464 389 4227 4227 MR c np
gr

  18   18 4665 1324 PO
gs 1464 389 4227 4227 MR c np
gr

  18   18 4769 1380 PO
gs 1464 389 4227 4227 MR c np
gr

  18   18 4778 1405 PO
gs 1464 389 4227 4227 MR c np
gr

  18   18 4613 1356 PO
gs 1464 389 4227 4227 MR c np
gr

  18   18 4633 1360 PO
gs 1464 389 4227 4227 MR c np
gr

  18   18 4780 1380 PO
gs 1464 389 4227 4227 MR c np
gr

  18   18 4675 1421 PO
gs 1464 389 4227 4227 MR c np
gr

  18   18 4607 1424 PO
gs 1464 389 4227 4227 MR c np
gr

  18   18 4710 1409 PO
gs 1464 389 4227 4227 MR c np
gr

  18   18 4653 1139 PO
gs 1464 389 4227 4227 MR c np
gr

  18   18 4723 1434 PO
gs 1464 389 4227 4227 MR c np
gr

  18   18 4714 1444 PO
gs 1464 389 4227 4227 MR c np
gr

  18   18 4641 1441 PO
gs 1464 389 4227 4227 MR c np
gr

/c16 { 1.000000 0.000000 0.000000 sr} bdef
c16
  18   18 4486 1406 PO
gs 1464 389 4227 4227 MR c np
gr

  18   18 4425 1457 PO
gs 1464 389 4227 4227 MR c np
gr

  18   18 4603 1393 PO
gs 1464 389 4227 4227 MR c np
gr

  18   18 4751 1463 PO
gs 1464 389 4227 4227 MR c np
gr

  18   18 4816 1422 PO
gs 1464 389 4227 4227 MR c np
gr

  18   18 4769 1149 PO
gs 1464 389 4227 4227 MR c np
gr

  18   18 4694 1478 PO
gs 1464 389 4227 4227 MR c np
gr

  18   18 4592 1434 PO
gs 1464 389 4227 4227 MR c np
gr

  18   18 4673 1369 PO
gs 1464 389 4227 4227 MR c np
gr

  18   18 4595 1313 PO
gs 1464 389 4227 4227 MR c np
gr

  18   18 4738 1276 PO
gs 1464 389 4227 4227 MR c np
gr

  18   18 4592 1462 PO
gs 1464 389 4227 4227 MR c np
gr

  18   18 4599 1433 PO
gs 1464 389 4227 4227 MR c np
gr

  18   18 3605 1489 PO
gs 1464 389 4227 4227 MR c np
gr

  18   18 4674 1507 PO
gs 1464 389 4227 4227 MR c np
gr

  18   18 4600 1424 PO
gs 1464 389 4227 4227 MR c np
gr

/c17 { 1.000000 0.062500 0.000000 sr} bdef
c17
  18   18 4578 1520 PO
gs 1464 389 4227 4227 MR c np
gr

  18   18 4567 1515 PO
gs 1464 389 4227 4227 MR c np
gr

  18   18 4380 1527 PO
gs 1464 389 4227 4227 MR c np
gr

  18   18 4616 1375 PO
gs 1464 389 4227 4227 MR c np
gr

  18   18 4667 1512 PO
gs 1464 389 4227 4227 MR c np
gr

  18   18 4567 1453 PO
gs 1464 389 4227 4227 MR c np
gr

  18   18 4459 1499 PO
gs 1464 389 4227 4227 MR c np
gr

  18   18 4135 1427 PO
gs 1464 389 4227 4227 MR c np
gr

  18   18 4601 1548 PO
gs 1464 389 4227 4227 MR c np
gr

  18   18 4536 1539 PO
gs 1464 389 4227 4227 MR c np
gr

  18   18 4529 1557 PO
gs 1464 389 4227 4227 MR c np
gr

  18   18 4831 1492 PO
gs 1464 389 4227 4227 MR c np
gr

  18   18 4547 1420 PO
gs 1464 389 4227 4227 MR c np
gr

  18   18 4983 1571 PO
gs 1464 389 4227 4227 MR c np
gr

  18   18 4553 1566 PO
gs 1464 389 4227 4227 MR c np
gr

  18   18 4903 1579 PO
gs 1464 389 4227 4227 MR c np
gr

/c18 { 1.000000 0.125000 0.000000 sr} bdef
c18
  18   18 4634 1537 PO
gs 1464 389 4227 4227 MR c np
gr

  18   18 5486 1543 PO
gs 1464 389 4227 4227 MR c np
gr

  18   18 4298 1557 PO
gs 1464 389 4227 4227 MR c np
gr

  18   18 5284 1575 PO
gs 1464 389 4227 4227 MR c np
gr

  18   18 4528 1591 PO
gs 1464 389 4227 4227 MR c np
gr

  18   18 4358 1568 PO
gs 1464 389 4227 4227 MR c np
gr

  18   18 4485 1603 PO
gs 1464 389 4227 4227 MR c np
gr

  18   18 4571 1483 PO
gs 1464 389 4227 4227 MR c np
gr

  18   18 4521 1615 PO
gs 1464 389 4227 4227 MR c np
gr

  18   18 4559 1588 PO
gs 1464 389 4227 4227 MR c np
gr

  18   18 4122 1622 PO
gs 1464 389 4227 4227 MR c np
gr

  18   18 4478 1626 PO
gs 1464 389 4227 4227 MR c np
gr

  18   18 4627 1629 PO
gs 1464 389 4227 4227 MR c np
gr

  18   18 4590 1610 PO
gs 1464 389 4227 4227 MR c np
gr

  18   18 4563 1585 PO
gs 1464 389 4227 4227 MR c np
gr

/c19 { 1.000000 0.187500 0.000000 sr} bdef
c19
  18   18 4513 1643 PO
gs 1464 389 4227 4227 MR c np
gr

  18   18 4128 1644 PO
gs 1464 389 4227 4227 MR c np
gr

  18   18 4493 1651 PO
gs 1464 389 4227 4227 MR c np
gr

  18   18 4548 1640 PO
gs 1464 389 4227 4227 MR c np
gr

  18   18 4576 1656 PO
gs 1464 389 4227 4227 MR c np
gr

  18   18 4489 1662 PO
gs 1464 389 4227 4227 MR c np
gr

  18   18 4503 1655 PO
gs 1464 389 4227 4227 MR c np
gr

  18   18 4386 1652 PO
gs 1464 389 4227 4227 MR c np
gr

  18   18 5088 1665 PO
gs 1464 389 4227 4227 MR c np
gr

  18   18 4570 1677 PO
gs 1464 389 4227 4227 MR c np
gr

  18   18 4409 1608 PO
gs 1464 389 4227 4227 MR c np
gr

  18   18 3069 1671 PO
gs 1464 389 4227 4227 MR c np
gr

  18   18 4529 1681 PO
gs 1464 389 4227 4227 MR c np
gr

  18   18 4378 1537 PO
gs 1464 389 4227 4227 MR c np
gr

  18   18 4622 1692 PO
gs 1464 389 4227 4227 MR c np
gr

  18   18 4436 1699 PO
gs 1464 389 4227 4227 MR c np
gr

/c20 { 1.000000 0.250000 0.000000 sr} bdef
c20
  18   18 4661 1632 PO
gs 1464 389 4227 4227 MR c np
gr

  18   18 3749 1694 PO
gs 1464 389 4227 4227 MR c np
gr

  18   18 4565 1699 PO
gs 1464 389 4227 4227 MR c np
gr

  18   18 4400 1648 PO
gs 1464 389 4227 4227 MR c np
gr

  18   18 4279 1716 PO
gs 1464 389 4227 4227 MR c np
gr

  18   18 4451 1721 PO
gs 1464 389 4227 4227 MR c np
gr

  18   18 4361 1664 PO
gs 1464 389 4227 4227 MR c np
gr

  18   18 4456 1704 PO
gs 1464 389 4227 4227 MR c np
gr

  18   18 4408 1663 PO
gs 1464 389 4227 4227 MR c np
gr

  18   18 4196 1732 PO
gs 1464 389 4227 4227 MR c np
gr

  18   18 4446 1673 PO
gs 1464 389 4227 4227 MR c np
gr

  18   18 4385 1728 PO
gs 1464 389 4227 4227 MR c np
gr

  18   18 4374 1746 PO
gs 1464 389 4227 4227 MR c np
gr

  18   18 4357 1750 PO
gs 1464 389 4227 4227 MR c np
gr

  18   18 3720 1750 PO
gs 1464 389 4227 4227 MR c np
gr

/c21 { 1.000000 0.312500 0.000000 sr} bdef
c21
  18   18 4342 1723 PO
gs 1464 389 4227 4227 MR c np
gr

  18   18 4248 1566 PO
gs 1464 389 4227 4227 MR c np
gr

  18   18 4290 1762 PO
gs 1464 389 4227 4227 MR c np
gr

  18   18 4280 1734 PO
gs 1464 389 4227 4227 MR c np
gr

  18   18 4442 1772 PO
gs 1464 389 4227 4227 MR c np
gr

  18   18 4258 1769 PO
gs 1464 389 4227 4227 MR c np
gr

  18   18 3813 1779 PO
gs 1464 389 4227 4227 MR c np
gr

  18   18 4242 1777 PO
gs 1464 389 4227 4227 MR c np
gr

  18   18 4116 1782 PO
gs 1464 389 4227 4227 MR c np
gr

  18   18 4336 1762 PO
gs 1464 389 4227 4227 MR c np
gr

  18   18 4330 1763 PO
gs 1464 389 4227 4227 MR c np
gr

  18   18 4232 1796 PO
gs 1464 389 4227 4227 MR c np
gr

  18   18 4258 1800 PO
gs 1464 389 4227 4227 MR c np
gr

  18   18 4343 1782 PO
gs 1464 389 4227 4227 MR c np
gr

  18   18 4245 1601 PO
gs 1464 389 4227 4227 MR c np
gr

  18   18 4524 1433 PO
gs 1464 389 4227 4227 MR c np
gr

/c22 { 1.000000 0.375000 0.000000 sr} bdef
c22
  18   18 4266 1722 PO
gs 1464 389 4227 4227 MR c np
gr

  18   18 3777 1735 PO
gs 1464 389 4227 4227 MR c np
gr

  18   18 4231 1797 PO
gs 1464 389 4227 4227 MR c np
gr

  18   18 4270 1763 PO
gs 1464 389 4227 4227 MR c np
gr

  18   18 4250 1688 PO
gs 1464 389 4227 4227 MR c np
gr

  18   18 4156 1818 PO
gs 1464 389 4227 4227 MR c np
gr

  18   18 4341 1832 PO
gs 1464 389 4227 4227 MR c np
gr

  18   18 4282 1829 PO
gs 1464 389 4227 4227 MR c np
gr

  18   18 4341 1747 PO
gs 1464 389 4227 4227 MR c np
gr

  18   18 4012 1846 PO
gs 1464 389 4227 4227 MR c np
gr

  18   18 3574 1834 PO
gs 1464 389 4227 4227 MR c np
gr

  18   18 4275 1843 PO
gs 1464 389 4227 4227 MR c np
gr

  18   18 4176 1852 PO
gs 1464 389 4227 4227 MR c np
gr

  18   18 4339 1826 PO
gs 1464 389 4227 4227 MR c np
gr

  18   18 3979 1831 PO
gs 1464 389 4227 4227 MR c np
gr

  18   18 4309 1845 PO
gs 1464 389 4227 4227 MR c np
gr

/c23 { 1.000000 0.437500 0.000000 sr} bdef
c23
  18   18 3840 1862 PO
gs 1464 389 4227 4227 MR c np
gr

  18   18 3919 1866 PO
gs 1464 389 4227 4227 MR c np
gr

  18   18 4248 1768 PO
gs 1464 389 4227 4227 MR c np
gr

  18   18 4111 1724 PO
gs 1464 389 4227 4227 MR c np
gr

  18   18 4111 1882 PO
gs 1464 389 4227 4227 MR c np
gr

  18   18 4192 1874 PO
gs 1464 389 4227 4227 MR c np
gr

  18   18 4256 1854 PO
gs 1464 389 4227 4227 MR c np
gr

  18   18 4324 1879 PO
gs 1464 389 4227 4227 MR c np
gr

  18   18 4263 1819 PO
gs 1464 389 4227 4227 MR c np
gr

  18   18 4354 1853 PO
gs 1464 389 4227 4227 MR c np
gr

  18   18 4414 1903 PO
gs 1464 389 4227 4227 MR c np
gr

  18   18 4346 1897 PO
gs 1464 389 4227 4227 MR c np
gr

  18   18 4308 1909 PO
gs 1464 389 4227 4227 MR c np
gr

  18   18 4349 1902 PO
gs 1464 389 4227 4227 MR c np
gr

  18   18 4191 1913 PO
gs 1464 389 4227 4227 MR c np
gr

/c24 { 1.000000 0.500000 0.000000 sr} bdef
c24
  18   18 4146 1854 PO
gs 1464 389 4227 4227 MR c np
gr

  18   18 4107 1922 PO
gs 1464 389 4227 4227 MR c np
gr

  18   18 4137 1924 PO
gs 1464 389 4227 4227 MR c np
gr

  18   18 3587 1898 PO
gs 1464 389 4227 4227 MR c np
gr

  18   18 4146 1912 PO
gs 1464 389 4227 4227 MR c np
gr

  18   18 4155 1926 PO
gs 1464 389 4227 4227 MR c np
gr

  18   18 4156 1910 PO
gs 1464 389 4227 4227 MR c np
gr

  18   18 3411 1785 PO
gs 1464 389 4227 4227 MR c np
gr

  18   18 4159 1944 PO
gs 1464 389 4227 4227 MR c np
gr

  18   18 3572 1917 PO
gs 1464 389 4227 4227 MR c np
gr

  18   18 3649 1925 PO
gs 1464 389 4227 4227 MR c np
gr

  18   18 4085 1918 PO
gs 1464 389 4227 4227 MR c np
gr

  18   18 4138 1847 PO
gs 1464 389 4227 4227 MR c np
gr

  18   18 4155 1863 PO
gs 1464 389 4227 4227 MR c np
gr

  18   18 4100 1833 PO
gs 1464 389 4227 4227 MR c np
gr

  18   18 4271 1958 PO
gs 1464 389 4227 4227 MR c np
gr

/c25 { 1.000000 0.562500 0.000000 sr} bdef
c25
  18   18 4223 1962 PO
gs 1464 389 4227 4227 MR c np
gr

  18   18 4050 1882 PO
gs 1464 389 4227 4227 MR c np
gr

  18   18 4176 1835 PO
gs 1464 389 4227 4227 MR c np
gr

  18   18 4086 1964 PO
gs 1464 389 4227 4227 MR c np
gr

  18   18 3831 1766 PO
gs 1464 389 4227 4227 MR c np
gr

  18   18 3899 1945 PO
gs 1464 389 4227 4227 MR c np
gr

  18   18 4080 1989 PO
gs 1464 389 4227 4227 MR c np
gr

  18   18 4072 1956 PO
gs 1464 389 4227 4227 MR c np
gr

  18   18 4085 1990 PO
gs 1464 389 4227 4227 MR c np
gr

  18   18 4120 1856 PO
gs 1464 389 4227 4227 MR c np
gr

  18   18 4098 1988 PO
gs 1464 389 4227 4227 MR c np
gr

  18   18 4114 2003 PO
gs 1464 389 4227 4227 MR c np
gr

  18   18 4071 1984 PO
gs 1464 389 4227 4227 MR c np
gr

  18   18 4322 1948 PO
gs 1464 389 4227 4227 MR c np
gr

  18   18 4311 2012 PO
gs 1464 389 4227 4227 MR c np
gr

/c26 { 1.000000 0.625000 0.000000 sr} bdef
c26
  18   18 4052 2008 PO
gs 1464 389 4227 4227 MR c np
gr

  18   18 4045 2006 PO
gs 1464 389 4227 4227 MR c np
gr

  18   18 4061 1903 PO
gs 1464 389 4227 4227 MR c np
gr

  18   18 4060 1937 PO
gs 1464 389 4227 4227 MR c np
gr

  18   18 4116 2026 PO
gs 1464 389 4227 4227 MR c np
gr

  18   18 4095 2001 PO
gs 1464 389 4227 4227 MR c np
gr

  18   18 4031 2034 PO
gs 1464 389 4227 4227 MR c np
gr

  18   18 4074 1996 PO
gs 1464 389 4227 4227 MR c np
gr

  18   18 3836 1827 PO
gs 1464 389 4227 4227 MR c np
gr

  18   18 4015 1942 PO
gs 1464 389 4227 4227 MR c np
gr

  18   18 4186 2045 PO
gs 1464 389 4227 4227 MR c np
gr

  18   18 4049 1948 PO
gs 1464 389 4227 4227 MR c np
gr

  18   18 4049 1956 PO
gs 1464 389 4227 4227 MR c np
gr

  18   18 4040 2014 PO
gs 1464 389 4227 4227 MR c np
gr

  18   18 4020 2030 PO
gs 1464 389 4227 4227 MR c np
gr

  18   18 3966 1975 PO
gs 1464 389 4227 4227 MR c np
gr

/c27 { 1.000000 0.687500 0.000000 sr} bdef
c27
  18   18 3891 2057 PO
gs 1464 389 4227 4227 MR c np
gr

  18   18 4027 1976 PO
gs 1464 389 4227 4227 MR c np
gr

  18   18 4288 2053 PO
gs 1464 389 4227 4227 MR c np
gr

  18   18 3969 1910 PO
gs 1464 389 4227 4227 MR c np
gr

  18   18 3560 2068 PO
gs 1464 389 4227 4227 MR c np
gr

  18   18 4079 2078 PO
gs 1464 389 4227 4227 MR c np
gr

  18   18 2876 2081 PO
gs 1464 389 4227 4227 MR c np
gr

  18   18 4061 2066 PO
gs 1464 389 4227 4227 MR c np
gr

  18   18 4032 1977 PO
gs 1464 389 4227 4227 MR c np
gr

  18   18 3995 2002 PO
gs 1464 389 4227 4227 MR c np
gr

  18   18 4014 1974 PO
gs 1464 389 4227 4227 MR c np
gr

  18   18 4004 2095 PO
gs 1464 389 4227 4227 MR c np
gr

  18   18 4005 1926 PO
gs 1464 389 4227 4227 MR c np
gr

  18   18 3988 2096 PO
gs 1464 389 4227 4227 MR c np
gr

  18   18 3980 2076 PO
gs 1464 389 4227 4227 MR c np
gr

  18   18 4298 2103 PO
gs 1464 389 4227 4227 MR c np
gr

/c28 { 1.000000 0.750000 0.000000 sr} bdef
c28
  18   18 4058 2110 PO
gs 1464 389 4227 4227 MR c np
gr

  18   18 3985 2111 PO
gs 1464 389 4227 4227 MR c np
gr

  18   18 4030 2115 PO
gs 1464 389 4227 4227 MR c np
gr

  18   18 3986 2109 PO
gs 1464 389 4227 4227 MR c np
gr

  18   18 3990 2093 PO
gs 1464 389 4227 4227 MR c np
gr

  18   18 3783 2048 PO
gs 1464 389 4227 4227 MR c np
gr

  18   18 3953 1976 PO
gs 1464 389 4227 4227 MR c np
gr

  18   18 4033 2121 PO
gs 1464 389 4227 4227 MR c np
gr

  18   18 4137 2124 PO
gs 1464 389 4227 4227 MR c np
gr

  18   18 3942 2135 PO
gs 1464 389 4227 4227 MR c np
gr

  18   18 3910 2092 PO
gs 1464 389 4227 4227 MR c np
gr

  18   18 3948 2027 PO
gs 1464 389 4227 4227 MR c np
gr

  18   18 4028 2136 PO
gs 1464 389 4227 4227 MR c np
gr

  18   18 3911 2129 PO
gs 1464 389 4227 4227 MR c np
gr

  18   18 3974 2145 PO
gs 1464 389 4227 4227 MR c np
gr

/c29 { 1.000000 0.812500 0.000000 sr} bdef
c29
  18   18 3922 2149 PO
gs 1464 389 4227 4227 MR c np
gr

  18   18 4111 2078 PO
gs 1464 389 4227 4227 MR c np
gr

  18   18 4140 2058 PO
gs 1464 389 4227 4227 MR c np
gr

  18   18 4055 2142 PO
gs 1464 389 4227 4227 MR c np
gr

  18   18 3923 2115 PO
gs 1464 389 4227 4227 MR c np
gr

  18   18 4041 2158 PO
gs 1464 389 4227 4227 MR c np
gr

  18   18 3954 2155 PO
gs 1464 389 4227 4227 MR c np
gr

  18   18 3861 2168 PO
gs 1464 389 4227 4227 MR c np
gr

  18   18 3937 2173 PO
gs 1464 389 4227 4227 MR c np
gr

  18   18 4012 2175 PO
gs 1464 389 4227 4227 MR c np
gr

  18   18 3944 2055 PO
gs 1464 389 4227 4227 MR c np
gr

  18   18 3924 2135 PO
gs 1464 389 4227 4227 MR c np
gr

  18   18 3915 2183 PO
gs 1464 389 4227 4227 MR c np
gr

  18   18 3954 2185 PO
gs 1464 389 4227 4227 MR c np
gr

  18   18 3909 2163 PO
gs 1464 389 4227 4227 MR c np
gr

  18   18 2716 2191 PO
gs 1464 389 4227 4227 MR c np
gr

/c30 { 1.000000 0.875000 0.000000 sr} bdef
c30
  18   18 3894 2188 PO
gs 1464 389 4227 4227 MR c np
gr

  18   18 3928 2170 PO
gs 1464 389 4227 4227 MR c np
gr

  18   18 3865 2195 PO
gs 1464 389 4227 4227 MR c np
gr

  18   18 3932 2202 PO
gs 1464 389 4227 4227 MR c np
gr

  18   18 3861 2114 PO
gs 1464 389 4227 4227 MR c np
gr

  18   18 3504 2207 PO
gs 1464 389 4227 4227 MR c np
gr

  18   18 3855 2200 PO
gs 1464 389 4227 4227 MR c np
gr

  18   18 3851 2202 PO
gs 1464 389 4227 4227 MR c np
gr

  18   18 3891 2213 PO
gs 1464 389 4227 4227 MR c np
gr

  18   18 3860 2211 PO
gs 1464 389 4227 4227 MR c np
gr

  18   18 3841 2219 PO
gs 1464 389 4227 4227 MR c np
gr

  18   18 3871 2208 PO
gs 1464 389 4227 4227 MR c np
gr

  18   18 3179 2219 PO
gs 1464 389 4227 4227 MR c np
gr

  18   18 3811 2227 PO
gs 1464 389 4227 4227 MR c np
gr

  18   18 3882 2140 PO
gs 1464 389 4227 4227 MR c np
gr

  18   18 3900 2140 PO
gs 1464 389 4227 4227 MR c np
gr

/c31 { 1.000000 0.937500 0.000000 sr} bdef
c31
  18   18 3934 2213 PO
gs 1464 389 4227 4227 MR c np
gr

  18   18 3776 2206 PO
gs 1464 389 4227 4227 MR c np
gr

  18   18 3946 2240 PO
gs 1464 389 4227 4227 MR c np
gr

  18   18 3789 2234 PO
gs 1464 389 4227 4227 MR c np
gr

  18   18 3808 2240 PO
gs 1464 389 4227 4227 MR c np
gr

  18   18 3462 2168 PO
gs 1464 389 4227 4227 MR c np
gr

  18   18 3958 2246 PO
gs 1464 389 4227 4227 MR c np
gr

  18   18 3842 2221 PO
gs 1464 389 4227 4227 MR c np
gr

  18   18 3900 2087 PO
gs 1464 389 4227 4227 MR c np
gr

  18   18 3935 2251 PO
gs 1464 389 4227 4227 MR c np
gr

  18   18 3861 2260 PO
gs 1464 389 4227 4227 MR c np
gr

  18   18 3867 2263 PO
gs 1464 389 4227 4227 MR c np
gr

  18   18 3814 2227 PO
gs 1464 389 4227 4227 MR c np
gr

  18   18 3813 2203 PO
gs 1464 389 4227 4227 MR c np
gr

  18   18 3991 2269 PO
gs 1464 389 4227 4227 MR c np
gr

/c32 { 1.000000 1.000000 0.000000 sr} bdef
c32
  18   18 4129 2198 PO
gs 1464 389 4227 4227 MR c np
gr

  18   18 3850 2211 PO
gs 1464 389 4227 4227 MR c np
gr

  18   18 3808 2257 PO
gs 1464 389 4227 4227 MR c np
gr

  18   18 3807 2204 PO
gs 1464 389 4227 4227 MR c np
gr

  18   18 4140 2282 PO
gs 1464 389 4227 4227 MR c np
gr

  18   18 3766 2278 PO
gs 1464 389 4227 4227 MR c np
gr

  18   18 3985 2283 PO
gs 1464 389 4227 4227 MR c np
gr

  18   18 3804 2288 PO
gs 1464 389 4227 4227 MR c np
gr

  18   18 3870 2292 PO
gs 1464 389 4227 4227 MR c np
gr

  18   18 3789 2229 PO
gs 1464 389 4227 4227 MR c np
gr

  18   18 3800 2295 PO
gs 1464 389 4227 4227 MR c np
gr

  18   18 3847 2296 PO
gs 1464 389 4227 4227 MR c np
gr

  18   18 3790 2299 PO
gs 1464 389 4227 4227 MR c np
gr

  18   18 3798 2301 PO
gs 1464 389 4227 4227 MR c np
gr

  18   18 3854 2292 PO
gs 1464 389 4227 4227 MR c np
gr

  18   18 2905 2308 PO
gs 1464 389 4227 4227 MR c np
gr

/c33 { 0.937500 1.000000 0.062500 sr} bdef
c33
  18   18 3786 2308 PO
gs 1464 389 4227 4227 MR c np
gr

  18   18 3779 2302 PO
gs 1464 389 4227 4227 MR c np
gr

  18   18 3798 2156 PO
gs 1464 389 4227 4227 MR c np
gr

  18   18 3814 2299 PO
gs 1464 389 4227 4227 MR c np
gr

  18   18 3492 2283 PO
gs 1464 389 4227 4227 MR c np
gr

  18   18 3815 2322 PO
gs 1464 389 4227 4227 MR c np
gr

  18   18 3818 2320 PO
gs 1464 389 4227 4227 MR c np
gr

  18   18 3816 2314 PO
gs 1464 389 4227 4227 MR c np
gr

  18   18 3211 2308 PO
gs 1464 389 4227 4227 MR c np
gr

  18   18 3496 2187 PO
gs 1464 389 4227 4227 MR c np
gr

  18   18 3747 2332 PO
gs 1464 389 4227 4227 MR c np
gr

  18   18 2298 2262 PO
gs 1464 389 4227 4227 MR c np
gr

  18   18 3762 2123 PO
gs 1464 389 4227 4227 MR c np
gr

  18   18 3761 2334 PO
gs 1464 389 4227 4227 MR c np
gr

  18   18 3785 2333 PO
gs 1464 389 4227 4227 MR c np
gr

/c34 { 0.875000 1.000000 0.125000 sr} bdef
c34
  18   18 3755 2317 PO
gs 1464 389 4227 4227 MR c np
gr

  18   18 3829 2297 PO
gs 1464 389 4227 4227 MR c np
gr

  18   18 3724 2346 PO
gs 1464 389 4227 4227 MR c np
gr

  18   18 3740 2343 PO
gs 1464 389 4227 4227 MR c np
gr

  18   18 3740 2316 PO
gs 1464 389 4227 4227 MR c np
gr

  18   18 3296 2282 PO
gs 1464 389 4227 4227 MR c np
gr

  18   18 3894 2359 PO
gs 1464 389 4227 4227 MR c np
gr

  18   18 3672 2356 PO
gs 1464 389 4227 4227 MR c np
gr

  18   18 3772 2323 PO
gs 1464 389 4227 4227 MR c np
gr

  18   18 3737 2337 PO
gs 1464 389 4227 4227 MR c np
gr

  18   18 3717 2254 PO
gs 1464 389 4227 4227 MR c np
gr

  18   18 3649 2353 PO
gs 1464 389 4227 4227 MR c np
gr

  18   18 3717 2374 PO
gs 1464 389 4227 4227 MR c np
gr

  18   18 3648 2248 PO
gs 1464 389 4227 4227 MR c np
gr

  18   18 3666 2368 PO
gs 1464 389 4227 4227 MR c np
gr

  18   18 3496 2376 PO
gs 1464 389 4227 4227 MR c np
gr

/c35 { 0.812500 1.000000 0.187500 sr} bdef
c35
  18   18 3657 2342 PO
gs 1464 389 4227 4227 MR c np
gr

  18   18 3643 2375 PO
gs 1464 389 4227 4227 MR c np
gr

  18   18 3584 2343 PO
gs 1464 389 4227 4227 MR c np
gr

  18   18 3757 2369 PO
gs 1464 389 4227 4227 MR c np
gr

  18   18 3285 2377 PO
gs 1464 389 4227 4227 MR c np
gr

  18   18 3178 2395 PO
gs 1464 389 4227 4227 MR c np
gr

  18   18 3776 2395 PO
gs 1464 389 4227 4227 MR c np
gr

  18   18 3670 2399 PO
gs 1464 389 4227 4227 MR c np
gr

  18   18 3768 2400 PO
gs 1464 389 4227 4227 MR c np
gr

  18   18 3631 2402 PO
gs 1464 389 4227 4227 MR c np
gr

  18   18 3753 2396 PO
gs 1464 389 4227 4227 MR c np
gr

  18   18 3684 2405 PO
gs 1464 389 4227 4227 MR c np
gr

  18   18 3663 2207 PO
gs 1464 389 4227 4227 MR c np
gr

  18   18 3758 2401 PO
gs 1464 389 4227 4227 MR c np
gr

  18   18 3772 2397 PO
gs 1464 389 4227 4227 MR c np
gr

  18   18 3764 2390 PO
gs 1464 389 4227 4227 MR c np
gr

/c36 { 0.750000 1.000000 0.250000 sr} bdef
c36
  18   18 3653 2403 PO
gs 1464 389 4227 4227 MR c np
gr

  18   18 3682 2384 PO
gs 1464 389 4227 4227 MR c np
gr

  18   18 3684 2319 PO
gs 1464 389 4227 4227 MR c np
gr

  18   18 3657 2426 PO
gs 1464 389 4227 4227 MR c np
gr

  18   18 3655 2403 PO
gs 1464 389 4227 4227 MR c np
gr

  18   18 3644 2427 PO
gs 1464 389 4227 4227 MR c np
gr

  18   18 3498 2367 PO
gs 1464 389 4227 4227 MR c np
gr

  18   18 3625 2319 PO
gs 1464 389 4227 4227 MR c np
gr

  18   18 3628 2407 PO
gs 1464 389 4227 4227 MR c np
gr

  18   18 3648 2422 PO
gs 1464 389 4227 4227 MR c np
gr

  18   18 3629 2188 PO
gs 1464 389 4227 4227 MR c np
gr

  18   18 3533 2426 PO
gs 1464 389 4227 4227 MR c np
gr

  18   18 3595 2443 PO
gs 1464 389 4227 4227 MR c np
gr

  18   18 3728 2448 PO
gs 1464 389 4227 4227 MR c np
gr

  18   18 3748 2146 PO
gs 1464 389 4227 4227 MR c np
gr

/c37 { 0.687500 1.000000 0.312500 sr} bdef
c37
  18   18 3638 2451 PO
gs 1464 389 4227 4227 MR c np
gr

  18   18 3656 2334 PO
gs 1464 389 4227 4227 MR c np
gr

  18   18 3705 2431 PO
gs 1464 389 4227 4227 MR c np
gr

  18   18 3692 2457 PO
gs 1464 389 4227 4227 MR c np
gr

  18   18 3643 2454 PO
gs 1464 389 4227 4227 MR c np
gr

  18   18 3666 2460 PO
gs 1464 389 4227 4227 MR c np
gr

  18   18 3615 2415 PO
gs 1464 389 4227 4227 MR c np
gr

  18   18 3705 2373 PO
gs 1464 389 4227 4227 MR c np
gr

  18   18 3678 2467 PO
gs 1464 389 4227 4227 MR c np
gr

  18   18 3650 2468 PO
gs 1464 389 4227 4227 MR c np
gr

  18   18 3699 2376 PO
gs 1464 389 4227 4227 MR c np
gr

  18   18 3680 2459 PO
gs 1464 389 4227 4227 MR c np
gr

  18   18 3611 2478 PO
gs 1464 389 4227 4227 MR c np
gr

  18   18 3573 2457 PO
gs 1464 389 4227 4227 MR c np
gr

  18   18 3646 2433 PO
gs 1464 389 4227 4227 MR c np
gr

  18   18 3652 2485 PO
gs 1464 389 4227 4227 MR c np
gr

/c38 { 0.625000 1.000000 0.375000 sr} bdef
c38
  18   18 3577 2445 PO
gs 1464 389 4227 4227 MR c np
gr

  18   18 3594 2477 PO
gs 1464 389 4227 4227 MR c np
gr

  18   18 3621 2484 PO
gs 1464 389 4227 4227 MR c np
gr

  18   18 3616 2493 PO
gs 1464 389 4227 4227 MR c np
gr

  18   18 3625 2493 PO
gs 1464 389 4227 4227 MR c np
gr

  18   18 3511 2489 PO
gs 1464 389 4227 4227 MR c np
gr

  18   18 3671 2499 PO
gs 1464 389 4227 4227 MR c np
gr

  18   18 3607 2465 PO
gs 1464 389 4227 4227 MR c np
gr

  18   18 3635 2499 PO
gs 1464 389 4227 4227 MR c np
gr

  18   18 3555 2506 PO
gs 1464 389 4227 4227 MR c np
gr

  18   18 3597 2508 PO
gs 1464 389 4227 4227 MR c np
gr

  18   18 3603 2511 PO
gs 1464 389 4227 4227 MR c np
gr

  18   18 3623 2506 PO
gs 1464 389 4227 4227 MR c np
gr

  18   18 3601 2486 PO
gs 1464 389 4227 4227 MR c np
gr

  18   18 3412 2495 PO
gs 1464 389 4227 4227 MR c np
gr

/c39 { 0.562500 1.000000 0.437500 sr} bdef
c39
  18   18 3567 2452 PO
gs 1464 389 4227 4227 MR c np
gr

  18   18 3548 2517 PO
gs 1464 389 4227 4227 MR c np
gr

  18   18 3603 2522 PO
gs 1464 389 4227 4227 MR c np
gr

  18   18 3634 2483 PO
gs 1464 389 4227 4227 MR c np
gr

  18   18 3485 2463 PO
gs 1464 389 4227 4227 MR c np
gr

  18   18 3568 2526 PO
gs 1464 389 4227 4227 MR c np
gr

  18   18 3471 2522 PO
gs 1464 389 4227 4227 MR c np
gr

  18   18 3791 2499 PO
gs 1464 389 4227 4227 MR c np
gr

  18   18 2796 2451 PO
gs 1464 389 4227 4227 MR c np
gr

  18   18 3590 2483 PO
gs 1464 389 4227 4227 MR c np
gr

  18   18 3568 2386 PO
gs 1464 389 4227 4227 MR c np
gr

  18   18 2553 2541 PO
gs 1464 389 4227 4227 MR c np
gr

  18   18 4147 2541 PO
gs 1464 389 4227 4227 MR c np
gr

  18   18 3558 2536 PO
gs 1464 389 4227 4227 MR c np
gr

  18   18 3530 2535 PO
gs 1464 389 4227 4227 MR c np
gr

  18   18 3524 2529 PO
gs 1464 389 4227 4227 MR c np
gr

/c40 { 0.500000 1.000000 0.500000 sr} bdef
c40
  18   18 3611 2542 PO
gs 1464 389 4227 4227 MR c np
gr

  18   18 3616 2544 PO
gs 1464 389 4227 4227 MR c np
gr

  18   18 3490 2556 PO
gs 1464 389 4227 4227 MR c np
gr

  18   18 3305 2515 PO
gs 1464 389 4227 4227 MR c np
gr

  18   18 3528 2540 PO
gs 1464 389 4227 4227 MR c np
gr

  18   18 3555 2553 PO
gs 1464 389 4227 4227 MR c np
gr

  18   18 3541 2565 PO
gs 1464 389 4227 4227 MR c np
gr

  18   18 3520 2567 PO
gs 1464 389 4227 4227 MR c np
gr

  18   18 4341 2565 PO
gs 1464 389 4227 4227 MR c np
gr

  18   18 3582 2572 PO
gs 1464 389 4227 4227 MR c np
gr

  18   18 3557 2498 PO
gs 1464 389 4227 4227 MR c np
gr

  18   18 3399 2575 PO
gs 1464 389 4227 4227 MR c np
gr

  18   18 3544 2577 PO
gs 1464 389 4227 4227 MR c np
gr

  18   18 3552 2466 PO
gs 1464 389 4227 4227 MR c np
gr

  18   18 3557 2559 PO
gs 1464 389 4227 4227 MR c np
gr

  18   18 3459 2584 PO
gs 1464 389 4227 4227 MR c np
gr

/c41 { 0.437500 1.000000 0.562500 sr} bdef
c41
  18   18 3587 2586 PO
gs 1464 389 4227 4227 MR c np
gr

  18   18 4671 2582 PO
gs 1464 389 4227 4227 MR c np
gr

  18   18 3457 2588 PO
gs 1464 389 4227 4227 MR c np
gr

  18   18 3631 2592 PO
gs 1464 389 4227 4227 MR c np
gr

  18   18 3577 2594 PO
gs 1464 389 4227 4227 MR c np
gr

  18   18 3517 2573 PO
gs 1464 389 4227 4227 MR c np
gr

  18   18 3556 2589 PO
gs 1464 389 4227 4227 MR c np
gr

  18   18 2883 2548 PO
gs 1464 389 4227 4227 MR c np
gr

  18   18 3504 2603 PO
gs 1464 389 4227 4227 MR c np
gr

  18   18 3491 2602 PO
gs 1464 389 4227 4227 MR c np
gr

  18   18 3521 2541 PO
gs 1464 389 4227 4227 MR c np
gr

  18   18 3496 2538 PO
gs 1464 389 4227 4227 MR c np
gr

  18   18 4067 2604 PO
gs 1464 389 4227 4227 MR c np
gr

  18   18 3578 2613 PO
gs 1464 389 4227 4227 MR c np
gr

  18   18 3505 2614 PO
gs 1464 389 4227 4227 MR c np
gr

/c42 { 0.375000 1.000000 0.625000 sr} bdef
c42
  18   18 3431 2618 PO
gs 1464 389 4227 4227 MR c np
gr

  18   18 3582 2610 PO
gs 1464 389 4227 4227 MR c np
gr

  18   18 3488 2602 PO
gs 1464 389 4227 4227 MR c np
gr

  18   18 3464 2602 PO
gs 1464 389 4227 4227 MR c np
gr

  18   18 3526 2621 PO
gs 1464 389 4227 4227 MR c np
gr

  18   18 3558 2628 PO
gs 1464 389 4227 4227 MR c np
gr

  18   18 3107 2624 PO
gs 1464 389 4227 4227 MR c np
gr

  18   18 3455 2599 PO
gs 1464 389 4227 4227 MR c np
gr

  18   18 3513 2627 PO
gs 1464 389 4227 4227 MR c np
gr

  18   18 3494 2579 PO
gs 1464 389 4227 4227 MR c np
gr

  18   18 3492 2624 PO
gs 1464 389 4227 4227 MR c np
gr

  18   18 3401 2640 PO
gs 1464 389 4227 4227 MR c np
gr

  18   18 3458 2625 PO
gs 1464 389 4227 4227 MR c np
gr

  18   18 3447 2630 PO
gs 1464 389 4227 4227 MR c np
gr

  18   18 3444 2634 PO
gs 1464 389 4227 4227 MR c np
gr

  18   18 3444 2649 PO
gs 1464 389 4227 4227 MR c np
gr

/c43 { 0.312500 1.000000 0.687500 sr} bdef
c43
  18   18 3446 2650 PO
gs 1464 389 4227 4227 MR c np
gr

  18   18 3428 2645 PO
gs 1464 389 4227 4227 MR c np
gr

  18   18 3437 2638 PO
gs 1464 389 4227 4227 MR c np
gr

  18   18 3398 2654 PO
gs 1464 389 4227 4227 MR c np
gr

  18   18 3388 2647 PO
gs 1464 389 4227 4227 MR c np
gr

  18   18 3399 2661 PO
gs 1464 389 4227 4227 MR c np
gr

  18   18 3413 2657 PO
gs 1464 389 4227 4227 MR c np
gr

  18   18 2976 2613 PO
gs 1464 389 4227 4227 MR c np
gr

  18   18 3407 2665 PO
gs 1464 389 4227 4227 MR c np
gr

  18   18 3202 2641 PO
gs 1464 389 4227 4227 MR c np
gr

  18   18 3401 2643 PO
gs 1464 389 4227 4227 MR c np
gr

  18   18 3406 2674 PO
gs 1464 389 4227 4227 MR c np
gr

  18   18 3418 2671 PO
gs 1464 389 4227 4227 MR c np
gr

  18   18 3394 2671 PO
gs 1464 389 4227 4227 MR c np
gr

  18   18 3483 2678 PO
gs 1464 389 4227 4227 MR c np
gr

gs 1464 389 4227 4227 MR c np
gr

/c44 { 0.250000 1.000000 0.750000 sr} bdef
c44
  18   18 3335 2685 PO
gs 1464 389 4227 4227 MR c np
gr

  18   18 4044 2687 PO
gs 1464 389 4227 4227 MR c np
gr

  18   18 3440 2685 PO
gs 1464 389 4227 4227 MR c np
gr

  18   18 3391 2689 PO
gs 1464 389 4227 4227 MR c np
gr

  18   18 3342 2690 PO
gs 1464 389 4227 4227 MR c np
gr

  18   18 3417 2695 PO
gs 1464 389 4227 4227 MR c np
gr

  18   18 3421 2697 PO
gs 1464 389 4227 4227 MR c np
gr

  18   18 3409 2632 PO
gs 1464 389 4227 4227 MR c np
gr

  18   18 3350 2700 PO
gs 1464 389 4227 4227 MR c np
gr

  18   18 3336 2696 PO
gs 1464 389 4227 4227 MR c np
gr

  18   18 3416 2706 PO
gs 1464 389 4227 4227 MR c np
gr

  18   18 3402 2706 PO
gs 1464 389 4227 4227 MR c np
gr

  18   18 3432 2709 PO
gs 1464 389 4227 4227 MR c np
gr

  18   18 3370 2710 PO
gs 1464 389 4227 4227 MR c np
gr

  18   18 3378 2695 PO
gs 1464 389 4227 4227 MR c np
gr

/c45 { 0.187500 1.000000 0.812500 sr} bdef
c45
  18   18 3386 2714 PO
gs 1464 389 4227 4227 MR c np
gr

  18   18 3390 2719 PO
gs 1464 389 4227 4227 MR c np
gr

  18   18 3359 2721 PO
gs 1464 389 4227 4227 MR c np
gr

  18   18 3369 2723 PO
gs 1464 389 4227 4227 MR c np
gr

  18   18 3359 2724 PO
gs 1464 389 4227 4227 MR c np
gr

  18   18 3332 2713 PO
gs 1464 389 4227 4227 MR c np
gr

  18   18 3348 2723 PO
gs 1464 389 4227 4227 MR c np
gr

  18   18 3341 2689 PO
gs 1464 389 4227 4227 MR c np
gr

  18   18 3710 2733 PO
gs 1464 389 4227 4227 MR c np
gr

  18   18 3464 2700 PO
gs 1464 389 4227 4227 MR c np
gr

  18   18 3346 2690 PO
gs 1464 389 4227 4227 MR c np
gr

  18   18 3347 2724 PO
gs 1464 389 4227 4227 MR c np
gr

  18   18 3344 2715 PO
gs 1464 389 4227 4227 MR c np
gr

  18   18 3341 2740 PO
gs 1464 389 4227 4227 MR c np
gr

  18   18 3316 2729 PO
gs 1464 389 4227 4227 MR c np
gr

  18   18 3819 2746 PO
gs 1464 389 4227 4227 MR c np
gr

/c46 { 0.125000 1.000000 0.875000 sr} bdef
c46
  18   18 3400 2730 PO
gs 1464 389 4227 4227 MR c np
gr

  18   18 3330 2743 PO
gs 1464 389 4227 4227 MR c np
gr

  18   18 3509 2755 PO
gs 1464 389 4227 4227 MR c np
gr

  18   18 3226 2742 PO
gs 1464 389 4227 4227 MR c np
gr

  18   18 3324 2750 PO
gs 1464 389 4227 4227 MR c np
gr

  18   18 3724 2762 PO
gs 1464 389 4227 4227 MR c np
gr

  18   18 3313 2759 PO
gs 1464 389 4227 4227 MR c np
gr

  18   18 3346 2754 PO
gs 1464 389 4227 4227 MR c np
gr

  18   18 3154 2744 PO
gs 1464 389 4227 4227 MR c np
gr

  18   18 3226 2769 PO
gs 1464 389 4227 4227 MR c np
gr

  18   18 3272 2748 PO
gs 1464 389 4227 4227 MR c np
gr

  18   18 3084 2758 PO
gs 1464 389 4227 4227 MR c np
gr

  18   18 3259 2777 PO
gs 1464 389 4227 4227 MR c np
gr

  18   18 3311 2772 PO
gs 1464 389 4227 4227 MR c np
gr

  18   18 3035 2779 PO
gs 1464 389 4227 4227 MR c np
gr

/c47 { 0.062500 1.000000 0.937500 sr} bdef
c47
  18   18 3297 2784 PO
gs 1464 389 4227 4227 MR c np
gr

  18   18 3220 2784 PO
gs 1464 389 4227 4227 MR c np
gr

  18   18 3298 2788 PO
gs 1464 389 4227 4227 MR c np
gr

  18   18 3300 2713 PO
gs 1464 389 4227 4227 MR c np
gr

  18   18 3140 2790 PO
gs 1464 389 4227 4227 MR c np
gr

  18   18 3073 2789 PO
gs 1464 389 4227 4227 MR c np
gr

  18   18 3102 2785 PO
gs 1464 389 4227 4227 MR c np
gr

  18   18 3109 2799 PO
gs 1464 389 4227 4227 MR c np
gr

  18   18 3124 2796 PO
gs 1464 389 4227 4227 MR c np
gr

  18   18 3286 2789 PO
gs 1464 389 4227 4227 MR c np
gr

  18   18 3180 2789 PO
gs 1464 389 4227 4227 MR c np
gr

  18   18 3277 2805 PO
gs 1464 389 4227 4227 MR c np
gr

  18   18 3784 2809 PO
gs 1464 389 4227 4227 MR c np
gr

  18   18 3263 2812 PO
gs 1464 389 4227 4227 MR c np
gr

  18   18 3269 2815 PO
gs 1464 389 4227 4227 MR c np
gr

  18   18 4415 2805 PO
gs 1464 389 4227 4227 MR c np
gr

/c48 { 0.000000 1.000000 1.000000 sr} bdef
c48
  18   18 3294 2800 PO
gs 1464 389 4227 4227 MR c np
gr

  18   18 3261 2822 PO
gs 1464 389 4227 4227 MR c np
gr

  18   18 3295 2733 PO
gs 1464 389 4227 4227 MR c np
gr

  18   18 3259 2787 PO
gs 1464 389 4227 4227 MR c np
gr

  18   18 3256 2813 PO
gs 1464 389 4227 4227 MR c np
gr

  18   18 3284 2827 PO
gs 1464 389 4227 4227 MR c np
gr

  18   18 3238 2833 PO
gs 1464 389 4227 4227 MR c np
gr

  18   18 3234 2835 PO
gs 1464 389 4227 4227 MR c np
gr

  18   18 3238 2829 PO
gs 1464 389 4227 4227 MR c np
gr

  18   18 3239 2839 PO
gs 1464 389 4227 4227 MR c np
gr

  18   18 3235 2838 PO
gs 1464 389 4227 4227 MR c np
gr

  18   18 3228 2843 PO
gs 1464 389 4227 4227 MR c np
gr

  18   18 3229 2847 PO
gs 1464 389 4227 4227 MR c np
gr

  18   18 3225 2847 PO
gs 1464 389 4227 4227 MR c np
gr

  18   18 2718 2850 PO
gs 1464 389 4227 4227 MR c np
gr

/c49 { 0.000000 0.937500 1.000000 sr} bdef
c49
  18   18 2628 2838 PO
gs 1464 389 4227 4227 MR c np
gr

  18   18 3221 2832 PO
gs 1464 389 4227 4227 MR c np
gr

  18   18 3795 2857 PO
gs 1464 389 4227 4227 MR c np
gr

  18   18 3230 2847 PO
gs 1464 389 4227 4227 MR c np
gr

  18   18 3046 2859 PO
gs 1464 389 4227 4227 MR c np
gr

  18   18 3081 2865 PO
gs 1464 389 4227 4227 MR c np
gr

  18   18 3101 2859 PO
gs 1464 389 4227 4227 MR c np
gr

  18   18 3239 2868 PO
gs 1464 389 4227 4227 MR c np
gr

  18   18 3213 2871 PO
gs 1464 389 4227 4227 MR c np
gr

  18   18 3366 2874 PO
gs 1464 389 4227 4227 MR c np
gr

  18   18 3183 2877 PO
gs 1464 389 4227 4227 MR c np
gr

  18   18 3212 2871 PO
gs 1464 389 4227 4227 MR c np
gr

  18   18 3213 2879 PO
gs 1464 389 4227 4227 MR c np
gr

  18   18 3231 2879 PO
gs 1464 389 4227 4227 MR c np
gr

  18   18 3204 2886 PO
gs 1464 389 4227 4227 MR c np
gr

  18   18 3196 2875 PO
gs 1464 389 4227 4227 MR c np
gr

/c50 { 0.000000 0.875000 1.000000 sr} bdef
c50
  18   18 3183 2886 PO
gs 1464 389 4227 4227 MR c np
gr

  18   18 3182 2893 PO
gs 1464 389 4227 4227 MR c np
gr

  18   18 3191 2896 PO
gs 1464 389 4227 4227 MR c np
gr

  18   18 3148 2882 PO
gs 1464 389 4227 4227 MR c np
gr

  18   18 3135 2900 PO
gs 1464 389 4227 4227 MR c np
gr

  18   18 3061 2898 PO
gs 1464 389 4227 4227 MR c np
gr

  18   18 2962 2905 PO
gs 1464 389 4227 4227 MR c np
gr

  18   18 2905 2908 PO
gs 1464 389 4227 4227 MR c np
gr

  18   18 3090 2906 PO
gs 1464 389 4227 4227 MR c np
gr

  18   18 3170 2900 PO
gs 1464 389 4227 4227 MR c np
gr

  18   18 3179 2915 PO
gs 1464 389 4227 4227 MR c np
gr

  18   18 2998 2911 PO
gs 1464 389 4227 4227 MR c np
gr

  18   18 3155 2917 PO
gs 1464 389 4227 4227 MR c np
gr

  18   18 3088 2921 PO
gs 1464 389 4227 4227 MR c np
gr

  18   18 3156 2925 PO
gs 1464 389 4227 4227 MR c np
gr

  18   18 3169 2927 PO
gs 1464 389 4227 4227 MR c np
gr

/c51 { 0.000000 0.812500 1.000000 sr} bdef
c51
  18   18 3350 2930 PO
gs 1464 389 4227 4227 MR c np
gr

  18   18 3159 2931 PO
gs 1464 389 4227 4227 MR c np
gr

  18   18 3168 2934 PO
gs 1464 389 4227 4227 MR c np
gr

  18   18 3313 2913 PO
gs 1464 389 4227 4227 MR c np
gr

  18   18 3145 2939 PO
gs 1464 389 4227 4227 MR c np
gr

  18   18 3276 2934 PO
gs 1464 389 4227 4227 MR c np
gr

  18   18 3266 2937 PO
gs 1464 389 4227 4227 MR c np
gr

  18   18 3125 2939 PO
gs 1464 389 4227 4227 MR c np
gr

  18   18 3149 2948 PO
gs 1464 389 4227 4227 MR c np
gr

  18   18 3093 2924 PO
gs 1464 389 4227 4227 MR c np
gr

  18   18 3051 2921 PO
gs 1464 389 4227 4227 MR c np
gr

  18   18 3176 2956 PO
gs 1464 389 4227 4227 MR c np
gr

  18   18 3008 2944 PO
gs 1464 389 4227 4227 MR c np
gr

  18   18 3123 2961 PO
gs 1464 389 4227 4227 MR c np
gr

  18   18 2858 2965 PO
gs 1464 389 4227 4227 MR c np
gr

/c52 { 0.000000 0.750000 1.000000 sr} bdef
c52
  18   18 3167 2964 PO
gs 1464 389 4227 4227 MR c np
gr

  18   18 3081 2970 PO
gs 1464 389 4227 4227 MR c np
gr

  18   18 3130 2971 PO
gs 1464 389 4227 4227 MR c np
gr

  18   18 3113 2973 PO
gs 1464 389 4227 4227 MR c np
gr

  18   18 3072 2976 PO
gs 1464 389 4227 4227 MR c np
gr

  18   18 3084 2976 PO
gs 1464 389 4227 4227 MR c np
gr

  18   18 3152 2981 PO
gs 1464 389 4227 4227 MR c np
gr

  18   18 3071 2985 PO
gs 1464 389 4227 4227 MR c np
gr

  18   18 3085 2983 PO
gs 1464 389 4227 4227 MR c np
gr

  18   18 3169 2988 PO
gs 1464 389 4227 4227 MR c np
gr

  18   18 3081 2991 PO
gs 1464 389 4227 4227 MR c np
gr

  18   18 2936 2994 PO
gs 1464 389 4227 4227 MR c np
gr

  18   18 3065 3000 PO
gs 1464 389 4227 4227 MR c np
gr

  18   18 3062 2996 PO
gs 1464 389 4227 4227 MR c np
gr

  18   18 3084 3001 PO
gs 1464 389 4227 4227 MR c np
gr

  18   18 3009 3001 PO
gs 1464 389 4227 4227 MR c np
gr

/c53 { 0.000000 0.687500 1.000000 sr} bdef
c53
  18   18 3116 3007 PO
gs 1464 389 4227 4227 MR c np
gr

  18   18 3069 2999 PO
gs 1464 389 4227 4227 MR c np
gr

  18   18 3081 3012 PO
gs 1464 389 4227 4227 MR c np
gr

  18   18 3217 3016 PO
gs 1464 389 4227 4227 MR c np
gr

  18   18 3025 3017 PO
gs 1464 389 4227 4227 MR c np
gr

  18   18 3003 2998 PO
gs 1464 389 4227 4227 MR c np
gr

  18   18 3093 3021 PO
gs 1464 389 4227 4227 MR c np
gr

  18   18 3032 3025 PO
gs 1464 389 4227 4227 MR c np
gr

  18   18 3009 3028 PO
gs 1464 389 4227 4227 MR c np
gr

  18   18 2936 3030 PO
gs 1464 389 4227 4227 MR c np
gr

  18   18 3034 3033 PO
gs 1464 389 4227 4227 MR c np
gr

  18   18 2947 3043 PO
gs 1464 389 4227 4227 MR c np
gr

  18   18 3048 3038 PO
gs 1464 389 4227 4227 MR c np
gr

  18   18 3032 3041 PO
gs 1464 389 4227 4227 MR c np
gr

  18   18 3031 3044 PO
gs 1464 389 4227 4227 MR c np
gr

  18   18 3070 3046 PO
gs 1464 389 4227 4227 MR c np
gr

/c54 { 0.000000 0.625000 1.000000 sr} bdef
c54
  18   18 3007 3049 PO
gs 1464 389 4227 4227 MR c np
gr

  18   18 2982 3052 PO
gs 1464 389 4227 4227 MR c np
gr

  18   18 3022 3056 PO
gs 1464 389 4227 4227 MR c np
gr

  18   18 3006 3061 PO
gs 1464 389 4227 4227 MR c np
gr

  18   18 2976 3060 PO
gs 1464 389 4227 4227 MR c np
gr

  18   18 3000 3064 PO
gs 1464 389 4227 4227 MR c np
gr

  18   18 3008 3064 PO
gs 1464 389 4227 4227 MR c np
gr

  18   18 2972 3068 PO
gs 1464 389 4227 4227 MR c np
gr

  18   18 2999 3071 PO
gs 1464 389 4227 4227 MR c np
gr

  18   18 3211 3075 PO
gs 1464 389 4227 4227 MR c np
gr

  18   18 3019 3078 PO
gs 1464 389 4227 4227 MR c np
gr

  18   18 2986 3079 PO
gs 1464 389 4227 4227 MR c np
gr

  18   18 2981 3085 PO
gs 1464 389 4227 4227 MR c np
gr

  18   18 2973 3096 PO
gs 1464 389 4227 4227 MR c np
gr

  18   18 2983 3089 PO
gs 1464 389 4227 4227 MR c np
gr

/c55 { 0.000000 0.562500 1.000000 sr} bdef
c55
  18   18 3188 3090 PO
gs 1464 389 4227 4227 MR c np
gr

  18   18 3079 3094 PO
gs 1464 389 4227 4227 MR c np
gr

  18   18 2970 3095 PO
gs 1464 389 4227 4227 MR c np
gr

  18   18 2960 3099 PO
gs 1464 389 4227 4227 MR c np
gr

  18   18 3219 3103 PO
gs 1464 389 4227 4227 MR c np
gr

  18   18 3010 3104 PO
gs 1464 389 4227 4227 MR c np
gr

  18   18 2969 3112 PO
gs 1464 389 4227 4227 MR c np
gr

  18   18 2930 3114 PO
gs 1464 389 4227 4227 MR c np
gr

  18   18 2957 3118 PO
gs 1464 389 4227 4227 MR c np
gr

  18   18 2998 3117 PO
gs 1464 389 4227 4227 MR c np
gr

  18   18 2950 3130 PO
gs 1464 389 4227 4227 MR c np
gr

  18   18 2945 3128 PO
gs 1464 389 4227 4227 MR c np
gr

  18   18 3121 3125 PO
gs 1464 389 4227 4227 MR c np
gr

  18   18 3062 3129 PO
gs 1464 389 4227 4227 MR c np
gr

  18   18 2651 3134 PO
gs 1464 389 4227 4227 MR c np
gr

  18   18 2695 3132 PO
gs 1464 389 4227 4227 MR c np
gr

/c56 { 0.000000 0.500000 1.000000 sr} bdef
c56
  18   18 2797 3144 PO
gs 1464 389 4227 4227 MR c np
gr

  18   18 2958 3140 PO
gs 1464 389 4227 4227 MR c np
gr

  18   18 3083 3147 PO
gs 1464 389 4227 4227 MR c np
gr

  18   18 2919 3148 PO
gs 1464 389 4227 4227 MR c np
gr

  18   18 2896 3146 PO
gs 1464 389 4227 4227 MR c np
gr

  18   18 2912 3153 PO
gs 1464 389 4227 4227 MR c np
gr

  18   18 2914 3153 PO
gs 1464 389 4227 4227 MR c np
gr

  18   18 2915 3159 PO
gs 1464 389 4227 4227 MR c np
gr

  18   18 2954 3158 PO
gs 1464 389 4227 4227 MR c np
gr

  18   18 2912 3165 PO
gs 1464 389 4227 4227 MR c np
gr

  18   18 2910 3176 PO
gs 1464 389 4227 4227 MR c np
gr

  18   18 3356 3174 PO
gs 1464 389 4227 4227 MR c np
gr

  18   18 2900 3176 PO
gs 1464 389 4227 4227 MR c np
gr

  18   18 2895 3166 PO
gs 1464 389 4227 4227 MR c np
gr

  18   18 2890 3190 PO
gs 1464 389 4227 4227 MR c np
gr

/c57 { 0.000000 0.437500 1.000000 sr} bdef
c57
  18   18 2893 3179 PO
gs 1464 389 4227 4227 MR c np
gr

  18   18 2888 3190 PO
gs 1464 389 4227 4227 MR c np
gr

  18   18 2730 3185 PO
gs 1464 389 4227 4227 MR c np
gr

  18   18 2877 3202 PO
gs 1464 389 4227 4227 MR c np
gr

  18   18 2871 3200 PO
gs 1464 389 4227 4227 MR c np
gr

  18   18 2878 3193 PO
gs 1464 389 4227 4227 MR c np
gr

  18   18 2901 3197 PO
gs 1464 389 4227 4227 MR c np
gr

  18   18 2907 3213 PO
gs 1464 389 4227 4227 MR c np
gr

  18   18 2924 3204 PO
gs 1464 389 4227 4227 MR c np
gr

  18   18 2855 3224 PO
gs 1464 389 4227 4227 MR c np
gr

  18   18 2850 3216 PO
gs 1464 389 4227 4227 MR c np
gr

  18   18 2847 3212 PO
gs 1464 389 4227 4227 MR c np
gr

  18   18 2820 3231 PO
gs 1464 389 4227 4227 MR c np
gr

  18   18 2790 3217 PO
gs 1464 389 4227 4227 MR c np
gr

  18   18 2840 3221 PO
gs 1464 389 4227 4227 MR c np
gr

  18   18 2865 3230 PO
gs 1464 389 4227 4227 MR c np
gr

/c58 { 0.000000 0.375000 1.000000 sr} bdef
c58
  18   18 3140 3247 PO
gs 1464 389 4227 4227 MR c np
gr

  18   18 2699 3243 PO
gs 1464 389 4227 4227 MR c np
gr

  18   18 2847 3243 PO
gs 1464 389 4227 4227 MR c np
gr

  18   18 2704 3236 PO
gs 1464 389 4227 4227 MR c np
gr

  18   18 2769 3241 PO
gs 1464 389 4227 4227 MR c np
gr

  18   18 3346 3244 PO
gs 1464 389 4227 4227 MR c np
gr

  18   18 2716 3246 PO
gs 1464 389 4227 4227 MR c np
gr

  18   18 2858 3248 PO
gs 1464 389 4227 4227 MR c np
gr

  18   18 2812 3266 PO
gs 1464 389 4227 4227 MR c np
gr

  18   18 2842 3257 PO
gs 1464 389 4227 4227 MR c np
gr

  18   18 2812 3273 PO
gs 1464 389 4227 4227 MR c np
gr

  18   18 2690 3261 PO
gs 1464 389 4227 4227 MR c np
gr

  18   18 2789 3271 PO
gs 1464 389 4227 4227 MR c np
gr

  18   18 2829 3284 PO
gs 1464 389 4227 4227 MR c np
gr

  18   18 2793 3270 PO
gs 1464 389 4227 4227 MR c np
gr

  18   18 2782 3284 PO
gs 1464 389 4227 4227 MR c np
gr

/c59 { 0.000000 0.312500 1.000000 sr} bdef
c59
  18   18 2767 3276 PO
gs 1464 389 4227 4227 MR c np
gr

  18   18 2682 3287 PO
gs 1464 389 4227 4227 MR c np
gr

  18   18 2784 3284 PO
gs 1464 389 4227 4227 MR c np
gr

  18   18 2770 3307 PO
gs 1464 389 4227 4227 MR c np
gr

  18   18 2777 3289 PO
gs 1464 389 4227 4227 MR c np
gr

  18   18 2771 3294 PO
gs 1464 389 4227 4227 MR c np
gr

  18   18 2757 3295 PO
gs 1464 389 4227 4227 MR c np
gr

  18   18 2830 3307 PO
gs 1464 389 4227 4227 MR c np
gr

  18   18 2765 3326 PO
gs 1464 389 4227 4227 MR c np
gr

  18   18 2754 3309 PO
gs 1464 389 4227 4227 MR c np
gr

  18   18 2747 3308 PO
gs 1464 389 4227 4227 MR c np
gr

  18   18 2731 3342 PO
gs 1464 389 4227 4227 MR c np
gr

  18   18 2731 3317 PO
gs 1464 389 4227 4227 MR c np
gr

  18   18 2748 3329 PO
gs 1464 389 4227 4227 MR c np
gr

  18   18 2519 3322 PO
gs 1464 389 4227 4227 MR c np
gr

/c60 { 0.000000 0.250000 1.000000 sr} bdef
c60
  18   18 2730 3325 PO
gs 1464 389 4227 4227 MR c np
gr

  18   18 2727 3333 PO
gs 1464 389 4227 4227 MR c np
gr

  18   18 2726 3342 PO
gs 1464 389 4227 4227 MR c np
gr

  18   18 2669 3358 PO
gs 1464 389 4227 4227 MR c np
gr

  18   18 2726 3338 PO
gs 1464 389 4227 4227 MR c np
gr

  18   18 2732 3358 PO
gs 1464 389 4227 4227 MR c np
gr

  18   18 2731 3355 PO
gs 1464 389 4227 4227 MR c np
gr

  18   18 2726 3349 PO
gs 1464 389 4227 4227 MR c np
gr

  18   18 2723 3352 PO
gs 1464 389 4227 4227 MR c np
gr

  18   18 2718 3358 PO
gs 1464 389 4227 4227 MR c np
gr

  18   18 2723 3395 PO
gs 1464 389 4227 4227 MR c np
gr

  18   18 2702 3380 PO
gs 1464 389 4227 4227 MR c np
gr

  18   18 2711 3376 PO
gs 1464 389 4227 4227 MR c np
gr

  18   18 2692 3371 PO
gs 1464 389 4227 4227 MR c np
gr

  18   18 3014 3372 PO
gs 1464 389 4227 4227 MR c np
gr

  18   18 2683 3377 PO
gs 1464 389 4227 4227 MR c np
gr

/c61 { 0.000000 0.187500 1.000000 sr} bdef
c61
  18   18 2686 3403 PO
gs 1464 389 4227 4227 MR c np
gr

  18   18 2682 3387 PO
gs 1464 389 4227 4227 MR c np
gr

  18   18 2682 3400 PO
gs 1464 389 4227 4227 MR c np
gr

  18   18 2665 3416 PO
gs 1464 389 4227 4227 MR c np
gr

  18   18 2618 3394 PO
gs 1464 389 4227 4227 MR c np
gr

  18   18 2700 3399 PO
gs 1464 389 4227 4227 MR c np
gr

  18   18 2655 3409 PO
gs 1464 389 4227 4227 MR c np
gr

  18   18 2626 3403 PO
gs 1464 389 4227 4227 MR c np
gr

  18   18 2649 3410 PO
gs 1464 389 4227 4227 MR c np
gr

  18   18 2412 3433 PO
gs 1464 389 4227 4227 MR c np
gr

  18   18 2629 3448 PO
gs 1464 389 4227 4227 MR c np
gr

  18   18 2718 3416 PO
gs 1464 389 4227 4227 MR c np
gr

  18   18 2594 3433 PO
gs 1464 389 4227 4227 MR c np
gr

  18   18 2463 3431 PO
gs 1464 389 4227 4227 MR c np
gr

  18   18 2624 3451 PO
gs 1464 389 4227 4227 MR c np
gr

/c62 { 0.000000 0.125000 1.000000 sr} bdef
c62
  18   18 2639 3430 PO
gs 1464 389 4227 4227 MR c np
gr

  18   18 2621 3447 PO
gs 1464 389 4227 4227 MR c np
gr

  18   18 2620 3481 PO
gs 1464 389 4227 4227 MR c np
gr

  18   18 2719 3444 PO
gs 1464 389 4227 4227 MR c np
gr

  18   18 2614 3444 PO
gs 1464 389 4227 4227 MR c np
gr

  18   18 2610 3452 PO
gs 1464 389 4227 4227 MR c np
gr

  18   18 2612 3453 PO
gs 1464 389 4227 4227 MR c np
gr

  18   18 2583 3481 PO
gs 1464 389 4227 4227 MR c np
gr

  18   18 2594 3460 PO
gs 1464 389 4227 4227 MR c np
gr

  18   18 2576 3464 PO
gs 1464 389 4227 4227 MR c np
gr

  18   18 2582 3468 PO
gs 1464 389 4227 4227 MR c np
gr

  18   18 2593 3501 PO
gs 1464 389 4227 4227 MR c np
gr

  18   18 2588 3495 PO
gs 1464 389 4227 4227 MR c np
gr

  18   18 2685 3517 PO
gs 1464 389 4227 4227 MR c np
gr

  18   18 2631 3484 PO
gs 1464 389 4227 4227 MR c np
gr

  18   18 2578 3484 PO
gs 1464 389 4227 4227 MR c np
gr

/c63 { 0.000000 0.062500 1.000000 sr} bdef
c63
  18   18 2551 3512 PO
gs 1464 389 4227 4227 MR c np
gr

  18   18 2566 3490 PO
gs 1464 389 4227 4227 MR c np
gr

  18   18 2609 3538 PO
gs 1464 389 4227 4227 MR c np
gr

  18   18 2547 3507 PO
gs 1464 389 4227 4227 MR c np
gr

  18   18 3389 3509 PO
gs 1464 389 4227 4227 MR c np
gr

  18   18 2524 3526 PO
gs 1464 389 4227 4227 MR c np
gr

  18   18 2515 3533 PO
gs 1464 389 4227 4227 MR c np
gr

  18   18 2523 3554 PO
gs 1464 389 4227 4227 MR c np
gr

  18   18 2523 3521 PO
gs 1464 389 4227 4227 MR c np
gr

  18   18 2534 3520 PO
gs 1464 389 4227 4227 MR c np
gr

  18   18 2512 3534 PO
gs 1464 389 4227 4227 MR c np
gr

  18   18 2471 3590 PO
gs 1464 389 4227 4227 MR c np
gr

  18   18 2469 3543 PO
gs 1464 389 4227 4227 MR c np
gr

  18   18 2511 3554 PO
gs 1464 389 4227 4227 MR c np
gr

  18   18 2542 3538 PO
gs 1464 389 4227 4227 MR c np
gr

  18   18 2522 3595 PO
gs 1464 389 4227 4227 MR c np
gr

/c64 { 0.000000 0.000000 1.000000 sr} bdef
c64
  18   18 2374 3592 PO
gs 1464 389 4227 4227 MR c np
gr

  18   18 2522 3554 PO
gs 1464 389 4227 4227 MR c np
gr

  18   18 2168 3554 PO
gs 1464 389 4227 4227 MR c np
gr

  18   18 2471 3559 PO
gs 1464 389 4227 4227 MR c np
gr

  18   18 2447 3595 PO
gs 1464 389 4227 4227 MR c np
gr

  18   18 2433 3584 PO
gs 1464 389 4227 4227 MR c np
gr

  18   18 2280 3595 PO
gs 1464 389 4227 4227 MR c np
gr

  18   18 2503 3592 PO
gs 1464 389 4227 4227 MR c np
gr

  18   18 2449 3578 PO
gs 1464 389 4227 4227 MR c np
gr

  18   18 2423 3581 PO
gs 1464 389 4227 4227 MR c np
gr

  18   18 2389 3616 PO
gs 1464 389 4227 4227 MR c np
gr

  18   18 2492 3591 PO
gs 1464 389 4227 4227 MR c np
gr

  18   18 2185 3633 PO
gs 1464 389 4227 4227 MR c np
gr

  18   18 2453 3603 PO
gs 1464 389 4227 4227 MR c np
gr

  18   18 2390 3636 PO
gs 1464 389 4227 4227 MR c np
gr

/c65 { 0.000000 0.000000 0.937500 sr} bdef
c65
  18   18 2380 3615 PO
gs 1464 389 4227 4227 MR c np
gr

  18   18 2173 3661 PO
gs 1464 389 4227 4227 MR c np
gr

  18   18 2346 3621 PO
gs 1464 389 4227 4227 MR c np
gr

  18   18 2431 3615 PO
gs 1464 389 4227 4227 MR c np
gr

  18   18 2433 3622 PO
gs 1464 389 4227 4227 MR c np
gr

  18   18 2201 3635 PO
gs 1464 389 4227 4227 MR c np
gr

  18   18 2339 3628 PO
gs 1464 389 4227 4227 MR c np
gr

  18   18 2378 3642 PO
gs 1464 389 4227 4227 MR c np
gr

  18   18 2444 3650 PO
gs 1464 389 4227 4227 MR c np
gr

  18   18 2399 3638 PO
gs 1464 389 4227 4227 MR c np
gr

  18   18 2362 3642 PO
gs 1464 389 4227 4227 MR c np
gr

  18   18 2655 3649 PO
gs 1464 389 4227 4227 MR c np
gr

  18   18 2311 3723 PO
gs 1464 389 4227 4227 MR c np
gr

  18   18 2234 3684 PO
gs 1464 389 4227 4227 MR c np
gr

  18   18 2384 3668 PO
gs 1464 389 4227 4227 MR c np
gr

  18   18 2376 3683 PO
gs 1464 389 4227 4227 MR c np
gr

/c66 { 0.000000 0.000000 0.875000 sr} bdef
c66
  18   18 2372 3703 PO
gs 1464 389 4227 4227 MR c np
gr

  18   18 2271 3682 PO
gs 1464 389 4227 4227 MR c np
gr

  18   18 2623 3733 PO
gs 1464 389 4227 4227 MR c np
gr

  18   18 2306 3678 PO
gs 1464 389 4227 4227 MR c np
gr

  18   18 2372 3690 PO
gs 1464 389 4227 4227 MR c np
gr

  18   18 2450 3711 PO
gs 1464 389 4227 4227 MR c np
gr

  18   18 2346 3696 PO
gs 1464 389 4227 4227 MR c np
gr

  18   18 2333 3702 PO
gs 1464 389 4227 4227 MR c np
gr

  18   18 2098 3701 PO
gs 1464 389 4227 4227 MR c np
gr

  18   18 2339 3707 PO
gs 1464 389 4227 4227 MR c np
gr

  18   18 2328 3745 PO
gs 1464 389 4227 4227 MR c np
gr

  18   18 2344 3717 PO
gs 1464 389 4227 4227 MR c np
gr

  18   18 2297 3716 PO
gs 1464 389 4227 4227 MR c np
gr

  18   18 2342 3744 PO
gs 1464 389 4227 4227 MR c np
gr

  18   18 1983 3722 PO
gs 1464 389 4227 4227 MR c np
gr

/c67 { 0.000000 0.000000 0.812500 sr} bdef
c67
  18   18 2308 3756 PO
gs 1464 389 4227 4227 MR c np
gr

  18   18 2669 3761 PO
gs 1464 389 4227 4227 MR c np
gr

  18   18 2288 3752 PO
gs 1464 389 4227 4227 MR c np
gr

  18   18 2058 3754 PO
gs 1464 389 4227 4227 MR c np
gr

  18   18 2264 3786 PO
gs 1464 389 4227 4227 MR c np
gr

  18   18 2289 3804 PO
gs 1464 389 4227 4227 MR c np
gr

  18   18 2456 3783 PO
gs 1464 389 4227 4227 MR c np
gr

  18   18 2258 3779 PO
gs 1464 389 4227 4227 MR c np
gr

  18   18 2304 3774 PO
gs 1464 389 4227 4227 MR c np
gr

  18   18 2303 3788 PO
gs 1464 389 4227 4227 MR c np
gr

  18   18 2294 3802 PO
gs 1464 389 4227 4227 MR c np
gr

  18   18 2301 3790 PO
gs 1464 389 4227 4227 MR c np
gr

  18   18 2282 3776 PO
gs 1464 389 4227 4227 MR c np
gr

  18   18 2136 3840 PO
gs 1464 389 4227 4227 MR c np
gr

  18   18 2250 3789 PO
gs 1464 389 4227 4227 MR c np
gr

  18   18 2125 3811 PO
gs 1464 389 4227 4227 MR c np
gr

/c68 { 0.000000 0.000000 0.750000 sr} bdef
c68
  18   18 2265 3793 PO
gs 1464 389 4227 4227 MR c np
gr

  18   18 2252 3841 PO
gs 1464 389 4227 4227 MR c np
gr

  18   18 2216 3845 PO
gs 1464 389 4227 4227 MR c np
gr

  18   18 2148 3863 PO
gs 1464 389 4227 4227 MR c np
gr

  18   18 2235 3817 PO
gs 1464 389 4227 4227 MR c np
gr

  18   18 2170 3869 PO
gs 1464 389 4227 4227 MR c np
gr

  18   18 2216 3830 PO
gs 1464 389 4227 4227 MR c np
gr

  18   18 2200 3836 PO
gs 1464 389 4227 4227 MR c np
gr

  18   18 2176 3842 PO
gs 1464 389 4227 4227 MR c np
gr

  18   18 2330 3852 PO
gs 1464 389 4227 4227 MR c np
gr

  18   18 2209 3864 PO
gs 1464 389 4227 4227 MR c np
gr

  18   18 2169 3858 PO
gs 1464 389 4227 4227 MR c np
gr

  18   18 2212 3843 PO
gs 1464 389 4227 4227 MR c np
gr

  18   18 2276 3885 PO
gs 1464 389 4227 4227 MR c np
gr

  18   18 2156 3899 PO
gs 1464 389 4227 4227 MR c np
gr

  18   18 2185 3856 PO
gs 1464 389 4227 4227 MR c np
gr

/c69 { 0.000000 0.000000 0.687500 sr} bdef
c69
  18   18 2182 3897 PO
gs 1464 389 4227 4227 MR c np
gr

  18   18 2192 3868 PO
gs 1464 389 4227 4227 MR c np
gr

  18   18 2160 3873 PO
gs 1464 389 4227 4227 MR c np
gr

  18   18 2162 3874 PO
gs 1464 389 4227 4227 MR c np
gr

  18   18 2098 3902 PO
gs 1464 389 4227 4227 MR c np
gr

  18   18 2127 3910 PO
gs 1464 389 4227 4227 MR c np
gr

  18   18 2125 3916 PO
gs 1464 389 4227 4227 MR c np
gr

  18   18 2164 3907 PO
gs 1464 389 4227 4227 MR c np
gr

  18   18 2018 3925 PO
gs 1464 389 4227 4227 MR c np
gr

  18   18 2153 3903 PO
gs 1464 389 4227 4227 MR c np
gr

  18   18 2183 3904 PO
gs 1464 389 4227 4227 MR c np
gr

  18   18 1978 3968 PO
gs 1464 389 4227 4227 MR c np
gr

  18   18 1978 3913 PO
gs 1464 389 4227 4227 MR c np
gr

  18   18 1992 3932 PO
gs 1464 389 4227 4227 MR c np
gr

  18   18 2155 3978 PO
gs 1464 389 4227 4227 MR c np
gr

/c70 { 0.000000 0.000000 0.625000 sr} bdef
c70
  18   18 2160 3953 PO
gs 1464 389 4227 4227 MR c np
gr

  18   18 2658 3978 PO
gs 1464 389 4227 4227 MR c np
gr

  18   18 1970 3995 PO
gs 1464 389 4227 4227 MR c np
gr

  18   18 2213 3942 PO
gs 1464 389 4227 4227 MR c np
gr

  18   18 2068 3945 PO
gs 1464 389 4227 4227 MR c np
gr

  18   18 2091 4039 PO
gs 1464 389 4227 4227 MR c np
gr

  18   18 3306 4018 PO
gs 1464 389 4227 4227 MR c np
gr

  18   18 2059 4041 PO
gs 1464 389 4227 4227 MR c np
gr

  18   18 2093 3989 PO
gs 1464 389 4227 4227 MR c np
gr

  18   18 2050 3987 PO
gs 1464 389 4227 4227 MR c np
gr

  18   18 2044 3988 PO
gs 1464 389 4227 4227 MR c np
gr

  18   18 2038 3975 PO
gs 1464 389 4227 4227 MR c np
gr

  18   18 2037 3986 PO
gs 1464 389 4227 4227 MR c np
gr

  18   18 2673 3994 PO
gs 1464 389 4227 4227 MR c np
gr

  18   18 2914 3993 PO
gs 1464 389 4227 4227 MR c np
gr

  18   18 2024 4012 PO
gs 1464 389 4227 4227 MR c np
gr

/c71 { 0.000000 0.000000 0.562500 sr} bdef
c71
  18   18 2026 4058 PO
gs 1464 389 4227 4227 MR c np
gr

  18   18 2472 4008 PO
gs 1464 389 4227 4227 MR c np
gr

  18   18 2009 4052 PO
gs 1464 389 4227 4227 MR c np
gr

  18   18 1988 4032 PO
gs 1464 389 4227 4227 MR c np
gr

  18   18 2011 4017 PO
gs 1464 389 4227 4227 MR c np
gr

  18   18 2021 4096 PO
gs 1464 389 4227 4227 MR c np
gr

  18   18 1977 4055 PO
gs 1464 389 4227 4227 MR c np
gr

  18   18 2014 4044 PO
gs 1464 389 4227 4227 MR c np
gr

  18   18 2039 4067 PO
gs 1464 389 4227 4227 MR c np
gr

  18   18 1962 4113 PO
gs 1464 389 4227 4227 MR c np
gr

  18   18 1971 4105 PO
gs 1464 389 4227 4227 MR c np
gr

  18   18 1965 4130 PO
gs 1464 389 4227 4227 MR c np
gr

  18   18 1943 4053 PO
gs 1464 389 4227 4227 MR c np
gr

  18   18 2070 4059 PO
gs 1464 389 4227 4227 MR c np
gr

  18   18 2008 4108 PO
gs 1464 389 4227 4227 MR c np
gr

  18   18 2630 4073 PO
gs 1464 389 4227 4227 MR c np
gr

0 sg
3473 4903 mt 
(g\(x\)) s
1111 2606 mt  -90 rotate
(h\(y\)) s
90 rotate

end %%Color Dict

eplot
%%EndObject

epage
end

showpage

%%Trailer
%%EOF
