%!PS-Adobe-2.0 EPSF-1.2
%%Creator: MATLAB, The MathWorks, Inc. Version 8.3.0.532 (R2014a). Operating System: Linux 2.6.32-431.20.3.el6.x86_64 #1 SMP Thu Jun 19 14:01:59 CDT 2014 x86_64.
%%Title: ./NKLCCA.eps
%%CreationDate: 05/29/2015  16:30:51
%%DocumentNeededFonts: Helvetica
%%DocumentProcessColors: Cyan Magenta Yellow Black
%%Extensions: CMYK
%%Pages: 1
%%BoundingBox:    99   199   503   589
%%EndComments

%%BeginProlog
% MathWorks dictionary
/MathWorks 160 dict begin
% definition operators
/bdef {bind def} bind def
/ldef {load def} bind def
/xdef {exch def} bdef
/xstore {exch store} bdef
% operator abbreviations
/c  /clip ldef
/cc /concat ldef
/cp /closepath ldef
/gr /grestore ldef
/gs /gsave ldef
/mt /moveto ldef
/np /newpath ldef
/cm /currentmatrix ldef
/sm /setmatrix ldef
/rm /rmoveto ldef
/rl /rlineto ldef
/s {show newpath} bdef
/sc {setcmykcolor} bdef
/sr /setrgbcolor ldef
/sg /setgray ldef
/w /setlinewidth ldef
/j /setlinejoin ldef
/cap /setlinecap ldef
/rc {rectclip} bdef
/rf {rectfill} bdef
% page state control
/pgsv () def
/bpage {/pgsv save def} bdef
/epage {pgsv restore} bdef
/bplot /gsave ldef
/eplot {stroke grestore} bdef
% orientation switch
/portraitMode 0 def /landscapeMode 1 def /rotateMode 2 def
% coordinate system mappings
/dpi2point 0 def
% font control
/FontSize 0 def
/FMS {/FontSize xstore findfont [FontSize 0 0 FontSize neg 0 0]
  makefont setfont} bdef
/reencode {exch dup where {pop load} {pop StandardEncoding} ifelse
  exch dup 3 1 roll findfont dup length dict begin
  { 1 index /FID ne {def}{pop pop} ifelse } forall
  /Encoding exch def currentdict end definefont pop} bdef
/isroman {findfont /CharStrings get /Agrave known} bdef
/FMSR {3 1 roll 1 index dup isroman {reencode} {pop pop} ifelse
  exch FMS} bdef
/csm {1 dpi2point div -1 dpi2point div scale neg translate
 dup landscapeMode eq {pop -90 rotate}
  {rotateMode eq {90 rotate} if} ifelse} bdef
% line types: solid, dotted, dashed, dotdash
/SO { [] 0 setdash } bdef
/DO { [.5 dpi2point mul 4 dpi2point mul] 0 setdash } bdef
/DA { [6 dpi2point mul] 0 setdash } bdef
/DD { [.5 dpi2point mul 4 dpi2point mul 6 dpi2point mul 4
  dpi2point mul] 0 setdash } bdef
% macros for lines and objects
/L {lineto stroke} bdef
/MP {3 1 roll moveto 1 sub {rlineto} repeat} bdef
/AP {{rlineto} repeat} bdef
/PDlw -1 def
/W {/PDlw currentlinewidth def setlinewidth} def
/PP {closepath eofill} bdef
/DP {closepath stroke} bdef
/MR {4 -2 roll moveto dup  0 exch rlineto exch 0 rlineto
  neg 0 exch rlineto closepath} bdef
/FR {MR stroke} bdef
/PR {MR fill} bdef
/L1i {{currentfile picstr readhexstring pop} image} bdef
/tMatrix matrix def
/MakeOval {newpath tMatrix currentmatrix pop translate scale
0 0 1 0 360 arc tMatrix setmatrix} bdef
/FO {MakeOval stroke} bdef
/PO {MakeOval fill} bdef
/PD {currentlinewidth 2 div 0 360 arc fill
   PDlw -1 eq not {PDlw w /PDlw -1 def} if} def
/FA {newpath tMatrix currentmatrix pop translate scale
  0 0 1 5 -2 roll arc tMatrix setmatrix stroke} bdef
/PA {newpath tMatrix currentmatrix pop	translate 0 0 moveto scale
  0 0 1 5 -2 roll arc closepath tMatrix setmatrix fill} bdef
/FAn {newpath tMatrix currentmatrix pop translate scale
  0 0 1 5 -2 roll arcn tMatrix setmatrix stroke} bdef
/PAn {newpath tMatrix currentmatrix pop translate 0 0 moveto scale
  0 0 1 5 -2 roll arcn closepath tMatrix setmatrix fill} bdef
/vradius 0 def /hradius 0 def /lry 0 def
/lrx 0 def /uly 0 def /ulx 0 def /rad 0 def
/MRR {/vradius xdef /hradius xdef /lry xdef /lrx xdef /uly xdef
  /ulx xdef newpath tMatrix currentmatrix pop ulx hradius add uly
  vradius add translate hradius vradius scale 0 0 1 180 270 arc 
  tMatrix setmatrix lrx hradius sub uly vradius add translate
  hradius vradius scale 0 0 1 270 360 arc tMatrix setmatrix
  lrx hradius sub lry vradius sub translate hradius vradius scale
  0 0 1 0 90 arc tMatrix setmatrix ulx hradius add lry vradius sub
  translate hradius vradius scale 0 0 1 90 180 arc tMatrix setmatrix
  closepath} bdef
/FRR {MRR stroke } bdef
/PRR {MRR fill } bdef
/MlrRR {/lry xdef /lrx xdef /uly xdef /ulx xdef /rad lry uly sub 2 div def
  newpath tMatrix currentmatrix pop ulx rad add uly rad add translate
  rad rad scale 0 0 1 90 270 arc tMatrix setmatrix lrx rad sub lry rad
  sub translate rad rad scale 0 0 1 270 90 arc tMatrix setmatrix
  closepath} bdef
/FlrRR {MlrRR stroke } bdef
/PlrRR {MlrRR fill } bdef
/MtbRR {/lry xdef /lrx xdef /uly xdef /ulx xdef /rad lrx ulx sub 2 div def
  newpath tMatrix currentmatrix pop ulx rad add uly rad add translate
  rad rad scale 0 0 1 180 360 arc tMatrix setmatrix lrx rad sub lry rad
  sub translate rad rad scale 0 0 1 0 180 arc tMatrix setmatrix
  closepath} bdef
/FtbRR {MtbRR stroke } bdef
/PtbRR {MtbRR fill } bdef
/stri 6 array def /dtri 6 array def
/smat 6 array def /dmat 6 array def
/tmat1 6 array def /tmat2 6 array def /dif 3 array def
/asub {/ind2 exch def /ind1 exch def dup dup
  ind1 get exch ind2 get sub exch } bdef
/tri_to_matrix {
  2 0 asub 3 1 asub 4 0 asub 5 1 asub
  dup 0 get exch 1 get 7 -1 roll astore } bdef
/compute_transform {
  dmat dtri tri_to_matrix tmat1 invertmatrix 
  smat stri tri_to_matrix tmat2 concatmatrix } bdef
/ds {stri astore pop} bdef
/dt {dtri astore pop} bdef
/db {2 copy /cols xdef /rows xdef mul dup 3 mul string
  currentfile exch readhexstring pop
  dup 0 3 index getinterval /rbmap xdef
  dup 2 index dup getinterval /gbmap xdef
  1 index dup 2 mul exch getinterval /bbmap xdef pop pop}bdef
/it {gs np dtri aload pop moveto lineto lineto cp c
  cols rows 8 compute_transform 
  rbmap gbmap bbmap true 3 colorimage gr}bdef
/il {newpath moveto lineto stroke}bdef
currentdict end def
%%EndProlog

%%BeginSetup
MathWorks begin

0 cap

end
%%EndSetup

%%Page: 1 1
%%BeginPageSetup
%%PageBoundingBox:    99   199   503   589
MathWorks begin
bpage
%%EndPageSetup

%%BeginObject: obj1
bplot

/dpi2point 12 def
portraitMode 0216 7344 csm

  975   274  4847  4681 MR c np
85 dict begin %Colortable dictionary
/c0 { 0.000000 0.000000 0.000000 sr} bdef
/c1 { 1.000000 1.000000 1.000000 sr} bdef
/c2 { 0.900000 0.000000 0.000000 sr} bdef
/c3 { 0.000000 0.820000 0.000000 sr} bdef
/c4 { 0.000000 0.000000 0.800000 sr} bdef
/c5 { 0.910000 0.820000 0.320000 sr} bdef
/c6 { 1.000000 0.260000 0.820000 sr} bdef
/c7 { 0.000000 0.820000 0.820000 sr} bdef
c0
1 j
1 sg
   0    0 6913 5186 PR
6 w
0 4226 4226 0 0 -4226 1464 4615 4 MP
PP
-4226 0 0 4226 4226 0 0 -4226 1464 4615 5 MP stroke
4 w
DO
SO
6 w
0 sg
1464 4615 mt 5690 4615 L
1464  389 mt 5690  389 L
1464 4615 mt 1464  389 L
5690 4615 mt 5690  389 L
1464 4615 mt 5690 4615 L
1464 4615 mt 1464  389 L
1464 4615 mt 1464 4572 L
1464  389 mt 1464  431 L
%%IncludeResource: font Helvetica
/Helvetica /ISOLatin1Encoding 120 FMSR

1311 4760 mt 
(-2.5) s
1886 4615 mt 1886 4572 L
1886  389 mt 1886  431 L
1783 4760 mt 
(-2) s
2309 4615 mt 2309 4572 L
2309  389 mt 2309  431 L
2156 4760 mt 
(-1.5) s
2731 4615 mt 2731 4572 L
2731  389 mt 2731  431 L
2628 4760 mt 
(-1) s
3154 4615 mt 3154 4572 L
3154  389 mt 3154  431 L
3001 4760 mt 
(-0.5) s
3577 4615 mt 3577 4572 L
3577  389 mt 3577  431 L
3544 4760 mt 
(0) s
3999 4615 mt 3999 4572 L
3999  389 mt 3999  431 L
3916 4760 mt 
(0.5) s
4422 4615 mt 4422 4572 L
4422  389 mt 4422  431 L
4389 4760 mt 
(1) s
4844 4615 mt 4844 4572 L
4844  389 mt 4844  431 L
4761 4760 mt 
(1.5) s
5267 4615 mt 5267 4572 L
5267  389 mt 5267  431 L
5234 4760 mt 
(2) s
5690 4615 mt 5690 4572 L
5690  389 mt 5690  431 L
5607 4760 mt 
(2.5) s
1464 4615 mt 1506 4615 L
5690 4615 mt 5647 4615 L
1193 4659 mt 
(-2.5) s
1464 4192 mt 1506 4192 L
5690 4192 mt 5647 4192 L
1293 4236 mt 
(-2) s
1464 3769 mt 1506 3769 L
5690 3769 mt 5647 3769 L
1193 3813 mt 
(-1.5) s
1464 3347 mt 1506 3347 L
5690 3347 mt 5647 3347 L
1293 3391 mt 
(-1) s
1464 2924 mt 1506 2924 L
5690 2924 mt 5647 2924 L
1193 2968 mt 
(-0.5) s
1464 2502 mt 1506 2502 L
5690 2502 mt 5647 2502 L
1363 2546 mt 
(0) s
1464 2079 mt 1506 2079 L
5690 2079 mt 5647 2079 L
1263 2123 mt 
(0.5) s
1464 1656 mt 1506 1656 L
5690 1656 mt 5647 1656 L
1363 1700 mt 
(1) s
1464 1234 mt 1506 1234 L
5690 1234 mt 5647 1234 L
1263 1278 mt 
(1.5) s
1464  811 mt 1506  811 L
5690  811 mt 5647  811 L
1363  855 mt 
(2) s
1464  389 mt 1506  389 L
5690  389 mt 5647  389 L
1263  433 mt 
(2.5) s
1464 4615 mt 5690 4615 L
1464  389 mt 5690  389 L
1464 4615 mt 1464  389 L
5690 4615 mt 5690  389 L
gs 1464 389 4227 4227 MR c np
0 j
gr

/c8 { 0.500000 0.000000 0.000000 sr} bdef
c8
  18   18 2606 3962 PO
gs 1464 389 4227 4227 MR c np
gr

  18   18 2097 3972 PO
gs 1464 389 4227 4227 MR c np
gr

  18   18 2157 3951 PO
gs 1464 389 4227 4227 MR c np
gr

  18   18 2168 3953 PO
gs 1464 389 4227 4227 MR c np
gr

  18   18 2500 3942 PO
gs 1464 389 4227 4227 MR c np
gr

  18   18 2175 3947 PO
gs 1464 389 4227 4227 MR c np
gr

  18   18 2733 3943 PO
gs 1464 389 4227 4227 MR c np
gr

  18   18 1961 3942 PO
gs 1464 389 4227 4227 MR c np
gr

  18   18 2093 3945 PO
gs 1464 389 4227 4227 MR c np
gr

  18   18 2039 3937 PO
gs 1464 389 4227 4227 MR c np
gr

  18   18 2162 3930 PO
gs 1464 389 4227 4227 MR c np
gr

  18   18 2181 3930 PO
gs 1464 389 4227 4227 MR c np
gr

  18   18 2172 3932 PO
gs 1464 389 4227 4227 MR c np
gr

  18   18 2149 3925 PO
gs 1464 389 4227 4227 MR c np
gr

  18   18 2126 3937 PO
gs 1464 389 4227 4227 MR c np
gr

  18   18 1834 3922 PO
gs 1464 389 4227 4227 MR c np
gr

/c9 { 0.562500 0.000000 0.000000 sr} bdef
c9
  18   18 2034 3917 PO
gs 1464 389 4227 4227 MR c np
gr

  18   18 2294 3915 PO
gs 1464 389 4227 4227 MR c np
gr

  18   18 2364 3914 PO
gs 1464 389 4227 4227 MR c np
gr

  18   18 2295 3910 PO
gs 1464 389 4227 4227 MR c np
gr

  18   18 1834 3905 PO
gs 1464 389 4227 4227 MR c np
gr

  18   18 2161 3905 PO
gs 1464 389 4227 4227 MR c np
gr

  18   18 2140 3904 PO
gs 1464 389 4227 4227 MR c np
gr

  18   18 2237 3893 PO
gs 1464 389 4227 4227 MR c np
gr

  18   18 1931 3889 PO
gs 1464 389 4227 4227 MR c np
gr

  18   18 2085 3895 PO
gs 1464 389 4227 4227 MR c np
gr

  18   18 2178 3881 PO
gs 1464 389 4227 4227 MR c np
gr

  18   18 2174 3877 PO
gs 1464 389 4227 4227 MR c np
gr

  18   18 2195 3887 PO
gs 1464 389 4227 4227 MR c np
gr

  18   18 1778 3880 PO
gs 1464 389 4227 4227 MR c np
gr

  18   18 2270 3879 PO
gs 1464 389 4227 4227 MR c np
gr

  18   18 1774 3871 PO
gs 1464 389 4227 4227 MR c np
gr

/c10 { 0.625000 0.000000 0.000000 sr} bdef
c10
  18   18 2179 3870 PO
gs 1464 389 4227 4227 MR c np
gr

  18   18 2276 3869 PO
gs 1464 389 4227 4227 MR c np
gr

  18   18 2198 3864 PO
gs 1464 389 4227 4227 MR c np
gr

  18   18 2204 3862 PO
gs 1464 389 4227 4227 MR c np
gr

  18   18 2231 3866 PO
gs 1464 389 4227 4227 MR c np
gr

  18   18 2225 3850 PO
gs 1464 389 4227 4227 MR c np
gr

  18   18 2219 3861 PO
gs 1464 389 4227 4227 MR c np
gr

  18   18 2208 3857 PO
gs 1464 389 4227 4227 MR c np
gr

  18   18 2232 3851 PO
gs 1464 389 4227 4227 MR c np
gr

  18   18 2195 3841 PO
gs 1464 389 4227 4227 MR c np
gr

  18   18 2230 3840 PO
gs 1464 389 4227 4227 MR c np
gr

  18   18 2316 3839 PO
gs 1464 389 4227 4227 MR c np
gr

  18   18 2223 3831 PO
gs 1464 389 4227 4227 MR c np
gr

  18   18 2246 3836 PO
gs 1464 389 4227 4227 MR c np
gr

  18   18 2096 3829 PO
gs 1464 389 4227 4227 MR c np
gr

/c11 { 0.687500 0.000000 0.000000 sr} bdef
c11
  18   18 2224 3825 PO
gs 1464 389 4227 4227 MR c np
gr

  18   18 2929 3816 PO
gs 1464 389 4227 4227 MR c np
gr

  18   18 2188 3811 PO
gs 1464 389 4227 4227 MR c np
gr

  18   18 1963 3823 PO
gs 1464 389 4227 4227 MR c np
gr

  18   18 1966 3816 PO
gs 1464 389 4227 4227 MR c np
gr

  18   18 2039 3809 PO
gs 1464 389 4227 4227 MR c np
gr

  18   18 2277 3815 PO
gs 1464 389 4227 4227 MR c np
gr

  18   18 2213 3805 PO
gs 1464 389 4227 4227 MR c np
gr

  18   18 2128 3802 PO
gs 1464 389 4227 4227 MR c np
gr

  18   18 2273 3801 PO
gs 1464 389 4227 4227 MR c np
gr

  18   18 1979 3799 PO
gs 1464 389 4227 4227 MR c np
gr

  18   18 2268 3785 PO
gs 1464 389 4227 4227 MR c np
gr

  18   18 2111 3788 PO
gs 1464 389 4227 4227 MR c np
gr

  18   18 2236 3777 PO
gs 1464 389 4227 4227 MR c np
gr

  18   18 2304 3782 PO
gs 1464 389 4227 4227 MR c np
gr

  18   18 2645 3782 PO
gs 1464 389 4227 4227 MR c np
gr

/c12 { 0.750000 0.000000 0.000000 sr} bdef
c12
  18   18 2204 3773 PO
gs 1464 389 4227 4227 MR c np
gr

  18   18 2393 3775 PO
gs 1464 389 4227 4227 MR c np
gr

  18   18 2417 3776 PO
gs 1464 389 4227 4227 MR c np
gr

  18   18 2293 3769 PO
gs 1464 389 4227 4227 MR c np
gr

  18   18 2623 3773 PO
gs 1464 389 4227 4227 MR c np
gr

  18   18 2352 3769 PO
gs 1464 389 4227 4227 MR c np
gr

  18   18 2476 3762 PO
gs 1464 389 4227 4227 MR c np
gr

  18   18 2815 3753 PO
gs 1464 389 4227 4227 MR c np
gr

  18   18 2287 3755 PO
gs 1464 389 4227 4227 MR c np
gr

  18   18 2283 3750 PO
gs 1464 389 4227 4227 MR c np
gr

  18   18 2764 3743 PO
gs 1464 389 4227 4227 MR c np
gr

  18   18 2657 3747 PO
gs 1464 389 4227 4227 MR c np
gr

  18   18 2892 3750 PO
gs 1464 389 4227 4227 MR c np
gr

  18   18 2290 3742 PO
gs 1464 389 4227 4227 MR c np
gr

  18   18 2338 3730 PO
gs 1464 389 4227 4227 MR c np
gr

  18   18 2547 3740 PO
gs 1464 389 4227 4227 MR c np
gr

/c13 { 0.812500 0.000000 0.000000 sr} bdef
c13
  18   18 2285 3730 PO
gs 1464 389 4227 4227 MR c np
gr

  18   18 2693 3730 PO
gs 1464 389 4227 4227 MR c np
gr

  18   18 3687 3724 PO
gs 1464 389 4227 4227 MR c np
gr

  18   18 2328 3719 PO
gs 1464 389 4227 4227 MR c np
gr

  18   18 2332 3707 PO
gs 1464 389 4227 4227 MR c np
gr

  18   18 2325 3717 PO
gs 1464 389 4227 4227 MR c np
gr

  18   18 2352 3724 PO
gs 1464 389 4227 4227 MR c np
gr

  18   18 2346 3720 PO
gs 1464 389 4227 4227 MR c np
gr

  18   18 2359 3704 PO
gs 1464 389 4227 4227 MR c np
gr

  18   18 2338 3703 PO
gs 1464 389 4227 4227 MR c np
gr

  18   18 2829 3712 PO
gs 1464 389 4227 4227 MR c np
gr

  18   18 2033 3700 PO
gs 1464 389 4227 4227 MR c np
gr

  18   18 2378 3698 PO
gs 1464 389 4227 4227 MR c np
gr

  18   18 2371 3686 PO
gs 1464 389 4227 4227 MR c np
gr

  18   18 2380 3694 PO
gs 1464 389 4227 4227 MR c np
gr

/c14 { 0.875000 0.000000 0.000000 sr} bdef
c14
  18   18 2400 3688 PO
gs 1464 389 4227 4227 MR c np
gr

  18   18 2387 3682 PO
gs 1464 389 4227 4227 MR c np
gr

  18   18 2384 3691 PO
gs 1464 389 4227 4227 MR c np
gr

  18   18 2386 3673 PO
gs 1464 389 4227 4227 MR c np
gr

  18   18 2404 3680 PO
gs 1464 389 4227 4227 MR c np
gr

  18   18 2435 3682 PO
gs 1464 389 4227 4227 MR c np
gr

  18   18 2436 3671 PO
gs 1464 389 4227 4227 MR c np
gr

  18   18 2226 3660 PO
gs 1464 389 4227 4227 MR c np
gr

  18   18 2467 3664 PO
gs 1464 389 4227 4227 MR c np
gr

  18   18 2464 3656 PO
gs 1464 389 4227 4227 MR c np
gr

  18   18 2450 3652 PO
gs 1464 389 4227 4227 MR c np
gr

  18   18 2058 3656 PO
gs 1464 389 4227 4227 MR c np
gr

  18   18 2116 3655 PO
gs 1464 389 4227 4227 MR c np
gr

  18   18 2001 3658 PO
gs 1464 389 4227 4227 MR c np
gr

  18   18 2432 3658 PO
gs 1464 389 4227 4227 MR c np
gr

  18   18 2401 3642 PO
gs 1464 389 4227 4227 MR c np
gr

/c15 { 0.937500 0.000000 0.000000 sr} bdef
c15
  18   18 2345 3637 PO
gs 1464 389 4227 4227 MR c np
gr

  18   18 2182 3644 PO
gs 1464 389 4227 4227 MR c np
gr

  18   18 2298 3640 PO
gs 1464 389 4227 4227 MR c np
gr

  18   18 2425 3625 PO
gs 1464 389 4227 4227 MR c np
gr

  18   18 2414 3625 PO
gs 1464 389 4227 4227 MR c np
gr

  18   18 2465 3630 PO
gs 1464 389 4227 4227 MR c np
gr

  18   18 2622 3627 PO
gs 1464 389 4227 4227 MR c np
gr

  18   18 2440 3623 PO
gs 1464 389 4227 4227 MR c np
gr

  18   18 2565 3614 PO
gs 1464 389 4227 4227 MR c np
gr

  18   18 2510 3614 PO
gs 1464 389 4227 4227 MR c np
gr

  18   18 2419 3605 PO
gs 1464 389 4227 4227 MR c np
gr

  18   18 2508 3622 PO
gs 1464 389 4227 4227 MR c np
gr

  18   18 2356 3606 PO
gs 1464 389 4227 4227 MR c np
gr

  18   18 2437 3599 PO
gs 1464 389 4227 4227 MR c np
gr

  18   18 2478 3595 PO
gs 1464 389 4227 4227 MR c np
gr

/c16 { 1.000000 0.000000 0.000000 sr} bdef
c16
  18   18 2690 3589 PO
gs 1464 389 4227 4227 MR c np
gr

  18   18 2676 3593 PO
gs 1464 389 4227 4227 MR c np
gr

  18   18 2555 3596 PO
gs 1464 389 4227 4227 MR c np
gr

  18   18 2496 3585 PO
gs 1464 389 4227 4227 MR c np
gr

  18   18 2463 3577 PO
gs 1464 389 4227 4227 MR c np
gr

  18   18 2458 3597 PO
gs 1464 389 4227 4227 MR c np
gr

  18   18 2623 3578 PO
gs 1464 389 4227 4227 MR c np
gr

  18   18 2489 3580 PO
gs 1464 389 4227 4227 MR c np
gr

  18   18 2472 3581 PO
gs 1464 389 4227 4227 MR c np
gr

  18   18 2517 3580 PO
gs 1464 389 4227 4227 MR c np
gr

  18   18 2474 3579 PO
gs 1464 389 4227 4227 MR c np
gr

  18   18 2559 3568 PO
gs 1464 389 4227 4227 MR c np
gr

  18   18 2529 3567 PO
gs 1464 389 4227 4227 MR c np
gr

  18   18 3563 3561 PO
gs 1464 389 4227 4227 MR c np
gr

  18   18 2502 3552 PO
gs 1464 389 4227 4227 MR c np
gr

  18   18 2500 3559 PO
gs 1464 389 4227 4227 MR c np
gr

/c17 { 1.000000 0.062500 0.000000 sr} bdef
c17
  18   18 2502 3549 PO
gs 1464 389 4227 4227 MR c np
gr

  18   18 2508 3548 PO
gs 1464 389 4227 4227 MR c np
gr

  18   18 2810 3543 PO
gs 1464 389 4227 4227 MR c np
gr

  18   18 2513 3551 PO
gs 1464 389 4227 4227 MR c np
gr

  18   18 2494 3541 PO
gs 1464 389 4227 4227 MR c np
gr

  18   18 2520 3542 PO
gs 1464 389 4227 4227 MR c np
gr

  18   18 2662 3537 PO
gs 1464 389 4227 4227 MR c np
gr

  18   18 2980 3518 PO
gs 1464 389 4227 4227 MR c np
gr

  18   18 2561 3523 PO
gs 1464 389 4227 4227 MR c np
gr

  18   18 2543 3526 PO
gs 1464 389 4227 4227 MR c np
gr

  18   18 2556 3521 PO
gs 1464 389 4227 4227 MR c np
gr

  18   18 2445 3524 PO
gs 1464 389 4227 4227 MR c np
gr

  18   18 2562 3524 PO
gs 1464 389 4227 4227 MR c np
gr

  18   18 2357 3511 PO
gs 1464 389 4227 4227 MR c np
gr

  18   18 2546 3505 PO
gs 1464 389 4227 4227 MR c np
gr

  18   18 2350 3505 PO
gs 1464 389 4227 4227 MR c np
gr

/c18 { 1.000000 0.125000 0.000000 sr} bdef
c18
  18   18 2458 3508 PO
gs 1464 389 4227 4227 MR c np
gr

  18   18 2236 3493 PO
gs 1464 389 4227 4227 MR c np
gr

  18   18 3010 3501 PO
gs 1464 389 4227 4227 MR c np
gr

  18   18 2236 3489 PO
gs 1464 389 4227 4227 MR c np
gr

  18   18 2581 3487 PO
gs 1464 389 4227 4227 MR c np
gr

  18   18 2624 3492 PO
gs 1464 389 4227 4227 MR c np
gr

  18   18 2585 3482 PO
gs 1464 389 4227 4227 MR c np
gr

  18   18 2550 3491 PO
gs 1464 389 4227 4227 MR c np
gr

  18   18 2561 3479 PO
gs 1464 389 4227 4227 MR c np
gr

  18   18 2561 3470 PO
gs 1464 389 4227 4227 MR c np
gr

  18   18 2625 3473 PO
gs 1464 389 4227 4227 MR c np
gr

  18   18 2595 3471 PO
gs 1464 389 4227 4227 MR c np
gr

  18   18 2564 3468 PO
gs 1464 389 4227 4227 MR c np
gr

  18   18 2583 3468 PO
gs 1464 389 4227 4227 MR c np
gr

  18   18 2611 3467 PO
gs 1464 389 4227 4227 MR c np
gr

/c19 { 1.000000 0.187500 0.000000 sr} bdef
c19
  18   18 2651 3458 PO
gs 1464 389 4227 4227 MR c np
gr

  18   18 3098 3456 PO
gs 1464 389 4227 4227 MR c np
gr

  18   18 2668 3452 PO
gs 1464 389 4227 4227 MR c np
gr

  18   18 2673 3446 PO
gs 1464 389 4227 4227 MR c np
gr

  18   18 2628 3447 PO
gs 1464 389 4227 4227 MR c np
gr

  18   18 2662 3443 PO
gs 1464 389 4227 4227 MR c np
gr

  18   18 2708 3438 PO
gs 1464 389 4227 4227 MR c np
gr

  18   18 2644 3441 PO
gs 1464 389 4227 4227 MR c np
gr

  18   18 2169 3437 PO
gs 1464 389 4227 4227 MR c np
gr

  18   18 2649 3431 PO
gs 1464 389 4227 4227 MR c np
gr

  18   18 2690 3436 PO
gs 1464 389 4227 4227 MR c np
gr

  18   18 3873 3423 PO
gs 1464 389 4227 4227 MR c np
gr

  18   18 2655 3425 PO
gs 1464 389 4227 4227 MR c np
gr

  18   18 2611 3431 PO
gs 1464 389 4227 4227 MR c np
gr

  18   18 2622 3415 PO
gs 1464 389 4227 4227 MR c np
gr

  18   18 2633 3415 PO
gs 1464 389 4227 4227 MR c np
gr

/c20 { 1.000000 0.250000 0.000000 sr} bdef
c20
  18   18 2635 3419 PO
gs 1464 389 4227 4227 MR c np
gr

  18   18 3452 3405 PO
gs 1464 389 4227 4227 MR c np
gr

  18   18 2687 3408 PO
gs 1464 389 4227 4227 MR c np
gr

  18   18 2656 3410 PO
gs 1464 389 4227 4227 MR c np
gr

  18   18 2595 3401 PO
gs 1464 389 4227 4227 MR c np
gr

  18   18 2663 3398 PO
gs 1464 389 4227 4227 MR c np
gr

  18   18 2668 3401 PO
gs 1464 389 4227 4227 MR c np
gr

  18   18 2658 3386 PO
gs 1464 389 4227 4227 MR c np
gr

  18   18 2662 3395 PO
gs 1464 389 4227 4227 MR c np
gr

  18   18 3196 3387 PO
gs 1464 389 4227 4227 MR c np
gr

  18   18 2629 3389 PO
gs 1464 389 4227 4227 MR c np
gr

  18   18 2668 3383 PO
gs 1464 389 4227 4227 MR c np
gr

  18   18 2680 3375 PO
gs 1464 389 4227 4227 MR c np
gr

  18   18 2703 3374 PO
gs 1464 389 4227 4227 MR c np
gr

  18   18 3466 3372 PO
gs 1464 389 4227 4227 MR c np
gr

/c21 { 1.000000 0.312500 0.000000 sr} bdef
c21
  18   18 2767 3362 PO
gs 1464 389 4227 4227 MR c np
gr

  18   18 2892 3378 PO
gs 1464 389 4227 4227 MR c np
gr

  18   18 2795 3363 PO
gs 1464 389 4227 4227 MR c np
gr

  18   18 2728 3354 PO
gs 1464 389 4227 4227 MR c np
gr

  18   18 2576 3356 PO
gs 1464 389 4227 4227 MR c np
gr

  18   18 2742 3355 PO
gs 1464 389 4227 4227 MR c np
gr

  18   18 3325 3350 PO
gs 1464 389 4227 4227 MR c np
gr

  18   18 2774 3345 PO
gs 1464 389 4227 4227 MR c np
gr

  18   18 2796 3342 PO
gs 1464 389 4227 4227 MR c np
gr

  18   18 2705 3346 PO
gs 1464 389 4227 4227 MR c np
gr

  18   18 2735 3334 PO
gs 1464 389 4227 4227 MR c np
gr

  18   18 2838 3337 PO
gs 1464 389 4227 4227 MR c np
gr

  18   18 2803 3332 PO
gs 1464 389 4227 4227 MR c np
gr

  18   18 2728 3334 PO
gs 1464 389 4227 4227 MR c np
gr

  18   18 2793 3313 PO
gs 1464 389 4227 4227 MR c np
gr

  18   18 2692 3343 PO
gs 1464 389 4227 4227 MR c np
gr

/c22 { 1.000000 0.375000 0.000000 sr} bdef
c22
  18   18 2771 3330 PO
gs 1464 389 4227 4227 MR c np
gr

  18   18 3477 3310 PO
gs 1464 389 4227 4227 MR c np
gr

  18   18 2774 3311 PO
gs 1464 389 4227 4227 MR c np
gr

  18   18 2762 3305 PO
gs 1464 389 4227 4227 MR c np
gr

  18   18 2758 3320 PO
gs 1464 389 4227 4227 MR c np
gr

  18   18 2782 3310 PO
gs 1464 389 4227 4227 MR c np
gr

  18   18 2786 3302 PO
gs 1464 389 4227 4227 MR c np
gr

  18   18 2749 3304 PO
gs 1464 389 4227 4227 MR c np
gr

  18   18 2760 3307 PO
gs 1464 389 4227 4227 MR c np
gr

  18   18 2949 3295 PO
gs 1464 389 4227 4227 MR c np
gr

  18   18 3305 3288 PO
gs 1464 389 4227 4227 MR c np
gr

  18   18 2799 3292 PO
gs 1464 389 4227 4227 MR c np
gr

  18   18 2766 3284 PO
gs 1464 389 4227 4227 MR c np
gr

  18   18 2794 3278 PO
gs 1464 389 4227 4227 MR c np
gr

  18   18 2861 3285 PO
gs 1464 389 4227 4227 MR c np
gr

  18   18 2773 3273 PO
gs 1464 389 4227 4227 MR c np
gr

/c23 { 1.000000 0.437500 0.000000 sr} bdef
c23
  18   18 2860 3272 PO
gs 1464 389 4227 4227 MR c np
gr

  18   18 2806 3274 PO
gs 1464 389 4227 4227 MR c np
gr

  18   18 2801 3259 PO
gs 1464 389 4227 4227 MR c np
gr

  18   18 2849 3277 PO
gs 1464 389 4227 4227 MR c np
gr

  18   18 2651 3264 PO
gs 1464 389 4227 4227 MR c np
gr

  18   18 2616 3257 PO
gs 1464 389 4227 4227 MR c np
gr

  18   18 2803 3262 PO
gs 1464 389 4227 4227 MR c np
gr

  18   18 2597 3257 PO
gs 1464 389 4227 4227 MR c np
gr

  18   18 2812 3243 PO
gs 1464 389 4227 4227 MR c np
gr

  18   18 2673 3254 PO
gs 1464 389 4227 4227 MR c np
gr

  18   18 2692 3245 PO
gs 1464 389 4227 4227 MR c np
gr

  18   18 2787 3245 PO
gs 1464 389 4227 4227 MR c np
gr

  18   18 2833 3239 PO
gs 1464 389 4227 4227 MR c np
gr

  18   18 2811 3239 PO
gs 1464 389 4227 4227 MR c np
gr

  18   18 2841 3235 PO
gs 1464 389 4227 4227 MR c np
gr

/c24 { 1.000000 0.500000 0.000000 sr} bdef
c24
  18   18 2914 3223 PO
gs 1464 389 4227 4227 MR c np
gr

  18   18 2904 3228 PO
gs 1464 389 4227 4227 MR c np
gr

  18   18 2836 3224 PO
gs 1464 389 4227 4227 MR c np
gr

  18   18 3148 3227 PO
gs 1464 389 4227 4227 MR c np
gr

  18   18 2847 3223 PO
gs 1464 389 4227 4227 MR c np
gr

  18   18 2846 3213 PO
gs 1464 389 4227 4227 MR c np
gr

  18   18 2853 3218 PO
gs 1464 389 4227 4227 MR c np
gr

  18   18 3134 3222 PO
gs 1464 389 4227 4227 MR c np
gr

  18   18 2855 3207 PO
gs 1464 389 4227 4227 MR c np
gr

  18   18 3508 3199 PO
gs 1464 389 4227 4227 MR c np
gr

  18   18 3103 3206 PO
gs 1464 389 4227 4227 MR c np
gr

  18   18 2880 3204 PO
gs 1464 389 4227 4227 MR c np
gr

  18   18 2915 3186 PO
gs 1464 389 4227 4227 MR c np
gr

  18   18 2870 3202 PO
gs 1464 389 4227 4227 MR c np
gr

  18   18 2962 3179 PO
gs 1464 389 4227 4227 MR c np
gr

  18   18 2910 3184 PO
gs 1464 389 4227 4227 MR c np
gr

/c25 { 1.000000 0.562500 0.000000 sr} bdef
c25
  18   18 2944 3182 PO
gs 1464 389 4227 4227 MR c np
gr

  18   18 2907 3190 PO
gs 1464 389 4227 4227 MR c np
gr

  18   18 2882 3167 PO
gs 1464 389 4227 4227 MR c np
gr

  18   18 2908 3172 PO
gs 1464 389 4227 4227 MR c np
gr

  18   18 3197 3158 PO
gs 1464 389 4227 4227 MR c np
gr

  18   18 3138 3175 PO
gs 1464 389 4227 4227 MR c np
gr

  18   18 2928 3166 PO
gs 1464 389 4227 4227 MR c np
gr

  18   18 2986 3169 PO
gs 1464 389 4227 4227 MR c np
gr

  18   18 2924 3163 PO
gs 1464 389 4227 4227 MR c np
gr

  18   18 2925 3169 PO
gs 1464 389 4227 4227 MR c np
gr

  18   18 2970 3158 PO
gs 1464 389 4227 4227 MR c np
gr

  18   18 2922 3151 PO
gs 1464 389 4227 4227 MR c np
gr

  18   18 2916 3154 PO
gs 1464 389 4227 4227 MR c np
gr

  18   18 2952 3154 PO
gs 1464 389 4227 4227 MR c np
gr

  18   18 2888 3144 PO
gs 1464 389 4227 4227 MR c np
gr

/c26 { 1.000000 0.625000 0.000000 sr} bdef
c26
  18   18 2921 3143 PO
gs 1464 389 4227 4227 MR c np
gr

  18   18 2938 3134 PO
gs 1464 389 4227 4227 MR c np
gr

  18   18 2934 3124 PO
gs 1464 389 4227 4227 MR c np
gr

  18   18 2948 3141 PO
gs 1464 389 4227 4227 MR c np
gr

  18   18 2959 3130 PO
gs 1464 389 4227 4227 MR c np
gr

  18   18 2951 3131 PO
gs 1464 389 4227 4227 MR c np
gr

  18   18 2978 3122 PO
gs 1464 389 4227 4227 MR c np
gr

  18   18 2989 3126 PO
gs 1464 389 4227 4227 MR c np
gr

  18   18 3225 3103 PO
gs 1464 389 4227 4227 MR c np
gr

  18   18 3004 3105 PO
gs 1464 389 4227 4227 MR c np
gr

  18   18 2983 3112 PO
gs 1464 389 4227 4227 MR c np
gr

  18   18 3001 3099 PO
gs 1464 389 4227 4227 MR c np
gr

  18   18 2994 3115 PO
gs 1464 389 4227 4227 MR c np
gr

  18   18 2993 3108 PO
gs 1464 389 4227 4227 MR c np
gr

  18   18 2996 3095 PO
gs 1464 389 4227 4227 MR c np
gr

  18   18 3021 3105 PO
gs 1464 389 4227 4227 MR c np
gr

/c27 { 1.000000 0.687500 0.000000 sr} bdef
c27
  18   18 3362 3096 PO
gs 1464 389 4227 4227 MR c np
gr

  18   18 2986 3082 PO
gs 1464 389 4227 4227 MR c np
gr

  18   18 2827 3092 PO
gs 1464 389 4227 4227 MR c np
gr

  18   18 3067 3098 PO
gs 1464 389 4227 4227 MR c np
gr

  18   18 3588 3085 PO
gs 1464 389 4227 4227 MR c np
gr

  18   18 2995 3080 PO
gs 1464 389 4227 4227 MR c np
gr

  18   18 4189 3076 PO
gs 1464 389 4227 4227 MR c np
gr

  18   18 3012 3077 PO
gs 1464 389 4227 4227 MR c np
gr

  18   18 2969 3081 PO
gs 1464 389 4227 4227 MR c np
gr

  18   18 3051 3059 PO
gs 1464 389 4227 4227 MR c np
gr

  18   18 2950 3054 PO
gs 1464 389 4227 4227 MR c np
gr

  18   18 3027 3061 PO
gs 1464 389 4227 4227 MR c np
gr

  18   18 3017 3072 PO
gs 1464 389 4227 4227 MR c np
gr

  18   18 3025 3054 PO
gs 1464 389 4227 4227 MR c np
gr

  18   18 3025 3048 PO
gs 1464 389 4227 4227 MR c np
gr

  18   18 2863 3048 PO
gs 1464 389 4227 4227 MR c np
gr

/c28 { 1.000000 0.750000 0.000000 sr} bdef
c28
  18   18 3016 3047 PO
gs 1464 389 4227 4227 MR c np
gr

  18   18 3021 3043 PO
gs 1464 389 4227 4227 MR c np
gr

  18   18 3004 3041 PO
gs 1464 389 4227 4227 MR c np
gr

  18   18 3031 3035 PO
gs 1464 389 4227 4227 MR c np
gr

  18   18 3053 3040 PO
gs 1464 389 4227 4227 MR c np
gr

  18   18 3372 3024 PO
gs 1464 389 4227 4227 MR c np
gr

  18   18 3047 3042 PO
gs 1464 389 4227 4227 MR c np
gr

  18   18 3097 3024 PO
gs 1464 389 4227 4227 MR c np
gr

  18   18 2964 3021 PO
gs 1464 389 4227 4227 MR c np
gr

  18   18 3031 3021 PO
gs 1464 389 4227 4227 MR c np
gr

  18   18 3102 3011 PO
gs 1464 389 4227 4227 MR c np
gr

  18   18 2923 3026 PO
gs 1464 389 4227 4227 MR c np
gr

  18   18 2869 3010 PO
gs 1464 389 4227 4227 MR c np
gr

  18   18 3053 3013 PO
gs 1464 389 4227 4227 MR c np
gr

  18   18 3064 3008 PO
gs 1464 389 4227 4227 MR c np
gr

/c29 { 1.000000 0.812500 0.000000 sr} bdef
c29
  18   18 3012 3002 PO
gs 1464 389 4227 4227 MR c np
gr

  18   18 3074 2992 PO
gs 1464 389 4227 4227 MR c np
gr

  18   18 3071 3007 PO
gs 1464 389 4227 4227 MR c np
gr

  18   18 3099 2999 PO
gs 1464 389 4227 4227 MR c np
gr

  18   18 3077 2998 PO
gs 1464 389 4227 4227 MR c np
gr

  18   18 3080 2991 PO
gs 1464 389 4227 4227 MR c np
gr

  18   18 3080 2989 PO
gs 1464 389 4227 4227 MR c np
gr

  18   18 3052 2984 PO
gs 1464 389 4227 4227 MR c np
gr

  18   18 3089 2980 PO
gs 1464 389 4227 4227 MR c np
gr

  18   18 3034 2977 PO
gs 1464 389 4227 4227 MR c np
gr

  18   18 3093 2963 PO
gs 1464 389 4227 4227 MR c np
gr

  18   18 3091 2978 PO
gs 1464 389 4227 4227 MR c np
gr

  18   18 3100 2969 PO
gs 1464 389 4227 4227 MR c np
gr

  18   18 3099 2965 PO
gs 1464 389 4227 4227 MR c np
gr

  18   18 3115 2968 PO
gs 1464 389 4227 4227 MR c np
gr

  18   18 4151 2959 PO
gs 1464 389 4227 4227 MR c np
gr

/c30 { 1.000000 0.875000 0.000000 sr} bdef
c30
  18   18 3124 2959 PO
gs 1464 389 4227 4227 MR c np
gr

  18   18 3106 2959 PO
gs 1464 389 4227 4227 MR c np
gr

  18   18 3168 2953 PO
gs 1464 389 4227 4227 MR c np
gr

  18   18 3110 2948 PO
gs 1464 389 4227 4227 MR c np
gr

  18   18 3167 2936 PO
gs 1464 389 4227 4227 MR c np
gr

  18   18 3458 2942 PO
gs 1464 389 4227 4227 MR c np
gr

  18   18 3147 2942 PO
gs 1464 389 4227 4227 MR c np
gr

  18   18 3142 2939 PO
gs 1464 389 4227 4227 MR c np
gr

  18   18 3043 2935 PO
gs 1464 389 4227 4227 MR c np
gr

  18   18 3101 2933 PO
gs 1464 389 4227 4227 MR c np
gr

  18   18 3127 2928 PO
gs 1464 389 4227 4227 MR c np
gr

  18   18 3155 2921 PO
gs 1464 389 4227 4227 MR c np
gr

  18   18 3923 2924 PO
gs 1464 389 4227 4227 MR c np
gr

  18   18 3154 2918 PO
gs 1464 389 4227 4227 MR c np
gr

  18   18 3174 2926 PO
gs 1464 389 4227 4227 MR c np
gr

  18   18 3185 2923 PO
gs 1464 389 4227 4227 MR c np
gr

/c31 { 1.000000 0.937500 0.000000 sr} bdef
c31
  18   18 3189 2905 PO
gs 1464 389 4227 4227 MR c np
gr

  18   18 3173 2901 PO
gs 1464 389 4227 4227 MR c np
gr

  18   18 3203 2904 PO
gs 1464 389 4227 4227 MR c np
gr

  18   18 3331 2898 PO
gs 1464 389 4227 4227 MR c np
gr

  18   18 3188 2901 PO
gs 1464 389 4227 4227 MR c np
gr

  18   18 3665 2886 PO
gs 1464 389 4227 4227 MR c np
gr

  18   18 2996 2891 PO
gs 1464 389 4227 4227 MR c np
gr

  18   18 3181 2895 PO
gs 1464 389 4227 4227 MR c np
gr

  18   18 3248 2901 PO
gs 1464 389 4227 4227 MR c np
gr

  18   18 2941 2886 PO
gs 1464 389 4227 4227 MR c np
gr

  18   18 3251 2881 PO
gs 1464 389 4227 4227 MR c np
gr

  18   18 3207 2878 PO
gs 1464 389 4227 4227 MR c np
gr

  18   18 3181 2881 PO
gs 1464 389 4227 4227 MR c np
gr

  18   18 3180 2864 PO
gs 1464 389 4227 4227 MR c np
gr

  18   18 3086 2870 PO
gs 1464 389 4227 4227 MR c np
gr

/c32 { 1.000000 1.000000 0.000000 sr} bdef
c32
  18   18 2860 2875 PO
gs 1464 389 4227 4227 MR c np
gr

  18   18 3211 2855 PO
gs 1464 389 4227 4227 MR c np
gr

  18   18 3197 2865 PO
gs 1464 389 4227 4227 MR c np
gr

  18   18 3202 2849 PO
gs 1464 389 4227 4227 MR c np
gr

  18   18 2861 2854 PO
gs 1464 389 4227 4227 MR c np
gr

  18   18 3018 2849 PO
gs 1464 389 4227 4227 MR c np
gr

  18   18 2851 2847 PO
gs 1464 389 4227 4227 MR c np
gr

  18   18 2991 2845 PO
gs 1464 389 4227 4227 MR c np
gr

  18   18 3222 2844 PO
gs 1464 389 4227 4227 MR c np
gr

  18   18 3212 2849 PO
gs 1464 389 4227 4227 MR c np
gr

  18   18 3059 2836 PO
gs 1464 389 4227 4227 MR c np
gr

  18   18 3289 2836 PO
gs 1464 389 4227 4227 MR c np
gr

  18   18 3241 2830 PO
gs 1464 389 4227 4227 MR c np
gr

  18   18 3231 2830 PO
gs 1464 389 4227 4227 MR c np
gr

  18   18 3252 2829 PO
gs 1464 389 4227 4227 MR c np
gr

  18   18 4116 2824 PO
gs 1464 389 4227 4227 MR c np
gr

/c33 { 0.937500 1.000000 0.062500 sr} bdef
c33
  18   18 3255 2818 PO
gs 1464 389 4227 4227 MR c np
gr

  18   18 3230 2820 PO
gs 1464 389 4227 4227 MR c np
gr

  18   18 3264 2800 PO
gs 1464 389 4227 4227 MR c np
gr

  18   18 3257 2815 PO
gs 1464 389 4227 4227 MR c np
gr

  18   18 3339 2815 PO
gs 1464 389 4227 4227 MR c np
gr

  18   18 3265 2806 PO
gs 1464 389 4227 4227 MR c np
gr

  18   18 3259 2805 PO
gs 1464 389 4227 4227 MR c np
gr

  18   18 3264 2803 PO
gs 1464 389 4227 4227 MR c np
gr

  18   18 4003 2791 PO
gs 1464 389 4227 4227 MR c np
gr

  18   18 3181 2807 PO
gs 1464 389 4227 4227 MR c np
gr

  18   18 3276 2789 PO
gs 1464 389 4227 4227 MR c np
gr

  18   18 4722 2778 PO
gs 1464 389 4227 4227 MR c np
gr

  18   18 3281 2768 PO
gs 1464 389 4227 4227 MR c np
gr

  18   18 3291 2779 PO
gs 1464 389 4227 4227 MR c np
gr

  18   18 3284 2782 PO
gs 1464 389 4227 4227 MR c np
gr

/c34 { 0.875000 1.000000 0.125000 sr} bdef
c34
  18   18 3322 2770 PO
gs 1464 389 4227 4227 MR c np
gr

  18   18 3243 2781 PO
gs 1464 389 4227 4227 MR c np
gr

  18   18 3292 2768 PO
gs 1464 389 4227 4227 MR c np
gr

  18   18 3347 2771 PO
gs 1464 389 4227 4227 MR c np
gr

  18   18 3277 2771 PO
gs 1464 389 4227 4227 MR c np
gr

  18   18 3825 2771 PO
gs 1464 389 4227 4227 MR c np
gr

  18   18 3207 2760 PO
gs 1464 389 4227 4227 MR c np
gr

  18   18 3340 2758 PO
gs 1464 389 4227 4227 MR c np
gr

  18   18 3326 2745 PO
gs 1464 389 4227 4227 MR c np
gr

  18   18 3357 2756 PO
gs 1464 389 4227 4227 MR c np
gr

  18   18 3163 2735 PO
gs 1464 389 4227 4227 MR c np
gr

  18   18 3306 2749 PO
gs 1464 389 4227 4227 MR c np
gr

  18   18 3327 2740 PO
gs 1464 389 4227 4227 MR c np
gr

  18   18 3322 2725 PO
gs 1464 389 4227 4227 MR c np
gr

  18   18 3361 2739 PO
gs 1464 389 4227 4227 MR c np
gr

  18   18 3626 2735 PO
gs 1464 389 4227 4227 MR c np
gr

/c35 { 0.812500 1.000000 0.187500 sr} bdef
c35
  18   18 3153 2737 PO
gs 1464 389 4227 4227 MR c np
gr

  18   18 3356 2723 PO
gs 1464 389 4227 4227 MR c np
gr

  18   18 3372 2731 PO
gs 1464 389 4227 4227 MR c np
gr

  18   18 3349 2726 PO
gs 1464 389 4227 4227 MR c np
gr

  18   18 3850 2713 PO
gs 1464 389 4227 4227 MR c np
gr

  18   18 3978 2714 PO
gs 1464 389 4227 4227 MR c np
gr

  18   18 3361 2713 PO
gs 1464 389 4227 4227 MR c np
gr

  18   18 3360 2708 PO
gs 1464 389 4227 4227 MR c np
gr

  18   18 3432 2707 PO
gs 1464 389 4227 4227 MR c np
gr

  18   18 3370 2704 PO
gs 1464 389 4227 4227 MR c np
gr

  18   18 3369 2704 PO
gs 1464 389 4227 4227 MR c np
gr

  18   18 3376 2699 PO
gs 1464 389 4227 4227 MR c np
gr

  18   18 3542 2678 PO
gs 1464 389 4227 4227 MR c np
gr

  18   18 3212 2687 PO
gs 1464 389 4227 4227 MR c np
gr

  18   18 3414 2684 PO
gs 1464 389 4227 4227 MR c np
gr

  18   18 3263 2691 PO
gs 1464 389 4227 4227 MR c np
gr

/c36 { 0.750000 1.000000 0.250000 sr} bdef
c36
  18   18 3280 2678 PO
gs 1464 389 4227 4227 MR c np
gr

  18   18 3379 2673 PO
gs 1464 389 4227 4227 MR c np
gr

  18   18 3376 2689 PO
gs 1464 389 4227 4227 MR c np
gr

  18   18 3397 2673 PO
gs 1464 389 4227 4227 MR c np
gr

  18   18 3393 2677 PO
gs 1464 389 4227 4227 MR c np
gr

  18   18 3403 2670 PO
gs 1464 389 4227 4227 MR c np
gr

  18   18 3477 2656 PO
gs 1464 389 4227 4227 MR c np
gr

  18   18 3412 2650 PO
gs 1464 389 4227 4227 MR c np
gr

  18   18 3415 2653 PO
gs 1464 389 4227 4227 MR c np
gr

  18   18 3444 2651 PO
gs 1464 389 4227 4227 MR c np
gr

  18   18 3413 2634 PO
gs 1464 389 4227 4227 MR c np
gr

  18   18 3493 2655 PO
gs 1464 389 4227 4227 MR c np
gr

  18   18 3498 2650 PO
gs 1464 389 4227 4227 MR c np
gr

  18   18 3328 2645 PO
gs 1464 389 4227 4227 MR c np
gr

  18   18 3340 2620 PO
gs 1464 389 4227 4227 MR c np
gr

/c37 { 0.687500 1.000000 0.312500 sr} bdef
c37
  18   18 3430 2637 PO
gs 1464 389 4227 4227 MR c np
gr

  18   18 3441 2623 PO
gs 1464 389 4227 4227 MR c np
gr

  18   18 3391 2627 PO
gs 1464 389 4227 4227 MR c np
gr

  18   18 3377 2628 PO
gs 1464 389 4227 4227 MR c np
gr

  18   18 3444 2624 PO
gs 1464 389 4227 4227 MR c np
gr

  18   18 3421 2626 PO
gs 1464 389 4227 4227 MR c np
gr

  18   18 3445 2613 PO
gs 1464 389 4227 4227 MR c np
gr

  18   18 3420 2607 PO
gs 1464 389 4227 4227 MR c np
gr

  18   18 3470 2613 PO
gs 1464 389 4227 4227 MR c np
gr

  18   18 3444 2610 PO
gs 1464 389 4227 4227 MR c np
gr

  18   18 3443 2598 PO
gs 1464 389 4227 4227 MR c np
gr

  18   18 3480 2602 PO
gs 1464 389 4227 4227 MR c np
gr

  18   18 3401 2605 PO
gs 1464 389 4227 4227 MR c np
gr

  18   18 3431 2607 PO
gs 1464 389 4227 4227 MR c np
gr

  18   18 3484 2589 PO
gs 1464 389 4227 4227 MR c np
gr

  18   18 3465 2596 PO
gs 1464 389 4227 4227 MR c np
gr

/c38 { 0.625000 1.000000 0.375000 sr} bdef
c38
  18   18 3482 2584 PO
gs 1464 389 4227 4227 MR c np
gr

  18   18 3488 2594 PO
gs 1464 389 4227 4227 MR c np
gr

  18   18 3468 2583 PO
gs 1464 389 4227 4227 MR c np
gr

  18   18 3496 2583 PO
gs 1464 389 4227 4227 MR c np
gr

  18   18 3456 2578 PO
gs 1464 389 4227 4227 MR c np
gr

  18   18 4035 2574 PO
gs 1464 389 4227 4227 MR c np
gr

  18   18 3479 2576 PO
gs 1464 389 4227 4227 MR c np
gr

  18   18 3515 2579 PO
gs 1464 389 4227 4227 MR c np
gr

  18   18 3674 2572 PO
gs 1464 389 4227 4227 MR c np
gr

  18   18 3552 2567 PO
gs 1464 389 4227 4227 MR c np
gr

  18   18 3514 2562 PO
gs 1464 389 4227 4227 MR c np
gr

  18   18 3485 2560 PO
gs 1464 389 4227 4227 MR c np
gr

  18   18 3509 2560 PO
gs 1464 389 4227 4227 MR c np
gr

  18   18 3520 2548 PO
gs 1464 389 4227 4227 MR c np
gr

  18   18 3623 2545 PO
gs 1464 389 4227 4227 MR c np
gr

/c39 { 0.562500 1.000000 0.437500 sr} bdef
c39
  18   18 3522 2538 PO
gs 1464 389 4227 4227 MR c np
gr

  18   18 3526 2543 PO
gs 1464 389 4227 4227 MR c np
gr

  18   18 3510 2544 PO
gs 1464 389 4227 4227 MR c np
gr

  18   18 3545 2548 PO
gs 1464 389 4227 4227 MR c np
gr

  18   18 3505 2527 PO
gs 1464 389 4227 4227 MR c np
gr

  18   18 3559 2531 PO
gs 1464 389 4227 4227 MR c np
gr

  18   18 3627 2527 PO
gs 1464 389 4227 4227 MR c np
gr

  18   18 3437 2536 PO
gs 1464 389 4227 4227 MR c np
gr

  18   18 4030 2513 PO
gs 1464 389 4227 4227 MR c np
gr

  18   18 3583 2532 PO
gs 1464 389 4227 4227 MR c np
gr

  18   18 3576 2503 PO
gs 1464 389 4227 4227 MR c np
gr

  18   18 4521 2515 PO
gs 1464 389 4227 4227 MR c np
gr

  18   18 3629 2511 PO
gs 1464 389 4227 4227 MR c np
gr

  18   18 3469 2506 PO
gs 1464 389 4227 4227 MR c np
gr

  18   18 3589 2503 PO
gs 1464 389 4227 4227 MR c np
gr

  18   18 3596 2499 PO
gs 1464 389 4227 4227 MR c np
gr

/c40 { 0.500000 1.000000 0.500000 sr} bdef
c40
  18   18 3624 2497 PO
gs 1464 389 4227 4227 MR c np
gr

  18   18 3214 2494 PO
gs 1464 389 4227 4227 MR c np
gr

  18   18 3565 2497 PO
gs 1464 389 4227 4227 MR c np
gr

  18   18 3468 2484 PO
gs 1464 389 4227 4227 MR c np
gr

  18   18 3669 2484 PO
gs 1464 389 4227 4227 MR c np
gr

  18   18 3471 2491 PO
gs 1464 389 4227 4227 MR c np
gr

  18   18 3627 2483 PO
gs 1464 389 4227 4227 MR c np
gr

  18   18 3609 2481 PO
gs 1464 389 4227 4227 MR c np
gr

  18   18 3643 2476 PO
gs 1464 389 4227 4227 MR c np
gr

  18   18 3572 2475 PO
gs 1464 389 4227 4227 MR c np
gr

  18   18 3624 2461 PO
gs 1464 389 4227 4227 MR c np
gr

  18   18 3620 2468 PO
gs 1464 389 4227 4227 MR c np
gr

  18   18 3615 2468 PO
gs 1464 389 4227 4227 MR c np
gr

  18   18 3668 2480 PO
gs 1464 389 4227 4227 MR c np
gr

  18   18 3584 2454 PO
gs 1464 389 4227 4227 MR c np
gr

  18   18 3689 2457 PO
gs 1464 389 4227 4227 MR c np
gr

/c41 { 0.437500 1.000000 0.562500 sr} bdef
c41
  18   18 3627 2456 PO
gs 1464 389 4227 4227 MR c np
gr

  18   18 2399 2449 PO
gs 1464 389 4227 4227 MR c np
gr

  18   18 3593 2447 PO
gs 1464 389 4227 4227 MR c np
gr

  18   18 3661 2445 PO
gs 1464 389 4227 4227 MR c np
gr

  18   18 3655 2445 PO
gs 1464 389 4227 4227 MR c np
gr

  18   18 3651 2434 PO
gs 1464 389 4227 4227 MR c np
gr

  18   18 3662 2442 PO
gs 1464 389 4227 4227 MR c np
gr

  18   18 3870 2425 PO
gs 1464 389 4227 4227 MR c np
gr

  18   18 3663 2432 PO
gs 1464 389 4227 4227 MR c np
gr

  18   18 3654 2431 PO
gs 1464 389 4227 4227 MR c np
gr

  18   18 3677 2415 PO
gs 1464 389 4227 4227 MR c np
gr

  18   18 3663 2411 PO
gs 1464 389 4227 4227 MR c np
gr

  18   18 3044 2424 PO
gs 1464 389 4227 4227 MR c np
gr

  18   18 3633 2416 PO
gs 1464 389 4227 4227 MR c np
gr

  18   18 3676 2412 PO
gs 1464 389 4227 4227 MR c np
gr

/c42 { 0.375000 1.000000 0.625000 sr} bdef
c42
  18   18 3647 2411 PO
gs 1464 389 4227 4227 MR c np
gr

  18   18 3623 2404 PO
gs 1464 389 4227 4227 MR c np
gr

  18   18 3682 2412 PO
gs 1464 389 4227 4227 MR c np
gr

  18   18 3687 2396 PO
gs 1464 389 4227 4227 MR c np
gr

  18   18 3638 2396 PO
gs 1464 389 4227 4227 MR c np
gr

  18   18 3799 2397 PO
gs 1464 389 4227 4227 MR c np
gr

  18   18 3620 2398 PO
gs 1464 389 4227 4227 MR c np
gr

  18   18 3648 2400 PO
gs 1464 389 4227 4227 MR c np
gr

  18   18 3690 2392 PO
gs 1464 389 4227 4227 MR c np
gr

  18   18 3688 2374 PO
gs 1464 389 4227 4227 MR c np
gr

  18   18 3416 2388 PO
gs 1464 389 4227 4227 MR c np
gr

  18   18 3717 2378 PO
gs 1464 389 4227 4227 MR c np
gr

  18   18 3687 2370 PO
gs 1464 389 4227 4227 MR c np
gr

  18   18 3661 2368 PO
gs 1464 389 4227 4227 MR c np
gr

  18   18 3680 2365 PO
gs 1464 389 4227 4227 MR c np
gr

  18   18 3717 2367 PO
gs 1464 389 4227 4227 MR c np
gr

/c43 { 0.312500 1.000000 0.687500 sr} bdef
c43
  18   18 3725 2366 PO
gs 1464 389 4227 4227 MR c np
gr

  18   18 3703 2357 PO
gs 1464 389 4227 4227 MR c np
gr

  18   18 3691 2353 PO
gs 1464 389 4227 4227 MR c np
gr

  18   18 3734 2353 PO
gs 1464 389 4227 4227 MR c np
gr

  18   18 3721 2359 PO
gs 1464 389 4227 4227 MR c np
gr

  18   18 3729 2351 PO
gs 1464 389 4227 4227 MR c np
gr

  18   18 3735 2351 PO
gs 1464 389 4227 4227 MR c np
gr

  18   18 3855 2333 PO
gs 1464 389 4227 4227 MR c np
gr

  18   18 3714 2344 PO
gs 1464 389 4227 4227 MR c np
gr

  18   18 3871 2330 PO
gs 1464 389 4227 4227 MR c np
gr

  18   18 3729 2327 PO
gs 1464 389 4227 4227 MR c np
gr

  18   18 3740 2331 PO
gs 1464 389 4227 4227 MR c np
gr

  18   18 3756 2326 PO
gs 1464 389 4227 4227 MR c np
gr

  18   18 3730 2331 PO
gs 1464 389 4227 4227 MR c np
gr

  18   18 3701 2321 PO
gs 1464 389 4227 4227 MR c np
gr

/c44 { 0.250000 1.000000 0.750000 sr} bdef
c44
  18   18 2554 2311 PO
gs 1464 389 4227 4227 MR c np
gr

  18   18 3792 2317 PO
gs 1464 389 4227 4227 MR c np
gr

  18   18 3481 2316 PO
gs 1464 389 4227 4227 MR c np
gr

  18   18 3767 2309 PO
gs 1464 389 4227 4227 MR c np
gr

  18   18 3755 2307 PO
gs 1464 389 4227 4227 MR c np
gr

  18   18 3781 2309 PO
gs 1464 389 4227 4227 MR c np
gr

  18   18 3784 2302 PO
gs 1464 389 4227 4227 MR c np
gr

  18   18 3788 2302 PO
gs 1464 389 4227 4227 MR c np
gr

  18   18 3787 2284 PO
gs 1464 389 4227 4227 MR c np
gr

  18   18 3751 2297 PO
gs 1464 389 4227 4227 MR c np
gr

  18   18 3743 2297 PO
gs 1464 389 4227 4227 MR c np
gr

  18   18 3798 2289 PO
gs 1464 389 4227 4227 MR c np
gr

  18   18 3807 2288 PO
gs 1464 389 4227 4227 MR c np
gr

  18   18 3762 2281 PO
gs 1464 389 4227 4227 MR c np
gr

  18   18 3790 2277 PO
gs 1464 389 4227 4227 MR c np
gr

  18   18 3798 2270 PO
gs 1464 389 4227 4227 MR c np
gr

/c45 { 0.187500 1.000000 0.812500 sr} bdef
c45
  18   18 3822 2272 PO
gs 1464 389 4227 4227 MR c np
gr

  18   18 3817 2271 PO
gs 1464 389 4227 4227 MR c np
gr

  18   18 3804 2268 PO
gs 1464 389 4227 4227 MR c np
gr

  18   18 3814 2266 PO
gs 1464 389 4227 4227 MR c np
gr

  18   18 3834 2265 PO
gs 1464 389 4227 4227 MR c np
gr

  18   18 3805 2253 PO
gs 1464 389 4227 4227 MR c np
gr

  18   18 3810 2262 PO
gs 1464 389 4227 4227 MR c np
gr

  18   18 3841 2243 PO
gs 1464 389 4227 4227 MR c np
gr

  18   18 3670 2253 PO
gs 1464 389 4227 4227 MR c np
gr

  18   18 3771 2238 PO
gs 1464 389 4227 4227 MR c np
gr

  18   18 3861 2233 PO
gs 1464 389 4227 4227 MR c np
gr

  18   18 3871 2235 PO
gs 1464 389 4227 4227 MR c np
gr

  18   18 3811 2230 PO
gs 1464 389 4227 4227 MR c np
gr

  18   18 3852 2232 PO
gs 1464 389 4227 4227 MR c np
gr

  18   18 3880 2242 PO
gs 1464 389 4227 4227 MR c np
gr

  18   18 3386 2227 PO
gs 1464 389 4227 4227 MR c np
gr

/c46 { 0.125000 1.000000 0.875000 sr} bdef
c46
  18   18 3796 2237 PO
gs 1464 389 4227 4227 MR c np
gr

  18   18 3647 2219 PO
gs 1464 389 4227 4227 MR c np
gr

  18   18 3818 2221 PO
gs 1464 389 4227 4227 MR c np
gr

  18   18 3663 2212 PO
gs 1464 389 4227 4227 MR c np
gr

  18   18 3849 2222 PO
gs 1464 389 4227 4227 MR c np
gr

  18   18 3309 2214 PO
gs 1464 389 4227 4227 MR c np
gr

  18   18 3875 2206 PO
gs 1464 389 4227 4227 MR c np
gr

  18   18 4047 2200 PO
gs 1464 389 4227 4227 MR c np
gr

  18   18 3867 2195 PO
gs 1464 389 4227 4227 MR c np
gr

  18   18 4049 2199 PO
gs 1464 389 4227 4227 MR c np
gr

  18   18 4039 2210 PO
gs 1464 389 4227 4227 MR c np
gr

  18   18 3833 2205 PO
gs 1464 389 4227 4227 MR c np
gr

  18   18 3789 2193 PO
gs 1464 389 4227 4227 MR c np
gr

  18   18 3903 2184 PO
gs 1464 389 4227 4227 MR c np
gr

  18   18 3784 2183 PO
gs 1464 389 4227 4227 MR c np
gr

/c47 { 0.062500 1.000000 0.937500 sr} bdef
c47
  18   18 3909 2184 PO
gs 1464 389 4227 4227 MR c np
gr

  18   18 3854 2178 PO
gs 1464 389 4227 4227 MR c np
gr

  18   18 3882 2177 PO
gs 1464 389 4227 4227 MR c np
gr

  18   18 3910 2159 PO
gs 1464 389 4227 4227 MR c np
gr

  18   18 3704 2176 PO
gs 1464 389 4227 4227 MR c np
gr

  18   18 3676 2164 PO
gs 1464 389 4227 4227 MR c np
gr

  18   18 3681 2159 PO
gs 1464 389 4227 4227 MR c np
gr

  18   18 3686 2164 PO
gs 1464 389 4227 4227 MR c np
gr

  18   18 3697 2156 PO
gs 1464 389 4227 4227 MR c np
gr

  18   18 3936 2150 PO
gs 1464 389 4227 4227 MR c np
gr

  18   18 3725 2146 PO
gs 1464 389 4227 4227 MR c np
gr

  18   18 3938 2148 PO
gs 1464 389 4227 4227 MR c np
gr

  18   18 3207 2151 PO
gs 1464 389 4227 4227 MR c np
gr

  18   18 3935 2144 PO
gs 1464 389 4227 4227 MR c np
gr

  18   18 3946 2142 PO
gs 1464 389 4227 4227 MR c np
gr

  18   18 2730 2133 PO
gs 1464 389 4227 4227 MR c np
gr

/c48 { 0.000000 1.000000 1.000000 sr} bdef
c48
  18   18 3937 2128 PO
gs 1464 389 4227 4227 MR c np
gr

  18   18 3959 2134 PO
gs 1464 389 4227 4227 MR c np
gr

  18   18 3867 2113 PO
gs 1464 389 4227 4227 MR c np
gr

  18   18 3919 2115 PO
gs 1464 389 4227 4227 MR c np
gr

  18   18 3948 2117 PO
gs 1464 389 4227 4227 MR c np
gr

  18   18 3932 2118 PO
gs 1464 389 4227 4227 MR c np
gr

  18   18 3971 2121 PO
gs 1464 389 4227 4227 MR c np
gr

  18   18 3966 2118 PO
gs 1464 389 4227 4227 MR c np
gr

  18   18 3971 2123 PO
gs 1464 389 4227 4227 MR c np
gr

  18   18 3945 2109 PO
gs 1464 389 4227 4227 MR c np
gr

  18   18 3976 2103 PO
gs 1464 389 4227 4227 MR c np
gr

  18   18 3970 2109 PO
gs 1464 389 4227 4227 MR c np
gr

  18   18 3985 2102 PO
gs 1464 389 4227 4227 MR c np
gr

  18   18 3981 2103 PO
gs 1464 389 4227 4227 MR c np
gr

  18   18 4169 2100 PO
gs 1464 389 4227 4227 MR c np
gr

/c49 { 0.000000 0.937500 1.000000 sr} bdef
c49
  18   18 4244 2084 PO
gs 1464 389 4227 4227 MR c np
gr

  18   18 3995 2079 PO
gs 1464 389 4227 4227 MR c np
gr

  18   18 3587 2085 PO
gs 1464 389 4227 4227 MR c np
gr

  18   18 4011 2076 PO
gs 1464 389 4227 4227 MR c np
gr

  18   18 4160 2090 PO
gs 1464 389 4227 4227 MR c np
gr

  18   18 3948 2081 PO
gs 1464 389 4227 4227 MR c np
gr

  18   18 3936 2069 PO
gs 1464 389 4227 4227 MR c np
gr

  18   18 4178 2070 PO
gs 1464 389 4227 4227 MR c np
gr

  18   18 3997 2074 PO
gs 1464 389 4227 4227 MR c np
gr

  18   18 4119 2066 PO
gs 1464 389 4227 4227 MR c np
gr

  18   18 4017 2063 PO
gs 1464 389 4227 4227 MR c np
gr

  18   18 4035 2054 PO
gs 1464 389 4227 4227 MR c np
gr

  18   18 3989 2054 PO
gs 1464 389 4227 4227 MR c np
gr

  18   18 4018 2050 PO
gs 1464 389 4227 4227 MR c np
gr

  18   18 4041 2054 PO
gs 1464 389 4227 4227 MR c np
gr

  18   18 4103 2040 PO
gs 1464 389 4227 4227 MR c np
gr

/c50 { 0.000000 0.875000 1.000000 sr} bdef
c50
  18   18 4034 2041 PO
gs 1464 389 4227 4227 MR c np
gr

  18   18 4045 2042 PO
gs 1464 389 4227 4227 MR c np
gr

  18   18 4064 2043 PO
gs 1464 389 4227 4227 MR c np
gr

  18   18 3993 2027 PO
gs 1464 389 4227 4227 MR c np
gr

  18   18 4018 2038 PO
gs 1464 389 4227 4227 MR c np
gr

  18   18 3831 2026 PO
gs 1464 389 4227 4227 MR c np
gr

  18   18 3923 2034 PO
gs 1464 389 4227 4227 MR c np
gr

  18   18 4136 2028 PO
gs 1464 389 4227 4227 MR c np
gr

  18   18 4115 2018 PO
gs 1464 389 4227 4227 MR c np
gr

  18   18 4030 2010 PO
gs 1464 389 4227 4227 MR c np
gr

  18   18 4007 2022 PO
gs 1464 389 4227 4227 MR c np
gr

  18   18 4100 2007 PO
gs 1464 389 4227 4227 MR c np
gr

  18   18 4091 2007 PO
gs 1464 389 4227 4227 MR c np
gr

  18   18 4166 2005 PO
gs 1464 389 4227 4227 MR c np
gr

  18   18 4080 2007 PO
gs 1464 389 4227 4227 MR c np
gr

  18   18 4098 2002 PO
gs 1464 389 4227 4227 MR c np
gr

/c51 { 0.000000 0.812500 1.000000 sr} bdef
c51
  18   18 4147 2002 PO
gs 1464 389 4227 4227 MR c np
gr

  18   18 4105 1994 PO
gs 1464 389 4227 4227 MR c np
gr

  18   18 4052 1995 PO
gs 1464 389 4227 4227 MR c np
gr

  18   18 3718 1977 PO
gs 1464 389 4227 4227 MR c np
gr

  18   18 4113 1988 PO
gs 1464 389 4227 4227 MR c np
gr

  18   18 4188 1976 PO
gs 1464 389 4227 4227 MR c np
gr

  18   18 4176 1973 PO
gs 1464 389 4227 4227 MR c np
gr

  18   18 4111 1970 PO
gs 1464 389 4227 4227 MR c np
gr

  18   18 4115 1974 PO
gs 1464 389 4227 4227 MR c np
gr

  18   18 4124 1958 PO
gs 1464 389 4227 4227 MR c np
gr

  18   18 4250 1954 PO
gs 1464 389 4227 4227 MR c np
gr

  18   18 4116 1967 PO
gs 1464 389 4227 4227 MR c np
gr

  18   18 4079 1952 PO
gs 1464 389 4227 4227 MR c np
gr

  18   18 4137 1959 PO
gs 1464 389 4227 4227 MR c np
gr

  18   18 4168 1963 PO
gs 1464 389 4227 4227 MR c np
gr

/c52 { 0.000000 0.750000 1.000000 sr} bdef
c52
  18   18 4129 1950 PO
gs 1464 389 4227 4227 MR c np
gr

  18   18 4127 1957 PO
gs 1464 389 4227 4227 MR c np
gr

  18   18 4151 1948 PO
gs 1464 389 4227 4227 MR c np
gr

  18   18 4150 1945 PO
gs 1464 389 4227 4227 MR c np
gr

  18   18 4078 1944 PO
gs 1464 389 4227 4227 MR c np
gr

  18   18 4141 1934 PO
gs 1464 389 4227 4227 MR c np
gr

  18   18 4082 1935 PO
gs 1464 389 4227 4227 MR c np
gr

  18   18 4147 1939 PO
gs 1464 389 4227 4227 MR c np
gr

  18   18 4169 1924 PO
gs 1464 389 4227 4227 MR c np
gr

  18   18 4016 1926 PO
gs 1464 389 4227 4227 MR c np
gr

  18   18 4181 1924 PO
gs 1464 389 4227 4227 MR c np
gr

  18   18 4300 1924 PO
gs 1464 389 4227 4227 MR c np
gr

  18   18 4166 1927 PO
gs 1464 389 4227 4227 MR c np
gr

  18   18 4014 1909 PO
gs 1464 389 4227 4227 MR c np
gr

  18   18 4179 1908 PO
gs 1464 389 4227 4227 MR c np
gr

  18   18 4296 1903 PO
gs 1464 389 4227 4227 MR c np
gr

/c53 { 0.000000 0.687500 1.000000 sr} bdef
c53
  18   18 4076 1906 PO
gs 1464 389 4227 4227 MR c np
gr

  18   18 4176 1893 PO
gs 1464 389 4227 4227 MR c np
gr

  18   18 4223 1900 PO
gs 1464 389 4227 4227 MR c np
gr

  18   18 4250 1903 PO
gs 1464 389 4227 4227 MR c np
gr

  18   18 4170 1897 PO
gs 1464 389 4227 4227 MR c np
gr

  18   18 4149 1878 PO
gs 1464 389 4227 4227 MR c np
gr

  18   18 4214 1882 PO
gs 1464 389 4227 4227 MR c np
gr

  18   18 4197 1889 PO
gs 1464 389 4227 4227 MR c np
gr

  18   18 4154 1886 PO
gs 1464 389 4227 4227 MR c np
gr

  18   18 4255 1881 PO
gs 1464 389 4227 4227 MR c np
gr

  18   18 4208 1881 PO
gs 1464 389 4227 4227 MR c np
gr

  18   18 4336 1884 PO
gs 1464 389 4227 4227 MR c np
gr

  18   18 4176 1872 PO
gs 1464 389 4227 4227 MR c np
gr

  18   18 4220 1870 PO
gs 1464 389 4227 4227 MR c np
gr

  18   18 4230 1864 PO
gs 1464 389 4227 4227 MR c np
gr

  18   18 4193 1863 PO
gs 1464 389 4227 4227 MR c np
gr

/c54 { 0.000000 0.625000 1.000000 sr} bdef
c54
  18   18 4225 1862 PO
gs 1464 389 4227 4227 MR c np
gr

  18   18 4350 1861 PO
gs 1464 389 4227 4227 MR c np
gr

  18   18 4256 1860 PO
gs 1464 389 4227 4227 MR c np
gr

  18   18 4239 1858 PO
gs 1464 389 4227 4227 MR c np
gr

  18   18 4249 1849 PO
gs 1464 389 4227 4227 MR c np
gr

  18   18 4282 1840 PO
gs 1464 389 4227 4227 MR c np
gr

  18   18 4256 1831 PO
gs 1464 389 4227 4227 MR c np
gr

  18   18 4359 1842 PO
gs 1464 389 4227 4227 MR c np
gr

  18   18 4102 1840 PO
gs 1464 389 4227 4227 MR c np
gr

  18   18 3845 1824 PO
gs 1464 389 4227 4227 MR c np
gr

  18   18 4138 1827 PO
gs 1464 389 4227 4227 MR c np
gr

  18   18 4255 1827 PO
gs 1464 389 4227 4227 MR c np
gr

  18   18 4275 1819 PO
gs 1464 389 4227 4227 MR c np
gr

  18   18 4334 1833 PO
gs 1464 389 4227 4227 MR c np
gr

  18   18 4302 1816 PO
gs 1464 389 4227 4227 MR c np
gr

/c55 { 0.000000 0.562500 1.000000 sr} bdef
c55
  18   18 4040 1816 PO
gs 1464 389 4227 4227 MR c np
gr

  18   18 4301 1811 PO
gs 1464 389 4227 4227 MR c np
gr

  18   18 4282 1813 PO
gs 1464 389 4227 4227 MR c np
gr

  18   18 4288 1806 PO
gs 1464 389 4227 4227 MR c np
gr

  18   18 3879 1810 PO
gs 1464 389 4227 4227 MR c np
gr

  18   18 4287 1804 PO
gs 1464 389 4227 4227 MR c np
gr

  18   18 4297 1791 PO
gs 1464 389 4227 4227 MR c np
gr

  18   18 4296 1791 PO
gs 1464 389 4227 4227 MR c np
gr

  18   18 4296 1781 PO
gs 1464 389 4227 4227 MR c np
gr

  18   18 4283 1796 PO
gs 1464 389 4227 4227 MR c np
gr

  18   18 4324 1797 PO
gs 1464 389 4227 4227 MR c np
gr

  18   18 4296 1775 PO
gs 1464 389 4227 4227 MR c np
gr

  18   18 3742 1767 PO
gs 1464 389 4227 4227 MR c np
gr

  18   18 3818 1775 PO
gs 1464 389 4227 4227 MR c np
gr

  18   18 4353 1782 PO
gs 1464 389 4227 4227 MR c np
gr

  18   18 4338 1772 PO
gs 1464 389 4227 4227 MR c np
gr

/c56 { 0.000000 0.500000 1.000000 sr} bdef
c56
  18   18 4439 1758 PO
gs 1464 389 4227 4227 MR c np
gr

  18   18 4165 1772 PO
gs 1464 389 4227 4227 MR c np
gr

  18   18 4052 1758 PO
gs 1464 389 4227 4227 MR c np
gr

  18   18 4382 1757 PO
gs 1464 389 4227 4227 MR c np
gr

  18   18 4415 1761 PO
gs 1464 389 4227 4227 MR c np
gr

  18   18 4341 1762 PO
gs 1464 389 4227 4227 MR c np
gr

  18   18 4313 1756 PO
gs 1464 389 4227 4227 MR c np
gr

  18   18 4347 1746 PO
gs 1464 389 4227 4227 MR c np
gr

  18   18 4416 1746 PO
gs 1464 389 4227 4227 MR c np
gr

  18   18 4348 1750 PO
gs 1464 389 4227 4227 MR c np
gr

  18   18 4358 1731 PO
gs 1464 389 4227 4227 MR c np
gr

  18   18 4008 1722 PO
gs 1464 389 4227 4227 MR c np
gr

  18   18 4356 1730 PO
gs 1464 389 4227 4227 MR c np
gr

  18   18 4357 1712 PO
gs 1464 389 4227 4227 MR c np
gr

  18   18 4370 1718 PO
gs 1464 389 4227 4227 MR c np
gr

/c57 { 0.000000 0.437500 1.000000 sr} bdef
c57
  18   18 4371 1730 PO
gs 1464 389 4227 4227 MR c np
gr

  18   18 4375 1717 PO
gs 1464 389 4227 4227 MR c np
gr

  18   18 4408 1720 PO
gs 1464 389 4227 4227 MR c np
gr

  18   18 4408 1702 PO
gs 1464 389 4227 4227 MR c np
gr

  18   18 4381 1708 PO
gs 1464 389 4227 4227 MR c np
gr

  18   18 4376 1713 PO
gs 1464 389 4227 4227 MR c np
gr

  18   18 4432 1712 PO
gs 1464 389 4227 4227 MR c np
gr

  18   18 4436 1698 PO
gs 1464 389 4227 4227 MR c np
gr

  18   18 4414 1701 PO
gs 1464 389 4227 4227 MR c np
gr

  18   18 4398 1688 PO
gs 1464 389 4227 4227 MR c np
gr

  18   18 4406 1678 PO
gs 1464 389 4227 4227 MR c np
gr

  18   18 4402 1694 PO
gs 1464 389 4227 4227 MR c np
gr

  18   18 4401 1682 PO
gs 1464 389 4227 4227 MR c np
gr

  18   18 4369 1691 PO
gs 1464 389 4227 4227 MR c np
gr

  18   18 4408 1689 PO
gs 1464 389 4227 4227 MR c np
gr

  18   18 4420 1678 PO
gs 1464 389 4227 4227 MR c np
gr

/c58 { 0.000000 0.375000 1.000000 sr} bdef
c58
  18   18 3936 1669 PO
gs 1464 389 4227 4227 MR c np
gr

  18   18 4415 1669 PO
gs 1464 389 4227 4227 MR c np
gr

  18   18 4418 1668 PO
gs 1464 389 4227 4227 MR c np
gr

  18   18 4337 1672 PO
gs 1464 389 4227 4227 MR c np
gr

  18   18 4544 1666 PO
gs 1464 389 4227 4227 MR c np
gr

  18   18 3709 1664 PO
gs 1464 389 4227 4227 MR c np
gr

  18   18 4427 1661 PO
gs 1464 389 4227 4227 MR c np
gr

  18   18 4435 1662 PO
gs 1464 389 4227 4227 MR c np
gr

  18   18 4430 1665 PO
gs 1464 389 4227 4227 MR c np
gr

  18   18 4435 1658 PO
gs 1464 389 4227 4227 MR c np
gr

  18   18 4448 1660 PO
gs 1464 389 4227 4227 MR c np
gr

  18   18 4339 1650 PO
gs 1464 389 4227 4227 MR c np
gr

  18   18 4440 1641 PO
gs 1464 389 4227 4227 MR c np
gr

  18   18 4457 1634 PO
gs 1464 389 4227 4227 MR c np
gr

  18   18 4444 1640 PO
gs 1464 389 4227 4227 MR c np
gr

  18   18 4441 1631 PO
gs 1464 389 4227 4227 MR c np
gr

/c59 { 0.000000 0.312500 1.000000 sr} bdef
c59
  18   18 4311 1635 PO
gs 1464 389 4227 4227 MR c np
gr

  18   18 4572 1626 PO
gs 1464 389 4227 4227 MR c np
gr

  18   18 4480 1631 PO
gs 1464 389 4227 4227 MR c np
gr

  18   18 4456 1635 PO
gs 1464 389 4227 4227 MR c np
gr

  18   18 4469 1624 PO
gs 1464 389 4227 4227 MR c np
gr

  18   18 4380 1617 PO
gs 1464 389 4227 4227 MR c np
gr

  18   18 4477 1617 PO
gs 1464 389 4227 4227 MR c np
gr

  18   18 4442 1619 PO
gs 1464 389 4227 4227 MR c np
gr

  18   18 4491 1600 PO
gs 1464 389 4227 4227 MR c np
gr

  18   18 4488 1604 PO
gs 1464 389 4227 4227 MR c np
gr

  18   18 4503 1605 PO
gs 1464 389 4227 4227 MR c np
gr

  18   18 4601 1590 PO
gs 1464 389 4227 4227 MR c np
gr

  18   18 4519 1597 PO
gs 1464 389 4227 4227 MR c np
gr

  18   18 4505 1603 PO
gs 1464 389 4227 4227 MR c np
gr

  18   18 4638 1595 PO
gs 1464 389 4227 4227 MR c np
gr

/c60 { 0.000000 0.250000 1.000000 sr} bdef
c60
  18   18 4504 1591 PO
gs 1464 389 4227 4227 MR c np
gr

  18   18 4523 1584 PO
gs 1464 389 4227 4227 MR c np
gr

  18   18 4514 1591 PO
gs 1464 389 4227 4227 MR c np
gr

  18   18 4596 1572 PO
gs 1464 389 4227 4227 MR c np
gr

  18   18 4520 1580 PO
gs 1464 389 4227 4227 MR c np
gr

  18   18 4534 1583 PO
gs 1464 389 4227 4227 MR c np
gr

  18   18 4534 1579 PO
gs 1464 389 4227 4227 MR c np
gr

  18   18 4535 1569 PO
gs 1464 389 4227 4227 MR c np
gr

  18   18 4540 1570 PO
gs 1464 389 4227 4227 MR c np
gr

  18   18 4537 1561 PO
gs 1464 389 4227 4227 MR c np
gr

  18   18 4546 1573 PO
gs 1464 389 4227 4227 MR c np
gr

  18   18 4538 1551 PO
gs 1464 389 4227 4227 MR c np
gr

  18   18 4548 1550 PO
gs 1464 389 4227 4227 MR c np
gr

  18   18 4544 1550 PO
gs 1464 389 4227 4227 MR c np
gr

  18   18 4141 1549 PO
gs 1464 389 4227 4227 MR c np
gr

  18   18 4549 1550 PO
gs 1464 389 4227 4227 MR c np
gr

/c61 { 0.000000 0.187500 1.000000 sr} bdef
c61
  18   18 4554 1534 PO
gs 1464 389 4227 4227 MR c np
gr

  18   18 4486 1537 PO
gs 1464 389 4227 4227 MR c np
gr

  18   18 4565 1545 PO
gs 1464 389 4227 4227 MR c np
gr

  18   18 4562 1525 PO
gs 1464 389 4227 4227 MR c np
gr

  18   18 4498 1530 PO
gs 1464 389 4227 4227 MR c np
gr

  18   18 4615 1526 PO
gs 1464 389 4227 4227 MR c np
gr

  18   18 4571 1521 PO
gs 1464 389 4227 4227 MR c np
gr

  18   18 4524 1525 PO
gs 1464 389 4227 4227 MR c np
gr

  18   18 4590 1517 PO
gs 1464 389 4227 4227 MR c np
gr

  18   18 4688 1509 PO
gs 1464 389 4227 4227 MR c np
gr

  18   18 4545 1503 PO
gs 1464 389 4227 4227 MR c np
gr

  18   18 4647 1512 PO
gs 1464 389 4227 4227 MR c np
gr

  18   18 4572 1503 PO
gs 1464 389 4227 4227 MR c np
gr

  18   18 4511 1511 PO
gs 1464 389 4227 4227 MR c np
gr

  18   18 4599 1494 PO
gs 1464 389 4227 4227 MR c np
gr

/c62 { 0.000000 0.125000 1.000000 sr} bdef
c62
  18   18 4607 1501 PO
gs 1464 389 4227 4227 MR c np
gr

  18   18 4614 1491 PO
gs 1464 389 4227 4227 MR c np
gr

  18   18 4602 1481 PO
gs 1464 389 4227 4227 MR c np
gr

  18   18 4617 1495 PO
gs 1464 389 4227 4227 MR c np
gr

  18   18 4608 1490 PO
gs 1464 389 4227 4227 MR c np
gr

  18   18 4624 1489 PO
gs 1464 389 4227 4227 MR c np
gr

  18   18 4634 1481 PO
gs 1464 389 4227 4227 MR c np
gr

  18   18 4641 1471 PO
gs 1464 389 4227 4227 MR c np
gr

  18   18 4644 1475 PO
gs 1464 389 4227 4227 MR c np
gr

  18   18 4628 1472 PO
gs 1464 389 4227 4227 MR c np
gr

  18   18 4634 1469 PO
gs 1464 389 4227 4227 MR c np
gr

  18   18 4621 1458 PO
gs 1464 389 4227 4227 MR c np
gr

  18   18 4627 1457 PO
gs 1464 389 4227 4227 MR c np
gr

  18   18 4334 1451 PO
gs 1464 389 4227 4227 MR c np
gr

  18   18 4656 1456 PO
gs 1464 389 4227 4227 MR c np
gr

  18   18 4638 1455 PO
gs 1464 389 4227 4227 MR c np
gr

/c63 { 0.000000 0.062500 1.000000 sr} bdef
c63
  18   18 4636 1462 PO
gs 1464 389 4227 4227 MR c np
gr

  18   18 4667 1451 PO
gs 1464 389 4227 4227 MR c np
gr

  18   18 4669 1436 PO
gs 1464 389 4227 4227 MR c np
gr

  18   18 4671 1440 PO
gs 1464 389 4227 4227 MR c np
gr

  18   18 3747 1447 PO
gs 1464 389 4227 4227 MR c np
gr

  18   18 4653 1432 PO
gs 1464 389 4227 4227 MR c np
gr

  18   18 4656 1428 PO
gs 1464 389 4227 4227 MR c np
gr

  18   18 4658 1422 PO
gs 1464 389 4227 4227 MR c np
gr

  18   18 4675 1427 PO
gs 1464 389 4227 4227 MR c np
gr

  18   18 4694 1427 PO
gs 1464 389 4227 4227 MR c np
gr

  18   18 4666 1419 PO
gs 1464 389 4227 4227 MR c np
gr

  18   18 4669 1405 PO
gs 1464 389 4227 4227 MR c np
gr

  18   18 4679 1413 PO
gs 1464 389 4227 4227 MR c np
gr

  18   18 4716 1409 PO
gs 1464 389 4227 4227 MR c np
gr

  18   18 4668 1413 PO
gs 1464 389 4227 4227 MR c np
gr

  18   18 4672 1397 PO
gs 1464 389 4227 4227 MR c np
gr

/c64 { 0.000000 0.000000 1.000000 sr} bdef
c64
  18   18 4877 1395 PO
gs 1464 389 4227 4227 MR c np
gr

  18   18 4744 1401 PO
gs 1464 389 4227 4227 MR c np
gr

  18   18 4992 1402 PO
gs 1464 389 4227 4227 MR c np
gr

  18   18 4731 1397 PO
gs 1464 389 4227 4227 MR c np
gr

  18   18 4711 1386 PO
gs 1464 389 4227 4227 MR c np
gr

  18   18 4697 1386 PO
gs 1464 389 4227 4227 MR c np
gr

  18   18 4911 1381 PO
gs 1464 389 4227 4227 MR c np
gr

  18   18 4688 1380 PO
gs 1464 389 4227 4227 MR c np
gr

  18   18 4724 1386 PO
gs 1464 389 4227 4227 MR c np
gr

  18   18 4773 1380 PO
gs 1464 389 4227 4227 MR c np
gr

  18   18 4769 1369 PO
gs 1464 389 4227 4227 MR c np
gr

  18   18 4778 1372 PO
gs 1464 389 4227 4227 MR c np
gr

  18   18 4934 1361 PO
gs 1464 389 4227 4227 MR c np
gr

  18   18 4744 1365 PO
gs 1464 389 4227 4227 MR c np
gr

  18   18 4781 1356 PO
gs 1464 389 4227 4227 MR c np
gr

/c65 { 0.000000 0.000000 0.937500 sr} bdef
c65
  18   18 4865 1369 PO
gs 1464 389 4227 4227 MR c np
gr

  18   18 4957 1348 PO
gs 1464 389 4227 4227 MR c np
gr

  18   18 4693 1363 PO
gs 1464 389 4227 4227 MR c np
gr

  18   18 4762 1356 PO
gs 1464 389 4227 4227 MR c np
gr

  18   18 4742 1349 PO
gs 1464 389 4227 4227 MR c np
gr

  18   18 4741 1344 PO
gs 1464 389 4227 4227 MR c np
gr

  18   18 4706 1344 PO
gs 1464 389 4227 4227 MR c np
gr

  18   18 4761 1338 PO
gs 1464 389 4227 4227 MR c np
gr

  18   18 5019 1334 PO
gs 1464 389 4227 4227 MR c np
gr

  18   18 4757 1338 PO
gs 1464 389 4227 4227 MR c np
gr

  18   18 4782 1335 PO
gs 1464 389 4227 4227 MR c np
gr

  18   18 4835 1329 PO
gs 1464 389 4227 4227 MR c np
gr

  18   18 4777 1312 PO
gs 1464 389 4227 4227 MR c np
gr

  18   18 4752 1317 PO
gs 1464 389 4227 4227 MR c np
gr

  18   18 4791 1318 PO
gs 1464 389 4227 4227 MR c np
gr

  18   18 4798 1313 PO
gs 1464 389 4227 4227 MR c np
gr

/c66 { 0.000000 0.000000 0.875000 sr} bdef
c66
  18   18 4787 1307 PO
gs 1464 389 4227 4227 MR c np
gr

  18   18 4816 1309 PO
gs 1464 389 4227 4227 MR c np
gr

  18   18 5024 1298 PO
gs 1464 389 4227 4227 MR c np
gr

  18   18 5176 1307 PO
gs 1464 389 4227 4227 MR c np
gr

  18   18 4796 1310 PO
gs 1464 389 4227 4227 MR c np
gr

  18   18 5115 1310 PO
gs 1464 389 4227 4227 MR c np
gr

  18   18 4809 1296 PO
gs 1464 389 4227 4227 MR c np
gr

  18   18 4821 1292 PO
gs 1464 389 4227 4227 MR c np
gr

  18   18 5143 1297 PO
gs 1464 389 4227 4227 MR c np
gr

  18   18 4814 1287 PO
gs 1464 389 4227 4227 MR c np
gr

  18   18 4777 1278 PO
gs 1464 389 4227 4227 MR c np
gr

  18   18 4824 1281 PO
gs 1464 389 4227 4227 MR c np
gr

  18   18 4767 1280 PO
gs 1464 389 4227 4227 MR c np
gr

  18   18 4875 1271 PO
gs 1464 389 4227 4227 MR c np
gr

  18   18 5178 1276 PO
gs 1464 389 4227 4227 MR c np
gr

/c67 { 0.000000 0.000000 0.812500 sr} bdef
c67
  18   18 4838 1265 PO
gs 1464 389 4227 4227 MR c np
gr

  18   18 4366 1262 PO
gs 1464 389 4227 4227 MR c np
gr

  18   18 4783 1261 PO
gs 1464 389 4227 4227 MR c np
gr

  18   18 5121 1259 PO
gs 1464 389 4227 4227 MR c np
gr

  18   18 4818 1251 PO
gs 1464 389 4227 4227 MR c np
gr

  18   18 4851 1246 PO
gs 1464 389 4227 4227 MR c np
gr

  18   18 4632 1247 PO
gs 1464 389 4227 4227 MR c np
gr

  18   18 4840 1246 PO
gs 1464 389 4227 4227 MR c np
gr

  18   18 4872 1256 PO
gs 1464 389 4227 4227 MR c np
gr

  18   18 4910 1255 PO
gs 1464 389 4227 4227 MR c np
gr

  18   18 4879 1254 PO
gs 1464 389 4227 4227 MR c np
gr

  18   18 4835 1235 PO
gs 1464 389 4227 4227 MR c np
gr

  18   18 4885 1239 PO
gs 1464 389 4227 4227 MR c np
gr

  18   18 4856 1223 PO
gs 1464 389 4227 4227 MR c np
gr

  18   18 4872 1236 PO
gs 1464 389 4227 4227 MR c np
gr

  18   18 4836 1223 PO
gs 1464 389 4227 4227 MR c np
gr

/c68 { 0.000000 0.000000 0.750000 sr} bdef
c68
  18   18 4870 1228 PO
gs 1464 389 4227 4227 MR c np
gr

  18   18 4872 1214 PO
gs 1464 389 4227 4227 MR c np
gr

  18   18 4884 1211 PO
gs 1464 389 4227 4227 MR c np
gr

  18   18 4850 1206 PO
gs 1464 389 4227 4227 MR c np
gr

  18   18 4895 1211 PO
gs 1464 389 4227 4227 MR c np
gr

  18   18 4929 1200 PO
gs 1464 389 4227 4227 MR c np
gr

  18   18 4908 1204 PO
gs 1464 389 4227 4227 MR c np
gr

  18   18 4912 1201 PO
gs 1464 389 4227 4227 MR c np
gr

  18   18 4912 1198 PO
gs 1464 389 4227 4227 MR c np
gr

  18   18 4752 1194 PO
gs 1464 389 4227 4227 MR c np
gr

  18   18 4883 1190 PO
gs 1464 389 4227 4227 MR c np
gr

  18   18 4919 1188 PO
gs 1464 389 4227 4227 MR c np
gr

  18   18 4926 1192 PO
gs 1464 389 4227 4227 MR c np
gr

  18   18 4867 1180 PO
gs 1464 389 4227 4227 MR c np
gr

  18   18 4916 1175 PO
gs 1464 389 4227 4227 MR c np
gr

  18   18 4954 1184 PO
gs 1464 389 4227 4227 MR c np
gr

/c69 { 0.000000 0.000000 0.687500 sr} bdef
c69
  18   18 4932 1171 PO
gs 1464 389 4227 4227 MR c np
gr

  18   18 4935 1175 PO
gs 1464 389 4227 4227 MR c np
gr

  18   18 5023 1172 PO
gs 1464 389 4227 4227 MR c np
gr

  18   18 4946 1171 PO
gs 1464 389 4227 4227 MR c np
gr

  18   18 5065 1161 PO
gs 1464 389 4227 4227 MR c np
gr

  18   18 4937 1158 PO
gs 1464 389 4227 4227 MR c np
gr

  18   18 4991 1155 PO
gs 1464 389 4227 4227 MR c np
gr

  18   18 4970 1154 PO
gs 1464 389 4227 4227 MR c np
gr

  18   18 5089 1149 PO
gs 1464 389 4227 4227 MR c np
gr

  18   18 4991 1157 PO
gs 1464 389 4227 4227 MR c np
gr

  18   18 4929 1152 PO
gs 1464 389 4227 4227 MR c np
gr

  18   18 5062 1136 PO
gs 1464 389 4227 4227 MR c np
gr

  18   18 5040 1144 PO
gs 1464 389 4227 4227 MR c np
gr

  18   18 5012 1137 PO
gs 1464 389 4227 4227 MR c np
gr

  18   18 4938 1128 PO
gs 1464 389 4227 4227 MR c np
gr

/c70 { 0.000000 0.000000 0.625000 sr} bdef
c70
  18   18 4940 1129 PO
gs 1464 389 4227 4227 MR c np
gr

  18   18 4526 1145 PO
gs 1464 389 4227 4227 MR c np
gr

  18   18 4989 1119 PO
gs 1464 389 4227 4227 MR c np
gr

  18   18 4896 1130 PO
gs 1464 389 4227 4227 MR c np
gr

  18   18 4982 1127 PO
gs 1464 389 4227 4227 MR c np
gr

  18   18 5006 1106 PO
gs 1464 389 4227 4227 MR c np
gr

  18   18 4353 1106 PO
gs 1464 389 4227 4227 MR c np
gr

  18   18 4996 1101 PO
gs 1464 389 4227 4227 MR c np
gr

  18   18 4995 1106 PO
gs 1464 389 4227 4227 MR c np
gr

  18   18 5008 1104 PO
gs 1464 389 4227 4227 MR c np
gr

  18   18 5016 1114 PO
gs 1464 389 4227 4227 MR c np
gr

  18   18 5022 1104 PO
gs 1464 389 4227 4227 MR c np
gr

  18   18 5065 1098 PO
gs 1464 389 4227 4227 MR c np
gr

  18   18 4870 1104 PO
gs 1464 389 4227 4227 MR c np
gr

  18   18 4658 1099 PO
gs 1464 389 4227 4227 MR c np
gr

  18   18 5064 1087 PO
gs 1464 389 4227 4227 MR c np
gr

/c71 { 0.000000 0.000000 0.562500 sr} bdef
c71
  18   18 5023 1078 PO
gs 1464 389 4227 4227 MR c np
gr

  18   18 4580 1084 PO
gs 1464 389 4227 4227 MR c np
gr

  18   18 5065 1074 PO
gs 1464 389 4227 4227 MR c np
gr

  18   18 5083 1088 PO
gs 1464 389 4227 4227 MR c np
gr

  18   18 5035 1077 PO
gs 1464 389 4227 4227 MR c np
gr

  18   18 5037 1062 PO
gs 1464 389 4227 4227 MR c np
gr

  18   18 4946 1065 PO
gs 1464 389 4227 4227 MR c np
gr

  18   18 4789 1064 PO
gs 1464 389 4227 4227 MR c np
gr

  18   18 4899 1058 PO
gs 1464 389 4227 4227 MR c np
gr

  18   18 5075 1050 PO
gs 1464 389 4227 4227 MR c np
gr

  18   18 5055 1076 PO
gs 1464 389 4227 4227 MR c np
gr

  18   18 5062 1044 PO
gs 1464 389 4227 4227 MR c np
gr

  18   18 5053 1055 PO
gs 1464 389 4227 4227 MR c np
gr

  18   18 4941 1055 PO
gs 1464 389 4227 4227 MR c np
gr

  18   18 5007 1039 PO
gs 1464 389 4227 4227 MR c np
gr

  18   18 4589 1043 PO
gs 1464 389 4227 4227 MR c np
gr

0 sg
3473 4903 mt 
(g\(x\)) s
1111 2606 mt  -90 rotate
(h\(y\)) s
90 rotate

end %%Color Dict

eplot
%%EndObject

epage
end

showpage

%%Trailer
%%EOF
