%!PS-Adobe-2.0 EPSF-1.2
%%Creator: MATLAB, The MathWorks, Inc. Version 8.3.0.532 (R2014a). Operating System: Linux 2.6.32-431.20.3.el6.x86_64 #1 SMP Thu Jun 19 14:01:59 CDT 2014 x86_64.
%%Title: ./PLCCA.eps
%%CreationDate: 05/29/2015  16:24:41
%%DocumentNeededFonts: Helvetica
%%DocumentProcessColors: Cyan Magenta Yellow Black
%%Extensions: CMYK
%%Pages: 1
%%BoundingBox:    99   199   503   589
%%EndComments

%%BeginProlog
% MathWorks dictionary
/MathWorks 160 dict begin
% definition operators
/bdef {bind def} bind def
/ldef {load def} bind def
/xdef {exch def} bdef
/xstore {exch store} bdef
% operator abbreviations
/c  /clip ldef
/cc /concat ldef
/cp /closepath ldef
/gr /grestore ldef
/gs /gsave ldef
/mt /moveto ldef
/np /newpath ldef
/cm /currentmatrix ldef
/sm /setmatrix ldef
/rm /rmoveto ldef
/rl /rlineto ldef
/s {show newpath} bdef
/sc {setcmykcolor} bdef
/sr /setrgbcolor ldef
/sg /setgray ldef
/w /setlinewidth ldef
/j /setlinejoin ldef
/cap /setlinecap ldef
/rc {rectclip} bdef
/rf {rectfill} bdef
% page state control
/pgsv () def
/bpage {/pgsv save def} bdef
/epage {pgsv restore} bdef
/bplot /gsave ldef
/eplot {stroke grestore} bdef
% orientation switch
/portraitMode 0 def /landscapeMode 1 def /rotateMode 2 def
% coordinate system mappings
/dpi2point 0 def
% font control
/FontSize 0 def
/FMS {/FontSize xstore findfont [FontSize 0 0 FontSize neg 0 0]
  makefont setfont} bdef
/reencode {exch dup where {pop load} {pop StandardEncoding} ifelse
  exch dup 3 1 roll findfont dup length dict begin
  { 1 index /FID ne {def}{pop pop} ifelse } forall
  /Encoding exch def currentdict end definefont pop} bdef
/isroman {findfont /CharStrings get /Agrave known} bdef
/FMSR {3 1 roll 1 index dup isroman {reencode} {pop pop} ifelse
  exch FMS} bdef
/csm {1 dpi2point div -1 dpi2point div scale neg translate
 dup landscapeMode eq {pop -90 rotate}
  {rotateMode eq {90 rotate} if} ifelse} bdef
% line types: solid, dotted, dashed, dotdash
/SO { [] 0 setdash } bdef
/DO { [.5 dpi2point mul 4 dpi2point mul] 0 setdash } bdef
/DA { [6 dpi2point mul] 0 setdash } bdef
/DD { [.5 dpi2point mul 4 dpi2point mul 6 dpi2point mul 4
  dpi2point mul] 0 setdash } bdef
% macros for lines and objects
/L {lineto stroke} bdef
/MP {3 1 roll moveto 1 sub {rlineto} repeat} bdef
/AP {{rlineto} repeat} bdef
/PDlw -1 def
/W {/PDlw currentlinewidth def setlinewidth} def
/PP {closepath eofill} bdef
/DP {closepath stroke} bdef
/MR {4 -2 roll moveto dup  0 exch rlineto exch 0 rlineto
  neg 0 exch rlineto closepath} bdef
/FR {MR stroke} bdef
/PR {MR fill} bdef
/L1i {{currentfile picstr readhexstring pop} image} bdef
/tMatrix matrix def
/MakeOval {newpath tMatrix currentmatrix pop translate scale
0 0 1 0 360 arc tMatrix setmatrix} bdef
/FO {MakeOval stroke} bdef
/PO {MakeOval fill} bdef
/PD {currentlinewidth 2 div 0 360 arc fill
   PDlw -1 eq not {PDlw w /PDlw -1 def} if} def
/FA {newpath tMatrix currentmatrix pop translate scale
  0 0 1 5 -2 roll arc tMatrix setmatrix stroke} bdef
/PA {newpath tMatrix currentmatrix pop	translate 0 0 moveto scale
  0 0 1 5 -2 roll arc closepath tMatrix setmatrix fill} bdef
/FAn {newpath tMatrix currentmatrix pop translate scale
  0 0 1 5 -2 roll arcn tMatrix setmatrix stroke} bdef
/PAn {newpath tMatrix currentmatrix pop translate 0 0 moveto scale
  0 0 1 5 -2 roll arcn closepath tMatrix setmatrix fill} bdef
/vradius 0 def /hradius 0 def /lry 0 def
/lrx 0 def /uly 0 def /ulx 0 def /rad 0 def
/MRR {/vradius xdef /hradius xdef /lry xdef /lrx xdef /uly xdef
  /ulx xdef newpath tMatrix currentmatrix pop ulx hradius add uly
  vradius add translate hradius vradius scale 0 0 1 180 270 arc 
  tMatrix setmatrix lrx hradius sub uly vradius add translate
  hradius vradius scale 0 0 1 270 360 arc tMatrix setmatrix
  lrx hradius sub lry vradius sub translate hradius vradius scale
  0 0 1 0 90 arc tMatrix setmatrix ulx hradius add lry vradius sub
  translate hradius vradius scale 0 0 1 90 180 arc tMatrix setmatrix
  closepath} bdef
/FRR {MRR stroke } bdef
/PRR {MRR fill } bdef
/MlrRR {/lry xdef /lrx xdef /uly xdef /ulx xdef /rad lry uly sub 2 div def
  newpath tMatrix currentmatrix pop ulx rad add uly rad add translate
  rad rad scale 0 0 1 90 270 arc tMatrix setmatrix lrx rad sub lry rad
  sub translate rad rad scale 0 0 1 270 90 arc tMatrix setmatrix
  closepath} bdef
/FlrRR {MlrRR stroke } bdef
/PlrRR {MlrRR fill } bdef
/MtbRR {/lry xdef /lrx xdef /uly xdef /ulx xdef /rad lrx ulx sub 2 div def
  newpath tMatrix currentmatrix pop ulx rad add uly rad add translate
  rad rad scale 0 0 1 180 360 arc tMatrix setmatrix lrx rad sub lry rad
  sub translate rad rad scale 0 0 1 0 180 arc tMatrix setmatrix
  closepath} bdef
/FtbRR {MtbRR stroke } bdef
/PtbRR {MtbRR fill } bdef
/stri 6 array def /dtri 6 array def
/smat 6 array def /dmat 6 array def
/tmat1 6 array def /tmat2 6 array def /dif 3 array def
/asub {/ind2 exch def /ind1 exch def dup dup
  ind1 get exch ind2 get sub exch } bdef
/tri_to_matrix {
  2 0 asub 3 1 asub 4 0 asub 5 1 asub
  dup 0 get exch 1 get 7 -1 roll astore } bdef
/compute_transform {
  dmat dtri tri_to_matrix tmat1 invertmatrix 
  smat stri tri_to_matrix tmat2 concatmatrix } bdef
/ds {stri astore pop} bdef
/dt {dtri astore pop} bdef
/db {2 copy /cols xdef /rows xdef mul dup 3 mul string
  currentfile exch readhexstring pop
  dup 0 3 index getinterval /rbmap xdef
  dup 2 index dup getinterval /gbmap xdef
  1 index dup 2 mul exch getinterval /bbmap xdef pop pop}bdef
/it {gs np dtri aload pop moveto lineto lineto cp c
  cols rows 8 compute_transform 
  rbmap gbmap bbmap true 3 colorimage gr}bdef
/il {newpath moveto lineto stroke}bdef
currentdict end def
%%EndProlog

%%BeginSetup
MathWorks begin

0 cap

end
%%EndSetup

%%Page: 1 1
%%BeginPageSetup
%%PageBoundingBox:    99   199   503   589
MathWorks begin
bpage
%%EndPageSetup

%%BeginObject: obj1
bplot

/dpi2point 12 def
portraitMode 0216 7344 csm

  975   274  4847  4681 MR c np
85 dict begin %Colortable dictionary
/c0 { 0.000000 0.000000 0.000000 sr} bdef
/c1 { 1.000000 1.000000 1.000000 sr} bdef
/c2 { 0.900000 0.000000 0.000000 sr} bdef
/c3 { 0.000000 0.820000 0.000000 sr} bdef
/c4 { 0.000000 0.000000 0.800000 sr} bdef
/c5 { 0.910000 0.820000 0.320000 sr} bdef
/c6 { 1.000000 0.260000 0.820000 sr} bdef
/c7 { 0.000000 0.820000 0.820000 sr} bdef
c0
1 j
1 sg
   0    0 6913 5186 PR
6 w
0 4226 4226 0 0 -4226 1464 4615 4 MP
PP
-4226 0 0 4226 4226 0 0 -4226 1464 4615 5 MP stroke
4 w
DO
SO
6 w
0 sg
1464 4615 mt 5690 4615 L
1464  389 mt 5690  389 L
1464 4615 mt 1464  389 L
5690 4615 mt 5690  389 L
1464 4615 mt 5690 4615 L
1464 4615 mt 1464  389 L
1464 4615 mt 1464 4572 L
1464  389 mt 1464  431 L
%%IncludeResource: font Helvetica
/Helvetica /ISOLatin1Encoding 120 FMSR

1311 4760 mt 
(-2.5) s
1886 4615 mt 1886 4572 L
1886  389 mt 1886  431 L
1783 4760 mt 
(-2) s
2309 4615 mt 2309 4572 L
2309  389 mt 2309  431 L
2156 4760 mt 
(-1.5) s
2731 4615 mt 2731 4572 L
2731  389 mt 2731  431 L
2628 4760 mt 
(-1) s
3154 4615 mt 3154 4572 L
3154  389 mt 3154  431 L
3001 4760 mt 
(-0.5) s
3577 4615 mt 3577 4572 L
3577  389 mt 3577  431 L
3544 4760 mt 
(0) s
3999 4615 mt 3999 4572 L
3999  389 mt 3999  431 L
3916 4760 mt 
(0.5) s
4422 4615 mt 4422 4572 L
4422  389 mt 4422  431 L
4389 4760 mt 
(1) s
4844 4615 mt 4844 4572 L
4844  389 mt 4844  431 L
4761 4760 mt 
(1.5) s
5267 4615 mt 5267 4572 L
5267  389 mt 5267  431 L
5234 4760 mt 
(2) s
5690 4615 mt 5690 4572 L
5690  389 mt 5690  431 L
5607 4760 mt 
(2.5) s
1464 4615 mt 1506 4615 L
5690 4615 mt 5647 4615 L
1193 4659 mt 
(-2.5) s
1464 4192 mt 1506 4192 L
5690 4192 mt 5647 4192 L
1293 4236 mt 
(-2) s
1464 3769 mt 1506 3769 L
5690 3769 mt 5647 3769 L
1193 3813 mt 
(-1.5) s
1464 3347 mt 1506 3347 L
5690 3347 mt 5647 3347 L
1293 3391 mt 
(-1) s
1464 2924 mt 1506 2924 L
5690 2924 mt 5647 2924 L
1193 2968 mt 
(-0.5) s
1464 2502 mt 1506 2502 L
5690 2502 mt 5647 2502 L
1363 2546 mt 
(0) s
1464 2079 mt 1506 2079 L
5690 2079 mt 5647 2079 L
1263 2123 mt 
(0.5) s
1464 1656 mt 1506 1656 L
5690 1656 mt 5647 1656 L
1363 1700 mt 
(1) s
1464 1234 mt 1506 1234 L
5690 1234 mt 5647 1234 L
1263 1278 mt 
(1.5) s
1464  811 mt 1506  811 L
5690  811 mt 5647  811 L
1363  855 mt 
(2) s
1464  389 mt 1506  389 L
5690  389 mt 5647  389 L
1263  433 mt 
(2.5) s
1464 4615 mt 5690 4615 L
1464  389 mt 5690  389 L
1464 4615 mt 1464  389 L
5690 4615 mt 5690  389 L
gs 1464 389 4227 4227 MR c np
0 j
gr

/c8 { 0.500000 0.000000 0.000000 sr} bdef
c8
  18   18 5054 1039 PO
gs 1464 389 4227 4227 MR c np
gr

  18   18 5060 1040 PO
gs 1464 389 4227 4227 MR c np
gr

  18   18 5054 1046 PO
gs 1464 389 4227 4227 MR c np
gr

  18   18 5054 1048 PO
gs 1464 389 4227 4227 MR c np
gr

  18   18 5034 1052 PO
gs 1464 389 4227 4227 MR c np
gr

  18   18 5040 1054 PO
gs 1464 389 4227 4227 MR c np
gr

  18   18 4378 1057 PO
gs 1464 389 4227 4227 MR c np
gr

  18   18 5049 1060 PO
gs 1464 389 4227 4227 MR c np
gr

  18   18 5033 1062 PO
gs 1464 389 4227 4227 MR c np
gr

  18   18 5021 1066 PO
gs 1464 389 4227 4227 MR c np
gr

  18   18 5024 1069 PO
gs 1464 389 4227 4227 MR c np
gr

  18   18 5030 1071 PO
gs 1464 389 4227 4227 MR c np
gr

  18   18 5020 1074 PO
gs 1464 389 4227 4227 MR c np
gr

  18   18 5020 1077 PO
gs 1464 389 4227 4227 MR c np
gr

  18   18 5016 1078 PO
gs 1464 389 4227 4227 MR c np
gr

  18   18 5018 1083 PO
gs 1464 389 4227 4227 MR c np
gr

/c9 { 0.562500 0.000000 0.000000 sr} bdef
c9
  18   18 5015 1086 PO
gs 1464 389 4227 4227 MR c np
gr

  18   18 4999 1089 PO
gs 1464 389 4227 4227 MR c np
gr

  18   18 4996 1091 PO
gs 1464 389 4227 4227 MR c np
gr

  18   18 5003 1094 PO
gs 1464 389 4227 4227 MR c np
gr

  18   18 5003 1098 PO
gs 1464 389 4227 4227 MR c np
gr

  18   18 5004 1100 PO
gs 1464 389 4227 4227 MR c np
gr

  18   18 5003 1103 PO
gs 1464 389 4227 4227 MR c np
gr

  18   18 5003 1107 PO
gs 1464 389 4227 4227 MR c np
gr

  18   18 4989 1110 PO
gs 1464 389 4227 4227 MR c np
gr

  18   18 5003 1112 PO
gs 1464 389 4227 4227 MR c np
gr

  18   18 5003 1116 PO
gs 1464 389 4227 4227 MR c np
gr

  18   18 4983 1119 PO
gs 1464 389 4227 4227 MR c np
gr

  18   18 4982 1120 PO
gs 1464 389 4227 4227 MR c np
gr

  18   18 4977 1124 PO
gs 1464 389 4227 4227 MR c np
gr

  18   18 4961 1126 PO
gs 1464 389 4227 4227 MR c np
gr

  18   18 4976 1130 PO
gs 1464 389 4227 4227 MR c np
gr

/c10 { 0.625000 0.000000 0.000000 sr} bdef
c10
  18   18 4961 1133 PO
gs 1464 389 4227 4227 MR c np
gr

  18   18 4957 1135 PO
gs 1464 389 4227 4227 MR c np
gr

  18   18 4965 1139 PO
gs 1464 389 4227 4227 MR c np
gr

  18   18 4961 1141 PO
gs 1464 389 4227 4227 MR c np
gr

  18   18 4951 1143 PO
gs 1464 389 4227 4227 MR c np
gr

  18   18 4944 1148 PO
gs 1464 389 4227 4227 MR c np
gr

  18   18 4954 1149 PO
gs 1464 389 4227 4227 MR c np
gr

  18   18 4943 1152 PO
gs 1464 389 4227 4227 MR c np
gr

  18   18 4928 1156 PO
gs 1464 389 4227 4227 MR c np
gr

  18   18 4938 1159 PO
gs 1464 389 4227 4227 MR c np
gr

  18   18 4929 1162 PO
gs 1464 389 4227 4227 MR c np
gr

  18   18 4928 1165 PO
gs 1464 389 4227 4227 MR c np
gr

  18   18 4927 1168 PO
gs 1464 389 4227 4227 MR c np
gr

  18   18 4927 1170 PO
gs 1464 389 4227 4227 MR c np
gr

  18   18 4925 1174 PO
gs 1464 389 4227 4227 MR c np
gr

/c11 { 0.687500 0.000000 0.000000 sr} bdef
c11
  18   18 4921 1177 PO
gs 1464 389 4227 4227 MR c np
gr

  18   18 4629 1181 PO
gs 1464 389 4227 4227 MR c np
gr

  18   18 4915 1184 PO
gs 1464 389 4227 4227 MR c np
gr

  18   18 4924 1185 PO
gs 1464 389 4227 4227 MR c np
gr

  18   18 4903 1188 PO
gs 1464 389 4227 4227 MR c np
gr

  18   18 4903 1192 PO
gs 1464 389 4227 4227 MR c np
gr

  18   18 4909 1193 PO
gs 1464 389 4227 4227 MR c np
gr

  18   18 4898 1197 PO
gs 1464 389 4227 4227 MR c np
gr

  18   18 4903 1200 PO
gs 1464 389 4227 4227 MR c np
gr

  18   18 4892 1203 PO
gs 1464 389 4227 4227 MR c np
gr

  18   18 4883 1206 PO
gs 1464 389 4227 4227 MR c np
gr

  18   18 4886 1210 PO
gs 1464 389 4227 4227 MR c np
gr

  18   18 4877 1212 PO
gs 1464 389 4227 4227 MR c np
gr

  18   18 4877 1216 PO
gs 1464 389 4227 4227 MR c np
gr

  18   18 4873 1218 PO
gs 1464 389 4227 4227 MR c np
gr

  18   18 4850 1221 PO
gs 1464 389 4227 4227 MR c np
gr

/c12 { 0.750000 0.000000 0.000000 sr} bdef
c12
  18   18 4877 1224 PO
gs 1464 389 4227 4227 MR c np
gr

  18   18 4877 1227 PO
gs 1464 389 4227 4227 MR c np
gr

  18   18 4877 1229 PO
gs 1464 389 4227 4227 MR c np
gr

  18   18 4862 1233 PO
gs 1464 389 4227 4227 MR c np
gr

  18   18 4877 1234 PO
gs 1464 389 4227 4227 MR c np
gr

  18   18 4854 1238 PO
gs 1464 389 4227 4227 MR c np
gr

  18   18 4845 1241 PO
gs 1464 389 4227 4227 MR c np
gr

  18   18 4843 1245 PO
gs 1464 389 4227 4227 MR c np
gr

  18   18 4850 1247 PO
gs 1464 389 4227 4227 MR c np
gr

  18   18 4852 1250 PO
gs 1464 389 4227 4227 MR c np
gr

  18   18 4836 1254 PO
gs 1464 389 4227 4227 MR c np
gr

  18   18 4835 1256 PO
gs 1464 389 4227 4227 MR c np
gr

  18   18 4842 1258 PO
gs 1464 389 4227 4227 MR c np
gr

  18   18 4831 1262 PO
gs 1464 389 4227 4227 MR c np
gr

  18   18 4828 1266 PO
gs 1464 389 4227 4227 MR c np
gr

  18   18 4820 1267 PO
gs 1464 389 4227 4227 MR c np
gr

/c13 { 0.812500 0.000000 0.000000 sr} bdef
c13
  18   18 4831 1271 PO
gs 1464 389 4227 4227 MR c np
gr

  18   18 4819 1273 PO
gs 1464 389 4227 4227 MR c np
gr

  18   18 3343 1277 PO
gs 1464 389 4227 4227 MR c np
gr

  18   18 4814 1280 PO
gs 1464 389 4227 4227 MR c np
gr

  18   18 4812 1284 PO
gs 1464 389 4227 4227 MR c np
gr

  18   18 4810 1285 PO
gs 1464 389 4227 4227 MR c np
gr

  18   18 4808 1287 PO
gs 1464 389 4227 4227 MR c np
gr

  18   18 4810 1290 PO
gs 1464 389 4227 4227 MR c np
gr

  18   18 4804 1294 PO
gs 1464 389 4227 4227 MR c np
gr

  18   18 4799 1297 PO
gs 1464 389 4227 4227 MR c np
gr

  18   18 4719 1298 PO
gs 1464 389 4227 4227 MR c np
gr

  18   18 4786 1303 PO
gs 1464 389 4227 4227 MR c np
gr

  18   18 4780 1305 PO
gs 1464 389 4227 4227 MR c np
gr

  18   18 4780 1310 PO
gs 1464 389 4227 4227 MR c np
gr

  18   18 4778 1311 PO
gs 1464 389 4227 4227 MR c np
gr

/c14 { 0.875000 0.000000 0.000000 sr} bdef
c14
  18   18 4791 1314 PO
gs 1464 389 4227 4227 MR c np
gr

  18   18 4780 1318 PO
gs 1464 389 4227 4227 MR c np
gr

  18   18 4778 1319 PO
gs 1464 389 4227 4227 MR c np
gr

  18   18 4770 1324 PO
gs 1464 389 4227 4227 MR c np
gr

  18   18 4771 1325 PO
gs 1464 389 4227 4227 MR c np
gr

  18   18 4774 1328 PO
gs 1464 389 4227 4227 MR c np
gr

  18   18 4769 1332 PO
gs 1464 389 4227 4227 MR c np
gr

  18   18 4767 1336 PO
gs 1464 389 4227 4227 MR c np
gr

  18   18 4747 1338 PO
gs 1464 389 4227 4227 MR c np
gr

  18   18 4766 1342 PO
gs 1464 389 4227 4227 MR c np
gr

  18   18 4751 1345 PO
gs 1464 389 4227 4227 MR c np
gr

  18   18 4755 1347 PO
gs 1464 389 4227 4227 MR c np
gr

  18   18 4742 1349 PO
gs 1464 389 4227 4227 MR c np
gr

  18   18 4742 1351 PO
gs 1464 389 4227 4227 MR c np
gr

  18   18 4746 1354 PO
gs 1464 389 4227 4227 MR c np
gr

  18   18 4735 1359 PO
gs 1464 389 4227 4227 MR c np
gr

/c15 { 0.937500 0.000000 0.000000 sr} bdef
c15
  18   18 4729 1362 PO
gs 1464 389 4227 4227 MR c np
gr

  18   18 4729 1363 PO
gs 1464 389 4227 4227 MR c np
gr

  18   18 4728 1366 PO
gs 1464 389 4227 4227 MR c np
gr

  18   18 4724 1371 PO
gs 1464 389 4227 4227 MR c np
gr

  18   18 4724 1373 PO
gs 1464 389 4227 4227 MR c np
gr

  18   18 4718 1375 PO
gs 1464 389 4227 4227 MR c np
gr

  18   18 4711 1378 PO
gs 1464 389 4227 4227 MR c np
gr

  18   18 4711 1381 PO
gs 1464 389 4227 4227 MR c np
gr

  18   18 4713 1385 PO
gs 1464 389 4227 4227 MR c np
gr

  18   18 4723 1388 PO
gs 1464 389 4227 4227 MR c np
gr

  18   18 4704 1391 PO
gs 1464 389 4227 4227 MR c np
gr

  18   18 4699 1392 PO
gs 1464 389 4227 4227 MR c np
gr

  18   18 4695 1396 PO
gs 1464 389 4227 4227 MR c np
gr

  18   18 4692 1400 PO
gs 1464 389 4227 4227 MR c np
gr

  18   18 4698 1403 PO
gs 1464 389 4227 4227 MR c np
gr

/c16 { 1.000000 0.000000 0.000000 sr} bdef
c16
  18   18 4678 1406 PO
gs 1464 389 4227 4227 MR c np
gr

  18   18 4692 1408 PO
gs 1464 389 4227 4227 MR c np
gr

  18   18 4692 1410 PO
gs 1464 389 4227 4227 MR c np
gr

  18   18 4677 1414 PO
gs 1464 389 4227 4227 MR c np
gr

  18   18 4671 1418 PO
gs 1464 389 4227 4227 MR c np
gr

  18   18 4671 1418 PO
gs 1464 389 4227 4227 MR c np
gr

  18   18 4671 1423 PO
gs 1464 389 4227 4227 MR c np
gr

  18   18 4672 1425 PO
gs 1464 389 4227 4227 MR c np
gr

  18   18 4672 1428 PO
gs 1464 389 4227 4227 MR c np
gr

  18   18 4658 1430 PO
gs 1464 389 4227 4227 MR c np
gr

  18   18 4655 1433 PO
gs 1464 389 4227 4227 MR c np
gr

  18   18 4658 1437 PO
gs 1464 389 4227 4227 MR c np
gr

  18   18 4653 1440 PO
gs 1464 389 4227 4227 MR c np
gr

  18   18 3627 1443 PO
gs 1464 389 4227 4227 MR c np
gr

  18   18 4649 1447 PO
gs 1464 389 4227 4227 MR c np
gr

  18   18 4643 1448 PO
gs 1464 389 4227 4227 MR c np
gr

/c17 { 1.000000 0.062500 0.000000 sr} bdef
c17
  18   18 4641 1452 PO
gs 1464 389 4227 4227 MR c np
gr

  18   18 4632 1455 PO
gs 1464 389 4227 4227 MR c np
gr

  18   18 4630 1458 PO
gs 1464 389 4227 4227 MR c np
gr

  18   18 4630 1460 PO
gs 1464 389 4227 4227 MR c np
gr

  18   18 4636 1463 PO
gs 1464 389 4227 4227 MR c np
gr

  18   18 4625 1466 PO
gs 1464 389 4227 4227 MR c np
gr

  18   18 4631 1469 PO
gs 1464 389 4227 4227 MR c np
gr

  18   18 4630 1474 PO
gs 1464 389 4227 4227 MR c np
gr

  18   18 4624 1476 PO
gs 1464 389 4227 4227 MR c np
gr

  18   18 4614 1478 PO
gs 1464 389 4227 4227 MR c np
gr

  18   18 4614 1481 PO
gs 1464 389 4227 4227 MR c np
gr

  18   18 4614 1483 PO
gs 1464 389 4227 4227 MR c np
gr

  18   18 4614 1486 PO
gs 1464 389 4227 4227 MR c np
gr

  18   18 4611 1490 PO
gs 1464 389 4227 4227 MR c np
gr

  18   18 4593 1494 PO
gs 1464 389 4227 4227 MR c np
gr

  18   18 4608 1496 PO
gs 1464 389 4227 4227 MR c np
gr

/c18 { 1.000000 0.125000 0.000000 sr} bdef
c18
  18   18 4599 1498 PO
gs 1464 389 4227 4227 MR c np
gr

  18   18 4599 1503 PO
gs 1464 389 4227 4227 MR c np
gr

  18   18 4456 1504 PO
gs 1464 389 4227 4227 MR c np
gr

  18   18 4574 1508 PO
gs 1464 389 4227 4227 MR c np
gr

  18   18 4578 1511 PO
gs 1464 389 4227 4227 MR c np
gr

  18   18 4589 1513 PO
gs 1464 389 4227 4227 MR c np
gr

  18   18 4570 1517 PO
gs 1464 389 4227 4227 MR c np
gr

  18   18 4578 1518 PO
gs 1464 389 4227 4227 MR c np
gr

  18   18 4568 1522 PO
gs 1464 389 4227 4227 MR c np
gr

  18   18 4567 1526 PO
gs 1464 389 4227 4227 MR c np
gr

  18   18 4574 1528 PO
gs 1464 389 4227 4227 MR c np
gr

  18   18 4562 1531 PO
gs 1464 389 4227 4227 MR c np
gr

  18   18 4559 1534 PO
gs 1464 389 4227 4227 MR c np
gr

  18   18 4545 1537 PO
gs 1464 389 4227 4227 MR c np
gr

  18   18 4554 1539 PO
gs 1464 389 4227 4227 MR c np
gr

/c19 { 1.000000 0.187500 0.000000 sr} bdef
c19
  18   18 4549 1543 PO
gs 1464 389 4227 4227 MR c np
gr

  18   18 4391 1546 PO
gs 1464 389 4227 4227 MR c np
gr

  18   18 4549 1549 PO
gs 1464 389 4227 4227 MR c np
gr

  18   18 4529 1552 PO
gs 1464 389 4227 4227 MR c np
gr

  18   18 4529 1554 PO
gs 1464 389 4227 4227 MR c np
gr

  18   18 4529 1558 PO
gs 1464 389 4227 4227 MR c np
gr

  18   18 4536 1561 PO
gs 1464 389 4227 4227 MR c np
gr

  18   18 4525 1563 PO
gs 1464 389 4227 4227 MR c np
gr

  18   18 4520 1566 PO
gs 1464 389 4227 4227 MR c np
gr

  18   18 4515 1569 PO
gs 1464 389 4227 4227 MR c np
gr

  18   18 4525 1571 PO
gs 1464 389 4227 4227 MR c np
gr

  18   18 3271 1576 PO
gs 1464 389 4227 4227 MR c np
gr

  18   18 4514 1578 PO
gs 1464 389 4227 4227 MR c np
gr

  18   18 4516 1579 PO
gs 1464 389 4227 4227 MR c np
gr

  18   18 4509 1584 PO
gs 1464 389 4227 4227 MR c np
gr

  18   18 4509 1587 PO
gs 1464 389 4227 4227 MR c np
gr

/c20 { 1.000000 0.250000 0.000000 sr} bdef
c20
  18   18 4509 1589 PO
gs 1464 389 4227 4227 MR c np
gr

  18   18 3023 1593 PO
gs 1464 389 4227 4227 MR c np
gr

  18   18 4509 1595 PO
gs 1464 389 4227 4227 MR c np
gr

  18   18 4490 1598 PO
gs 1464 389 4227 4227 MR c np
gr

  18   18 4495 1601 PO
gs 1464 389 4227 4227 MR c np
gr

  18   18 4487 1604 PO
gs 1464 389 4227 4227 MR c np
gr

  18   18 4482 1606 PO
gs 1464 389 4227 4227 MR c np
gr

  18   18 4477 1611 PO
gs 1464 389 4227 4227 MR c np
gr

  18   18 4476 1612 PO
gs 1464 389 4227 4227 MR c np
gr

  18   18 4444 1616 PO
gs 1464 389 4227 4227 MR c np
gr

  18   18 4470 1618 PO
gs 1464 389 4227 4227 MR c np
gr

  18   18 4473 1621 PO
gs 1464 389 4227 4227 MR c np
gr

  18   18 4466 1625 PO
gs 1464 389 4227 4227 MR c np
gr

  18   18 4466 1628 PO
gs 1464 389 4227 4227 MR c np
gr

  18   18 3542 1630 PO
gs 1464 389 4227 4227 MR c np
gr

/c21 { 1.000000 0.312500 0.000000 sr} bdef
c21
  18   18 4459 1634 PO
gs 1464 389 4227 4227 MR c np
gr

  18   18 4466 1635 PO
gs 1464 389 4227 4227 MR c np
gr

  18   18 4459 1639 PO
gs 1464 389 4227 4227 MR c np
gr

  18   18 4444 1643 PO
gs 1464 389 4227 4227 MR c np
gr

  18   18 4447 1645 PO
gs 1464 389 4227 4227 MR c np
gr

  18   18 4444 1648 PO
gs 1464 389 4227 4227 MR c np
gr

  18   18 4433 1651 PO
gs 1464 389 4227 4227 MR c np
gr

  18   18 4431 1654 PO
gs 1464 389 4227 4227 MR c np
gr

  18   18 4436 1657 PO
gs 1464 389 4227 4227 MR c np
gr

  18   18 4430 1659 PO
gs 1464 389 4227 4227 MR c np
gr

  18   18 4422 1664 PO
gs 1464 389 4227 4227 MR c np
gr

  18   18 4352 1666 PO
gs 1464 389 4227 4227 MR c np
gr

  18   18 4430 1669 PO
gs 1464 389 4227 4227 MR c np
gr

  18   18 4418 1671 PO
gs 1464 389 4227 4227 MR c np
gr

  18   18 4413 1677 PO
gs 1464 389 4227 4227 MR c np
gr

  18   18 4388 1675 PO
gs 1464 389 4227 4227 MR c np
gr

/c22 { 1.000000 0.375000 0.000000 sr} bdef
c22
  18   18 4417 1679 PO
gs 1464 389 4227 4227 MR c np
gr

  18   18 4237 1685 PO
gs 1464 389 4227 4227 MR c np
gr

  18   18 4401 1687 PO
gs 1464 389 4227 4227 MR c np
gr

  18   18 4401 1690 PO
gs 1464 389 4227 4227 MR c np
gr

  18   18 4407 1691 PO
gs 1464 389 4227 4227 MR c np
gr

  18   18 4386 1695 PO
gs 1464 389 4227 4227 MR c np
gr

  18   18 4389 1698 PO
gs 1464 389 4227 4227 MR c np
gr

  18   18 4391 1701 PO
gs 1464 389 4227 4227 MR c np
gr

  18   18 4385 1703 PO
gs 1464 389 4227 4227 MR c np
gr

  18   18 4389 1707 PO
gs 1464 389 4227 4227 MR c np
gr

  18   18 3237 1710 PO
gs 1464 389 4227 4227 MR c np
gr

  18   18 4381 1712 PO
gs 1464 389 4227 4227 MR c np
gr

  18   18 4374 1716 PO
gs 1464 389 4227 4227 MR c np
gr

  18   18 4378 1719 PO
gs 1464 389 4227 4227 MR c np
gr

  18   18 4365 1721 PO
gs 1464 389 4227 4227 MR c np
gr

  18   18 4366 1725 PO
gs 1464 389 4227 4227 MR c np
gr

/c23 { 1.000000 0.437500 0.000000 sr} bdef
c23
  18   18 4354 1728 PO
gs 1464 389 4227 4227 MR c np
gr

  18   18 4363 1730 PO
gs 1464 389 4227 4227 MR c np
gr

  18   18 4351 1734 PO
gs 1464 389 4227 4227 MR c np
gr

  18   18 4365 1734 PO
gs 1464 389 4227 4227 MR c np
gr

  18   18 4353 1739 PO
gs 1464 389 4227 4227 MR c np
gr

  18   18 4353 1742 PO
gs 1464 389 4227 4227 MR c np
gr

  18   18 4346 1744 PO
gs 1464 389 4227 4227 MR c np
gr

  18   18 4351 1747 PO
gs 1464 389 4227 4227 MR c np
gr

  18   18 4344 1752 PO
gs 1464 389 4227 4227 MR c np
gr

  18   18 4326 1753 PO
gs 1464 389 4227 4227 MR c np
gr

  18   18 4325 1757 PO
gs 1464 389 4227 4227 MR c np
gr

  18   18 4325 1759 PO
gs 1464 389 4227 4227 MR c np
gr

  18   18 4325 1762 PO
gs 1464 389 4227 4227 MR c np
gr

  18   18 4325 1765 PO
gs 1464 389 4227 4227 MR c np
gr

  18   18 4312 1768 PO
gs 1464 389 4227 4227 MR c np
gr

/c24 { 1.000000 0.500000 0.000000 sr} bdef
c24
  18   18 4325 1772 PO
gs 1464 389 4227 4227 MR c np
gr

  18   18 4324 1774 PO
gs 1464 389 4227 4227 MR c np
gr

  18   18 4306 1777 PO
gs 1464 389 4227 4227 MR c np
gr

  18   18 4324 1779 PO
gs 1464 389 4227 4227 MR c np
gr

  18   18 4307 1782 PO
gs 1464 389 4227 4227 MR c np
gr

  18   18 4305 1786 PO
gs 1464 389 4227 4227 MR c np
gr

  18   18 4304 1788 PO
gs 1464 389 4227 4227 MR c np
gr

  18   18 3121 1790 PO
gs 1464 389 4227 4227 MR c np
gr

  18   18 4291 1795 PO
gs 1464 389 4227 4227 MR c np
gr

  18   18 3413 1798 PO
gs 1464 389 4227 4227 MR c np
gr

  18   18 3992 1800 PO
gs 1464 389 4227 4227 MR c np
gr

  18   18 4291 1803 PO
gs 1464 389 4227 4227 MR c np
gr

  18   18 4303 1808 PO
gs 1464 389 4227 4227 MR c np
gr

  18   18 4278 1808 PO
gs 1464 389 4227 4227 MR c np
gr

  18   18 4275 1814 PO
gs 1464 389 4227 4227 MR c np
gr

  18   18 4275 1815 PO
gs 1464 389 4227 4227 MR c np
gr

/c25 { 1.000000 0.562500 0.000000 sr} bdef
c25
  18   18 4261 1818 PO
gs 1464 389 4227 4227 MR c np
gr

  18   18 4255 1820 PO
gs 1464 389 4227 4227 MR c np
gr

  18   18 4270 1825 PO
gs 1464 389 4227 4227 MR c np
gr

  18   18 4255 1827 PO
gs 1464 389 4227 4227 MR c np
gr

  18   18 4257 1832 PO
gs 1464 389 4227 4227 MR c np
gr

  18   18 4256 1832 PO
gs 1464 389 4227 4227 MR c np
gr

  18   18 4261 1836 PO
gs 1464 389 4227 4227 MR c np
gr

  18   18 4238 1838 PO
gs 1464 389 4227 4227 MR c np
gr

  18   18 4237 1841 PO
gs 1464 389 4227 4227 MR c np
gr

  18   18 4236 1843 PO
gs 1464 389 4227 4227 MR c np
gr

  18   18 4236 1847 PO
gs 1464 389 4227 4227 MR c np
gr

  18   18 4236 1850 PO
gs 1464 389 4227 4227 MR c np
gr

  18   18 4242 1852 PO
gs 1464 389 4227 4227 MR c np
gr

  18   18 4231 1855 PO
gs 1464 389 4227 4227 MR c np
gr

  18   18 4228 1859 PO
gs 1464 389 4227 4227 MR c np
gr

/c26 { 1.000000 0.625000 0.000000 sr} bdef
c26
  18   18 4222 1862 PO
gs 1464 389 4227 4227 MR c np
gr

  18   18 4225 1865 PO
gs 1464 389 4227 4227 MR c np
gr

  18   18 4220 1869 PO
gs 1464 389 4227 4227 MR c np
gr

  18   18 4210 1869 PO
gs 1464 389 4227 4227 MR c np
gr

  18   18 4214 1873 PO
gs 1464 389 4227 4227 MR c np
gr

  18   18 4209 1876 PO
gs 1464 389 4227 4227 MR c np
gr

  18   18 4202 1880 PO
gs 1464 389 4227 4227 MR c np
gr

  18   18 4202 1882 PO
gs 1464 389 4227 4227 MR c np
gr

  18   18 4190 1887 PO
gs 1464 389 4227 4227 MR c np
gr

  18   18 4195 1890 PO
gs 1464 389 4227 4227 MR c np
gr

  18   18 4198 1891 PO
gs 1464 389 4227 4227 MR c np
gr

  18   18 4198 1895 PO
gs 1464 389 4227 4227 MR c np
gr

  18   18 4190 1896 PO
gs 1464 389 4227 4227 MR c np
gr

  18   18 4183 1899 PO
gs 1464 389 4227 4227 MR c np
gr

  18   18 4180 1904 PO
gs 1464 389 4227 4227 MR c np
gr

  18   18 4183 1905 PO
gs 1464 389 4227 4227 MR c np
gr

/c27 { 1.000000 0.687500 0.000000 sr} bdef
c27
  18   18 4163 1908 PO
gs 1464 389 4227 4227 MR c np
gr

  18   18 4172 1913 PO
gs 1464 389 4227 4227 MR c np
gr

  18   18 4179 1914 PO
gs 1464 389 4227 4227 MR c np
gr

  18   18 4158 1916 PO
gs 1464 389 4227 4227 MR c np
gr

  18   18 3176 1920 PO
gs 1464 389 4227 4227 MR c np
gr

  18   18 4159 1923 PO
gs 1464 389 4227 4227 MR c np
gr

  18   18 2675 1926 PO
gs 1464 389 4227 4227 MR c np
gr

  18   18 4160 1929 PO
gs 1464 389 4227 4227 MR c np
gr

  18   18 4150 1931 PO
gs 1464 389 4227 4227 MR c np
gr

  18   18 4142 1936 PO
gs 1464 389 4227 4227 MR c np
gr

  18   18 4152 1939 PO
gs 1464 389 4227 4227 MR c np
gr

  18   18 4142 1941 PO
gs 1464 389 4227 4227 MR c np
gr

  18   18 4142 1942 PO
gs 1464 389 4227 4227 MR c np
gr

  18   18 4137 1947 PO
gs 1464 389 4227 4227 MR c np
gr

  18   18 4140 1950 PO
gs 1464 389 4227 4227 MR c np
gr

  18   18 4133 1953 PO
gs 1464 389 4227 4227 MR c np
gr

/c28 { 1.000000 0.750000 0.000000 sr} bdef
c28
  18   18 4135 1956 PO
gs 1464 389 4227 4227 MR c np
gr

  18   18 4124 1959 PO
gs 1464 389 4227 4227 MR c np
gr

  18   18 4127 1961 PO
gs 1464 389 4227 4227 MR c np
gr

  18   18 4124 1965 PO
gs 1464 389 4227 4227 MR c np
gr

  18   18 4120 1967 PO
gs 1464 389 4227 4227 MR c np
gr

  18   18 3435 1971 PO
gs 1464 389 4227 4227 MR c np
gr

  18   18 4117 1971 PO
gs 1464 389 4227 4227 MR c np
gr

  18   18 4103 1976 PO
gs 1464 389 4227 4227 MR c np
gr

  18   18 4100 1979 PO
gs 1464 389 4227 4227 MR c np
gr

  18   18 4106 1982 PO
gs 1464 389 4227 4227 MR c np
gr

  18   18 4092 1986 PO
gs 1464 389 4227 4227 MR c np
gr

  18   18 4091 1986 PO
gs 1464 389 4227 4227 MR c np
gr

  18   18 4088 1991 PO
gs 1464 389 4227 4227 MR c np
gr

  18   18 4092 1993 PO
gs 1464 389 4227 4227 MR c np
gr

  18   18 4085 1996 PO
gs 1464 389 4227 4227 MR c np
gr

/c29 { 1.000000 0.812500 0.000000 sr} bdef
c29
  18   18 4092 2000 PO
gs 1464 389 4227 4227 MR c np
gr

  18   18 4076 2004 PO
gs 1464 389 4227 4227 MR c np
gr

  18   18 4076 2004 PO
gs 1464 389 4227 4227 MR c np
gr

  18   18 4076 2008 PO
gs 1464 389 4227 4227 MR c np
gr

  18   18 4077 2010 PO
gs 1464 389 4227 4227 MR c np
gr

  18   18 4074 2014 PO
gs 1464 389 4227 4227 MR c np
gr

  18   18 4069 2017 PO
gs 1464 389 4227 4227 MR c np
gr

  18   18 4069 2020 PO
gs 1464 389 4227 4227 MR c np
gr

  18   18 4062 2023 PO
gs 1464 389 4227 4227 MR c np
gr

  18   18 4062 2026 PO
gs 1464 389 4227 4227 MR c np
gr

  18   18 4049 2030 PO
gs 1464 389 4227 4227 MR c np
gr

  18   18 4047 2031 PO
gs 1464 389 4227 4227 MR c np
gr

  18   18 4050 2034 PO
gs 1464 389 4227 4227 MR c np
gr

  18   18 4044 2038 PO
gs 1464 389 4227 4227 MR c np
gr

  18   18 4048 2040 PO
gs 1464 389 4227 4227 MR c np
gr

  18   18 2669 2043 PO
gs 1464 389 4227 4227 MR c np
gr

/c30 { 1.000000 0.875000 0.000000 sr} bdef
c30
  18   18 4044 2046 PO
gs 1464 389 4227 4227 MR c np
gr

  18   18 4037 2048 PO
gs 1464 389 4227 4227 MR c np
gr

  18   18 4047 2052 PO
gs 1464 389 4227 4227 MR c np
gr

  18   18 4033 2055 PO
gs 1464 389 4227 4227 MR c np
gr

  18   18 4028 2059 PO
gs 1464 389 4227 4227 MR c np
gr

  18   18 2909 2061 PO
gs 1464 389 4227 4227 MR c np
gr

  18   18 4027 2063 PO
gs 1464 389 4227 4227 MR c np
gr

  18   18 4027 2066 PO
gs 1464 389 4227 4227 MR c np
gr

  18   18 4005 2069 PO
gs 1464 389 4227 4227 MR c np
gr

  18   18 4020 2072 PO
gs 1464 389 4227 4227 MR c np
gr

  18   18 4020 2075 PO
gs 1464 389 4227 4227 MR c np
gr

  18   18 4002 2079 PO
gs 1464 389 4227 4227 MR c np
gr

  18   18 3072 2081 PO
gs 1464 389 4227 4227 MR c np
gr

  18   18 3989 2084 PO
gs 1464 389 4227 4227 MR c np
gr

  18   18 3987 2086 PO
gs 1464 389 4227 4227 MR c np
gr

  18   18 3985 2089 PO
gs 1464 389 4227 4227 MR c np
gr

/c31 { 1.000000 0.937500 0.000000 sr} bdef
c31
  18   18 3983 2094 PO
gs 1464 389 4227 4227 MR c np
gr

  18   18 3988 2097 PO
gs 1464 389 4227 4227 MR c np
gr

  18   18 3982 2099 PO
gs 1464 389 4227 4227 MR c np
gr

  18   18 3981 2102 PO
gs 1464 389 4227 4227 MR c np
gr

  18   18 3988 2104 PO
gs 1464 389 4227 4227 MR c np
gr

  18   18 3953 2109 PO
gs 1464 389 4227 4227 MR c np
gr

  18   18 3970 2111 PO
gs 1464 389 4227 4227 MR c np
gr

  18   18 3977 2113 PO
gs 1464 389 4227 4227 MR c np
gr

  18   18 3965 2114 PO
gs 1464 389 4227 4227 MR c np
gr

  18   18 3965 2119 PO
gs 1464 389 4227 4227 MR c np
gr

  18   18 3962 2122 PO
gs 1464 389 4227 4227 MR c np
gr

  18   18 3951 2125 PO
gs 1464 389 4227 4227 MR c np
gr

  18   18 3947 2127 PO
gs 1464 389 4227 4227 MR c np
gr

  18   18 3947 2132 PO
gs 1464 389 4227 4227 MR c np
gr

  18   18 3947 2134 PO
gs 1464 389 4227 4227 MR c np
gr

/c32 { 1.000000 1.000000 0.000000 sr} bdef
c32
  18   18 3949 2136 PO
gs 1464 389 4227 4227 MR c np
gr

  18   18 3940 2141 PO
gs 1464 389 4227 4227 MR c np
gr

  18   18 3935 2142 PO
gs 1464 389 4227 4227 MR c np
gr

  18   18 3935 2147 PO
gs 1464 389 4227 4227 MR c np
gr

  18   18 3931 2149 PO
gs 1464 389 4227 4227 MR c np
gr

  18   18 3916 2152 PO
gs 1464 389 4227 4227 MR c np
gr

  18   18 3919 2155 PO
gs 1464 389 4227 4227 MR c np
gr

  18   18 3916 2158 PO
gs 1464 389 4227 4227 MR c np
gr

  18   18 3927 2160 PO
gs 1464 389 4227 4227 MR c np
gr

  18   18 3922 2162 PO
gs 1464 389 4227 4227 MR c np
gr

  18   18 3915 2166 PO
gs 1464 389 4227 4227 MR c np
gr

  18   18 3909 2169 PO
gs 1464 389 4227 4227 MR c np
gr

  18   18 3914 2172 PO
gs 1464 389 4227 4227 MR c np
gr

  18   18 3909 2175 PO
gs 1464 389 4227 4227 MR c np
gr

  18   18 3898 2177 PO
gs 1464 389 4227 4227 MR c np
gr

  18   18 2728 2181 PO
gs 1464 389 4227 4227 MR c np
gr

/c33 { 0.937500 1.000000 0.062500 sr} bdef
c33
  18   18 3905 2184 PO
gs 1464 389 4227 4227 MR c np
gr

  18   18 3891 2186 PO
gs 1464 389 4227 4227 MR c np
gr

  18   18 3898 2192 PO
gs 1464 389 4227 4227 MR c np
gr

  18   18 3891 2192 PO
gs 1464 389 4227 4227 MR c np
gr

  18   18 3904 2195 PO
gs 1464 389 4227 4227 MR c np
gr

  18   18 3887 2198 PO
gs 1464 389 4227 4227 MR c np
gr

  18   18 3883 2201 PO
gs 1464 389 4227 4227 MR c np
gr

  18   18 3879 2204 PO
gs 1464 389 4227 4227 MR c np
gr

  18   18 3122 2208 PO
gs 1464 389 4227 4227 MR c np
gr

  18   18 3869 2208 PO
gs 1464 389 4227 4227 MR c np
gr

  18   18 3876 2213 PO
gs 1464 389 4227 4227 MR c np
gr

  18   18 2388 2217 PO
gs 1464 389 4227 4227 MR c np
gr

  18   18 3876 2221 PO
gs 1464 389 4227 4227 MR c np
gr

  18   18 3876 2222 PO
gs 1464 389 4227 4227 MR c np
gr

  18   18 3858 2224 PO
gs 1464 389 4227 4227 MR c np
gr

/c34 { 0.875000 1.000000 0.125000 sr} bdef
c34
  18   18 3860 2228 PO
gs 1464 389 4227 4227 MR c np
gr

  18   18 3860 2229 PO
gs 1464 389 4227 4227 MR c np
gr

  18   18 3848 2234 PO
gs 1464 389 4227 4227 MR c np
gr

  18   18 3846 2236 PO
gs 1464 389 4227 4227 MR c np
gr

  18   18 3845 2238 PO
gs 1464 389 4227 4227 MR c np
gr

  18   18 3426 2241 PO
gs 1464 389 4227 4227 MR c np
gr

  18   18 3830 2245 PO
gs 1464 389 4227 4227 MR c np
gr

  18   18 3848 2248 PO
gs 1464 389 4227 4227 MR c np
gr

  18   18 3815 2252 PO
gs 1464 389 4227 4227 MR c np
gr

  18   18 3812 2253 PO
gs 1464 389 4227 4227 MR c np
gr

  18   18 3827 2259 PO
gs 1464 389 4227 4227 MR c np
gr

  18   18 3811 2259 PO
gs 1464 389 4227 4227 MR c np
gr

  18   18 3815 2263 PO
gs 1464 389 4227 4227 MR c np
gr

  18   18 3809 2267 PO
gs 1464 389 4227 4227 MR c np
gr

  18   18 3804 2268 PO
gs 1464 389 4227 4227 MR c np
gr

  18   18 3598 2271 PO
gs 1464 389 4227 4227 MR c np
gr

/c35 { 0.812500 1.000000 0.187500 sr} bdef
c35
  18   18 3801 2273 PO
gs 1464 389 4227 4227 MR c np
gr

  18   18 3808 2278 PO
gs 1464 389 4227 4227 MR c np
gr

  18   18 3797 2279 PO
gs 1464 389 4227 4227 MR c np
gr

  18   18 3799 2283 PO
gs 1464 389 4227 4227 MR c np
gr

  18   18 3405 2287 PO
gs 1464 389 4227 4227 MR c np
gr

  18   18 3527 2289 PO
gs 1464 389 4227 4227 MR c np
gr

  18   18 3786 2292 PO
gs 1464 389 4227 4227 MR c np
gr

  18   18 3771 2295 PO
gs 1464 389 4227 4227 MR c np
gr

  18   18 3780 2298 PO
gs 1464 389 4227 4227 MR c np
gr

  18   18 3770 2301 PO
gs 1464 389 4227 4227 MR c np
gr

  18   18 3783 2303 PO
gs 1464 389 4227 4227 MR c np
gr

  18   18 3780 2306 PO
gs 1464 389 4227 4227 MR c np
gr

  18   18 3762 2312 PO
gs 1464 389 4227 4227 MR c np
gr

  18   18 3765 2313 PO
gs 1464 389 4227 4227 MR c np
gr

  18   18 3762 2316 PO
gs 1464 389 4227 4227 MR c np
gr

  18   18 3760 2318 PO
gs 1464 389 4227 4227 MR c np
gr

/c36 { 0.750000 1.000000 0.250000 sr} bdef
c36
  18   18 3756 2322 PO
gs 1464 389 4227 4227 MR c np
gr

  18   18 3757 2325 PO
gs 1464 389 4227 4227 MR c np
gr

  18   18 3755 2325 PO
gs 1464 389 4227 4227 MR c np
gr

  18   18 3752 2330 PO
gs 1464 389 4227 4227 MR c np
gr

  18   18 3744 2332 PO
gs 1464 389 4227 4227 MR c np
gr

  18   18 3747 2336 PO
gs 1464 389 4227 4227 MR c np
gr

  18   18 3748 2340 PO
gs 1464 389 4227 4227 MR c np
gr

  18   18 3733 2344 PO
gs 1464 389 4227 4227 MR c np
gr

  18   18 3730 2346 PO
gs 1464 389 4227 4227 MR c np
gr

  18   18 3718 2348 PO
gs 1464 389 4227 4227 MR c np
gr

  18   18 3724 2353 PO
gs 1464 389 4227 4227 MR c np
gr

  18   18 3709 2353 PO
gs 1464 389 4227 4227 MR c np
gr

  18   18 3708 2356 PO
gs 1464 389 4227 4227 MR c np
gr

  18   18 3716 2359 PO
gs 1464 389 4227 4227 MR c np
gr

  18   18 3715 2365 PO
gs 1464 389 4227 4227 MR c np
gr

/c37 { 0.687500 1.000000 0.312500 sr} bdef
c37
  18   18 3718 2365 PO
gs 1464 389 4227 4227 MR c np
gr

  18   18 3716 2370 PO
gs 1464 389 4227 4227 MR c np
gr

  18   18 3713 2372 PO
gs 1464 389 4227 4227 MR c np
gr

  18   18 3710 2374 PO
gs 1464 389 4227 4227 MR c np
gr

  18   18 3699 2377 PO
gs 1464 389 4227 4227 MR c np
gr

  18   18 3702 2380 PO
gs 1464 389 4227 4227 MR c np
gr

  18   18 3688 2384 PO
gs 1464 389 4227 4227 MR c np
gr

  18   18 3695 2387 PO
gs 1464 389 4227 4227 MR c np
gr

  18   18 3687 2389 PO
gs 1464 389 4227 4227 MR c np
gr

  18   18 3691 2392 PO
gs 1464 389 4227 4227 MR c np
gr

  18   18 3689 2396 PO
gs 1464 389 4227 4227 MR c np
gr

  18   18 3681 2398 PO
gs 1464 389 4227 4227 MR c np
gr

  18   18 3680 2400 PO
gs 1464 389 4227 4227 MR c np
gr

  18   18 3680 2402 PO
gs 1464 389 4227 4227 MR c np
gr

  18   18 3669 2407 PO
gs 1464 389 4227 4227 MR c np
gr

  18   18 3670 2409 PO
gs 1464 389 4227 4227 MR c np
gr

/c38 { 0.625000 1.000000 0.375000 sr} bdef
c38
  18   18 3665 2413 PO
gs 1464 389 4227 4227 MR c np
gr

  18   18 3663 2414 PO
gs 1464 389 4227 4227 MR c np
gr

  18   18 3668 2418 PO
gs 1464 389 4227 4227 MR c np
gr

  18   18 3649 2421 PO
gs 1464 389 4227 4227 MR c np
gr

  18   18 3659 2424 PO
gs 1464 389 4227 4227 MR c np
gr

  18   18 3635 2427 PO
gs 1464 389 4227 4227 MR c np
gr

  18   18 3663 2429 PO
gs 1464 389 4227 4227 MR c np
gr

  18   18 3648 2431 PO
gs 1464 389 4227 4227 MR c np
gr

  18   18 3644 2435 PO
gs 1464 389 4227 4227 MR c np
gr

  18   18 3645 2438 PO
gs 1464 389 4227 4227 MR c np
gr

  18   18 3632 2441 PO
gs 1464 389 4227 4227 MR c np
gr

  18   18 3629 2444 PO
gs 1464 389 4227 4227 MR c np
gr

  18   18 3635 2447 PO
gs 1464 389 4227 4227 MR c np
gr

  18   18 3635 2451 PO
gs 1464 389 4227 4227 MR c np
gr

  18   18 3618 2454 PO
gs 1464 389 4227 4227 MR c np
gr

/c39 { 0.562500 1.000000 0.437500 sr} bdef
c39
  18   18 3626 2457 PO
gs 1464 389 4227 4227 MR c np
gr

  18   18 3618 2459 PO
gs 1464 389 4227 4227 MR c np
gr

  18   18 3621 2462 PO
gs 1464 389 4227 4227 MR c np
gr

  18   18 3612 2463 PO
gs 1464 389 4227 4227 MR c np
gr

  18   18 3595 2469 PO
gs 1464 389 4227 4227 MR c np
gr

  18   18 3607 2471 PO
gs 1464 389 4227 4227 MR c np
gr

  18   18 3601 2474 PO
gs 1464 389 4227 4227 MR c np
gr

  18   18 3606 2475 PO
gs 1464 389 4227 4227 MR c np
gr

  18   18 3401 2481 PO
gs 1464 389 4227 4227 MR c np
gr

  18   18 3595 2481 PO
gs 1464 389 4227 4227 MR c np
gr

  18   18 3602 2487 PO
gs 1464 389 4227 4227 MR c np
gr

  18   18 2586 2488 PO
gs 1464 389 4227 4227 MR c np
gr

  18   18 3573 2491 PO
gs 1464 389 4227 4227 MR c np
gr

  18   18 3603 2495 PO
gs 1464 389 4227 4227 MR c np
gr

  18   18 3577 2498 PO
gs 1464 389 4227 4227 MR c np
gr

  18   18 3564 2501 PO
gs 1464 389 4227 4227 MR c np
gr

/c40 { 0.500000 1.000000 0.500000 sr} bdef
c40
  18   18 3572 2503 PO
gs 1464 389 4227 4227 MR c np
gr

  18   18 3624 2506 PO
gs 1464 389 4227 4227 MR c np
gr

  18   18 3558 2508 PO
gs 1464 389 4227 4227 MR c np
gr

  18   18 3649 2513 PO
gs 1464 389 4227 4227 MR c np
gr

  18   18 3565 2515 PO
gs 1464 389 4227 4227 MR c np
gr

  18   18 3558 2517 PO
gs 1464 389 4227 4227 MR c np
gr

  18   18 3556 2520 PO
gs 1464 389 4227 4227 MR c np
gr

  18   18 3555 2523 PO
gs 1464 389 4227 4227 MR c np
gr

  18   18 3526 2527 PO
gs 1464 389 4227 4227 MR c np
gr

  18   18 3542 2529 PO
gs 1464 389 4227 4227 MR c np
gr

  18   18 3554 2534 PO
gs 1464 389 4227 4227 MR c np
gr

  18   18 3543 2535 PO
gs 1464 389 4227 4227 MR c np
gr

  18   18 3535 2538 PO
gs 1464 389 4227 4227 MR c np
gr

  18   18 3541 2538 PO
gs 1464 389 4227 4227 MR c np
gr

  18   18 3530 2545 PO
gs 1464 389 4227 4227 MR c np
gr

  18   18 3532 2547 PO
gs 1464 389 4227 4227 MR c np
gr

/c41 { 0.437500 1.000000 0.562500 sr} bdef
c41
  18   18 3526 2549 PO
gs 1464 389 4227 4227 MR c np
gr

  18   18 5003 2553 PO
gs 1464 389 4227 4227 MR c np
gr

  18   18 3522 2556 PO
gs 1464 389 4227 4227 MR c np
gr

  18   18 3515 2558 PO
gs 1464 389 4227 4227 MR c np
gr

  18   18 3512 2561 PO
gs 1464 389 4227 4227 MR c np
gr

  18   18 3515 2565 PO
gs 1464 389 4227 4227 MR c np
gr

  18   18 3504 2566 PO
gs 1464 389 4227 4227 MR c np
gr

  18   18 3513 2571 PO
gs 1464 389 4227 4227 MR c np
gr

  18   18 3502 2573 PO
gs 1464 389 4227 4227 MR c np
gr

  18   18 3505 2576 PO
gs 1464 389 4227 4227 MR c np
gr

  18   18 3502 2580 PO
gs 1464 389 4227 4227 MR c np
gr

  18   18 3498 2583 PO
gs 1464 389 4227 4227 MR c np
gr

  18   18 3830 2584 PO
gs 1464 389 4227 4227 MR c np
gr

  18   18 3482 2588 PO
gs 1464 389 4227 4227 MR c np
gr

  18   18 3484 2591 PO
gs 1464 389 4227 4227 MR c np
gr

/c42 { 0.375000 1.000000 0.625000 sr} bdef
c42
  18   18 3483 2594 PO
gs 1464 389 4227 4227 MR c np
gr

  18   18 3480 2597 PO
gs 1464 389 4227 4227 MR c np
gr

  18   18 3462 2598 PO
gs 1464 389 4227 4227 MR c np
gr

  18   18 3481 2603 PO
gs 1464 389 4227 4227 MR c np
gr

  18   18 3459 2606 PO
gs 1464 389 4227 4227 MR c np
gr

  18   18 3472 2608 PO
gs 1464 389 4227 4227 MR c np
gr

  18   18 3476 2610 PO
gs 1464 389 4227 4227 MR c np
gr

  18   18 3456 2613 PO
gs 1464 389 4227 4227 MR c np
gr

  18   18 3442 2616 PO
gs 1464 389 4227 4227 MR c np
gr

  18   18 3455 2621 PO
gs 1464 389 4227 4227 MR c np
gr

  18   18 3560 2622 PO
gs 1464 389 4227 4227 MR c np
gr

  18   18 3452 2626 PO
gs 1464 389 4227 4227 MR c np
gr

  18   18 3437 2629 PO
gs 1464 389 4227 4227 MR c np
gr

  18   18 3446 2632 PO
gs 1464 389 4227 4227 MR c np
gr

  18   18 3443 2635 PO
gs 1464 389 4227 4227 MR c np
gr

  18   18 3439 2637 PO
gs 1464 389 4227 4227 MR c np
gr

/c43 { 0.312500 1.000000 0.687500 sr} bdef
c43
  18   18 3431 2640 PO
gs 1464 389 4227 4227 MR c np
gr

  18   18 3447 2644 PO
gs 1464 389 4227 4227 MR c np
gr

  18   18 3431 2647 PO
gs 1464 389 4227 4227 MR c np
gr

  18   18 3420 2649 PO
gs 1464 389 4227 4227 MR c np
gr

  18   18 3437 2651 PO
gs 1464 389 4227 4227 MR c np
gr

  18   18 3433 2655 PO
gs 1464 389 4227 4227 MR c np
gr

  18   18 3429 2657 PO
gs 1464 389 4227 4227 MR c np
gr

  18   18 3435 2662 PO
gs 1464 389 4227 4227 MR c np
gr

  18   18 3412 2663 PO
gs 1464 389 4227 4227 MR c np
gr

  18   18 3416 2668 PO
gs 1464 389 4227 4227 MR c np
gr

  18   18 3410 2671 PO
gs 1464 389 4227 4227 MR c np
gr

  18   18 3403 2673 PO
gs 1464 389 4227 4227 MR c np
gr

  18   18 3401 2676 PO
gs 1464 389 4227 4227 MR c np
gr

  18   18 3396 2678 PO
gs 1464 389 4227 4227 MR c np
gr

  18   18 3395 2682 PO
gs 1464 389 4227 4227 MR c np
gr

/c44 { 0.250000 1.000000 0.750000 sr} bdef
c44
  18   18 4861 2686 PO
gs 1464 389 4227 4227 MR c np
gr

  18   18 3383 2687 PO
gs 1464 389 4227 4227 MR c np
gr

  18   18 3386 2690 PO
gs 1464 389 4227 4227 MR c np
gr

  18   18 3390 2693 PO
gs 1464 389 4227 4227 MR c np
gr

  18   18 3375 2696 PO
gs 1464 389 4227 4227 MR c np
gr

  18   18 3376 2698 PO
gs 1464 389 4227 4227 MR c np
gr

  18   18 3382 2702 PO
gs 1464 389 4227 4227 MR c np
gr

  18   18 3380 2704 PO
gs 1464 389 4227 4227 MR c np
gr

  18   18 3355 2709 PO
gs 1464 389 4227 4227 MR c np
gr

  18   18 3367 2710 PO
gs 1464 389 4227 4227 MR c np
gr

  18   18 3367 2713 PO
gs 1464 389 4227 4227 MR c np
gr

  18   18 3351 2716 PO
gs 1464 389 4227 4227 MR c np
gr

  18   18 3359 2719 PO
gs 1464 389 4227 4227 MR c np
gr

  18   18 3345 2722 PO
gs 1464 389 4227 4227 MR c np
gr

  18   18 3353 2726 PO
gs 1464 389 4227 4227 MR c np
gr

  18   18 3349 2729 PO
gs 1464 389 4227 4227 MR c np
gr

/c45 { 0.187500 1.000000 0.812500 sr} bdef
c45
  18   18 3344 2731 PO
gs 1464 389 4227 4227 MR c np
gr

  18   18 3337 2734 PO
gs 1464 389 4227 4227 MR c np
gr

  18   18 3339 2737 PO
gs 1464 389 4227 4227 MR c np
gr

  18   18 3336 2740 PO
gs 1464 389 4227 4227 MR c np
gr

  18   18 3340 2742 PO
gs 1464 389 4227 4227 MR c np
gr

  18   18 3328 2747 PO
gs 1464 389 4227 4227 MR c np
gr

  18   18 3323 2748 PO
gs 1464 389 4227 4227 MR c np
gr

  18   18 3316 2753 PO
gs 1464 389 4227 4227 MR c np
gr

  18   18 3329 2754 PO
gs 1464 389 4227 4227 MR c np
gr

  18   18 3325 2759 PO
gs 1464 389 4227 4227 MR c np
gr

  18   18 3319 2762 PO
gs 1464 389 4227 4227 MR c np
gr

  18   18 3314 2764 PO
gs 1464 389 4227 4227 MR c np
gr

  18   18 3303 2767 PO
gs 1464 389 4227 4227 MR c np
gr

  18   18 3313 2770 PO
gs 1464 389 4227 4227 MR c np
gr

  18   18 3309 2771 PO
gs 1464 389 4227 4227 MR c np
gr

  18   18 3445 2775 PO
gs 1464 389 4227 4227 MR c np
gr

/c46 { 0.125000 1.000000 0.875000 sr} bdef
c46
  18   18 3292 2776 PO
gs 1464 389 4227 4227 MR c np
gr

  18   18 3298 2782 PO
gs 1464 389 4227 4227 MR c np
gr

  18   18 3287 2784 PO
gs 1464 389 4227 4227 MR c np
gr

  18   18 3290 2788 PO
gs 1464 389 4227 4227 MR c np
gr

  18   18 3274 2789 PO
gs 1464 389 4227 4227 MR c np
gr

  18   18 4000 2792 PO
gs 1464 389 4227 4227 MR c np
gr

  18   18 3279 2796 PO
gs 1464 389 4227 4227 MR c np
gr

  18   18 3278 2799 PO
gs 1464 389 4227 4227 MR c np
gr

  18   18 3281 2802 PO
gs 1464 389 4227 4227 MR c np
gr

  18   18 3273 2804 PO
gs 1464 389 4227 4227 MR c np
gr

  18   18 3266 2805 PO
gs 1464 389 4227 4227 MR c np
gr

  18   18 3276 2809 PO
gs 1464 389 4227 4227 MR c np
gr

  18   18 3268 2813 PO
gs 1464 389 4227 4227 MR c np
gr

  18   18 3252 2817 PO
gs 1464 389 4227 4227 MR c np
gr

  18   18 3254 2819 PO
gs 1464 389 4227 4227 MR c np
gr

/c47 { 0.062500 1.000000 0.937500 sr} bdef
c47
  18   18 3255 2822 PO
gs 1464 389 4227 4227 MR c np
gr

  18   18 3250 2825 PO
gs 1464 389 4227 4227 MR c np
gr

  18   18 3242 2828 PO
gs 1464 389 4227 4227 MR c np
gr

  18   18 3239 2833 PO
gs 1464 389 4227 4227 MR c np
gr

  18   18 3240 2833 PO
gs 1464 389 4227 4227 MR c np
gr

  18   18 3237 2837 PO
gs 1464 389 4227 4227 MR c np
gr

  18   18 3234 2840 PO
gs 1464 389 4227 4227 MR c np
gr

  18   18 3233 2842 PO
gs 1464 389 4227 4227 MR c np
gr

  18   18 3233 2846 PO
gs 1464 389 4227 4227 MR c np
gr

  18   18 3228 2849 PO
gs 1464 389 4227 4227 MR c np
gr

  18   18 3225 2852 PO
gs 1464 389 4227 4227 MR c np
gr

  18   18 3222 2854 PO
gs 1464 389 4227 4227 MR c np
gr

  18   18 3248 2856 PO
gs 1464 389 4227 4227 MR c np
gr

  18   18 3210 2860 PO
gs 1464 389 4227 4227 MR c np
gr

  18   18 3215 2863 PO
gs 1464 389 4227 4227 MR c np
gr

  18   18 4662 2867 PO
gs 1464 389 4227 4227 MR c np
gr

/c48 { 0.000000 1.000000 1.000000 sr} bdef
c48
  18   18 3206 2870 PO
gs 1464 389 4227 4227 MR c np
gr

  18   18 3216 2871 PO
gs 1464 389 4227 4227 MR c np
gr

  18   18 3198 2877 PO
gs 1464 389 4227 4227 MR c np
gr

  18   18 3198 2879 PO
gs 1464 389 4227 4227 MR c np
gr

  18   18 3196 2881 PO
gs 1464 389 4227 4227 MR c np
gr

  18   18 3190 2884 PO
gs 1464 389 4227 4227 MR c np
gr

  18   18 3188 2886 PO
gs 1464 389 4227 4227 MR c np
gr

  18   18 3194 2889 PO
gs 1464 389 4227 4227 MR c np
gr

  18   18 3181 2891 PO
gs 1464 389 4227 4227 MR c np
gr

  18   18 3188 2895 PO
gs 1464 389 4227 4227 MR c np
gr

  18   18 3179 2898 PO
gs 1464 389 4227 4227 MR c np
gr

  18   18 3166 2900 PO
gs 1464 389 4227 4227 MR c np
gr

  18   18 3168 2904 PO
gs 1464 389 4227 4227 MR c np
gr

  18   18 3170 2906 PO
gs 1464 389 4227 4227 MR c np
gr

  18   18 3278 2909 PO
gs 1464 389 4227 4227 MR c np
gr

/c49 { 0.000000 0.937500 1.000000 sr} bdef
c49
  18   18 3142 2914 PO
gs 1464 389 4227 4227 MR c np
gr

  18   18 3150 2917 PO
gs 1464 389 4227 4227 MR c np
gr

  18   18 3266 2919 PO
gs 1464 389 4227 4227 MR c np
gr

  18   18 3156 2922 PO
gs 1464 389 4227 4227 MR c np
gr

  18   18 3150 2923 PO
gs 1464 389 4227 4227 MR c np
gr

  18   18 3140 2927 PO
gs 1464 389 4227 4227 MR c np
gr

  18   18 3135 2931 PO
gs 1464 389 4227 4227 MR c np
gr

  18   18 3140 2933 PO
gs 1464 389 4227 4227 MR c np
gr

  18   18 3145 2935 PO
gs 1464 389 4227 4227 MR c np
gr

  18   18 3141 2939 PO
gs 1464 389 4227 4227 MR c np
gr

  18   18 3129 2942 PO
gs 1464 389 4227 4227 MR c np
gr

  18   18 3123 2946 PO
gs 1464 389 4227 4227 MR c np
gr

  18   18 3145 2948 PO
gs 1464 389 4227 4227 MR c np
gr

  18   18 3122 2951 PO
gs 1464 389 4227 4227 MR c np
gr

  18   18 3105 2953 PO
gs 1464 389 4227 4227 MR c np
gr

  18   18 3113 2958 PO
gs 1464 389 4227 4227 MR c np
gr

/c50 { 0.000000 0.875000 1.000000 sr} bdef
c50
  18   18 3099 2960 PO
gs 1464 389 4227 4227 MR c np
gr

  18   18 3114 2962 PO
gs 1464 389 4227 4227 MR c np
gr

  18   18 3104 2965 PO
gs 1464 389 4227 4227 MR c np
gr

  18   18 3099 2969 PO
gs 1464 389 4227 4227 MR c np
gr

  18   18 3102 2971 PO
gs 1464 389 4227 4227 MR c np
gr

  18   18 3104 2975 PO
gs 1464 389 4227 4227 MR c np
gr

  18   18 3104 2976 PO
gs 1464 389 4227 4227 MR c np
gr

  18   18 3084 2979 PO
gs 1464 389 4227 4227 MR c np
gr

  18   18 3086 2983 PO
gs 1464 389 4227 4227 MR c np
gr

  18   18 3080 2987 PO
gs 1464 389 4227 4227 MR c np
gr

  18   18 3078 2988 PO
gs 1464 389 4227 4227 MR c np
gr

  18   18 3074 2992 PO
gs 1464 389 4227 4227 MR c np
gr

  18   18 3077 2995 PO
gs 1464 389 4227 4227 MR c np
gr

  18   18 3074 2998 PO
gs 1464 389 4227 4227 MR c np
gr

  18   18 3074 3000 PO
gs 1464 389 4227 4227 MR c np
gr

  18   18 3065 3003 PO
gs 1464 389 4227 4227 MR c np
gr

/c51 { 0.000000 0.812500 1.000000 sr} bdef
c51
  18   18 3072 3006 PO
gs 1464 389 4227 4227 MR c np
gr

  18   18 3063 3009 PO
gs 1464 389 4227 4227 MR c np
gr

  18   18 3071 3012 PO
gs 1464 389 4227 4227 MR c np
gr

  18   18 3473 3017 PO
gs 1464 389 4227 4227 MR c np
gr

  18   18 3053 3018 PO
gs 1464 389 4227 4227 MR c np
gr

  18   18 3042 3022 PO
gs 1464 389 4227 4227 MR c np
gr

  18   18 3033 3025 PO
gs 1464 389 4227 4227 MR c np
gr

  18   18 3047 3028 PO
gs 1464 389 4227 4227 MR c np
gr

  18   18 3039 3030 PO
gs 1464 389 4227 4227 MR c np
gr

  18   18 3046 3035 PO
gs 1464 389 4227 4227 MR c np
gr

  18   18 3035 3038 PO
gs 1464 389 4227 4227 MR c np
gr

  18   18 3050 3038 PO
gs 1464 389 4227 4227 MR c np
gr

  18   18 3016 3043 PO
gs 1464 389 4227 4227 MR c np
gr

  18   18 3029 3045 PO
gs 1464 389 4227 4227 MR c np
gr

  18   18 3021 3046 PO
gs 1464 389 4227 4227 MR c np
gr

/c52 { 0.000000 0.750000 1.000000 sr} bdef
c52
  18   18 3020 3051 PO
gs 1464 389 4227 4227 MR c np
gr

  18   18 3019 3052 PO
gs 1464 389 4227 4227 MR c np
gr

  18   18 3013 3056 PO
gs 1464 389 4227 4227 MR c np
gr

  18   18 3011 3059 PO
gs 1464 389 4227 4227 MR c np
gr

  18   18 3006 3062 PO
gs 1464 389 4227 4227 MR c np
gr

  18   18 3013 3066 PO
gs 1464 389 4227 4227 MR c np
gr

  18   18 2964 3068 PO
gs 1464 389 4227 4227 MR c np
gr

  18   18 2993 3070 PO
gs 1464 389 4227 4227 MR c np
gr

  18   18 3004 3075 PO
gs 1464 389 4227 4227 MR c np
gr

  18   18 2957 3077 PO
gs 1464 389 4227 4227 MR c np
gr

  18   18 3000 3080 PO
gs 1464 389 4227 4227 MR c np
gr

  18   18 2983 3082 PO
gs 1464 389 4227 4227 MR c np
gr

  18   18 2980 3084 PO
gs 1464 389 4227 4227 MR c np
gr

  18   18 2989 3089 PO
gs 1464 389 4227 4227 MR c np
gr

  18   18 2974 3092 PO
gs 1464 389 4227 4227 MR c np
gr

  18   18 2975 3095 PO
gs 1464 389 4227 4227 MR c np
gr

/c53 { 0.000000 0.687500 1.000000 sr} bdef
c53
  18   18 2956 3097 PO
gs 1464 389 4227 4227 MR c np
gr

  18   18 2963 3102 PO
gs 1464 389 4227 4227 MR c np
gr

  18   18 2975 3103 PO
gs 1464 389 4227 4227 MR c np
gr

  18   18 2951 3105 PO
gs 1464 389 4227 4227 MR c np
gr

  18   18 2961 3109 PO
gs 1464 389 4227 4227 MR c np
gr

  18   18 2964 3114 PO
gs 1464 389 4227 4227 MR c np
gr

  18   18 2955 3116 PO
gs 1464 389 4227 4227 MR c np
gr

  18   18 2960 3117 PO
gs 1464 389 4227 4227 MR c np
gr

  18   18 2946 3120 PO
gs 1464 389 4227 4227 MR c np
gr

  18   18 2943 3123 PO
gs 1464 389 4227 4227 MR c np
gr

  18   18 2951 3126 PO
gs 1464 389 4227 4227 MR c np
gr

  18   18 2943 3128 PO
gs 1464 389 4227 4227 MR c np
gr

  18   18 2924 3132 PO
gs 1464 389 4227 4227 MR c np
gr

  18   18 2924 3135 PO
gs 1464 389 4227 4227 MR c np
gr

  18   18 2945 3138 PO
gs 1464 389 4227 4227 MR c np
gr

  18   18 2932 3141 PO
gs 1464 389 4227 4227 MR c np
gr

/c54 { 0.000000 0.625000 1.000000 sr} bdef
c54
  18   18 2926 3144 PO
gs 1464 389 4227 4227 MR c np
gr

  18   18 2915 3146 PO
gs 1464 389 4227 4227 MR c np
gr

  18   18 2941 3149 PO
gs 1464 389 4227 4227 MR c np
gr

  18   18 2917 3152 PO
gs 1464 389 4227 4227 MR c np
gr

  18   18 2918 3156 PO
gs 1464 389 4227 4227 MR c np
gr

  18   18 2916 3159 PO
gs 1464 389 4227 4227 MR c np
gr

  18   18 2878 3163 PO
gs 1464 389 4227 4227 MR c np
gr

  18   18 2906 3164 PO
gs 1464 389 4227 4227 MR c np
gr

  18   18 2917 3167 PO
gs 1464 389 4227 4227 MR c np
gr

  18   18 3073 3172 PO
gs 1464 389 4227 4227 MR c np
gr

  18   18 2991 3174 PO
gs 1464 389 4227 4227 MR c np
gr

  18   18 2878 3176 PO
gs 1464 389 4227 4227 MR c np
gr

  18   18 2893 3180 PO
gs 1464 389 4227 4227 MR c np
gr

  18   18 2884 3181 PO
gs 1464 389 4227 4227 MR c np
gr

  18   18 2874 3185 PO
gs 1464 389 4227 4227 MR c np
gr

/c55 { 0.000000 0.562500 1.000000 sr} bdef
c55
  18   18 2884 3188 PO
gs 1464 389 4227 4227 MR c np
gr

  18   18 2891 3191 PO
gs 1464 389 4227 4227 MR c np
gr

  18   18 2875 3193 PO
gs 1464 389 4227 4227 MR c np
gr

  18   18 2863 3197 PO
gs 1464 389 4227 4227 MR c np
gr

  18   18 2891 3199 PO
gs 1464 389 4227 4227 MR c np
gr

  18   18 2855 3202 PO
gs 1464 389 4227 4227 MR c np
gr

  18   18 2867 3207 PO
gs 1464 389 4227 4227 MR c np
gr

  18   18 2859 3209 PO
gs 1464 389 4227 4227 MR c np
gr

  18   18 2853 3213 PO
gs 1464 389 4227 4227 MR c np
gr

  18   18 2853 3213 PO
gs 1464 389 4227 4227 MR c np
gr

  18   18 2843 3216 PO
gs 1464 389 4227 4227 MR c np
gr

  18   18 2856 3221 PO
gs 1464 389 4227 4227 MR c np
gr

  18   18 2971 3225 PO
gs 1464 389 4227 4227 MR c np
gr

  18   18 2843 3226 PO
gs 1464 389 4227 4227 MR c np
gr

  18   18 2828 3228 PO
gs 1464 389 4227 4227 MR c np
gr

  18   18 2829 3232 PO
gs 1464 389 4227 4227 MR c np
gr

/c56 { 0.000000 0.500000 1.000000 sr} bdef
c56
  18   18 2830 3236 PO
gs 1464 389 4227 4227 MR c np
gr

  18   18 2830 3237 PO
gs 1464 389 4227 4227 MR c np
gr

  18   18 2840 3241 PO
gs 1464 389 4227 4227 MR c np
gr

  18   18 2830 3244 PO
gs 1464 389 4227 4227 MR c np
gr

  18   18 2830 3246 PO
gs 1464 389 4227 4227 MR c np
gr

  18   18 2822 3248 PO
gs 1464 389 4227 4227 MR c np
gr

  18   18 2803 3252 PO
gs 1464 389 4227 4227 MR c np
gr

  18   18 2816 3256 PO
gs 1464 389 4227 4227 MR c np
gr

  18   18 2801 3258 PO
gs 1464 389 4227 4227 MR c np
gr

  18   18 2808 3260 PO
gs 1464 389 4227 4227 MR c np
gr

  18   18 2793 3265 PO
gs 1464 389 4227 4227 MR c np
gr

  18   18 2820 3269 PO
gs 1464 389 4227 4227 MR c np
gr

  18   18 2797 3270 PO
gs 1464 389 4227 4227 MR c np
gr

  18   18 2786 3275 PO
gs 1464 389 4227 4227 MR c np
gr

  18   18 2797 3277 PO
gs 1464 389 4227 4227 MR c np
gr

/c57 { 0.000000 0.437500 1.000000 sr} bdef
c57
  18   18 2786 3278 PO
gs 1464 389 4227 4227 MR c np
gr

  18   18 2781 3282 PO
gs 1464 389 4227 4227 MR c np
gr

  18   18 2771 3284 PO
gs 1464 389 4227 4227 MR c np
gr

  18   18 2781 3289 PO
gs 1464 389 4227 4227 MR c np
gr

  18   18 2769 3291 PO
gs 1464 389 4227 4227 MR c np
gr

  18   18 2782 3293 PO
gs 1464 389 4227 4227 MR c np
gr

  18   18 2772 3296 PO
gs 1464 389 4227 4227 MR c np
gr

  18   18 2767 3300 PO
gs 1464 389 4227 4227 MR c np
gr

  18   18 2758 3302 PO
gs 1464 389 4227 4227 MR c np
gr

  18   18 2767 3307 PO
gs 1464 389 4227 4227 MR c np
gr

  18   18 2759 3310 PO
gs 1464 389 4227 4227 MR c np
gr

  18   18 2761 3311 PO
gs 1464 389 4227 4227 MR c np
gr

  18   18 2752 3315 PO
gs 1464 389 4227 4227 MR c np
gr

  18   18 2755 3316 PO
gs 1464 389 4227 4227 MR c np
gr

  18   18 2748 3319 PO
gs 1464 389 4227 4227 MR c np
gr

  18   18 2754 3323 PO
gs 1464 389 4227 4227 MR c np
gr

/c58 { 0.000000 0.375000 1.000000 sr} bdef
c58
  18   18 2892 3327 PO
gs 1464 389 4227 4227 MR c np
gr

  18   18 2740 3329 PO
gs 1464 389 4227 4227 MR c np
gr

  18   18 2744 3332 PO
gs 1464 389 4227 4227 MR c np
gr

  18   18 2729 3334 PO
gs 1464 389 4227 4227 MR c np
gr

  18   18 2730 3337 PO
gs 1464 389 4227 4227 MR c np
gr

  18   18 2731 3340 PO
gs 1464 389 4227 4227 MR c np
gr

  18   18 2720 3343 PO
gs 1464 389 4227 4227 MR c np
gr

  18   18 2720 3346 PO
gs 1464 389 4227 4227 MR c np
gr

  18   18 2723 3348 PO
gs 1464 389 4227 4227 MR c np
gr

  18   18 2710 3351 PO
gs 1464 389 4227 4227 MR c np
gr

  18   18 2703 3353 PO
gs 1464 389 4227 4227 MR c np
gr

  18   18 2716 3357 PO
gs 1464 389 4227 4227 MR c np
gr

  18   18 2715 3361 PO
gs 1464 389 4227 4227 MR c np
gr

  18   18 2690 3364 PO
gs 1464 389 4227 4227 MR c np
gr

  18   18 2700 3366 PO
gs 1464 389 4227 4227 MR c np
gr

  18   18 2692 3370 PO
gs 1464 389 4227 4227 MR c np
gr

/c59 { 0.000000 0.312500 1.000000 sr} bdef
c59
  18   18 2687 3372 PO
gs 1464 389 4227 4227 MR c np
gr

  18   18 2689 3376 PO
gs 1464 389 4227 4227 MR c np
gr

  18   18 2695 3378 PO
gs 1464 389 4227 4227 MR c np
gr

  18   18 2673 3380 PO
gs 1464 389 4227 4227 MR c np
gr

  18   18 2683 3384 PO
gs 1464 389 4227 4227 MR c np
gr

  18   18 2676 3387 PO
gs 1464 389 4227 4227 MR c np
gr

  18   18 2671 3390 PO
gs 1464 389 4227 4227 MR c np
gr

  18   18 2674 3392 PO
gs 1464 389 4227 4227 MR c np
gr

  18   18 2665 3397 PO
gs 1464 389 4227 4227 MR c np
gr

  18   18 2666 3399 PO
gs 1464 389 4227 4227 MR c np
gr

  18   18 2663 3401 PO
gs 1464 389 4227 4227 MR c np
gr

  18   18 2664 3406 PO
gs 1464 389 4227 4227 MR c np
gr

  18   18 2650 3407 PO
gs 1464 389 4227 4227 MR c np
gr

  18   18 2658 3409 PO
gs 1464 389 4227 4227 MR c np
gr

  18   18 2658 3413 PO
gs 1464 389 4227 4227 MR c np
gr

/c60 { 0.000000 0.250000 1.000000 sr} bdef
c60
  18   18 2656 3416 PO
gs 1464 389 4227 4227 MR c np
gr

  18   18 2655 3419 PO
gs 1464 389 4227 4227 MR c np
gr

  18   18 2642 3421 PO
gs 1464 389 4227 4227 MR c np
gr

  18   18 2639 3426 PO
gs 1464 389 4227 4227 MR c np
gr

  18   18 2646 3427 PO
gs 1464 389 4227 4227 MR c np
gr

  18   18 2626 3429 PO
gs 1464 389 4227 4227 MR c np
gr

  18   18 2636 3433 PO
gs 1464 389 4227 4227 MR c np
gr

  18   18 2626 3437 PO
gs 1464 389 4227 4227 MR c np
gr

  18   18 2618 3439 PO
gs 1464 389 4227 4227 MR c np
gr

  18   18 2623 3443 PO
gs 1464 389 4227 4227 MR c np
gr

  18   18 2611 3444 PO
gs 1464 389 4227 4227 MR c np
gr

  18   18 2617 3449 PO
gs 1464 389 4227 4227 MR c np
gr

  18   18 2604 3452 PO
gs 1464 389 4227 4227 MR c np
gr

  18   18 2607 3454 PO
gs 1464 389 4227 4227 MR c np
gr

  18   18 3104 3457 PO
gs 1464 389 4227 4227 MR c np
gr

  18   18 2613 3459 PO
gs 1464 389 4227 4227 MR c np
gr

/c61 { 0.000000 0.187500 1.000000 sr} bdef
c61
  18   18 2611 3464 PO
gs 1464 389 4227 4227 MR c np
gr

  18   18 2586 3466 PO
gs 1464 389 4227 4227 MR c np
gr

  18   18 2602 3468 PO
gs 1464 389 4227 4227 MR c np
gr

  18   18 2590 3473 PO
gs 1464 389 4227 4227 MR c np
gr

  18   18 2584 3475 PO
gs 1464 389 4227 4227 MR c np
gr

  18   18 2579 3478 PO
gs 1464 389 4227 4227 MR c np
gr

  18   18 2579 3481 PO
gs 1464 389 4227 4227 MR c np
gr

  18   18 2582 3483 PO
gs 1464 389 4227 4227 MR c np
gr

  18   18 2575 3487 PO
gs 1464 389 4227 4227 MR c np
gr

  18   18 2584 3490 PO
gs 1464 389 4227 4227 MR c np
gr

  18   18 2582 3494 PO
gs 1464 389 4227 4227 MR c np
gr

  18   18 2578 3495 PO
gs 1464 389 4227 4227 MR c np
gr

  18   18 2547 3499 PO
gs 1464 389 4227 4227 MR c np
gr

  18   18 2555 3500 PO
gs 1464 389 4227 4227 MR c np
gr

  18   18 2550 3505 PO
gs 1464 389 4227 4227 MR c np
gr

/c62 { 0.000000 0.125000 1.000000 sr} bdef
c62
  18   18 2551 3507 PO
gs 1464 389 4227 4227 MR c np
gr

  18   18 2552 3510 PO
gs 1464 389 4227 4227 MR c np
gr

  18   18 2553 3514 PO
gs 1464 389 4227 4227 MR c np
gr

  18   18 2581 3515 PO
gs 1464 389 4227 4227 MR c np
gr

  18   18 2549 3518 PO
gs 1464 389 4227 4227 MR c np
gr

  18   18 2542 3521 PO
gs 1464 389 4227 4227 MR c np
gr

  18   18 2533 3524 PO
gs 1464 389 4227 4227 MR c np
gr

  18   18 2546 3528 PO
gs 1464 389 4227 4227 MR c np
gr

  18   18 2529 3530 PO
gs 1464 389 4227 4227 MR c np
gr

  18   18 2531 3533 PO
gs 1464 389 4227 4227 MR c np
gr

  18   18 2519 3536 PO
gs 1464 389 4227 4227 MR c np
gr

  18   18 2515 3540 PO
gs 1464 389 4227 4227 MR c np
gr

  18   18 2511 3543 PO
gs 1464 389 4227 4227 MR c np
gr

  18   18 2704 3546 PO
gs 1464 389 4227 4227 MR c np
gr

  18   18 2527 3548 PO
gs 1464 389 4227 4227 MR c np
gr

  18   18 2499 3551 PO
gs 1464 389 4227 4227 MR c np
gr

/c63 { 0.000000 0.062500 1.000000 sr} bdef
c63
  18   18 2513 3552 PO
gs 1464 389 4227 4227 MR c np
gr

  18   18 2497 3556 PO
gs 1464 389 4227 4227 MR c np
gr

  18   18 2492 3561 PO
gs 1464 389 4227 4227 MR c np
gr

  18   18 2491 3563 PO
gs 1464 389 4227 4227 MR c np
gr

  18   18 3914 3564 PO
gs 1464 389 4227 4227 MR c np
gr

  18   18 2496 3569 PO
gs 1464 389 4227 4227 MR c np
gr

  18   18 2495 3572 PO
gs 1464 389 4227 4227 MR c np
gr

  18   18 2502 3576 PO
gs 1464 389 4227 4227 MR c np
gr

  18   18 2488 3577 PO
gs 1464 389 4227 4227 MR c np
gr

  18   18 2472 3580 PO
gs 1464 389 4227 4227 MR c np
gr

  18   18 2475 3583 PO
gs 1464 389 4227 4227 MR c np
gr

  18   18 2480 3588 PO
gs 1464 389 4227 4227 MR c np
gr

  18   18 2471 3589 PO
gs 1464 389 4227 4227 MR c np
gr

  18   18 2469 3592 PO
gs 1464 389 4227 4227 MR c np
gr

  18   18 2469 3594 PO
gs 1464 389 4227 4227 MR c np
gr

  18   18 2467 3599 PO
gs 1464 389 4227 4227 MR c np
gr

/c64 { 0.000000 0.000000 1.000000 sr} bdef
c64
  18   18 2456 3602 PO
gs 1464 389 4227 4227 MR c np
gr

  18   18 2460 3604 PO
gs 1464 389 4227 4227 MR c np
gr

  18   18 2453 3606 PO
gs 1464 389 4227 4227 MR c np
gr

  18   18 2450 3609 PO
gs 1464 389 4227 4227 MR c np
gr

  18   18 2445 3613 PO
gs 1464 389 4227 4227 MR c np
gr

  18   18 2443 3616 PO
gs 1464 389 4227 4227 MR c np
gr

  18   18 2456 3619 PO
gs 1464 389 4227 4227 MR c np
gr

  18   18 2434 3622 PO
gs 1464 389 4227 4227 MR c np
gr

  18   18 2436 3623 PO
gs 1464 389 4227 4227 MR c np
gr

  18   18 2423 3627 PO
gs 1464 389 4227 4227 MR c np
gr

  18   18 2429 3631 PO
gs 1464 389 4227 4227 MR c np
gr

  18   18 2424 3633 PO
gs 1464 389 4227 4227 MR c np
gr

  18   18 2415 3637 PO
gs 1464 389 4227 4227 MR c np
gr

  18   18 2428 3639 PO
gs 1464 389 4227 4227 MR c np
gr

  18   18 2418 3643 PO
gs 1464 389 4227 4227 MR c np
gr

/c65 { 0.000000 0.000000 0.937500 sr} bdef
c65
  18   18 2410 3643 PO
gs 1464 389 4227 4227 MR c np
gr

  18   18 2409 3649 PO
gs 1464 389 4227 4227 MR c np
gr

  18   18 2409 3649 PO
gs 1464 389 4227 4227 MR c np
gr

  18   18 2414 3653 PO
gs 1464 389 4227 4227 MR c np
gr

  18   18 2392 3656 PO
gs 1464 389 4227 4227 MR c np
gr

  18   18 2403 3659 PO
gs 1464 389 4227 4227 MR c np
gr

  18   18 2400 3662 PO
gs 1464 389 4227 4227 MR c np
gr

  18   18 2401 3665 PO
gs 1464 389 4227 4227 MR c np
gr

  18   18 2406 3668 PO
gs 1464 389 4227 4227 MR c np
gr

  18   18 2376 3670 PO
gs 1464 389 4227 4227 MR c np
gr

  18   18 2383 3673 PO
gs 1464 389 4227 4227 MR c np
gr

  18   18 2383 3677 PO
gs 1464 389 4227 4227 MR c np
gr

  18   18 2368 3681 PO
gs 1464 389 4227 4227 MR c np
gr

  18   18 2366 3683 PO
gs 1464 389 4227 4227 MR c np
gr

  18   18 2377 3686 PO
gs 1464 389 4227 4227 MR c np
gr

  18   18 2364 3689 PO
gs 1464 389 4227 4227 MR c np
gr

/c66 { 0.000000 0.000000 0.875000 sr} bdef
c66
  18   18 2361 3692 PO
gs 1464 389 4227 4227 MR c np
gr

  18   18 2369 3695 PO
gs 1464 389 4227 4227 MR c np
gr

  18   18 2375 3699 PO
gs 1464 389 4227 4227 MR c np
gr

  18   18 2360 3700 PO
gs 1464 389 4227 4227 MR c np
gr

  18   18 2354 3702 PO
gs 1464 389 4227 4227 MR c np
gr

  18   18 2337 3704 PO
gs 1464 389 4227 4227 MR c np
gr

  18   18 2351 3709 PO
gs 1464 389 4227 4227 MR c np
gr

  18   18 2345 3712 PO
gs 1464 389 4227 4227 MR c np
gr

  18   18 2340 3714 PO
gs 1464 389 4227 4227 MR c np
gr

  18   18 2350 3718 PO
gs 1464 389 4227 4227 MR c np
gr

  18   18 2346 3722 PO
gs 1464 389 4227 4227 MR c np
gr

  18   18 2348 3724 PO
gs 1464 389 4227 4227 MR c np
gr

  18   18 2297 3726 PO
gs 1464 389 4227 4227 MR c np
gr

  18   18 2334 3730 PO
gs 1464 389 4227 4227 MR c np
gr

  18   18 2330 3732 PO
gs 1464 389 4227 4227 MR c np
gr

/c67 { 0.000000 0.000000 0.812500 sr} bdef
c67
  18   18 2335 3736 PO
gs 1464 389 4227 4227 MR c np
gr

  18   18 2360 3739 PO
gs 1464 389 4227 4227 MR c np
gr

  18   18 2309 3741 PO
gs 1464 389 4227 4227 MR c np
gr

  18   18 2307 3744 PO
gs 1464 389 4227 4227 MR c np
gr

  18   18 2265 3748 PO
gs 1464 389 4227 4227 MR c np
gr

  18   18 2309 3751 PO
gs 1464 389 4227 4227 MR c np
gr

  18   18 2488 3754 PO
gs 1464 389 4227 4227 MR c np
gr

  18   18 2262 3756 PO
gs 1464 389 4227 4227 MR c np
gr

  18   18 2297 3757 PO
gs 1464 389 4227 4227 MR c np
gr

  18   18 2299 3760 PO
gs 1464 389 4227 4227 MR c np
gr

  18   18 2295 3763 PO
gs 1464 389 4227 4227 MR c np
gr

  18   18 2298 3768 PO
gs 1464 389 4227 4227 MR c np
gr

  18   18 2291 3770 PO
gs 1464 389 4227 4227 MR c np
gr

  18   18 2279 3775 PO
gs 1464 389 4227 4227 MR c np
gr

  18   18 2268 3775 PO
gs 1464 389 4227 4227 MR c np
gr

  18   18 2277 3780 PO
gs 1464 389 4227 4227 MR c np
gr

/c68 { 0.000000 0.000000 0.750000 sr} bdef
c68
  18   18 2269 3781 PO
gs 1464 389 4227 4227 MR c np
gr

  18   18 2266 3786 PO
gs 1464 389 4227 4227 MR c np
gr

  18   18 2246 3789 PO
gs 1464 389 4227 4227 MR c np
gr

  18   18 2276 3792 PO
gs 1464 389 4227 4227 MR c np
gr

  18   18 2255 3794 PO
gs 1464 389 4227 4227 MR c np
gr

  18   18 2248 3798 PO
gs 1464 389 4227 4227 MR c np
gr

  18   18 2240 3800 PO
gs 1464 389 4227 4227 MR c np
gr

  18   18 2242 3803 PO
gs 1464 389 4227 4227 MR c np
gr

  18   18 2263 3806 PO
gs 1464 389 4227 4227 MR c np
gr

  18   18 2242 3809 PO
gs 1464 389 4227 4227 MR c np
gr

  18   18 2250 3812 PO
gs 1464 389 4227 4227 MR c np
gr

  18   18 2236 3815 PO
gs 1464 389 4227 4227 MR c np
gr

  18   18 2246 3817 PO
gs 1464 389 4227 4227 MR c np
gr

  18   18 2242 3821 PO
gs 1464 389 4227 4227 MR c np
gr

  18   18 2224 3824 PO
gs 1464 389 4227 4227 MR c np
gr

  18   18 2228 3825 PO
gs 1464 389 4227 4227 MR c np
gr

/c69 { 0.000000 0.000000 0.687500 sr} bdef
c69
  18   18 2226 3830 PO
gs 1464 389 4227 4227 MR c np
gr

  18   18 2222 3832 PO
gs 1464 389 4227 4227 MR c np
gr

  18   18 2220 3835 PO
gs 1464 389 4227 4227 MR c np
gr

  18   18 2212 3837 PO
gs 1464 389 4227 4227 MR c np
gr

  18   18 2211 3841 PO
gs 1464 389 4227 4227 MR c np
gr

  18   18 2217 3844 PO
gs 1464 389 4227 4227 MR c np
gr

  18   18 2211 3847 PO
gs 1464 389 4227 4227 MR c np
gr

  18   18 2214 3850 PO
gs 1464 389 4227 4227 MR c np
gr

  18   18 2198 3853 PO
gs 1464 389 4227 4227 MR c np
gr

  18   18 2203 3854 PO
gs 1464 389 4227 4227 MR c np
gr

  18   18 2195 3858 PO
gs 1464 389 4227 4227 MR c np
gr

  18   18 2194 3862 PO
gs 1464 389 4227 4227 MR c np
gr

  18   18 2193 3864 PO
gs 1464 389 4227 4227 MR c np
gr

  18   18 2196 3867 PO
gs 1464 389 4227 4227 MR c np
gr

  18   18 2192 3871 PO
gs 1464 389 4227 4227 MR c np
gr

/c70 { 0.000000 0.000000 0.625000 sr} bdef
c70
  18   18 2166 3873 PO
gs 1464 389 4227 4227 MR c np
gr

  18   18 2185 3874 PO
gs 1464 389 4227 4227 MR c np
gr

  18   18 2187 3880 PO
gs 1464 389 4227 4227 MR c np
gr

  18   18 2179 3881 PO
gs 1464 389 4227 4227 MR c np
gr

  18   18 2163 3884 PO
gs 1464 389 4227 4227 MR c np
gr

  18   18 2174 3889 PO
gs 1464 389 4227 4227 MR c np
gr

  18   18 2232 3892 PO
gs 1464 389 4227 4227 MR c np
gr

  18   18 2152 3895 PO
gs 1464 389 4227 4227 MR c np
gr

  18   18 2161 3897 PO
gs 1464 389 4227 4227 MR c np
gr

  18   18 2148 3899 PO
gs 1464 389 4227 4227 MR c np
gr

  18   18 2149 3901 PO
gs 1464 389 4227 4227 MR c np
gr

  18   18 2146 3904 PO
gs 1464 389 4227 4227 MR c np
gr

  18   18 2150 3908 PO
gs 1464 389 4227 4227 MR c np
gr

  18   18 2913 3910 PO
gs 1464 389 4227 4227 MR c np
gr

  18   18 3271 3913 PO
gs 1464 389 4227 4227 MR c np
gr

  18   18 2131 3917 PO
gs 1464 389 4227 4227 MR c np
gr

/c71 { 0.000000 0.000000 0.562500 sr} bdef
c71
  18   18 2144 3921 PO
gs 1464 389 4227 4227 MR c np
gr

  18   18 2672 3922 PO
gs 1464 389 4227 4227 MR c np
gr

  18   18 2117 3926 PO
gs 1464 389 4227 4227 MR c np
gr

  18   18 2114 3927 PO
gs 1464 389 4227 4227 MR c np
gr

  18   18 2138 3931 PO
gs 1464 389 4227 4227 MR c np
gr

  18   18 2124 3936 PO
gs 1464 389 4227 4227 MR c np
gr

  18   18 2125 3938 PO
gs 1464 389 4227 4227 MR c np
gr

  18   18 2224 3940 PO
gs 1464 389 4227 4227 MR c np
gr

  18   18 2121 3944 PO
gs 1464 389 4227 4227 MR c np
gr

  18   18 2109 3947 PO
gs 1464 389 4227 4227 MR c np
gr

  18   18 2101 3946 PO
gs 1464 389 4227 4227 MR c np
gr

  18   18 2104 3953 PO
gs 1464 389 4227 4227 MR c np
gr

  18   18 2100 3954 PO
gs 1464 389 4227 4227 MR c np
gr

  18   18 2133 3957 PO
gs 1464 389 4227 4227 MR c np
gr

  18   18 2102 3961 PO
gs 1464 389 4227 4227 MR c np
gr

  18   18 2119 3963 PO
gs 1464 389 4227 4227 MR c np
gr

0 sg
3473 4903 mt 
(g\(x\)) s
1111 2606 mt  -90 rotate
(h\(y\)) s
90 rotate

end %%Color Dict

eplot
%%EndObject

epage
end

showpage

%%Trailer
%%EOF
